^K:\PROJECT\TRACKING\VEGAFEM\X64\RELEASE\CENTRALDIFFERENCESSPARSE.SBR|K:\PROJECT\TRACKING\VEGAFEM\X64\RELEASE\CGSOLVER.SBR|K:\PROJECT\TRACKING\VEGAFEM\X64\RELEASE\COROTATIONALLINEARFEM.SBR|K:\PROJECT\TRACKING\VEGAFEM\X64\RELEASE\COROTATIONALLINEARFEMFORCEMODEL.SBR|K:\PROJECT\TRACKING\VEGAFEM\X64\RELEASE\CUBICMESH.SBR|K:\PROJECT\TRACKING\VEGAFEM\X64\RELEASE\EIG3.SBR|K:\PROJECT\TRACKING\VEGAFEM\X64\RELEASE\EULERSPARSE.SBR|K:\PROJECT\TRACKING\VEGAFEM\X64\RELEASE\FORCEMODEL.SBR|K:\PROJECT\TRACKING\VEGAFEM\X64\RELEASE\GENERATEINTERPOLATIONMATRIX.SBR|K:\PROJECT\TRACKING\VEGAFEM\X64\RELEASE\GENERATEMASSMATRIX.SBR|K:\PROJECT\TRACKING\VEGAFEM\X64\RELEASE\GENERATESURFACEMESH.SBR|K:\PROJECT\TRACKING\VEGAFEM\X64\RELEASE\GETINTEGRATORSOLVER.SBR|K:\PROJECT\TRACKING\VEGAFEM\X64\RELEASE\IMPLICITBACKWARDEULERSPARSE.SBR|K:\PROJECT\TRACKING\VEGAFEM\X64\RELEASE\IMPLICITNEWMARKSPARSE.SBR|K:\PROJECT\TRACKING\VEGAFEM\X64\RELEASE\INSERTROWS.SBR|K:\PROJECT\TRACKING\VEGAFEM\X64\RELEASE\INTEGRATORBASE.SBR|K:\PROJECT\TRACKING\VEGAFEM\X64\RELEASE\INTEGRATORBASESPARSE.SBR|K:\PROJECT\TRACKING\VEGAFEM\X64\RELEASE\LINEARSOLVER.SBR|K:\PROJECT\TRACKING\VEGAFEM\X64\RELEASE\MAT3D.SBR|K:\PROJECT\TRACKING\VEGAFEM\X64\RELEASE\OBJMESH.SBR|K:\PROJECT\TRACKING\VEGAFEM\X64\RELEASE\PARDISOSOLVER.SBR|K:\PROJECT\TRACKING\VEGAFEM\X64\RELEASE\PERFORMANCECOUNTER.SBR|K:\PROJECT\TRACKING\VEGAFEM\X64\RELEASE\POLARDECOMPOSITION.SBR|K:\PROJECT\TRACKING\VEGAFEM\X64\RELEASE\SPARSEMATRIX.SBR|K:\PROJECT\TRACKING\VEGAFEM\X64\RELEASE\SPOOLESSOLVER.SBR|K:\PROJECT\TRACKING\VEGAFEM\X64\RELEASE\SPOOLESSOLVERMT.SBR|K:\PROJECT\TRACKING\VEGAFEM\X64\RELEASE\TETMESH.SBR|K:\PROJECT\TRACKING\VEGAFEM\X64\RELEASE\VOLUMETRICMESH.SBR|K:\PROJECT\TRACKING\VEGAFEM\X64\RELEASE\VOLUMETRICMESHENUMATERIAL.SBR|K:\PROJECT\TRACKING\VEGAFEM\X64\RELEASE\VOLUMETRICMESHEXTENSIONS.SBR|K:\PROJECT\TRACKING\VEGAFEM\X64\RELEASE\VOLUMETRICMESHLOADER.SBR|K:\PROJECT\TRACKING\VEGAFEM\X64\RELEASE\VOLUMETRICMESHMOONEYRIVLINMATERIAL.SBR|K:\PROJECT\TRACKING\VEGAFEM\X64\RELEASE\VOLUMETRICMESHPARSER.SBR
C:\WINDOWS\GLOBALIZATION\SORTING\SORTDEFAULT.NLS
C:\WINDOWS\SYSTEM32\TZRES.DLL
K:\PROJECT\TRACKING\VEGAFEM\X64\RELEASE\COROTATIONALLINEARFEM.SBR
K:\PROJECT\TRACKING\VEGAFEM\X64\RELEASE\COROTATIONALLINEARFEMFORCEMODEL.SBR
K:\PROJECT\TRACKING\VEGAFEM\X64\RELEASE\FORCEMODEL.SBR
K:\PROJECT\TRACKING\VEGAFEM\X64\RELEASE\INSERTROWS.SBR
K:\PROJECT\TRACKING\VEGAFEM\X64\RELEASE\CENTRALDIFFERENCESSPARSE.SBR
K:\PROJECT\TRACKING\VEGAFEM\X64\RELEASE\EULERSPARSE.SBR
K:\PROJECT\TRACKING\VEGAFEM\X64\RELEASE\GETINTEGRATORSOLVER.SBR
K:\PROJECT\TRACKING\VEGAFEM\X64\RELEASE\IMPLICITBACKWARDEULERSPARSE.SBR
K:\PROJECT\TRACKING\VEGAFEM\X64\RELEASE\IMPLICITNEWMARKSPARSE.SBR
K:\PROJECT\TRACKING\VEGAFEM\X64\RELEASE\INTEGRATORBASE.SBR
K:\PROJECT\TRACKING\VEGAFEM\X64\RELEASE\INTEGRATORBASESPARSE.SBR
K:\PROJECT\TRACKING\VEGAFEM\X64\RELEASE\EIG3.SBR
K:\PROJECT\TRACKING\VEGAFEM\X64\RELEASE\MAT3D.SBR
K:\PROJECT\TRACKING\VEGAFEM\X64\RELEASE\OBJMESH.SBR
K:\PROJECT\TRACKING\VEGAFEM\X64\RELEASE\PERFORMANCECOUNTER.SBR
K:\PROJECT\TRACKING\VEGAFEM\X64\RELEASE\POLARDECOMPOSITION.SBR
K:\PROJECT\TRACKING\VEGAFEM\X64\RELEASE\SPARSEMATRIX.SBR
K:\PROJECT\TRACKING\VEGAFEM\X64\RELEASE\CGSOLVER.SBR
K:\PROJECT\TRACKING\VEGAFEM\X64\RELEASE\LINEARSOLVER.SBR
K:\PROJECT\TRACKING\VEGAFEM\X64\RELEASE\PARDISOSOLVER.SBR
K:\PROJECT\TRACKING\VEGAFEM\X64\RELEASE\SPOOLESSOLVER.SBR
K:\PROJECT\TRACKING\VEGAFEM\X64\RELEASE\SPOOLESSOLVERMT.SBR
K:\PROJECT\TRACKING\VEGAFEM\X64\RELEASE\CUBICMESH.SBR
K:\PROJECT\TRACKING\VEGAFEM\X64\RELEASE\GENERATEINTERPOLATIONMATRIX.SBR
K:\PROJECT\TRACKING\VEGAFEM\X64\RELEASE\GENERATEMASSMATRIX.SBR
K:\PROJECT\TRACKING\VEGAFEM\X64\RELEASE\GENERATESURFACEMESH.SBR
K:\PROJECT\TRACKING\VEGAFEM\X64\RELEASE\TETMESH.SBR
K:\PROJECT\TRACKING\VEGAFEM\X64\RELEASE\VOLUMETRICMESH.SBR
K:\PROJECT\TRACKING\VEGAFEM\X64\RELEASE\VOLUMETRICMESHENUMATERIAL.SBR
K:\PROJECT\TRACKING\VEGAFEM\X64\RELEASE\VOLUMETRICMESHEXTENSIONS.SBR
K:\PROJECT\TRACKING\VEGAFEM\X64\RELEASE\VOLUMETRICMESHLOADER.SBR
K:\PROJECT\TRACKING\VEGAFEM\X64\RELEASE\VOLUMETRICMESHMOONEYRIVLINMATERIAL.SBR
K:\PROJECT\TRACKING\VEGAFEM\X64\RELEASE\VOLUMETRICMESHPARSER.SBR
