^K:\PROJECT\TRACKING\VEGAFEM\X64\RELEASE\CENTRALDIFFERENCESSPARSE.OBJ|K:\PROJECT\TRACKING\VEGAFEM\X64\RELEASE\CGSOLVER.OBJ|K:\PROJECT\TRACKING\VEGAFEM\X64\RELEASE\COROTATIONALLINEARFEM.OBJ|K:\PROJECT\TRACKING\VEGAFEM\X64\RELEASE\COROTATIONALLINEARFEMFORCEMODEL.OBJ|K:\PROJECT\TRACKING\VEGAFEM\X64\RELEASE\CUBICMESH.OBJ|K:\PROJECT\TRACKING\VEGAFEM\X64\RELEASE\EIG3.OBJ|K:\PROJECT\TRACKING\VEGAFEM\X64\RELEASE\EULERSPARSE.OBJ|K:\PROJECT\TRACKING\VEGAFEM\X64\RELEASE\FORCEMODEL.OBJ|K:\PROJECT\TRACKING\VEGAFEM\X64\RELEASE\GENERATEINTERPOLATIONMATRIX.OBJ|K:\PROJECT\TRACKING\VEGAFEM\X64\RELEASE\GENERATEMASSMATRIX.OBJ|K:\PROJECT\TRACKING\VEGAFEM\X64\RELEASE\GENERATESURFACEMESH.OBJ|K:\PROJECT\TRACKING\VEGAFEM\X64\RELEASE\GETINTEGRATORSOLVER.OBJ|K:\PROJECT\TRACKING\VEGAFEM\X64\RELEASE\IMPLICITBACKWARDEULERSPARSE.OBJ|K:\PROJECT\TRACKING\VEGAFEM\X64\RELEASE\IMPLICITNEWMARKSPARSE.OBJ|K:\PROJECT\TRACKING\VEGAFEM\X64\RELEASE\INSERTROWS.OBJ|K:\PROJECT\TRACKING\VEGAFEM\X64\RELEASE\INTEGRATORBASE.OBJ|K:\PROJECT\TRACKING\VEGAFEM\X64\RELEASE\INTEGRATORBASESPARSE.OBJ|K:\PROJECT\TRACKING\VEGAFEM\X64\RELEASE\LINEARSOLVER.OBJ|K:\PROJECT\TRACKING\VEGAFEM\X64\RELEASE\MAT3D.OBJ|K:\PROJECT\TRACKING\VEGAFEM\X64\RELEASE\OBJMESH.OBJ|K:\PROJECT\TRACKING\VEGAFEM\X64\RELEASE\PARDISOSOLVER.OBJ|K:\PROJECT\TRACKING\VEGAFEM\X64\RELEASE\PERFORMANCECOUNTER.OBJ|K:\PROJECT\TRACKING\VEGAFEM\X64\RELEASE\POLARDECOMPOSITION.OBJ|K:\PROJECT\TRACKING\VEGAFEM\X64\RELEASE\SPARSEMATRIX.OBJ|K:\PROJECT\TRACKING\VEGAFEM\X64\RELEASE\SPOOLESSOLVER.OBJ|K:\PROJECT\TRACKING\VEGAFEM\X64\RELEASE\SPOOLESSOLVERMT.OBJ|K:\PROJECT\TRACKING\VEGAFEM\X64\RELEASE\TETMESH.OBJ|K:\PROJECT\TRACKING\VEGAFEM\X64\RELEASE\VOLUMETRICMESH.OBJ|K:\PROJECT\TRACKING\VEGAFEM\X64\RELEASE\VOLUMETRICMESHENUMATERIAL.OBJ|K:\PROJECT\TRACKING\VEGAFEM\X64\RELEASE\VOLUMETRICMESHEXTENSIONS.OBJ|K:\PROJECT\TRACKING\VEGAFEM\X64\RELEASE\VOLUMETRICMESHLOADER.OBJ|K:\PROJECT\TRACKING\VEGAFEM\X64\RELEASE\VOLUMETRICMESHMOONEYRIVLINMATERIAL.OBJ|K:\PROJECT\TRACKING\VEGAFEM\X64\RELEASE\VOLUMETRICMESHPARSER.OBJ
C:\WINDOWS\GLOBALIZATION\SORTING\SORTDEFAULT.NLS
C:\WINDOWS\SYSTEM32\TZRES.DLL
K:\PROJECT\TRACKING\VEGAFEM\X64\RELEASE\COROTATIONALLINEARFEM.OBJ
K:\PROJECT\TRACKING\VEGAFEM\X64\RELEASE\COROTATIONALLINEARFEMFORCEMODEL.OBJ
K:\PROJECT\TRACKING\VEGAFEM\X64\RELEASE\FORCEMODEL.OBJ
K:\PROJECT\TRACKING\VEGAFEM\X64\RELEASE\INSERTROWS.OBJ
K:\PROJECT\TRACKING\VEGAFEM\X64\RELEASE\CENTRALDIFFERENCESSPARSE.OBJ
K:\PROJECT\TRACKING\VEGAFEM\X64\RELEASE\EULERSPARSE.OBJ
K:\PROJECT\TRACKING\VEGAFEM\X64\RELEASE\GETINTEGRATORSOLVER.OBJ
K:\PROJECT\TRACKING\VEGAFEM\X64\RELEASE\IMPLICITBACKWARDEULERSPARSE.OBJ
K:\PROJECT\TRACKING\VEGAFEM\X64\RELEASE\IMPLICITNEWMARKSPARSE.OBJ
K:\PROJECT\TRACKING\VEGAFEM\X64\RELEASE\INTEGRATORBASE.OBJ
K:\PROJECT\TRACKING\VEGAFEM\X64\RELEASE\INTEGRATORBASESPARSE.OBJ
K:\PROJECT\TRACKING\VEGAFEM\X64\RELEASE\EIG3.OBJ
K:\PROJECT\TRACKING\VEGAFEM\X64\RELEASE\MAT3D.OBJ
K:\PROJECT\TRACKING\VEGAFEM\X64\RELEASE\OBJMESH.OBJ
K:\PROJECT\TRACKING\VEGAFEM\X64\RELEASE\PERFORMANCECOUNTER.OBJ
K:\PROJECT\TRACKING\VEGAFEM\X64\RELEASE\POLARDECOMPOSITION.OBJ
K:\PROJECT\TRACKING\VEGAFEM\X64\RELEASE\SPARSEMATRIX.OBJ
K:\PROJECT\TRACKING\VEGAFEM\X64\RELEASE\CGSOLVER.OBJ
K:\PROJECT\TRACKING\VEGAFEM\X64\RELEASE\LINEARSOLVER.OBJ
K:\PROJECT\TRACKING\VEGAFEM\X64\RELEASE\PARDISOSOLVER.OBJ
K:\PROJECT\TRACKING\VEGAFEM\X64\RELEASE\SPOOLESSOLVER.OBJ
K:\PROJECT\TRACKING\VEGAFEM\X64\RELEASE\SPOOLESSOLVERMT.OBJ
K:\PROJECT\TRACKING\VEGAFEM\X64\RELEASE\CUBICMESH.OBJ
K:\PROJECT\TRACKING\VEGAFEM\X64\RELEASE\GENERATEINTERPOLATIONMATRIX.OBJ
K:\PROJECT\TRACKING\VEGAFEM\X64\RELEASE\GENERATEMASSMATRIX.OBJ
K:\PROJECT\TRACKING\VEGAFEM\X64\RELEASE\GENERATESURFACEMESH.OBJ
K:\PROJECT\TRACKING\VEGAFEM\X64\RELEASE\TETMESH.OBJ
K:\PROJECT\TRACKING\VEGAFEM\X64\RELEASE\VOLUMETRICMESH.OBJ
K:\PROJECT\TRACKING\VEGAFEM\X64\RELEASE\VOLUMETRICMESHENUMATERIAL.OBJ
K:\PROJECT\TRACKING\VEGAFEM\X64\RELEASE\VOLUMETRICMESHEXTENSIONS.OBJ
K:\PROJECT\TRACKING\VEGAFEM\X64\RELEASE\VOLUMETRICMESHLOADER.OBJ
K:\PROJECT\TRACKING\VEGAFEM\X64\RELEASE\VOLUMETRICMESHMOONEYRIVLINMATERIAL.OBJ
K:\PROJECT\TRACKING\VEGAFEM\X64\RELEASE\VOLUMETRICMESHPARSER.OBJ
