v -3.272811e-01 1.969640e-01 2.983948e-01
v -3.187300e-01 1.962920e-01 2.983948e-01
v -4.125342e-01 1.730199e-01 2.124168e-01
v -4.028349e-01 1.729945e-01 2.153262e-01
v -3.926854e-01 1.736704e-01 2.211451e-01
v -3.827767e-01 1.741196e-01 2.259941e-01
v -3.732379e-01 1.741068e-01 2.289034e-01
v -3.353179e-01 1.915095e-01 3.093965e-01
v -3.268297e-01 1.908425e-01 3.093965e-01
v -3.177656e-01 1.913581e-01 3.142455e-01
v -3.085550e-01 1.923533e-01 3.210341e-01
v -3.001505e-01 1.916930e-01 3.210341e-01
v -4.415870e-01 1.653810e-01 2.109876e-01
v -4.310255e-01 1.663175e-01 2.177631e-01
v -4.207471e-01 1.670239e-01 2.235709e-01
v -4.112665e-01 1.667836e-01 2.255066e-01
v -4.012994e-01 1.672622e-01 2.303464e-01
v -3.910729e-01 1.682250e-01 2.371219e-01
v -3.809441e-01 1.691955e-01 2.438977e-01
v -3.704613e-01 1.708953e-01 2.535771e-01
v -3.467721e-01 1.798845e-01 2.951985e-01
v -3.360907e-01 1.830827e-01 3.106856e-01
v -3.266142e-01 1.843568e-01 3.184290e-01
v -3.174806e-01 1.851531e-01 3.242367e-01
v -3.086482e-01 1.854685e-01 3.281085e-01
v -2.998718e-01 1.857883e-01 3.319803e-01
v -4.514994e-01 1.572204e-01 2.134376e-01
v -4.406852e-01 1.584436e-01 2.211663e-01
v -4.297899e-01 1.599194e-01 2.298609e-01
v -4.195781e-01 1.606718e-01 2.356576e-01
v -4.096292e-01 1.611856e-01 2.404880e-01
v -3.994060e-01 1.621960e-01 2.472505e-01
v -3.891154e-01 1.634604e-01 2.549791e-01
v -3.784623e-01 1.654736e-01 2.656062e-01
v -3.672071e-01 1.687350e-01 2.810636e-01
v -3.560311e-01 1.722618e-01 2.974870e-01
v -3.456411e-01 1.748138e-01 3.100461e-01
v -3.356929e-01 1.768824e-01 3.206729e-01
v -3.261448e-01 1.784642e-01 3.293678e-01
v -3.171871e-01 1.790559e-01 3.341983e-01
v -3.086269e-01 1.789014e-01 3.361303e-01
v -3.005038e-01 1.777450e-01 3.341983e-01
v -5.389100e-01 1.514269e-01 2.023882e-01
v -5.322315e-01 1.482433e-01 1.927459e-01
v -5.162110e-01 1.440597e-01 1.821395e-01
v -5.055405e-01 1.445507e-01 1.869607e-01
v -4.935273e-01 1.465314e-01 1.975671e-01
v -4.830383e-01 1.470367e-01 2.023882e-01
v -4.507450e-01 1.500828e-01 2.226370e-01
v -4.395745e-01 1.518639e-01 2.322793e-01
v -4.283502e-01 1.539067e-01 2.428860e-01
v -4.180255e-01 1.549566e-01 2.496354e-01
v -4.079781e-01 1.557625e-01 2.554209e-01
v -3.974968e-01 1.573319e-01 2.640989e-01
v -3.869755e-01 1.591640e-01 2.737412e-01
v -3.761179e-01 1.617674e-01 2.862762e-01
v -3.645319e-01 1.659089e-01 3.045966e-01
v -3.537898e-01 1.690531e-01 3.190601e-01
v -3.442211e-01 1.704283e-01 3.267739e-01
v -3.343717e-01 1.725791e-01 3.373804e-01
v -3.252947e-01 1.734612e-01 3.431657e-01
v -3.167684e-01 1.733230e-01 3.450941e-01
v -3.084895e-01 1.726725e-01 3.450941e-01
v -5.494832e-01 1.426781e-01 2.029394e-01
v -5.398865e-01 1.421967e-01 2.039019e-01
v -5.310952e-01 1.409606e-01 2.019771e-01
v -5.227898e-01 1.392173e-01 1.981275e-01
v -5.134290e-01 1.384818e-01 1.981275e-01
v -5.030965e-01 1.387606e-01 2.019771e-01
v -4.930558e-01 1.387895e-01 2.048641e-01
v -4.832859e-01 1.385672e-01 2.067890e-01
v -4.706581e-01 1.416648e-01 2.212246e-01
v -4.588848e-01 1.440116e-01 2.327730e-01
v -4.491512e-01 1.440648e-01 2.356602e-01
v -4.382532e-01 1.456623e-01 2.443214e-01
v -4.270929e-01 1.477847e-01 2.549075e-01
v -4.164601e-01 1.494031e-01 2.635690e-01
v -4.063133e-01 1.505144e-01 2.703056e-01
v -3.953986e-01 1.529287e-01 2.818540e-01
v -3.844852e-01 1.556157e-01 2.943650e-01
v -3.739126e-01 1.580569e-01 3.059133e-01
v -3.627466e-01 1.618147e-01 3.222738e-01
v -3.522534e-01 1.648074e-01 3.357469e-01
v -3.423704e-01 1.670301e-01 3.463331e-01
v -3.325098e-01 1.695271e-01 3.578815e-01
v -3.233137e-01 1.709859e-01 3.655806e-01
v -5.592304e-01 1.346756e-01 2.063797e-01
v -5.493547e-01 1.344585e-01 2.083006e-01
v -5.395070e-01 1.342435e-01 2.102216e-01
v -5.304804e-01 1.332548e-01 2.092612e-01
v -5.211824e-01 1.325242e-01 2.092612e-01
v -5.106321e-01 1.330924e-01 2.140638e-01
v -4.999084e-01 1.339263e-01 2.198268e-01
v -4.902142e-01 1.337235e-01 2.217479e-01
v -4.800890e-01 1.340456e-01 2.255900e-01
v -4.686845e-01 1.359437e-01 2.351951e-01
v -4.580663e-01 1.370654e-01 2.419187e-01
v -4.475458e-01 1.381948e-01 2.486424e-01
v -4.371229e-01 1.393318e-01 2.553660e-01
v -4.260196e-01 1.415331e-01 2.659317e-01
v -4.152573e-01 1.434817e-01 2.755369e-01
v -4.046346e-01 1.454414e-01 2.851421e-01
v -3.932834e-01 1.487409e-01 2.995498e-01
v -3.824749e-01 1.515242e-01 3.120366e-01
v -3.715285e-01 1.548555e-01 3.264443e-01
v -3.601807e-01 1.592730e-01 3.446940e-01
v -3.492439e-01 1.634434e-01 3.619833e-01
v -3.393908e-01 1.660224e-01 3.735097e-01
v -3.299688e-01 1.680764e-01 3.831148e-01
v -3.206865e-01 1.701413e-01 3.927200e-01
v -5.599364e-01 1.256900e-01 2.088575e-01
v -5.500597e-01 1.254863e-01 2.107747e-01
v -5.391233e-01 1.263442e-01 2.165267e-01
v -5.290655e-01 1.264125e-01 2.194026e-01
v -5.195654e-01 1.259522e-01 2.203613e-01
v -5.088243e-01 1.268255e-01 2.261134e-01
v -4.979233e-01 1.279723e-01 2.328239e-01
v -4.878308e-01 1.283241e-01 2.366585e-01
v -4.775642e-01 1.289484e-01 2.414518e-01
v -4.671443e-01 1.298468e-01 2.472038e-01
v -4.568082e-01 1.307519e-01 2.529559e-01
v -4.463469e-01 1.319333e-01 2.596664e-01
v -4.359832e-01 1.331224e-01 2.663770e-01
v -4.249368e-01 1.354027e-01 2.769224e-01
v -4.142321e-01 1.374235e-01 2.865089e-01
v -4.034858e-01 1.397274e-01 2.970543e-01
v -3.923706e-01 1.428608e-01 3.104754e-01
v -3.814508e-01 1.460097e-01 3.238968e-01
v -3.686438e-01 1.527308e-01 3.497805e-01
v -3.571330e-01 1.578366e-01 3.699125e-01
v -3.463541e-01 1.621413e-01 3.871684e-01
v -3.376372e-01 1.628874e-01 3.919617e-01
v -3.289901e-01 1.636390e-01 3.967550e-01
v -3.201621e-01 1.649487e-01 4.034656e-01
v -5.499265e-01 1.173272e-01 2.161193e-01
v -5.381906e-01 1.190418e-01 2.247304e-01
v -5.271112e-01 1.202221e-01 2.314282e-01
v -5.169050e-01 1.205920e-01 2.352553e-01
v -5.070060e-01 1.206931e-01 2.381258e-01
v -4.966600e-01 1.213451e-01 2.429098e-01
v -4.861462e-01 1.222768e-01 2.486507e-01
v -4.759468e-01 1.229402e-01 2.534347e-01
v -4.655936e-01 1.238845e-01 2.591754e-01
v -4.555407e-01 1.245595e-01 2.639594e-01
v -4.447192e-01 1.263460e-01 2.725708e-01
v -4.340233e-01 1.281423e-01 2.811819e-01
v -4.232576e-01 1.302261e-01 2.907500e-01
v -4.130086e-01 1.317646e-01 2.984044e-01
v -4.028714e-01 1.333119e-01 3.060590e-01
v -3.926712e-01 1.351471e-01 3.146701e-01
v -3.641283e-01 1.537057e-01 3.826034e-01
v -3.549825e-01 1.550378e-01 3.893010e-01
v -3.456408e-01 1.569406e-01 3.979121e-01
v -3.371238e-01 1.574433e-01 4.017395e-01
v -3.289283e-01 1.573852e-01 4.036530e-01
v -3.203833e-01 1.581786e-01 4.084370e-01
v -3.111948e-01 1.606794e-01 4.189620e-01
v -5.472706e-01 1.117083e-01 2.300471e-01
v -5.358867e-01 1.132118e-01 2.376866e-01
v -5.248804e-01 1.144452e-01 2.443713e-01
v -5.142308e-01 1.154069e-01 2.501011e-01
v -5.041690e-01 1.158152e-01 2.539208e-01
v -4.944082e-01 1.159475e-01 2.567856e-01
v -4.842130e-01 1.166451e-01 2.615604e-01
v -4.738567e-01 1.176299e-01 2.672902e-01
v -4.635840e-01 1.186212e-01 2.730199e-01
v -4.536122e-01 1.193364e-01 2.777946e-01
v -4.432901e-01 1.206235e-01 2.844793e-01
v -4.322529e-01 1.230535e-01 2.949837e-01
v -4.215656e-01 1.252112e-01 3.045332e-01
v -4.121530e-01 1.256706e-01 3.083530e-01
v -3.689392e-01 1.531491e-01 4.067128e-01
v -3.619980e-01 1.508052e-01 4.009831e-01
v -3.537386e-01 1.507556e-01 4.028928e-01
v -3.452125e-01 1.512847e-01 4.067128e-01
v -3.368827e-01 1.515294e-01 4.095776e-01
v -3.287280e-01 1.514882e-01 4.114875e-01
v -3.203486e-01 1.520287e-01 4.153072e-01
v -5.537185e-01 1.069672e-01 2.439304e-01
v -5.437606e-01 1.071043e-01 2.467897e-01
v -5.338446e-01 1.072447e-01 2.496490e-01
v -5.239705e-01 1.073885e-01 2.525084e-01
v -5.136191e-01 1.081077e-01 2.572738e-01
v -5.030849e-01 1.091191e-01 2.629924e-01
v -4.928803e-01 1.098498e-01 2.677578e-01
v -4.827453e-01 1.105861e-01 2.725233e-01
v -4.722170e-01 1.119044e-01 2.791950e-01
v -4.615618e-01 1.135193e-01 2.868197e-01
v -4.514535e-01 1.145641e-01 2.925381e-01
v -4.414290e-01 1.156156e-01 2.982567e-01
v -4.306735e-01 1.178357e-01 3.077876e-01
v -4.202544e-01 1.197757e-01 3.163656e-01
v -3.702135e-01 1.443500e-01 4.050031e-01
v -3.616296e-01 1.449017e-01 4.088156e-01
v -3.529465e-01 1.457520e-01 4.135811e-01
v -3.446290e-01 1.460180e-01 4.164404e-01
v -3.363534e-01 1.462872e-01 4.192995e-01
v -3.283874e-01 1.459678e-01 4.202527e-01
v -3.205623e-01 1.453530e-01 4.202527e-01
v -6.141828e-01 1.066332e-01 2.577693e-01
v -6.035006e-01 1.073603e-01 2.625255e-01
v -5.980545e-01 1.034861e-01 2.520618e-01
v -5.614610e-01 1.009240e-01 2.530131e-01
v -5.521054e-01 1.005022e-01 2.539643e-01
v -5.419208e-01 1.009551e-01 2.577693e-01
v -5.315179e-01 1.017041e-01 2.625255e-01
v -5.222531e-01 1.012894e-01 2.634766e-01
v -5.124820e-01 1.014615e-01 2.663303e-01
v -5.017405e-01 1.028105e-01 2.729890e-01
v -4.908507e-01 1.044612e-01 2.805989e-01
v -4.810290e-01 1.049426e-01 2.844040e-01
v -4.710311e-01 1.057235e-01 2.891601e-01
v -4.608777e-01 1.068054e-01 2.948675e-01
v -4.503718e-01 1.084862e-01 3.024773e-01
v -4.399776e-01 1.101758e-01 3.100872e-01
v -4.298993e-01 1.115769e-01 3.167459e-01
v -4.173547e-01 1.168571e-01 3.357708e-01
v -3.701377e-01 1.378971e-01 4.109185e-01
v -3.607678e-01 1.399805e-01 4.194795e-01
v -3.524557e-01 1.402673e-01 4.223333e-01
v -3.443338e-01 1.402556e-01 4.242357e-01
v -3.362399e-01 1.402462e-01 4.261382e-01
v -3.285771e-01 1.393308e-01 4.251871e-01
v -3.211552e-01 1.378078e-01 4.223333e-01
v -6.135177e-01 9.909777e-02 2.639684e-01
v -6.045127e-01 9.839019e-02 2.639684e-01
v -5.977718e-01 9.562009e-02 2.573229e-01
v -5.877689e-01 9.579428e-02 2.601710e-01
v -5.753322e-01 9.833774e-02 2.706141e-01
v -5.568292e-01 9.752400e-02 2.725130e-01
v -5.475988e-01 9.711872e-02 2.734622e-01
v -5.375376e-01 9.760845e-02 2.772599e-01
v -5.278068e-01 9.780404e-02 2.801080e-01
v -5.189207e-01 9.710580e-02 2.801080e-01
v -5.092528e-01 9.730629e-02 2.829560e-01
v -4.991196e-01 9.811037e-02 2.877029e-01
v -4.890562e-01 9.891995e-02 2.924498e-01
v -4.793021e-01 9.943381e-02 2.962475e-01
v -4.696040e-01 9.995199e-02 3.000449e-01
v -4.595103e-01 1.010793e-01 3.057413e-01
v -4.488443e-01 1.031217e-01 3.142856e-01
v -4.383039e-01 1.051741e-01 3.228302e-01
v -3.597337e-01 1.354878e-01 4.310595e-01
v -3.532044e-01 1.324142e-01 4.234644e-01
v -3.359792e-01 1.345814e-01 4.339077e-01
v -3.297081e-01 1.305679e-01 4.234644e-01
v -6.211354e-01 9.292110e-02 2.720479e-01
v -6.114967e-01 9.281735e-02 2.739429e-01
v -6.018859e-01 9.271585e-02 2.758379e-01
v -5.939227e-01 9.110960e-02 2.729954e-01
v -5.840159e-01 9.131167e-02 2.758379e-01
v -5.726010e-01 9.302944e-02 2.834181e-01
v -5.628128e-01 9.324086e-02 2.862608e-01
v -5.536585e-01 9.284839e-02 2.872083e-01
v -5.439402e-01 9.306522e-02 2.900508e-01
v -5.348278e-01 9.267608e-02 2.909984e-01
v -5.257294e-01 9.228800e-02 2.919460e-01
v -5.169130e-01 9.159524e-02 2.919460e-01
v -5.073133e-01 9.182139e-02 2.947884e-01
v -4.975014e-01 9.235779e-02 2.985786e-01
v -4.877453e-01 9.289850e-02 3.023686e-01
v -4.778048e-01 9.375161e-02 3.071063e-01
v -4.679343e-01 9.461019e-02 3.118439e-01
v -4.570023e-01 9.701959e-02 3.213191e-01
v -3.926606e-01 1.413163e-01 4.643954e-01
v -3.835841e-01 1.432178e-01 4.719756e-01
v -6.383029e-01 8.690878e-02 2.782136e-01
v -6.276060e-01 8.773631e-02 2.829420e-01
v -6.190512e-01 8.673053e-02 2.819964e-01
v -6.094673e-01 8.664468e-02 2.838878e-01
v -5.985854e-01 8.779128e-02 2.895618e-01
v -5.890852e-01 8.771200e-02 2.914531e-01
v -5.792955e-01 8.794359e-02 2.942901e-01
v -5.683055e-01 8.941530e-02 3.009098e-01
v -5.583240e-01 8.996538e-02 3.046924e-01
v -5.501775e-01 8.865805e-02 3.028010e-01
v -5.422926e-01 8.703764e-02 2.999640e-01
v -5.335182e-01 8.634818e-02 2.999640e-01
v -5.241925e-01 8.628261e-02 3.018554e-01
v -5.148948e-01 8.621929e-02 3.037468e-01
v -5.051017e-01 8.678418e-02 3.075294e-01
v -4.956190e-01 8.703992e-02 3.103665e-01
v -4.861783e-01 8.729895e-02 3.132035e-01
v -4.762980e-01 8.819062e-02 3.179318e-01
v -4.655528e-01 9.034875e-02 3.264428e-01
v -4.130053e-01 1.282547e-01 4.455972e-01
v -4.013955e-01 1.336810e-01 4.635648e-01
v -3.914429e-01 1.369023e-01 4.749129e-01
v -3.822332e-01 1.391811e-01 4.834238e-01
v -6.386199e-01 7.860552e-02 2.815333e-01
v -6.254570e-01 8.165578e-02 2.928589e-01
v -6.162667e-01 8.127406e-02 2.938028e-01
v -6.064126e-01 8.152090e-02 2.966343e-01
v -5.946083e-01 8.365677e-02 3.051285e-01
v -5.839048e-01 8.485805e-02 3.107915e-01
v -5.748752e-01 8.448888e-02 3.117352e-01
v -5.649263e-01 8.506870e-02 3.155105e-01
v -5.553375e-01 8.533638e-02 3.183420e-01
v -5.466816e-01 8.465623e-02 3.183420e-01
v -5.380258e-01 8.397608e-02 3.183420e-01
v -5.293701e-01 8.329594e-02 3.183420e-01
v -5.201620e-01 8.325316e-02 3.202296e-01
v -5.115201e-01 8.257411e-02 3.202296e-01
v -5.026161e-01 8.221481e-02 3.211733e-01
v -4.929605e-01 8.281767e-02 3.249487e-01
v -4.843536e-01 8.214137e-02 3.249487e-01
v -4.718869e-01 8.660789e-02 3.400497e-01
v -4.301239e-01 1.204280e-01 4.429253e-01
v -4.184242e-01 1.256356e-01 4.599139e-01
v -4.091091e-01 1.276267e-01 4.674644e-01
v -3.996992e-01 1.299507e-01 4.759586e-01
v -3.904150e-01 1.322846e-01 4.844531e-01
v -3.808717e-01 1.352789e-01 4.948349e-01
v -6.353316e-01 7.350397e-02 2.942686e-01
v -6.218856e-01 7.696040e-02 3.065140e-01
v -6.113927e-01 7.787172e-02 3.112239e-01
v -6.013092e-01 7.846801e-02 3.149917e-01
v -5.896190e-01 8.067378e-02 3.234692e-01
v -5.787054e-01 8.224635e-02 3.300630e-01
v -5.707566e-01 8.092741e-02 3.281790e-01
v -5.627797e-01 7.960630e-02 3.262951e-01
v -5.538612e-01 7.925271e-02 3.272371e-01
v -5.443614e-01 7.954771e-02 3.300630e-01
v -5.357754e-01 7.887305e-02 3.300630e-01
v -5.269058e-01 7.852321e-02 3.310049e-01
v -5.177735e-01 7.849993e-02 3.328888e-01
v -5.094781e-01 7.750099e-02 3.319469e-01
v -5.006434e-01 7.715390e-02 3.328888e-01
v -4.918226e-01 7.680795e-02 3.338307e-01
v -4.349226e-01 1.185086e-01 4.591111e-01
v -4.247871e-01 1.215309e-01 4.694727e-01
v -4.165717e-01 1.219268e-01 4.722985e-01
v -4.077568e-01 1.233170e-01 4.779501e-01
v -3.988187e-01 1.250448e-01 4.845438e-01
v -6.168857e-01 7.373108e-02 3.238849e-01
v -6.051139e-01 7.599147e-02 3.323459e-01
v -5.927878e-01 7.891608e-02 3.426869e-01
v -5.832794e-01 7.923072e-02 3.455072e-01
v -5.751171e-01 7.823549e-02 3.445672e-01
v -5.659838e-01 7.822566e-02 3.464474e-01
v -5.578146e-01 7.722978e-02 3.455072e-01
v -5.493264e-01 7.656280e-02 3.455072e-01
v -5.399437e-01 7.688737e-02 3.483276e-01
v -5.311852e-01 7.655307e-02 3.492677e-01
v -5.230090e-01 7.555669e-02 3.483276e-01
v -5.112154e-01 7.887707e-02 3.596087e-01
v -4.305591e-01 1.181960e-01 4.808819e-01
v -4.228477e-01 1.179440e-01 4.818219e-01
v -4.149289e-01 1.180296e-01 4.837022e-01
v -4.068237e-01 1.184545e-01 4.865224e-01
v -3.985530e-01 1.192203e-01 4.902829e-01
v -6.069059e-01 7.537696e-02 3.543318e-01
v -5.963813e-01 7.671415e-02 3.599613e-01
v -5.862811e-01 7.772403e-02 3.646525e-01
v -5.782519e-01 7.673245e-02 3.637144e-01
v -5.708620e-01 7.506968e-02 3.608997e-01
v -5.624716e-01 7.441039e-02 3.608997e-01
v -5.522053e-01 7.576785e-02 3.665290e-01
v -5.420228e-01 7.713197e-02 3.721586e-01
v -4.280602e-01 1.154288e-01 4.950687e-01
v -4.204390e-01 1.151906e-01 4.960068e-01
v -4.132755e-01 1.142671e-01 4.950687e-01
v -4.058832e-01 1.136862e-01 4.950687e-01
v -3.980750e-01 1.137941e-01 4.969452e-01
v -6.401539e-01 7.090414e-02 3.593849e-01
v -6.294797e-01 7.227027e-02 3.650034e-01
v -6.166751e-01 7.567375e-02 3.762399e-01
v -6.069342e-01 7.637827e-02 3.799856e-01
v -5.990244e-01 7.538923e-02 3.790491e-01
v -5.890122e-01 7.643986e-02 3.837311e-01
v -4.264930e-01 1.114410e-01 5.054616e-01
v -4.191635e-01 1.108650e-01 5.054616e-01
v -4.047199e-01 1.093627e-01 5.045253e-01
v -3.971750e-01 1.091373e-01 5.054616e-01
v -6.381074e-01 6.519565e-02 3.681651e-01
v -6.252198e-01 6.867391e-02 3.793795e-01
v -6.121301e-01 7.251053e-02 3.915285e-01
v -6.017597e-01 7.394109e-02 3.971355e-01
v -5.161423e-01 1.012698e-01 4.821782e-01
v -5.064775e-01 1.031301e-01 4.887199e-01
v -5.375901e-01 9.756641e-02 4.888405e-01
v -5.291225e-01 9.804409e-02 4.916385e-01
v -5.216604e-01 9.745774e-02 4.916385e-01
v -5.138840e-01 9.722767e-02 4.925711e-01
v -5.052000e-01 9.806941e-02 4.963019e-01
v -5.609629e-01 9.175519e-02 4.898992e-01
v -5.527736e-01 9.188726e-02 4.917608e-01
v -5.446122e-01 9.202159e-02 4.936226e-01
v -5.358073e-01 9.288088e-02 4.973459e-01
v -5.270583e-01 9.374454e-02 5.010690e-01
v -5.186868e-01 9.425009e-02 5.038615e-01
v -5.106720e-01 9.439594e-02 5.057233e-01
v -5.026851e-01 9.454392e-02 5.075849e-01
v -5.576018e-01 8.856452e-02 5.021094e-01
v -5.487878e-01 8.945015e-02 5.058252e-01
v -5.414025e-01 8.886984e-02 5.058252e-01
v -5.333446e-01 8.902584e-02 5.076832e-01
v -5.243271e-01 9.029008e-02 5.123281e-01
v -5.157016e-01 9.119056e-02 5.160439e-01
v -5.080778e-01 9.098607e-02 5.169729e-01
v -5.461911e-01 8.569301e-02 5.161329e-01
v -5.388686e-01 8.511763e-02 5.161329e-01
v -5.315460e-01 8.454225e-02 5.161329e-01
v -5.229044e-01 8.546851e-02 5.198413e-01
v -5.139960e-01 8.677520e-02 5.244768e-01
v -5.377022e-01 7.996233e-02 5.227062e-01
v -5.304144e-01 7.938968e-02 5.227062e-01
v -5.231269e-01 7.881705e-02 5.227062e-01
v -5.145461e-01 7.977518e-02 5.264071e-01
v -3.216178e-01 1.999894e-01 2.820867e-01
v -3.181539e-01 1.987057e-01 2.887892e-01
v -3.376158e-01 1.994036e-01 2.732549e-01
v -3.291557e-01 1.948537e-01 2.762601e-01
v -3.256917e-01 1.935701e-01 2.829626e-01
v -3.236741e-01 1.932265e-01 2.906847e-01
v -3.202165e-01 1.919452e-01 2.973750e-01
v -3.167588e-01 1.906639e-01 3.040653e-01
v -3.133011e-01 1.893825e-01 3.107556e-01
v -3.091076e-01 1.876264e-01 3.169607e-01
v -3.056468e-01 1.863439e-01 3.236571e-01
v -3.036705e-01 1.860158e-01 3.312995e-01
v -3.338534e-01 1.878282e-01 2.683239e-01
v -3.325162e-01 1.879607e-01 2.766148e-01
v -3.304819e-01 1.876255e-01 2.843538e-01
v -3.284601e-01 1.872950e-01 2.920682e-01
v -3.264510e-01 1.869692e-01 2.997581e-01
v -3.244545e-01 1.866480e-01 3.074234e-01
v -3.210126e-01 1.853725e-01 3.140830e-01
v -3.161066e-01 1.831358e-01 3.197737e-01
v -3.119230e-01 1.813760e-01 3.259672e-01
v -2.996090e-01 1.743005e-01 3.269787e-01
v -3.020535e-01 1.768812e-01 3.374590e-01
v -3.343876e-01 1.779020e-01 2.571488e-01
v -3.365295e-01 1.804286e-01 2.681499e-01
v -3.365938e-01 1.815355e-01 2.774916e-01
v -3.352645e-01 1.816927e-01 2.857432e-01
v -3.346702e-01 1.823389e-01 2.944664e-01
v -3.333820e-01 1.825113e-01 3.026383e-01
v -3.306686e-01 1.817224e-01 3.097815e-01
v -3.279618e-01 1.809360e-01 3.169127e-01
v -3.245327e-01 1.796652e-01 3.235477e-01
v -3.196401e-01 1.774189e-01 3.292277e-01
v -3.140003e-01 1.746790e-01 3.344609e-01
v -3.083413e-01 1.719321e-01 3.397308e-01
v -3.057824e-01 1.761824e-01 3.901192e-01
v -3.046845e-01 1.764254e-01 3.979233e-01
v -3.392370e-01 1.707731e-01 2.490954e-01
v -3.399124e-01 1.723665e-01 2.590998e-01
v -3.420309e-01 1.749425e-01 2.700823e-01
v -3.420829e-01 1.760811e-01 2.794077e-01
v -3.414577e-01 1.767449e-01 2.881583e-01
v -3.408578e-01 1.774180e-01 2.968597e-01
v -3.395681e-01 1.776116e-01 3.050108e-01
v -3.368605e-01 1.768322e-01 3.121350e-01
v -3.341593e-01 1.760550e-01 3.192468e-01
v -3.314644e-01 1.752802e-01 3.263464e-01
v -3.273201e-01 1.735205e-01 3.324802e-01
v -3.224382e-01 1.712636e-01 3.381556e-01
v -3.182780e-01 1.694982e-01 3.443202e-01
v -3.148489e-01 1.682274e-01 3.509553e-01
v -3.143821e-01 1.689498e-01 3.593992e-01
v -3.139408e-01 1.696818e-01 3.677941e-01
v -3.135248e-01 1.704231e-01 3.761399e-01
v -3.131340e-01 1.711737e-01 3.844366e-01
v -3.127688e-01 1.719338e-01 3.926844e-01
v -3.496562e-01 1.674991e-01 2.453464e-01
v -3.482253e-01 1.676622e-01 2.537465e-01
v -3.482048e-01 1.688102e-01 2.631720e-01
v -3.489149e-01 1.704601e-01 2.730615e-01
v -3.489610e-01 1.716327e-01 2.823584e-01
v -3.483336e-01 1.723247e-01 2.910811e-01
v -3.477315e-01 1.730260e-01 2.997549e-01
v -3.464433e-01 1.732420e-01 3.078791e-01
v -3.437446e-01 1.724730e-01 3.149779e-01
v -3.417703e-01 1.722036e-01 3.225526e-01
v -3.383665e-01 1.709423e-01 3.291386e-01
v -3.349627e-01 1.696809e-01 3.357247e-01
v -3.315589e-01 1.684195e-01 3.423107e-01
v -3.281552e-01 1.671582e-01 3.488968e-01
v -3.262188e-01 1.669028e-01 3.563979e-01
v -3.250320e-01 1.671563e-01 3.643258e-01
v -3.238641e-01 1.674169e-01 3.722170e-01
v -3.219722e-01 1.671780e-01 3.796324e-01
v -3.208391e-01 1.674515e-01 3.874560e-01
v -3.189757e-01 1.672232e-01 3.948161e-01
v -3.171249e-01 1.669996e-01 4.021517e-01
v -3.786914e-01 1.728505e-01 2.185973e-01
v -3.738721e-01 1.705878e-01 2.241841e-01
v -3.676878e-01 1.673426e-01 2.286733e-01
v -3.628367e-01 1.650681e-01 2.343213e-01
v -3.607028e-01 1.647541e-01 2.421888e-01
v -3.599527e-01 1.654295e-01 2.511169e-01
v -3.592279e-01 1.661144e-01 2.599958e-01
v -3.571447e-01 1.658192e-01 2.677652e-01
v -3.571595e-01 1.670165e-01 2.770826e-01
v -3.565075e-01 1.677284e-01 2.858206e-01
v -3.558811e-01 1.684498e-01 2.945095e-01
v -3.552800e-01 1.691805e-01 3.031495e-01
v -3.539964e-01 1.694200e-01 3.112406e-01
v -3.513099e-01 1.686627e-01 3.183078e-01
v -3.486298e-01 1.679079e-01 3.253630e-01
v -3.459560e-01 1.671555e-01 3.324057e-01
v -3.432884e-01 1.664053e-01 3.394362e-01
v -3.399037e-01 1.651509e-01 3.459854e-01
v -3.365189e-01 1.638966e-01 3.525346e-01
v -3.345941e-01 1.636601e-01 3.599973e-01
v -3.334151e-01 1.639383e-01 3.678862e-01
v -3.322551e-01 1.642235e-01 3.757382e-01
v -3.303747e-01 1.640034e-01 3.831150e-01
v -3.285070e-01 1.637881e-01 3.904675e-01
v -3.259060e-01 1.630625e-01 3.973691e-01
v -3.233116e-01 1.623395e-01 4.042586e-01
v -3.192189e-01 1.605844e-01 4.103082e-01
v -3.140488e-01 1.591452e-01 4.240503e-01
v -4.105470e-01 1.806348e-01 1.955208e-01
v -4.058175e-01 1.783908e-01 2.009497e-01
v -4.010752e-01 1.761422e-01 2.064030e-01
v -3.956608e-01 1.733988e-01 2.112963e-01
v -3.908900e-01 1.711396e-01 2.168048e-01
v -3.867727e-01 1.693682e-01 2.229104e-01
v -3.813106e-01 1.666072e-01 2.278956e-01
v -3.758294e-01 1.638391e-01 2.329175e-01
v -3.723559e-01 1.625518e-01 2.396385e-01
v -3.709186e-01 1.627561e-01 2.480033e-01
v -3.701821e-01 1.634657e-01 2.568729e-01
v -3.681009e-01 1.631857e-01 2.646223e-01
v -3.660323e-01 1.629104e-01 2.723471e-01
v -3.646679e-01 1.631416e-01 2.805708e-01
v -3.640169e-01 1.638829e-01 2.892749e-01
v -3.633914e-01 1.646336e-01 2.979300e-01
v -3.627912e-01 1.653937e-01 3.065360e-01
v -3.601042e-01 1.646436e-01 3.135963e-01
v -3.574234e-01 1.638957e-01 3.206444e-01
v -3.547491e-01 1.631503e-01 3.276804e-01
v -3.527947e-01 1.629173e-01 3.351843e-01
v -3.508528e-01 1.626889e-01 3.426639e-01
v -3.482039e-01 1.619529e-01 3.496507e-01
v -3.448381e-01 1.607057e-01 3.561631e-01
v -3.429248e-01 1.604878e-01 3.635873e-01
v -3.410243e-01 1.602748e-01 3.709871e-01
v -3.398689e-01 1.605835e-01 3.788061e-01
v -3.379969e-01 1.603810e-01 3.861507e-01
v -3.361376e-01 1.601833e-01 3.934708e-01
v -3.335487e-01 1.594695e-01 4.003410e-01
v -3.287305e-01 1.571928e-01 4.059416e-01
v -3.246480e-01 1.554342e-01 4.119797e-01
v -3.205592e-01 1.536734e-01 4.180301e-01
v -3.179735e-01 1.529608e-01 4.248943e-01
v -4.231415e-01 1.794904e-01 1.946311e-01
v -4.171582e-01 1.762615e-01 1.987955e-01
v -4.124487e-01 1.740105e-01 2.042015e-01
v -4.083796e-01 1.722497e-01 2.102220e-01
v -4.043040e-01 1.704865e-01 2.162548e-01
v -3.995629e-01 1.682238e-01 2.217222e-01
v -3.954714e-01 1.664546e-01 2.277855e-01
v -3.913736e-01 1.646832e-01 2.338612e-01
v -3.866008e-01 1.624088e-01 2.393898e-01
v -3.838309e-01 1.616352e-01 2.466027e-01
v -3.810672e-01 1.608639e-01 2.538033e-01
v -3.789881e-01 1.605992e-01 2.615327e-01
v -3.762402e-01 1.598337e-01 2.687026e-01
v -3.741833e-01 1.595773e-01 2.763890e-01
v -3.721391e-01 1.593255e-01 2.840509e-01
v -3.707982e-01 1.595872e-01 2.922047e-01
v -3.694763e-01 1.598560e-01 3.003217e-01
v -3.681736e-01 1.601319e-01 3.084019e-01
v -3.654892e-01 1.593900e-01 3.154492e-01
v -3.635147e-01 1.591640e-01 3.229762e-01
v -3.615526e-01 1.589427e-01 3.304786e-01
v -3.603132e-01 1.592420e-01 3.384361e-01
v -3.583799e-01 1.590313e-01 3.458834e-01
v -3.564593e-01 1.588254e-01 3.533062e-01
v -3.531125e-01 1.575851e-01 3.597818e-01
v -3.504883e-01 1.568655e-01 3.667126e-01
v -3.493218e-01 1.571919e-01 3.745291e-01
v -3.481743e-01 1.575253e-01 3.823089e-01
v -3.455817e-01 1.568174e-01 3.891783e-01
v -3.437308e-01 1.566373e-01 3.964661e-01
v -3.404158e-01 1.554088e-01 4.028805e-01
v -3.348761e-01 1.525973e-01 4.080398e-01
v -3.300622e-01 1.503076e-01 4.136481e-01
v -3.252355e-01 1.480131e-01 4.192809e-01
v -3.196452e-01 1.451828e-01 4.245383e-01
v -4.396309e-01 1.801655e-01 1.879217e-01
v -4.349892e-01 1.779252e-01 1.932128e-01
v -4.296952e-01 1.751829e-01 1.979207e-01
v -4.237396e-01 1.719353e-01 2.020640e-01
v -4.190504e-01 1.696773e-01 2.074470e-01
v -4.149975e-01 1.679153e-01 2.134437e-01
v -4.109382e-01 1.661509e-01 2.194528e-01
v -4.068728e-01 1.643842e-01 2.254742e-01
v -4.034595e-01 1.631193e-01 2.320786e-01
v -4.000462e-01 1.618544e-01 2.386830e-01
v -3.953031e-01 1.595764e-01 2.441703e-01
v -3.912154e-01 1.578015e-01 2.502345e-01
v -3.884638e-01 1.570419e-01 2.574037e-01
v -3.863931e-01 1.567948e-01 2.651007e-01
v -3.836573e-01 1.560411e-01 2.722392e-01
v -3.816088e-01 1.558023e-01 2.798934e-01
v -3.802567e-01 1.560816e-01 2.880447e-01
v -3.775496e-01 1.553385e-01 2.951281e-01
v -3.748488e-01 1.545978e-01 3.021991e-01
v -3.728477e-01 1.543765e-01 3.097613e-01
v -3.708593e-01 1.541600e-01 3.172989e-01
v -3.695834e-01 1.544675e-01 3.253032e-01
v -3.683266e-01 1.547821e-01 3.332706e-01
v -3.670886e-01 1.551038e-01 3.412012e-01
v -3.651605e-01 1.549096e-01 3.486223e-01
v -3.625325e-01 1.541958e-01 3.555522e-01
v -3.599110e-01 1.534844e-01 3.624700e-01
v -3.587332e-01 1.538284e-01 3.702842e-01
v -3.568527e-01 1.536518e-01 3.776133e-01
v -3.549846e-01 1.534798e-01 3.849179e-01
v -3.524011e-01 1.527825e-01 3.917620e-01
v -3.505554e-01 1.526188e-01 3.990237e-01
v -3.472530e-01 1.513950e-01 4.054135e-01
v -3.417371e-01 1.485705e-01 4.105507e-01
v -3.362023e-01 1.457390e-01 4.157246e-01
v -3.313926e-01 1.434364e-01 4.213406e-01
v -3.258230e-01 1.405920e-01 4.265821e-01
v -3.202344e-01 1.377406e-01 4.318603e-01
v -4.423340e-01 1.729211e-01 1.875355e-01
v -4.389587e-01 1.716703e-01 1.940664e-01
v -4.349475e-01 1.699164e-01 1.999903e-01
v -4.309302e-01 1.681603e-01 2.059267e-01
v -4.256221e-01 1.653911e-01 2.106861e-01
v -4.202949e-01 1.626147e-01 2.154821e-01
v -4.168942e-01 1.613545e-01 2.220620e-01
v -4.134936e-01 1.600943e-01 2.286420e-01
v -4.107479e-01 1.593442e-01 2.357920e-01
v -4.073505e-01 1.580852e-01 2.423658e-01
v -4.019695e-01 1.552889e-01 2.472662e-01
v -3.978981e-01 1.535127e-01 2.533066e-01
v -3.958231e-01 1.532786e-01 2.609960e-01
v -3.937607e-01 1.530491e-01 2.686608e-01
v -3.910371e-01 1.523072e-01 2.757678e-01
v -3.889970e-01 1.520859e-01 2.833897e-01
v -3.862891e-01 1.513498e-01 2.904660e-01
v -3.835878e-01 1.506162e-01 2.975302e-01
v -3.808927e-01 1.498848e-01 3.045819e-01
v -3.795834e-01 1.502018e-01 3.126268e-01
v -3.776003e-01 1.500016e-01 3.201382e-01
v -3.763258e-01 1.503315e-01 3.281155e-01
v -3.743713e-01 1.501420e-01 3.355719e-01
v -3.724294e-01 1.499572e-01 3.430036e-01
v -3.705000e-01 1.497770e-01 3.504109e-01
v -3.685833e-01 1.496014e-01 3.577935e-01
v -3.659676e-01 1.488995e-01 3.646922e-01
v -3.647883e-01 1.492647e-01 3.724855e-01
v -3.636279e-01 1.496368e-01 3.802419e-01
v -3.617653e-01 1.494813e-01 3.875205e-01
v -3.606397e-01 1.498663e-01 3.952095e-01
v -3.573500e-01 1.486472e-01 4.015748e-01
v -3.540603e-01 1.474282e-01 4.079401e-01
v -3.493025e-01 1.451302e-01 4.134719e-01
v -3.452693e-01 1.433683e-01 4.194389e-01
v -3.404892e-01 1.410620e-01 4.250136e-01
v -3.342093e-01 1.376653e-01 4.298161e-01
v -3.286507e-01 1.348032e-01 4.350598e-01
v -3.275729e-01 1.352060e-01 4.426571e-01
v -4.471883e-01 1.658955e-01 1.793605e-01
v -4.469292e-01 1.671728e-01 1.890074e-01
v -4.435571e-01 1.659231e-01 1.955322e-01
v -4.401850e-01 1.646735e-01 2.020569e-01
v -4.361777e-01 1.629138e-01 2.079816e-01
v -4.321639e-01 1.611517e-01 2.139186e-01
v -4.275022e-01 1.588749e-01 2.192802e-01
v -4.241175e-01 1.576206e-01 2.258295e-01
v -4.213807e-01 1.568810e-01 2.329543e-01
v -4.179991e-01 1.556279e-01 2.394973e-01
v -4.139631e-01 1.538576e-01 2.454773e-01
v -4.099210e-01 1.520851e-01 2.514696e-01
v -4.065331e-01 1.508295e-01 2.580250e-01
v -4.038088e-01 1.500946e-01 2.651250e-01
v -4.004240e-01 1.488403e-01 2.716742e-01
v -3.977095e-01 1.481090e-01 2.787560e-01
v -3.950012e-01 1.473800e-01 2.858253e-01
v -3.922993e-01 1.466534e-01 2.928826e-01
v -3.896037e-01 1.459291e-01 2.999275e-01
v -3.869143e-01 1.452071e-01 3.069601e-01
v -3.856034e-01 1.455452e-01 3.149840e-01
v -3.843115e-01 1.458905e-01 3.229712e-01
v -3.830386e-01 1.462426e-01 3.309215e-01
v -3.810892e-01 1.460695e-01 3.383518e-01
v -3.784538e-01 1.453675e-01 3.452801e-01
v -3.765266e-01 1.452026e-01 3.526674e-01
v -3.746120e-01 1.450424e-01 3.600301e-01
v -3.720020e-01 1.443498e-01 3.669094e-01
v -3.708209e-01 1.447361e-01 3.746820e-01
v -3.696589e-01 1.451294e-01 3.824177e-01
v -3.692337e-01 1.460704e-01 3.905572e-01
v -3.673920e-01 1.459372e-01 3.977788e-01
v -3.648390e-01 1.452658e-01 4.045478e-01
v -3.615652e-01 1.440526e-01 4.108824e-01
v -3.582913e-01 1.428393e-01 4.172170e-01
v -3.542839e-01 1.410797e-01 4.231418e-01
v -3.502702e-01 1.393176e-01 4.290789e-01
v -3.455103e-01 1.370044e-01 4.346306e-01
v -3.422238e-01 1.357865e-01 4.409898e-01
v -3.411759e-01 1.362221e-01 4.485048e-01
v -4.499349e-01 1.585946e-01 1.789699e-01
v -4.502729e-01 1.604113e-01 1.892426e-01
v -4.481480e-01 1.601876e-01 1.969962e-01
v -4.447791e-01 1.589391e-01 2.035148e-01
v -4.414102e-01 1.576907e-01 2.100333e-01
v -4.374066e-01 1.559252e-01 2.159590e-01
v -4.340346e-01 1.546756e-01 2.224837e-01
v -4.306624e-01 1.534259e-01 2.290084e-01
v -4.272903e-01 1.521763e-01 2.355332e-01
v -4.239183e-01 1.509267e-01 2.420579e-01
v -4.198956e-01 1.491541e-01 2.480202e-01
v -4.158665e-01 1.473790e-01 2.539948e-01
v -4.124881e-01 1.461270e-01 2.605318e-01
v -4.091097e-01 1.448751e-01 2.670688e-01
v -4.057312e-01 1.436231e-01 2.736057e-01
v -4.030193e-01 1.429001e-01 2.806745e-01
v -4.009831e-01 1.427093e-01 2.882563e-01
v -3.982870e-01 1.419921e-01 2.952943e-01
v -3.955971e-01 1.412771e-01 3.023200e-01
v -3.929136e-01 1.405645e-01 3.093333e-01
v -3.902366e-01 1.398544e-01 3.163346e-01
v -3.889366e-01 1.402184e-01 3.243132e-01
v -3.883443e-01 1.411264e-01 3.327437e-01
v -3.870855e-01 1.415057e-01 3.406427e-01
v -3.851509e-01 1.413525e-01 3.480283e-01
v -3.832287e-01 1.412040e-01 3.553894e-01
v -3.813195e-01 1.410603e-01 3.627260e-01
v -3.787185e-01 1.403783e-01 3.695800e-01
v -3.775389e-01 1.407869e-01 3.773256e-01
v -3.770891e-01 1.417478e-01 3.854802e-01
v -3.759508e-01 1.421716e-01 3.931460e-01
v -3.741144e-01 1.420549e-01 4.003416e-01
v -3.722907e-01 1.419429e-01 4.075127e-01
v -3.697561e-01 1.412855e-01 4.142378e-01
v -3.672280e-01 1.406305e-01 4.209508e-01
v -3.632464e-01 1.388732e-01 4.268335e-01
v -3.592587e-01 1.371135e-01 4.327285e-01
v -3.560007e-01 1.359062e-01 4.390324e-01
v -3.556999e-01 1.369223e-01 4.468988e-01
v -3.539396e-01 1.368337e-01 4.539471e-01
v -4.530371e-01 1.499507e-01 1.688579e-01
v -4.551570e-01 1.533387e-01 1.810740e-01
v -4.542424e-01 1.541564e-01 1.900961e-01
v -4.521100e-01 1.539445e-01 1.978481e-01
v -4.487411e-01 1.526960e-01 2.043667e-01
v -4.460001e-01 1.519694e-01 2.114836e-01
v -4.426343e-01 1.507222e-01 2.179961e-01
v -4.392686e-01 1.494749e-01 2.245085e-01
v -4.365401e-01 1.487529e-01 2.316008e-01
v -4.331775e-01 1.475068e-01 2.381071e-01
v -4.291713e-01 1.457330e-01 2.440459e-01
v -4.258056e-01 1.444858e-01 2.505584e-01
v -4.217897e-01 1.427084e-01 2.565153e-01
v -4.177677e-01 1.409288e-01 2.624847e-01
v -4.137393e-01 1.391468e-01 2.684663e-01
v -4.103640e-01 1.378960e-01 2.749972e-01
v -4.076515e-01 1.371799e-01 2.820589e-01
v -4.062769e-01 1.375379e-01 2.901576e-01
v -4.042524e-01 1.373660e-01 2.977012e-01
v -4.022405e-01 1.371988e-01 3.052202e-01
v -3.988906e-01 1.359574e-01 3.117019e-01
v -3.955407e-01 1.347160e-01 3.181837e-01
v -3.935541e-01 1.345581e-01 3.256535e-01
v -3.929502e-01 1.354909e-01 3.340748e-01
v -3.923714e-01 1.364330e-01 3.424470e-01
v -3.904356e-01 1.362939e-01 3.498187e-01
v -3.892069e-01 1.367061e-01 3.576355e-01
v -3.872995e-01 1.365775e-01 3.649521e-01
v -3.854050e-01 1.364538e-01 3.722441e-01
v -3.849309e-01 1.374347e-01 3.804140e-01
v -3.837751e-01 1.378739e-01 3.880897e-01
v -3.819280e-01 1.377677e-01 3.952898e-01
v -3.815204e-01 1.387732e-01 4.033307e-01
v -3.804216e-01 1.392335e-01 4.108961e-01
v -3.771826e-01 1.380332e-01 4.171633e-01
v -3.746665e-01 1.373899e-01 4.238448e-01
v -3.728828e-01 1.373072e-01 4.309222e-01
v -3.696533e-01 1.361104e-01 4.371710e-01
v -3.678888e-01 1.360348e-01 4.442116e-01
v -3.690791e-01 1.382109e-01 4.527870e-01
v -3.710462e-01 1.409639e-01 4.616724e-01
v -3.782511e-01 1.476820e-01 4.731148e-01
v -3.795841e-01 1.499109e-01 4.814141e-01
v -4.607046e-01 1.467504e-01 1.734909e-01
v -4.603642e-01 1.481063e-01 1.831748e-01
v -4.588264e-01 1.484257e-01 1.915656e-01
v -4.560720e-01 1.477013e-01 1.987000e-01
v -4.533240e-01 1.469794e-01 2.058223e-01
v -4.512064e-01 1.467875e-01 2.135297e-01
v -4.484744e-01 1.460715e-01 2.206213e-01
v -4.457486e-01 1.453577e-01 2.277005e-01
v -4.430291e-01 1.446464e-01 2.347676e-01
v -4.390424e-01 1.428725e-01 2.406764e-01
v -4.356893e-01 1.416299e-01 2.471642e-01
v -4.323362e-01 1.403874e-01 2.536522e-01
v -4.283370e-01 1.386089e-01 2.595856e-01
v -4.236818e-01 1.362910e-01 2.649827e-01
v -4.209717e-01 1.355831e-01 2.720314e-01
v -4.176123e-01 1.343382e-01 2.785315e-01
v -4.142529e-01 1.330932e-01 2.850317e-01
v -4.115558e-01 1.323902e-01 2.920559e-01
v -4.095301e-01 1.322323e-01 2.995855e-01
v -4.068487e-01 1.315350e-01 3.065789e-01
v -4.041734e-01 1.308400e-01 3.135600e-01
v -4.015048e-01 1.301475e-01 3.205290e-01
v -3.988423e-01 1.294572e-01 3.274856e-01
v -3.975485e-01 1.298670e-01 3.354042e-01
v -3.976423e-01 1.313838e-01 3.442481e-01
v -3.963930e-01 1.318101e-01 3.520808e-01
v -3.944718e-01 1.316909e-01 3.594081e-01
v -3.932574e-01 1.321301e-01 3.671734e-01
v -3.913648e-01 1.320216e-01 3.744454e-01
v -3.908853e-01 1.330295e-01 3.825936e-01
v -3.904310e-01 1.340468e-01 3.906927e-01
v -3.892958e-01 1.345153e-01 3.983048e-01
v -3.888890e-01 1.355502e-01 4.063119e-01
v -3.877950e-01 1.360340e-01 4.138442e-01
v -3.860038e-01 1.359630e-01 4.209200e-01
v -3.835062e-01 1.353339e-01 4.275578e-01
v -3.817373e-01 1.352711e-01 4.345907e-01
v -3.807065e-01 1.357784e-01 4.420004e-01
v -3.804236e-01 1.368592e-01 4.497683e-01
v -3.816295e-01 1.390845e-01 4.582653e-01
v -3.828736e-01 1.413240e-01 4.666886e-01
v -3.841556e-01 1.435775e-01 4.750384e-01
v -3.832517e-01 1.441318e-01 4.822028e-01
v -3.778995e-01 1.412591e-01 4.871435e-01
v -4.671181e-01 1.425651e-01 1.768594e-01
v -4.655565e-01 1.428974e-01 1.852724e-01
v -4.634029e-01 1.427066e-01 1.930334e-01
v -4.600340e-01 1.414582e-01 1.995520e-01
v -4.591340e-01 1.423393e-01 2.084820e-01
v -4.576388e-01 1.426962e-01 2.167661e-01
v -4.555393e-01 1.425255e-01 2.244229e-01
v -4.528254e-01 1.418235e-01 2.314707e-01
v -4.494882e-01 1.405867e-01 2.379279e-01
v -4.455180e-01 1.388118e-01 2.438130e-01
v -4.421776e-01 1.375739e-01 2.502764e-01
v -4.388372e-01 1.363361e-01 2.567398e-01
v -4.342117e-01 1.340146e-01 2.620956e-01
v -4.302192e-01 1.322315e-01 2.680237e-01
v -4.268693e-01 1.309901e-01 2.745055e-01
v -4.241715e-01 1.302939e-01 2.815226e-01
v -4.201695e-01 1.285072e-01 2.874690e-01
v -4.174780e-01 1.278135e-01 2.944739e-01
v -4.147927e-01 1.271220e-01 3.014665e-01
v -4.114492e-01 1.258829e-01 3.079361e-01
v -4.087737e-01 1.251951e-01 3.149103e-01
v -4.067754e-01 1.250619e-01 3.223709e-01
v -4.041156e-01 1.243800e-01 3.293144e-01
v -4.028169e-01 1.248096e-01 3.372183e-01
v -4.028984e-01 1.263581e-01 3.460460e-01
v -4.016442e-01 1.268043e-01 3.538640e-01
v -4.010960e-01 1.278158e-01 3.621133e-01
v -3.998829e-01 1.282773e-01 3.698517e-01
v -3.973022e-01 1.276245e-01 3.766419e-01
v -3.968173e-01 1.286596e-01 3.847685e-01
v -3.970574e-01 1.302668e-01 3.932894e-01
v -3.966262e-01 1.313217e-01 4.013118e-01
v -3.962205e-01 1.323859e-01 4.092850e-01
v -3.951311e-01 1.328932e-01 4.167842e-01
v -3.933484e-01 1.328399e-01 4.238278e-01
v -3.930092e-01 1.339289e-01 4.316723e-01
v -3.926954e-01 1.350272e-01 4.394678e-01
v -3.916851e-01 1.355638e-01 4.468137e-01
v -3.906939e-01 1.361075e-01 4.541228e-01
v -3.904498e-01 1.372316e-01 4.617834e-01
v -3.902311e-01 1.383653e-01 4.693948e-01
v -3.893033e-01 1.389324e-01 4.765813e-01
v -3.861815e-01 1.377756e-01 4.826216e-01
v -3.823190e-01 1.360405e-01 4.882982e-01
v -3.791941e-01 1.348825e-01 4.943445e-01
v -4.756788e-01 1.386117e-01 1.724315e-01
v -4.729013e-01 1.378934e-01 1.795951e-01
v -4.707338e-01 1.377119e-01 1.873668e-01
v -4.685792e-01 1.375353e-01 1.951139e-01
v -4.664373e-01 1.373634e-01 2.028366e-01
v -4.649215e-01 1.377344e-01 2.111368e-01
v -4.634246e-01 1.381125e-01 2.194000e-01
v -4.613271e-01 1.379570e-01 2.270369e-01
v -4.579962e-01 1.367227e-01 2.334819e-01
v -4.552914e-01 1.360312e-01 2.405043e-01
v -4.519636e-01 1.347980e-01 2.469432e-01
v -4.480035e-01 1.330196e-01 2.528169e-01
v -4.440370e-01 1.312387e-01 2.587027e-01
v -4.394253e-01 1.289079e-01 2.640479e-01
v -4.354428e-01 1.271211e-01 2.699644e-01
v -4.320992e-01 1.258821e-01 2.764340e-01
v -4.294041e-01 1.251943e-01 2.834380e-01
v -4.254121e-01 1.234039e-01 2.893730e-01
v -4.227233e-01 1.227185e-01 2.963648e-01
v -4.193829e-01 1.214806e-01 3.028282e-01
v -4.160425e-01 1.202427e-01 3.092916e-01
v -4.140305e-01 1.201189e-01 3.167628e-01
v -4.126984e-01 1.205581e-01 3.247074e-01
v -4.107149e-01 1.204448e-01 3.321234e-01
v -4.087440e-01 1.203363e-01 3.395148e-01
v -4.074628e-01 1.207942e-01 3.473613e-01
v -4.068805e-01 1.218221e-01 3.556440e-01
v -4.070068e-01 1.234235e-01 3.643449e-01
v -4.051058e-01 1.233409e-01 3.716015e-01
v -4.032173e-01 1.232629e-01 3.788336e-01
v -4.034197e-01 1.248924e-01 3.873873e-01
v -4.036537e-01 1.265337e-01 3.958797e-01
v -4.032204e-01 1.276168e-01 4.038742e-01
v -4.028124e-01 1.287093e-01 4.118198e-01
v -4.017246e-01 1.292389e-01 4.192921e-01
v -4.006556e-01 1.297755e-01 4.267276e-01
v -4.010291e-01 1.314685e-01 4.349502e-01
v -4.014342e-01 1.331732e-01 4.431115e-01
v -4.004350e-01 1.337357e-01 4.504120e-01
v -3.987336e-01 1.337270e-01 4.572822e-01
v -3.977692e-01 1.343024e-01 4.645154e-01
v -3.960963e-01 1.343042e-01 4.713304e-01
v -3.937053e-01 1.337291e-01 4.777459e-01
v -3.898528e-01 1.319905e-01 4.834110e-01
v -3.852569e-01 1.296656e-01 4.887255e-01
v -3.821289e-01 1.285064e-01 4.947780e-01
v -3.812311e-01 1.291064e-01 5.018824e-01
v -4.848026e-01 1.352142e-01 1.686629e-01
v -4.826215e-01 1.350423e-01 1.764453e-01
v -4.792590e-01 1.337961e-01 1.829516e-01
v -4.770969e-01 1.336313e-01 1.906973e-01
v -4.755509e-01 1.340129e-01 1.990317e-01
v -4.740238e-01 1.344015e-01 2.073295e-01
v -4.719062e-01 1.342531e-01 2.149892e-01
v -4.698011e-01 1.341093e-01 2.226244e-01
v -4.670926e-01 1.334237e-01 2.296460e-01
v -4.631520e-01 1.316453e-01 2.354899e-01
v -4.610723e-01 1.315109e-01 2.430760e-01
v -4.583796e-01 1.308313e-01 2.500671e-01
v -4.550646e-01 1.296028e-01 2.564813e-01
v -4.504857e-01 1.272695e-01 2.617791e-01
v -4.452591e-01 1.243782e-01 2.665492e-01
v -4.412899e-01 1.225891e-01 2.724481e-01
v -4.379558e-01 1.213536e-01 2.788993e-01
v -4.346218e-01 1.201181e-01 2.853504e-01
v -4.312877e-01 1.188825e-01 2.918015e-01
v -4.273026e-01 1.170875e-01 2.977310e-01
v -4.246196e-01 1.164115e-01 3.047037e-01
v -4.219428e-01 1.157377e-01 3.116642e-01
v -4.199328e-01 1.156291e-01 3.191153e-01
v -4.185992e-01 1.160894e-01 3.270390e-01
v -4.172845e-01 1.165567e-01 3.349258e-01
v -4.146489e-01 1.158982e-01 3.418065e-01
v -4.126927e-01 1.158096e-01 3.491535e-01
v -4.121021e-01 1.168634e-01 3.574209e-01
v -4.122160e-01 1.184965e-01 3.661055e-01
v -4.109964e-01 1.189991e-01 3.738084e-01
v -4.097958e-01 1.195086e-01 3.814745e-01
v -4.099922e-01 1.211723e-01 3.899996e-01
v -4.102203e-01 1.228476e-01 3.984634e-01
v -4.104801e-01 1.245348e-01 4.068661e-01
v -4.093746e-01 1.250796e-01 4.143482e-01
v -4.082881e-01 1.256315e-01 4.217935e-01
v -4.086303e-01 1.273492e-01 4.300366e-01
v -4.082962e-01 1.284980e-01 4.378073e-01
v -4.072762e-01 1.290746e-01 4.451239e-01
v -4.069897e-01 1.302411e-01 4.528025e-01
v -4.052935e-01 1.302488e-01 4.596466e-01
v -4.028893e-01 1.296760e-01 4.660796e-01
v -4.004914e-01 1.291056e-01 4.725003e-01
v -3.973729e-01 1.279500e-01 4.785345e-01
v -3.935242e-01 1.262055e-01 4.842004e-01
v -3.896690e-01 1.244587e-01 4.898786e-01
v -3.865442e-01 1.233007e-01 4.959250e-01
v -3.834193e-01 1.221427e-01 5.019714e-01
v -4.952217e-01 1.349436e-01 1.765244e-01
v -4.918877e-01 1.337081e-01 1.829755e-01
v -4.891470e-01 1.330179e-01 1.900516e-01
v -4.870091e-01 1.328764e-01 1.977343e-01
v -4.842842e-01 1.321920e-01 2.047796e-01
v -4.815657e-01 1.315101e-01 2.118128e-01
v -4.794595e-01 1.313804e-01 2.194341e-01
v -4.773660e-01 1.312554e-01 2.270309e-01
v -4.740604e-01 1.300304e-01 2.334268e-01
v -4.695239e-01 1.276984e-01 2.386587e-01
v -4.668307e-01 1.270259e-01 2.456428e-01
v -4.647658e-01 1.269115e-01 2.531844e-01
v -4.614634e-01 1.256877e-01 2.595742e-01
v -4.575328e-01 1.239056e-01 2.654065e-01
v -4.523332e-01 1.210025e-01 2.701483e-01
v -4.477490e-01 1.186528e-01 2.754721e-01
v -4.437899e-01 1.168603e-01 2.813597e-01
v -4.391836e-01 1.145025e-01 2.867264e-01
v -4.364967e-01 1.138321e-01 2.936982e-01
v -4.331690e-01 1.125990e-01 3.001371e-01
v -4.304918e-01 1.119323e-01 3.070906e-01
v -4.291279e-01 1.124031e-01 3.150486e-01
v -4.264695e-01 1.117434e-01 3.219652e-01
v -4.244774e-01 1.116560e-01 3.293659e-01
v -4.224981e-01 1.115734e-01 3.367419e-01
v -4.198651e-01 1.109230e-01 3.436094e-01
v -4.179078e-01 1.108485e-01 3.509425e-01
v -4.179811e-01 1.125029e-01 3.596661e-01
v -4.187616e-01 1.147446e-01 3.687938e-01
v -4.182226e-01 1.158466e-01 3.769292e-01
v -4.163445e-01 1.158015e-01 3.841090e-01
v -4.165350e-01 1.174992e-01 3.926056e-01
v -4.167571e-01 1.192086e-01 4.010409e-01
v -4.163193e-01 1.203481e-01 4.089801e-01
v -4.159069e-01 1.214970e-01 4.168702e-01
v -4.162178e-01 1.232393e-01 4.251338e-01
v -4.158593e-01 1.244081e-01 4.329196e-01
v -4.155261e-01 1.255863e-01 4.406564e-01
v -4.145108e-01 1.261863e-01 4.479398e-01
v -4.135146e-01 1.267935e-01 4.551866e-01
v -4.111098e-01 1.262277e-01 4.616126e-01
v -4.079944e-01 1.250732e-01 4.676406e-01
v -4.048791e-01 1.239187e-01 4.736686e-01
v -4.024869e-01 1.233577e-01 4.800702e-01
v -3.986483e-01 1.216097e-01 4.857246e-01
v -3.940737e-01 1.192636e-01 4.910301e-01
v -3.909520e-01 1.181068e-01 4.970703e-01
v -3.863583e-01 1.157536e-01 5.024126e-01
v -5.108082e-01 1.397416e-01 1.900958e-01
v -5.051918e-01 1.363296e-01 1.939033e-01
v -5.013189e-01 1.345617e-01 1.996321e-01
v -4.974395e-01 1.327913e-01 2.053731e-01
v -4.935539e-01 1.310188e-01 2.111266e-01
v -4.908601e-01 1.303532e-01 2.181037e-01
v -4.875704e-01 1.291341e-01 2.244690e-01
v -4.836753e-01 1.273580e-01 2.302408e-01
v -4.803825e-01 1.261378e-01 2.366122e-01
v -4.764777e-01 1.243580e-01 2.424023e-01
v -4.731817e-01 1.231366e-01 2.487798e-01
v -4.705039e-01 1.224770e-01 2.557264e-01
v -4.672111e-01 1.212567e-01 2.620978e-01
v -4.632937e-01 1.194722e-01 2.679125e-01
v -4.581147e-01 1.165550e-01 2.726383e-01
v -4.541784e-01 1.147636e-01 2.784898e-01
v -4.496017e-01 1.124022e-01 2.838153e-01
v -4.443752e-01 1.094674e-01 2.886331e-01
v -4.410506e-01 1.082354e-01 2.950659e-01
v -4.390131e-01 1.081456e-01 3.025384e-01
v -4.369882e-01 1.080606e-01 3.099864e-01
v -4.349759e-01 1.079802e-01 3.174099e-01
v -4.323235e-01 1.073300e-01 3.243073e-01
v -4.296773e-01 1.066821e-01 3.311926e-01
v -4.276967e-01 1.066135e-01 3.385547e-01
v -4.257289e-01 1.065496e-01 3.458923e-01
v -4.251051e-01 1.076492e-01 3.541594e-01
v -4.251755e-01 1.093386e-01 3.628483e-01
v -4.246056e-01 1.104581e-01 3.710111e-01
v -4.240609e-01 1.115870e-01 3.791248e-01
v -4.228634e-01 1.121412e-01 3.867370e-01
v -4.230479e-01 1.138730e-01 3.952051e-01
v -4.232641e-01 1.156165e-01 4.036120e-01
v -4.228241e-01 1.167842e-01 4.115234e-01
v -4.231005e-01 1.185500e-01 4.198137e-01
v -4.234086e-01 1.203276e-01 4.280426e-01
v -4.230510e-01 1.215258e-01 4.357945e-01
v -4.227187e-01 1.227334e-01 4.434974e-01
v -4.210044e-01 1.227634e-01 4.503444e-01
v -4.193028e-01 1.227982e-01 4.571670e-01
v -4.176138e-01 1.228377e-01 4.639650e-01
v -4.145111e-01 1.216879e-01 4.699684e-01
v -4.121248e-01 1.211362e-01 4.763508e-01
v -4.090252e-01 1.199876e-01 4.823482e-01
v -4.052030e-01 1.182385e-01 4.879788e-01
v -3.999226e-01 1.152836e-01 4.929010e-01
v -3.953524e-01 1.129246e-01 4.982141e-01
v -3.915016e-01 1.111649e-01 5.039000e-01
v -5.248420e-01 1.415349e-01 1.922954e-01
v -5.204503e-01 1.392275e-01 1.972791e-01
v -5.166286e-01 1.374714e-01 2.029168e-01
v -5.116287e-01 1.345987e-01 2.073201e-01
v -5.071990e-01 1.322773e-01 2.123773e-01
v -5.033488e-01 1.305106e-01 2.180702e-01
v -4.994921e-01 1.287414e-01 2.237753e-01
v -4.962278e-01 1.275317e-01 2.300915e-01
v -4.923618e-01 1.257592e-01 2.358151e-01
v -4.884893e-01 1.239841e-01 2.415508e-01
v -4.846106e-01 1.222069e-01 2.472989e-01
v -4.801142e-01 1.198607e-01 2.524849e-01
v -4.762197e-01 1.180776e-01 2.582637e-01
v -4.723188e-01 1.162920e-01 2.640546e-01
v -4.684115e-01 1.145041e-01 2.698578e-01
v -4.632501e-01 1.115716e-01 2.745738e-01
v -4.599509e-01 1.103490e-01 2.809575e-01
v -4.553911e-01 1.079793e-01 2.862661e-01
v -4.508187e-01 1.056050e-01 2.915993e-01
v -4.475068e-01 1.043777e-01 2.980075e-01
v -4.448348e-01 1.037275e-01 3.049348e-01
v -4.428120e-01 1.036577e-01 3.123628e-01
v -4.401557e-01 1.030133e-01 3.192595e-01
v -4.375057e-01 1.023712e-01 3.261438e-01
v -4.348622e-01 1.017315e-01 3.330160e-01
v -4.328806e-01 1.016770e-01 3.403643e-01
v -4.315704e-01 1.022113e-01 3.481704e-01
v -4.316031e-01 1.039231e-01 3.568921e-01
v -4.316676e-01 1.056466e-01 3.655523e-01
v -4.310953e-01 1.067943e-01 3.736874e-01
v -4.292057e-01 1.067739e-01 3.808579e-01
v -4.286779e-01 1.079380e-01 3.889071e-01
v -4.295311e-01 1.102939e-01 3.977983e-01
v -4.304222e-01 1.126636e-01 4.066159e-01
v -4.306672e-01 1.144541e-01 4.149267e-01
v -4.302567e-01 1.156618e-01 4.227491e-01
v -4.298716e-01 1.168788e-01 4.305224e-01
v -4.295118e-01 1.181051e-01 4.382466e-01
v -4.291773e-01 1.193409e-01 4.459217e-01
v -4.274682e-01 1.193874e-01 4.527426e-01
v -4.257718e-01 1.194386e-01 4.595390e-01
v -4.240881e-01 1.194946e-01 4.663110e-01
v -4.217075e-01 1.189523e-01 4.726741e-01
v -4.186206e-01 1.178084e-01 4.786469e-01
v -4.169654e-01 1.178748e-01 4.853636e-01
v -4.124470e-01 1.155206e-01 4.905925e-01
v -4.064714e-01 1.119464e-01 4.951266e-01
v -4.011959e-01 1.089716e-01 5.000633e-01
v -3.973583e-01 1.072095e-01 5.057317e-01
v -3.957095e-01 1.072784e-01 5.124361e-01
v -5.381407e-01 1.428828e-01 1.939760e-01
v -5.326523e-01 1.394601e-01 1.975996e-01
v -5.282902e-01 1.371492e-01 2.025419e-01
v -5.239154e-01 1.348336e-01 2.075088e-01
v -5.201101e-01 1.330763e-01 2.131228e-01
v -5.162985e-01 1.313166e-01 2.187490e-01
v -5.124805e-01 1.295545e-01 2.243874e-01
v -5.080646e-01 1.272237e-01 2.294340e-01
v -5.042308e-01 1.254558e-01 2.351032e-01
v -5.009886e-01 1.242543e-01 2.413764e-01
v -4.965440e-01 1.219128e-01 2.464782e-01
v -4.920868e-01 1.195667e-01 2.516044e-01
v -4.876170e-01 1.172160e-01 2.567554e-01
v -4.825237e-01 1.142869e-01 2.613633e-01
v -4.786393e-01 1.125003e-01 2.671306e-01
v -4.741314e-01 1.101353e-01 2.723550e-01
v -4.683705e-01 1.066117e-01 2.765060e-01
v -4.644541e-01 1.048132e-01 2.823345e-01
v -4.611581e-01 1.035918e-01 2.887121e-01
v -4.578621e-01 1.023703e-01 2.950896e-01
v -4.545661e-01 1.011489e-01 3.014672e-01
v -4.512701e-01 9.992742e-02 3.078447e-01
v -4.492525e-01 9.987413e-02 3.152466e-01
v -4.459628e-01 9.865504e-02 3.216119e-01
v -4.426731e-01 9.743595e-02 3.279771e-01
v -4.406809e-01 9.739210e-02 3.353300e-01
v -4.393532e-01 9.794167e-02 3.431459e-01
v -4.373895e-01 9.790833e-02 3.504436e-01
v -4.374130e-01 9.965297e-02 3.591428e-01
v -4.374684e-01 1.014094e-01 3.677807e-01
v -4.362263e-01 1.019907e-01 3.754312e-01
v -4.356708e-01 1.031736e-01 3.835016e-01
v -4.351409e-01 1.043660e-01 3.915232e-01
v -4.359843e-01 1.067616e-01 4.003850e-01
v -4.368658e-01 1.091714e-01 4.091734e-01
v -4.371049e-01 1.109960e-01 4.174556e-01
v -4.373757e-01 1.128323e-01 4.256765e-01
v -4.376782e-01 1.146803e-01 4.338361e-01
v -4.366326e-01 1.153344e-01 4.411063e-01
v -4.356060e-01 1.159955e-01 4.483397e-01
v -4.339021e-01 1.160585e-01 4.551345e-01
v -4.322109e-01 1.161261e-01 4.619047e-01
v -4.305324e-01 1.161985e-01 4.686504e-01
v -4.288666e-01 1.162755e-01 4.753716e-01
v -4.272135e-01 1.163572e-01 4.820683e-01
v -4.255730e-01 1.164437e-01 4.887405e-01
v -4.210841e-01 1.140858e-01 4.939281e-01
v -4.151457e-01 1.104965e-01 4.984225e-01
v -4.113468e-01 1.087414e-01 5.040242e-01
v -4.068166e-01 1.063683e-01 5.092915e-01
v -4.022739e-01 1.039905e-01 5.145834e-01
v -5.452960e-01 1.403414e-01 1.986624e-01
v -5.392727e-01 1.363371e-01 2.016123e-01
v -5.343616e-01 1.334538e-01 2.058915e-01
v -5.305823e-01 1.316988e-01 2.114633e-01
v -5.273750e-01 1.305102e-01 2.176691e-01
v -5.241677e-01 1.293217e-01 2.238750e-01
v -5.203757e-01 1.275620e-01 2.294713e-01
v -5.159893e-01 1.252276e-01 2.344765e-01
v -5.115903e-01 1.228885e-01 2.395064e-01
v -5.065843e-01 1.199701e-01 2.439695e-01
v -5.021568e-01 1.176205e-01 2.490545e-01
v -4.983172e-01 1.158432e-01 2.547429e-01
v -4.944713e-01 1.140635e-01 2.604435e-01
v -4.900120e-01 1.117021e-01 2.655899e-01
v -4.855401e-01 1.093361e-01 2.707607e-01
v -4.810555e-01 1.069652e-01 2.759560e-01
v -4.753253e-01 1.034240e-01 2.800795e-01
v -4.701894e-01 1.004574e-01 2.847942e-01
v -4.669029e-01 9.923951e-02 2.911534e-01
v -4.642424e-01 9.860799e-02 2.980422e-01
v -4.615881e-01 9.797879e-02 3.049189e-01
v -4.589403e-01 9.735204e-02 3.117833e-01
v -4.562987e-01 9.672758e-02 3.186354e-01
v -4.530249e-01 9.551437e-02 3.249700e-01
v -4.491092e-01 9.370887e-02 3.308055e-01
v -4.471221e-01 9.368130e-02 3.381322e-01
v -4.451478e-01 9.365856e-02 3.454343e-01
v -4.438374e-01 9.423627e-02 3.531927e-01
v -4.432007e-01 9.541811e-02 3.613888e-01
v -4.425891e-01 9.660924e-02 3.695359e-01
v -4.433247e-01 9.900850e-02 3.785586e-01
v -4.427702e-01 1.002208e-01 3.865952e-01
v -4.415739e-01 1.008408e-01 3.941328e-01
v -4.424078e-01 1.032764e-01 4.029654e-01
v -4.426060e-01 1.051221e-01 4.112865e-01
v -4.435128e-01 1.075848e-01 4.199781e-01
v -4.444574e-01 1.100615e-01 4.285959e-01
v -4.447571e-01 1.119448e-01 4.367209e-01
v -4.437162e-01 1.126224e-01 4.439580e-01
v -4.433836e-01 1.139169e-01 4.515654e-01
v -4.416913e-01 1.139986e-01 4.583218e-01
v -4.407074e-01 1.146973e-01 4.654485e-01
v -4.397425e-01 1.154030e-01 4.725385e-01
v -4.380946e-01 1.155013e-01 4.792090e-01
v -4.371645e-01 1.162199e-01 4.862315e-01
v -4.355451e-01 1.163287e-01 4.928468e-01
v -4.310922e-01 1.139697e-01 4.979809e-01
v -4.273413e-01 1.122252e-01 5.034975e-01
v -4.257378e-01 1.123399e-01 5.100822e-01
v -4.241469e-01 1.124592e-01 5.166423e-01
v -4.254656e-01 1.150745e-01 5.245367e-01
v -5.501584e-01 1.355906e-01 2.007572e-01
v -5.447252e-01 1.321304e-01 2.043381e-01
v -5.404033e-01 1.298054e-01 2.092347e-01
v -5.366404e-01 1.280492e-01 2.147827e-01
v -5.340205e-01 1.274400e-01 2.215850e-01
v -5.302512e-01 1.256815e-01 2.271454e-01
v -5.258945e-01 1.233436e-01 2.321093e-01
v -5.215251e-01 1.210009e-01 2.370977e-01
v -5.171429e-01 1.186537e-01 2.421107e-01
v -5.127483e-01 1.163017e-01 2.471482e-01
v -5.077471e-01 1.133633e-01 2.516261e-01
v -5.039207e-01 1.115836e-01 2.572968e-01
v -5.006881e-01 1.103856e-01 2.635517e-01
v -4.968523e-01 1.086025e-01 2.692409e-01
v -4.917973e-01 1.056441e-01 2.738230e-01
v -4.873328e-01 1.032663e-01 2.789955e-01
v -4.822429e-01 1.002950e-01 2.836451e-01
v -4.771339e-01 9.731661e-02 2.883314e-01
v -4.738633e-01 9.610454e-02 2.946599e-01
v -4.705926e-01 9.489251e-02 3.009884e-01
v -4.673219e-01 9.368045e-02 3.073168e-01
v -4.653085e-01 9.365770e-02 3.146787e-01
v -4.626759e-01 9.304387e-02 3.215056e-01
v -4.587798e-01 9.123831e-02 3.273112e-01
v -4.555154e-01 9.002861e-02 3.336274e-01
v -4.528925e-01 8.941833e-02 3.404359e-01
v -4.515646e-01 9.001131e-02 3.482040e-01
v -4.502557e-01 9.061136e-02 3.559354e-01
v -4.496166e-01 9.182129e-02 3.641038e-01
v -4.490029e-01 9.304061e-02 3.722231e-01
v -4.503859e-01 9.608507e-02 3.816780e-01
v -4.504926e-01 9.793310e-02 3.901362e-01
v -4.493042e-01 9.857781e-02 3.976346e-01
v -4.488014e-01 9.983822e-02 4.055392e-01
v -4.496636e-01 1.023279e-01 4.142689e-01
v -4.505637e-01 1.048317e-01 4.229249e-01
v -4.515019e-01 1.073495e-01 4.315073e-01
v -4.517988e-01 1.092680e-01 4.395976e-01
v -4.514449e-01 1.105836e-01 4.472141e-01
v -4.511164e-01 1.119087e-01 4.547815e-01
v -4.515021e-01 1.138601e-01 4.627002e-01
v -4.505356e-01 1.145871e-01 4.697693e-01
v -4.488928e-01 1.147016e-01 4.764136e-01
v -4.479611e-01 1.154415e-01 4.834153e-01
v -4.463470e-01 1.155667e-01 4.900045e-01
v -4.440408e-01 1.150738e-01 4.961997e-01
v -4.410332e-01 1.139592e-01 5.020192e-01
v -4.373146e-01 1.122195e-01 5.074814e-01
v -4.364463e-01 1.129828e-01 5.143604e-01
v -4.355970e-01 1.137531e-01 5.212027e-01
v -4.347666e-01 1.145305e-01 5.280081e-01
v -4.354026e-01 1.165747e-01 5.354423e-01
v -5.538893e-01 1.297115e-01 2.015594e-01
v -5.501554e-01 1.279589e-01 2.070592e-01
v -5.464152e-01 1.262039e-01 2.125714e-01
v -5.426686e-01 1.244465e-01 2.180957e-01
v -5.400576e-01 1.238479e-01 2.248726e-01
v -5.368789e-01 1.226700e-01 2.310233e-01
v -5.319681e-01 1.197433e-01 2.353502e-01
v -5.276190e-01 1.173937e-01 2.403158e-01
v -5.226733e-01 1.144541e-01 2.447102e-01
v -5.188824e-01 1.126802e-01 2.503204e-01
v -5.150852e-01 1.109041e-01 2.559430e-01
v -5.112815e-01 1.091256e-01 2.615777e-01
v -5.068752e-01 1.067548e-01 2.666536e-01
v -5.030557e-01 1.049705e-01 2.723190e-01
v -4.986272e-01 1.025915e-01 2.774378e-01
v -4.941861e-01 1.002077e-01 2.825812e-01
v -4.885142e-01 9.663002e-02 2.866559e-01
v -4.840413e-01 9.423460e-02 2.918606e-01
v -4.801712e-01 9.243151e-02 2.976242e-01
v -4.762947e-01 9.062599e-02 3.034000e-01
v -4.724118e-01 8.881809e-02 3.091880e-01
v -4.703973e-01 8.880947e-02 3.165360e-01
v -4.671392e-01 8.760213e-02 3.228400e-01
v -4.645123e-01 8.699757e-02 3.296476e-01
v -4.612575e-01 8.579140e-02 3.359453e-01
v -4.592778e-01 8.579559e-02 3.432259e-01
v -4.579515e-01 8.641098e-02 3.509672e-01
v -4.566441e-01 8.703335e-02 3.586717e-01
v -4.560028e-01 8.827147e-02 3.668123e-01
v -4.560371e-01 9.012898e-02 3.753708e-01
v -4.567564e-01 9.260921e-02 3.843287e-01
v -4.568572e-01 9.449136e-02 3.927583e-01
v -4.556702e-01 9.515835e-02 4.002298e-01
v -4.558281e-01 9.706157e-02 4.085490e-01
v -4.566837e-01 9.959236e-02 4.172432e-01
v -4.582466e-01 1.027542e-01 4.262938e-01
v -4.585090e-01 1.046962e-01 4.344107e-01
v -4.588032e-01 1.066499e-01 4.424663e-01
v -4.591290e-01 1.086155e-01 4.504606e-01
v -4.588047e-01 1.099710e-01 4.579880e-01
v -4.591907e-01 1.119588e-01 4.658658e-01
v -4.589201e-01 1.133344e-01 4.732890e-01
v -4.572922e-01 1.134690e-01 4.798889e-01
v -4.563715e-01 1.142347e-01 4.868452e-01
v -4.547721e-01 1.143799e-01 4.933899e-01
v -4.531853e-01 1.145297e-01 4.999101e-01
v -4.502030e-01 1.134246e-01 5.056805e-01
v -4.479280e-01 1.129504e-01 5.118074e-01
v -4.470801e-01 1.137431e-01 5.186227e-01
v -4.448241e-01 1.132760e-01 5.247128e-01
v -4.432913e-01 1.134459e-01 5.311288e-01
v -4.417711e-01 1.136204e-01 5.375202e-01
v -5.587294e-01 1.249960e-01 2.036495e-01
v -5.544478e-01 1.226569e-01 2.085000e-01
v -5.512753e-01 1.214813e-01 2.146384e-01
v -5.475388e-01 1.197203e-01 2.201513e-01
v -5.443633e-01 1.185435e-01 2.262958e-01
v -5.406172e-01 1.167792e-01 2.318271e-01
v -5.368649e-01 1.150124e-01 2.373706e-01
v -5.331062e-01 1.132434e-01 2.429265e-01
v -5.287612e-01 1.108808e-01 2.478998e-01
v -5.249868e-01 1.091058e-01 2.534862e-01
v -5.217921e-01 1.079220e-01 2.596676e-01
v -5.174186e-01 1.055488e-01 2.646960e-01
v -5.130324e-01 1.031710e-01 2.697490e-01
v -5.092295e-01 1.013854e-01 2.753907e-01
v -5.054199e-01 9.959753e-02 2.810446e-01
v -5.016042e-01 9.780725e-02 2.867108e-01
v -4.971769e-01 9.541420e-02 2.918435e-01
v -4.927368e-01 9.301642e-02 2.970008e-01
v -4.876725e-01 9.001100e-02 3.016490e-01
v -4.832039e-01 8.760271e-02 3.068615e-01
v -4.793406e-01 8.579478e-02 3.126196e-01
v -4.760922e-01 8.459095e-02 3.189051e-01
v -4.734680e-01 8.399477e-02 3.256998e-01
v -4.708502e-01 8.340080e-02 3.324820e-01
v -4.682386e-01 8.280923e-02 3.392519e-01
v -4.656334e-01 8.222004e-02 3.460098e-01
v -4.643086e-01 8.285772e-02 3.537241e-01
v -4.630027e-01 8.350230e-02 3.614015e-01
v -4.630025e-01 8.538334e-02 3.699868e-01
v -4.630339e-01 8.727602e-02 3.785105e-01
v -4.637468e-01 8.979737e-02 3.874329e-01
v -4.631919e-01 9.109659e-02 3.953741e-01
v -4.620065e-01 9.178589e-02 4.028186e-01
v -4.621584e-01 9.372319e-02 4.111093e-01
v -4.630043e-01 9.629392e-02 4.197741e-01
v -4.645538e-01 9.950158e-02 4.287947e-01
v -4.654789e-01 1.021016e-01 4.373061e-01
v -4.657703e-01 1.040906e-01 4.453270e-01
v -4.654183e-01 1.054650e-01 4.528758e-01
v -4.657699e-01 1.074763e-01 4.607802e-01
v -4.661531e-01 1.094994e-01 4.686234e-01
v -4.658835e-01 1.109043e-01 4.760127e-01
v -4.656394e-01 1.123186e-01 4.833529e-01
v -4.654205e-01 1.137423e-01 4.906441e-01
v -4.638390e-01 1.139087e-01 4.971382e-01
v -4.615729e-01 1.134451e-01 5.032398e-01
v -4.593132e-01 1.129839e-01 5.093291e-01
v -4.577633e-01 1.131620e-01 5.157618e-01
v -4.562262e-01 1.133448e-01 5.221699e-01
v -4.539918e-01 1.128929e-01 5.282102e-01
v -4.531898e-01 1.137243e-01 5.349127e-01
v -4.502583e-01 1.126379e-01 5.405850e-01
v -5.624528e-01 1.191287e-01 2.044501e-01
v -5.581787e-01 1.167779e-01 2.093023e-01
v -5.544491e-01 1.150123e-01 2.148098e-01
v -5.512734e-01 1.138355e-01 2.209543e-01
v -5.480979e-01 1.126587e-01 2.270988e-01
v -5.449223e-01 1.114818e-01 2.332434e-01
v -5.417467e-01 1.103051e-01 2.393878e-01
v -5.379981e-01 1.085325e-01 2.449323e-01
v -5.348193e-01 1.073545e-01 2.510830e-01
v -5.310612e-01 1.055783e-01 2.566456e-01
v -5.272968e-01 1.037999e-01 2.622207e-01
v -5.235259e-01 1.020190e-01 2.678079e-01
v -5.197487e-01 1.002358e-01 2.734075e-01
v -5.153732e-01 9.784740e-02 2.784560e-01
v -5.115802e-01 9.605836e-02 2.840862e-01
v -5.083793e-01 9.487217e-02 2.902798e-01
v -5.051784e-01 9.368597e-02 2.964733e-01
v -5.019774e-01 9.249975e-02 3.026669e-01
v -4.969527e-01 8.948732e-02 3.072624e-01
v -4.906870e-01 8.524807e-02 3.108416e-01
v -4.868464e-01 8.344134e-02 3.165638e-01
v -4.836170e-01 8.224456e-02 3.228125e-01
v -4.810081e-01 8.166125e-02 3.295694e-01
v -4.777818e-01 8.046567e-02 3.358121e-01
v -4.745555e-01 7.927008e-02 3.420547e-01
v -4.719592e-01 7.869137e-02 3.487871e-01
v -4.706359e-01 7.935134e-02 3.564744e-01
v -4.699679e-01 8.063769e-02 3.646026e-01
v -4.706044e-01 8.317428e-02 3.736244e-01
v -4.706363e-01 8.510341e-02 3.821074e-01
v -4.706998e-01 8.704427e-02 3.905291e-01
v -4.694969e-01 8.774881e-02 3.979834e-01
v -4.683129e-01 8.846046e-02 4.054010e-01
v -4.697697e-01 9.168454e-02 4.145446e-01
v -4.706124e-01 9.429758e-02 4.231679e-01
v -4.714929e-01 9.692458e-02 4.317174e-01
v -4.724116e-01 9.956580e-02 4.401935e-01
v -4.727001e-01 1.015901e-01 4.481798e-01
v -4.730204e-01 1.036260e-01 4.561047e-01
v -4.726979e-01 1.050404e-01 4.635644e-01
v -4.737560e-01 1.077332e-01 4.717706e-01
v -4.734905e-01 1.091687e-01 4.791200e-01
v -4.732504e-01 1.106135e-01 4.864202e-01
v -4.723485e-01 1.114297e-01 4.932920e-01
v -4.714657e-01 1.122529e-01 5.001270e-01
v -4.699083e-01 1.124427e-01 5.065582e-01
v -4.676671e-01 1.119956e-01 5.126037e-01
v -4.654322e-01 1.115508e-01 5.186371e-01
v -4.639065e-01 1.117524e-01 5.250068e-01
v -4.630998e-01 1.126039e-01 5.316947e-01
v -4.630213e-01 1.141085e-01 5.386822e-01
v -4.608307e-01 1.136803e-01 5.446297e-01
v -5.667235e-01 1.138549e-01 2.058930e-01
v -5.619096e-01 1.108989e-01 2.101045e-01
v -5.587372e-01 1.097232e-01 2.162429e-01
v -5.555648e-01 1.085476e-01 2.223813e-01
v -5.523923e-01 1.073720e-01 2.285197e-01
v -5.497829e-01 1.067957e-01 2.352697e-01
v -5.466137e-01 1.056212e-01 2.414019e-01
v -5.434445e-01 1.044468e-01 2.475342e-01
v -5.402752e-01 1.032723e-01 2.536665e-01
v -5.376815e-01 1.027018e-01 2.603857e-01
v -5.339367e-01 1.009234e-01 2.659310e-01
v -5.296034e-01 9.853607e-02 2.709135e-01
v -5.264278e-01 9.735925e-02 2.770580e-01
v -5.232522e-01 9.618247e-02 2.832025e-01
v -5.200766e-01 9.500566e-02 2.893470e-01
v -5.163064e-01 9.321781e-02 2.949413e-01
v -5.119320e-01 9.081534e-02 3.000035e-01
v -5.087469e-01 8.963500e-02 3.061665e-01
v -5.043534e-01 8.722541e-02 3.112656e-01
v -4.993400e-01 8.419541e-02 3.158635e-01
v -4.949180e-01 8.177525e-02 3.210178e-01
v -4.923243e-01 8.120485e-02 3.277372e-01
v -4.891202e-01 8.001747e-02 3.339369e-01
v -4.852961e-01 7.820958e-02 3.396353e-01
v -4.814657e-01 7.639944e-02 3.453460e-01
v -4.795079e-01 7.645530e-02 3.525360e-01
v -4.788219e-01 7.776394e-02 3.606670e-01
v -4.781612e-01 7.908198e-02 3.687490e-01
v -4.781617e-01 8.103578e-02 3.772525e-01
v -4.781940e-01 8.300127e-02 3.856947e-01
v -4.776157e-01 8.434981e-02 3.936172e-01
v -4.770628e-01 8.570777e-02 4.014907e-01
v -4.765352e-01 8.707511e-02 4.093151e-01
v -4.779881e-01 9.034852e-02 4.184102e-01
v -4.794854e-01 9.363838e-02 4.274195e-01
v -4.797109e-01 9.567552e-02 4.354876e-01
v -4.799682e-01 9.772448e-02 4.434944e-01
v -4.809214e-01 1.004220e-01 4.518552e-01
v -4.812453e-01 1.024955e-01 4.597332e-01
v -4.816008e-01 1.045809e-01 4.675499e-01
v -4.813140e-01 1.060374e-01 4.749083e-01
v -4.803757e-01 1.068619e-01 4.818268e-01
v -4.801365e-01 1.083361e-01 4.890931e-01
v -4.792393e-01 1.091757e-01 4.959319e-01
v -4.776745e-01 1.093773e-01 5.023614e-01
v -4.761224e-01 1.095835e-01 5.087664e-01
v -4.738901e-01 1.091470e-01 5.147867e-01
v -4.723602e-01 1.093615e-01 5.211487e-01
v -4.708430e-01 1.095806e-01 5.274862e-01
v -4.700408e-01 1.104556e-01 5.341410e-01
v -4.699633e-01 1.119896e-01 5.410946e-01
v -4.699111e-01 1.135332e-01 5.479992e-01
v -5.698998e-01 1.073942e-01 2.060514e-01
v -5.661872e-01 1.056204e-01 2.115422e-01
v -5.624681e-01 1.038442e-01 2.170452e-01
v -5.598486e-01 1.032715e-01 2.238067e-01
v -5.577915e-01 1.033051e-01 2.311727e-01
v -5.557470e-01 1.033433e-01 2.385143e-01
v -5.525905e-01 1.021736e-01 2.446220e-01
v -5.499995e-01 1.016114e-01 2.513283e-01
v -5.474148e-01 1.010516e-01 2.580224e-01
v -5.454084e-01 1.011039e-01 2.652903e-01
v -5.411144e-01 9.871673e-02 2.702133e-01
v -5.362293e-01 9.571252e-02 2.745866e-01
v -5.324882e-01 9.392820e-02 2.801327e-01
v -5.304944e-01 9.398523e-02 2.873761e-01
v -5.279256e-01 9.343126e-02 2.940394e-01
v -5.241812e-01 9.164572e-02 2.995915e-01
v -5.192424e-01 8.862159e-02 3.040691e-01
v -5.142844e-01 8.559035e-02 3.085836e-01
v -5.111089e-01 8.441352e-02 3.147281e-01
v -5.073297e-01 8.261512e-02 3.203477e-01
v -5.029374e-01 8.019148e-02 3.254607e-01
v -4.997523e-01 7.901117e-02 3.316235e-01
v -4.965672e-01 7.783084e-02 3.377865e-01
v -4.939983e-01 7.727681e-02 3.444499e-01
v -4.908164e-01 7.609764e-02 3.506066e-01
v -4.882571e-01 7.554719e-02 3.572516e-01
v -4.875815e-01 7.688872e-02 3.653303e-01
v -4.863023e-01 7.760854e-02 3.728841e-01
v -4.863064e-01 7.959990e-02 3.813407e-01
v -4.857069e-01 8.096961e-02 3.892722e-01
v -4.857711e-01 8.298326e-02 3.976124e-01
v -4.852255e-01 8.437293e-02 4.054398e-01
v -4.853500e-01 8.640894e-02 4.136633e-01
v -4.861542e-01 8.909476e-02 4.222646e-01
v -4.876476e-01 9.243392e-02 4.312253e-01
v -4.878767e-01 9.450868e-02 4.392465e-01
v -4.874800e-01 9.595357e-02 4.467856e-01
v -4.884300e-01 9.869339e-02 4.551049e-01
v -4.894180e-01 1.014473e-01 4.633505e-01
v -4.897770e-01 1.035703e-01 4.711203e-01
v -4.888274e-01 1.044122e-01 4.780364e-01
v -4.878968e-01 1.052613e-01 4.849156e-01
v -4.869853e-01 1.061174e-01 4.917581e-01
v -4.854130e-01 1.063307e-01 4.981860e-01
v -4.824878e-01 1.052467e-01 5.038461e-01
v -4.809346e-01 1.054670e-01 5.102372e-01
v -4.793942e-01 1.056921e-01 5.166038e-01
v -4.778663e-01 1.059218e-01 5.229457e-01
v -4.763511e-01 1.061563e-01 5.292633e-01
v -4.755473e-01 1.070523e-01 5.358973e-01
v -4.754643e-01 1.086134e-01 5.428293e-01
v -5.736233e-01 1.015269e-01 2.068520e-01
v -5.704572e-01 1.003536e-01 2.129781e-01
v -5.678371e-01 9.978793e-02 2.197326e-01
v -5.646742e-01 9.861582e-02 2.258527e-01
v -5.631683e-01 9.927342e-02 2.338210e-01
v -5.605703e-01 9.871592e-02 2.405327e-01
v -5.579788e-01 9.816078e-02 2.472319e-01
v -5.553935e-01 9.760793e-02 2.539190e-01
v -5.533797e-01 9.767206e-02 2.611854e-01
v -5.519467e-01 9.835669e-02 2.690127e-01
v -5.482473e-01 9.658058e-02 2.744859e-01
v -5.428180e-01 9.294765e-02 2.782517e-01
v -5.396741e-01 9.178258e-02 2.843349e-01
v -5.371110e-01 9.123799e-02 2.909791e-01
v -5.351384e-01 9.131745e-02 2.981658e-01
v -5.320040e-01 9.015591e-02 3.042306e-01
v -5.265081e-01 8.649839e-02 3.081251e-01
v -5.215804e-01 8.345657e-02 3.126052e-01
v -5.184238e-01 8.228680e-02 3.187129e-01
v -5.146674e-01 8.048953e-02 3.242965e-01
v -5.109046e-01 7.868989e-02 3.298924e-01
v -5.071354e-01 7.688790e-02 3.355004e-01
v -5.045787e-01 7.634568e-02 3.421323e-01
v -5.026409e-01 7.643795e-02 3.492515e-01
v -4.994843e-01 7.526820e-02 3.553592e-01
v -4.969467e-01 7.473302e-02 3.619543e-01
v -4.956594e-01 7.547167e-02 3.694996e-01
v -4.950164e-01 7.685432e-02 3.774832e-01
v -4.950272e-01 7.888439e-02 3.858867e-01
v -4.944382e-01 8.028699e-02 3.937660e-01
v -4.945092e-01 8.233946e-02 4.020530e-01
v -4.946119e-01 8.440359e-02 4.102787e-01
v -4.941052e-01 8.583674e-02 4.179986e-01
v -4.942681e-01 8.792320e-02 4.261077e-01
v -4.944628e-01 9.002146e-02 4.341555e-01
v -4.946891e-01 9.213142e-02 4.421420e-01
v -4.956009e-01 9.490066e-02 4.504871e-01
v -4.965507e-01 9.768401e-02 4.587587e-01
v -4.968784e-01 9.983154e-02 4.665489e-01
v -4.965746e-01 1.013398e-01 4.738764e-01
v -4.962961e-01 1.028575e-01 4.811548e-01
v -4.947037e-01 1.030778e-01 4.876056e-01
v -4.924513e-01 1.026484e-01 4.936488e-01
v -4.902052e-01 1.022212e-01 4.996797e-01
v -4.879654e-01 1.017965e-01 5.056984e-01
v -4.864142e-01 1.020321e-01 5.120694e-01
v -4.848758e-01 1.022724e-01 5.184160e-01
v -4.826613e-01 1.018570e-01 5.243856e-01
v -4.811450e-01 1.021055e-01 5.306892e-01
v -4.810313e-01 1.036843e-01 5.376488e-01
v -4.795468e-01 1.039446e-01 5.438911e-01
v -5.773467e-01 9.565965e-02 2.076526e-01
v -5.741807e-01 9.448640e-02 2.137787e-01
v -5.720990e-01 9.453995e-02 2.211601e-01
v -5.700302e-01 9.459821e-02 2.285168e-01
v -5.679741e-01 9.466124e-02 2.358491e-01
v -5.653788e-01 9.411191e-02 2.425477e-01
v -5.633448e-01 9.418313e-02 2.498370e-01
v -5.613234e-01 9.425901e-02 2.571018e-01
v -5.593148e-01 9.433958e-02 2.643421e-01
v -5.578833e-01 9.504652e-02 2.721425e-01
v -5.547679e-01 9.389202e-02 2.781705e-01
v -5.505110e-01 9.148957e-02 2.830536e-01
v -5.473892e-01 9.033272e-02 2.890939e-01
v -5.448447e-01 8.980224e-02 2.956944e-01
v -5.423064e-01 8.927405e-02 3.022825e-01
v -5.380241e-01 8.686218e-02 3.072147e-01
v -5.325558e-01 8.318586e-02 3.110880e-01
v -5.294214e-01 8.202428e-02 3.171528e-01
v -5.256940e-01 8.023049e-02 3.226881e-01
v -5.213641e-01 7.780098e-02 3.277123e-01
v -5.182202e-01 7.663590e-02 3.337955e-01
v -5.150763e-01 7.547085e-02 3.398786e-01
v -5.119324e-01 7.430577e-02 3.459619e-01
v -5.081797e-01 7.250265e-02 3.515463e-01
v -5.062566e-01 7.261494e-02 3.586209e-01
v -5.043462e-01 7.273196e-02 3.656712e-01
v -5.036852e-01 7.413689e-02 3.736576e-01
v -5.042925e-01 7.683680e-02 3.825437e-01
v -5.036885e-01 7.826293e-02 3.904199e-01
v -5.031100e-01 7.969837e-02 3.982469e-01
v -5.031876e-01 8.178961e-02 4.064809e-01
v -5.026629e-01 8.324500e-02 4.142037e-01
v -5.028009e-01 8.535853e-02 4.223211e-01
v -5.023300e-01 8.683391e-02 4.299396e-01
v -5.025281e-01 8.896972e-02 4.379405e-01
v -5.034048e-01 9.176950e-02 4.463054e-01
v -5.036696e-01 9.392996e-02 4.541775e-01
v -5.039659e-01 9.610219e-02 4.619882e-01
v -5.042941e-01 9.828618e-02 4.697378e-01
v -5.039944e-01 9.982501e-02 4.770252e-01
v -5.030573e-01 1.007152e-01 4.838691e-01
v -5.008074e-01 1.002939e-01 4.898991e-01
v -4.992330e-01 1.005354e-01 4.962993e-01
v -4.969990e-01 1.001200e-01 5.022987e-01
v -4.947713e-01 9.970701e-02 5.082859e-01
v -4.932286e-01 9.996020e-02 5.146247e-01
v -4.903351e-01 9.888789e-02 5.202235e-01
v -4.874415e-01 9.781562e-02 5.258222e-01
v -4.866122e-01 9.874574e-02 5.324575e-01
v -4.851106e-01 9.901424e-02 5.387167e-01
v -4.829273e-01 9.861758e-02 5.446180e-01
v -5.768333e-01 8.738283e-02 2.133135e-01
v -5.758150e-01 8.868447e-02 2.219591e-01
v -5.748223e-01 8.999547e-02 2.305557e-01
v -5.722200e-01 8.945084e-02 2.372594e-01
v -5.712683e-01 9.077710e-02 2.457763e-01
v -5.697909e-01 9.148874e-02 2.536417e-01
v -5.683323e-01 9.220746e-02 2.614705e-01
v -5.674504e-01 9.355951e-02 2.698524e-01
v -5.654723e-01 9.366598e-02 2.770175e-01
v -5.618152e-01 9.189097e-02 2.824248e-01
v -5.592859e-01 9.137339e-02 2.889876e-01
v -5.567630e-01 9.085823e-02 2.955382e-01
v -5.530995e-01 8.908085e-02 3.009578e-01
v -5.488531e-01 8.666776e-02 3.058364e-01
v -5.445941e-01 8.425002e-02 3.107396e-01
v -5.403224e-01 8.182757e-02 3.156673e-01
v -5.372102e-01 8.067422e-02 3.216891e-01
v -5.329195e-01 7.824472e-02 3.266536e-01
v -5.286161e-01 7.581048e-02 3.316426e-01
v -5.260868e-01 7.529290e-02 3.382054e-01
v -5.241626e-01 7.541931e-02 3.452663e-01
v -5.210472e-01 7.426479e-02 3.512943e-01
v -5.173267e-01 7.246638e-02 3.568243e-01
v -5.142082e-01 7.131070e-02 3.628584e-01
v -5.129240e-01 7.209396e-02 3.703498e-01
v -5.135026e-01 7.482682e-02 3.792434e-01
v -5.135015e-01 7.692505e-02 3.875898e-01
v -5.122902e-01 7.773533e-02 3.949402e-01
v -5.117220e-01 7.920370e-02 4.027150e-01
v -5.118064e-01 8.133364e-02 4.108958e-01
v -5.112921e-01 8.282195e-02 4.185664e-01
v -5.101695e-01 8.366518e-02 4.257450e-01
v -5.109763e-01 8.648255e-02 4.341971e-01
v -5.118212e-01 8.931401e-02 4.425755e-01
v -5.120610e-01 9.150153e-02 4.504559e-01
v -5.116861e-01 9.304152e-02 4.578565e-01
v -5.119861e-01 9.525133e-02 4.656204e-01
v -5.116651e-01 9.681131e-02 4.729170e-01
v -5.113694e-01 9.838067e-02 4.801644e-01
v -5.097812e-01 9.863162e-02 4.865752e-01
v -5.075434e-01 9.822203e-02 4.925739e-01
v -5.059774e-01 9.848116e-02 4.989418e-01
v -5.030871e-01 9.741005e-02 5.045344e-01
v -5.008684e-01 9.700755e-02 5.104962e-01
v -4.986560e-01 9.660748e-02 5.164459e-01
v -4.950940e-01 9.486766e-02 5.216691e-01
v -4.922068e-01 9.379775e-02 5.272556e-01
v -4.906882e-01 9.407448e-02 5.335315e-01
v -4.891824e-01 9.435591e-02 5.397829e-01
v -4.863079e-01 9.329068e-02 5.453449e-01
v -5.816704e-01 8.532968e-02 2.252622e-01
v -5.806753e-01 8.666885e-02 2.338310e-01
v -5.797056e-01 8.801741e-02 2.423507e-01
v -5.793055e-01 9.000407e-02 2.514290e-01
v -5.783897e-01 9.137261e-02 2.598445e-01
v -5.769484e-01 9.211947e-02 2.676155e-01
v -5.755262e-01 9.287344e-02 2.753499e-01
v -5.735661e-01 9.300102e-02 2.824643e-01
v -5.710585e-01 9.249867e-02 2.889772e-01
v -5.674304e-01 9.072724e-02 2.943363e-01
v -5.637960e-01 8.895340e-02 2.997077e-01
v -5.601554e-01 8.717731e-02 3.050913e-01
v -5.559355e-01 8.475949e-02 3.099347e-01
v -5.522789e-01 8.297747e-02 3.153490e-01
v -5.486160e-01 8.119309e-02 3.207755e-01
v -5.455292e-01 8.004918e-02 3.267483e-01
v -5.424423e-01 7.890522e-02 3.327211e-01
v -5.381781e-01 7.647104e-02 3.376504e-01
v -5.350849e-01 7.532477e-02 3.436355e-01
v -5.313967e-01 7.353100e-02 3.491110e-01
v -5.288985e-01 7.303219e-02 3.556057e-01
v -5.264067e-01 7.253581e-02 3.620880e-01
v -5.239212e-01 7.204168e-02 3.685580e-01
v -5.232652e-01 7.350657e-02 3.764706e-01
v -5.226346e-01 7.498079e-02 3.843342e-01
v -5.214153e-01 7.580985e-02 3.916761e-01
v -5.208321e-01 7.730174e-02 3.994477e-01
v -5.202744e-01 7.880296e-02 4.071702e-01
v -5.203655e-01 8.097168e-02 4.152980e-01
v -5.198617e-01 8.249292e-02 4.229163e-01
v -5.187533e-01 8.336315e-02 4.300435e-01
v -5.195631e-01 8.622513e-02 4.384416e-01
v -5.197747e-01 8.843848e-02 4.463364e-01
v -5.200180e-01 9.066359e-02 4.541699e-01
v -5.196504e-01 9.223531e-02 4.615245e-01
v -5.199539e-01 9.448269e-02 4.692414e-01
v -5.189913e-01 9.540698e-02 4.760865e-01
v -5.173956e-01 9.566957e-02 4.824957e-01
v -5.158126e-01 9.593687e-02 4.888804e-01
v -5.135838e-01 9.553795e-02 4.948537e-01
v -5.113614e-01 9.514133e-02 5.008148e-01
v -5.084805e-01 9.407374e-02 5.063890e-01
v -5.062676e-01 9.368067e-02 5.123317e-01
v -5.040611e-01 9.328995e-02 5.182621e-01
v -4.998380e-01 9.087097e-02 5.231117e-01
v -4.969571e-01 8.980338e-02 5.286859e-01
v -4.954375e-01 9.009423e-02 5.349479e-01
v -4.925630e-01 8.902899e-02 5.405098e-01
v -5.944002e-01 9.022554e-02 2.366864e-01
v -5.923754e-01 9.034371e-02 2.439096e-01
v -5.914384e-01 9.173344e-02 2.523342e-01
v -5.899860e-01 9.249788e-02 2.601028e-01
v -5.885526e-01 9.326946e-02 2.678347e-01
v -5.865914e-01 9.341111e-02 2.749353e-01
v -5.840927e-01 9.291941e-02 2.814230e-01
v -5.821536e-01 9.306926e-02 2.884805e-01
v -5.791142e-01 9.194294e-02 2.943614e-01
v -5.749557e-01 8.953343e-02 2.991022e-01
v -5.707845e-01 8.711916e-02 3.038675e-01
v -5.671665e-01 8.534420e-02 3.092152e-01
v -5.641113e-01 8.421202e-02 3.151266e-01
v -5.616284e-01 8.372612e-02 3.215836e-01
v -5.568501e-01 8.065269e-02 3.258709e-01
v -5.526313e-01 7.822076e-02 3.307282e-01
v -5.507271e-01 7.838361e-02 3.377184e-01
v -5.476655e-01 7.724908e-02 3.436421e-01
v -5.440159e-01 7.546231e-02 3.490511e-01
v -5.403600e-01 7.367327e-02 3.544723e-01
v -5.372921e-01 7.253638e-02 3.604083e-01
v -5.354196e-01 7.271097e-02 3.673372e-01
v -5.335597e-01 7.289021e-02 3.742415e-01
v -5.329205e-01 7.439026e-02 3.820897e-01
v -5.316995e-01 7.524054e-02 3.894107e-01
v -5.304975e-01 7.609778e-02 3.966948e-01
v -5.293144e-01 7.696213e-02 4.039423e-01
v -5.293838e-01 7.915899e-02 4.120722e-01
v -5.288650e-01 8.070373e-02 4.196873e-01
v -5.283717e-01 8.225790e-02 4.272534e-01
v -5.279036e-01 8.382140e-02 4.347704e-01
v -5.287196e-01 8.672915e-02 4.431085e-01
v -5.283086e-01 8.831384e-02 4.505151e-01
v -5.272872e-01 8.923805e-02 4.574498e-01
v -5.275626e-01 9.151129e-02 4.651811e-01
v -5.272276e-01 9.312411e-02 4.724406e-01
v -5.262728e-01 9.407298e-02 4.792464e-01
v -5.246887e-01 9.435442e-02 4.856173e-01
v -5.224657e-01 9.396493e-02 4.915714e-01
v -5.202490e-01 9.357769e-02 4.975133e-01
v -5.180387e-01 9.319285e-02 5.034429e-01
v -5.151737e-01 9.213111e-02 5.089864e-01
v -5.123087e-01 9.106943e-02 5.145300e-01
v -5.094437e-01 9.000772e-02 5.200736e-01
v -5.052376e-01 8.758055e-02 5.249063e-01
v -5.016926e-01 8.583253e-02 5.301128e-01
v -4.994950e-01 8.545242e-02 5.360179e-01
v -4.979837e-01 8.576083e-02 5.422478e-01
v -6.080579e-01 9.659497e-02 2.493322e-01
v -6.060860e-01 9.674719e-02 2.564373e-01
v -6.035930e-01 9.626485e-02 2.629057e-01
v -6.011065e-01 9.578488e-02 2.693618e-01
v -5.980862e-01 9.466565e-02 2.752059e-01
v -5.956091e-01 9.418917e-02 2.816437e-01
v -5.931383e-01 9.371506e-02 2.880691e-01
v -5.901243e-01 9.259813e-02 2.939009e-01
v -5.865577e-01 9.083491e-02 2.991574e-01
v -5.824288e-01 8.842176e-02 3.038568e-01
v -5.782872e-01 8.600404e-02 3.085809e-01
v -5.746951e-01 8.423144e-02 3.138864e-01
v -5.710967e-01 8.245643e-02 3.192041e-01
v -5.686292e-01 8.198350e-02 3.256235e-01
v -5.650245e-01 8.020615e-02 3.309534e-01
v -5.602636e-01 7.711743e-02 3.352310e-01
v -5.566398e-01 7.533301e-02 3.405977e-01
v -5.541722e-01 7.486013e-02 3.470171e-01
v -5.517110e-01 7.438949e-02 3.534242e-01
v -5.492561e-01 7.392124e-02 3.598190e-01
v -5.468076e-01 7.345534e-02 3.662016e-01
v -5.449593e-01 7.365339e-02 3.730676e-01
v -5.431236e-01 7.385608e-02 3.799089e-01
v -5.419009e-01 7.472754e-02 3.872092e-01
v -5.400938e-01 7.494082e-02 3.939954e-01
v -5.389060e-01 7.582511e-02 4.012282e-01
v -5.383469e-01 7.738396e-02 4.088892e-01
v -5.384262e-01 7.962075e-02 4.169599e-01
v -5.379211e-01 8.119957e-02 4.245166e-01
v -5.374413e-01 8.278778e-02 4.320243e-01
v -5.369869e-01 8.438527e-02 4.394828e-01
v -5.371833e-01 8.666563e-02 4.473267e-01
v -5.361540e-01 8.760858e-02 4.542527e-01
v -5.351436e-01 8.855866e-02 4.611422e-01
v -5.347874e-01 9.019267e-02 4.684107e-01
v -5.350948e-01 9.251404e-02 4.760398e-01
v -5.335096e-01 9.280957e-02 4.823968e-01
v -5.319371e-01 9.310982e-02 4.887293e-01
v -5.303771e-01 9.341469e-02 4.950372e-01
v -5.281790e-01 9.304161e-02 5.009353e-01
v -5.253330e-01 9.198698e-02 5.064420e-01
v -5.218297e-01 9.024717e-02 5.115758e-01
v -5.189805e-01 8.919131e-02 5.170887e-01
v -5.154677e-01 8.744809e-02 5.222409e-01
v -5.106149e-01 8.432525e-02 5.266961e-01
v -5.077531e-01 8.326473e-02 5.322336e-01
v -5.042181e-01 8.151325e-02 5.374287e-01
v -6.159672e-01 9.886604e-02 2.646123e-01
v -6.140385e-01 9.904875e-02 2.716176e-01
v -6.110562e-01 9.794359e-02 2.773881e-01
v -6.070014e-01 9.554350e-02 2.819604e-01
v -6.040127e-01 9.443596e-02 2.877430e-01
v -6.010242e-01 9.332842e-02 2.935258e-01
v -5.974897e-01 9.156986e-02 2.987278e-01
v -5.933999e-01 8.915680e-02 3.033676e-01
v -5.898497e-01 8.739240e-02 3.086003e-01
v -5.857377e-01 8.497107e-02 3.132829e-01
v -5.821716e-01 8.320079e-02 3.185463e-01
v -5.791608e-01 8.208503e-02 3.243719e-01
v -5.761500e-01 8.096930e-02 3.301976e-01
v -5.725711e-01 7.919435e-02 3.354854e-01
v -5.678437e-01 7.609614e-02 3.397223e-01
v -5.642458e-01 7.431413e-02 3.450471e-01
v -5.617967e-01 7.385526e-02 3.514227e-01
v -5.599347e-01 7.406275e-02 3.582993e-01
v -5.569176e-01 7.294468e-02 3.641372e-01
v -5.544874e-01 7.249287e-02 3.704761e-01
v -5.532440e-01 7.337833e-02 3.777923e-01
v -5.514263e-01 7.360222e-02 3.845830e-01
v -5.502178e-01 7.450064e-02 3.918319e-01
v -5.490283e-01 7.540605e-02 3.990438e-01
v -5.484607e-01 7.699070e-02 4.066893e-01
v -5.485245e-01 7.925810e-02 4.147499e-01
v -5.480107e-01 8.086272e-02 4.222911e-01
v -5.469100e-01 8.180106e-02 4.293315e-01
v -5.458283e-01 8.274641e-02 4.363349e-01
v -5.453842e-01 8.437687e-02 4.437412e-01
v -5.449656e-01 8.601672e-02 4.510984e-01
v -5.439472e-01 8.698560e-02 4.579793e-01
v -5.435762e-01 8.864310e-02 4.652446e-01
v -5.432304e-01 9.030990e-02 4.724608e-01
v -5.422754e-01 9.130224e-02 4.792190e-01
v -5.407017e-01 9.161663e-02 4.855376e-01
v -5.391407e-01 9.193559e-02 4.918316e-01
v -5.369482e-01 9.157187e-02 4.977105e-01
v -5.347622e-01 9.121052e-02 5.035772e-01
v -5.319321e-01 9.016170e-02 5.090533e-01
v -5.277947e-01 8.773102e-02 5.137850e-01
v -5.249583e-01 8.667988e-02 5.192733e-01
v -5.214619e-01 8.493545e-02 5.244019e-01
v -5.172960e-01 8.249416e-02 5.291888e-01
v -5.144501e-01 8.143952e-02 5.346956e-01
v -5.122735e-01 8.108172e-02 5.405439e-01
v -6.222821e-01 9.938135e-02 2.778666e-01
v -6.182695e-01 9.698241e-02 2.823731e-01
v -6.147769e-01 9.523204e-02 2.875022e-01
v -6.112778e-01 9.347940e-02 2.926438e-01
v -6.066946e-01 9.041291e-02 2.966256e-01
v -6.031766e-01 8.865319e-02 3.018038e-01
v -5.996522e-01 8.689117e-02 3.069944e-01
v -5.961215e-01 8.512676e-02 3.121972e-01
v -5.925845e-01 8.336002e-02 3.174124e-01
v -5.895959e-01 8.225250e-02 3.231951e-01
v -5.871652e-01 8.180772e-02 3.295269e-01
v -5.841797e-01 8.070139e-02 3.353035e-01
v -5.806300e-01 7.892994e-02 3.405432e-01
v -5.770740e-01 7.715613e-02 3.457951e-01
v -5.740822e-01 7.604741e-02 3.515839e-01
v -5.710904e-01 7.493873e-02 3.573727e-01
v -5.692525e-01 7.516968e-02 3.641865e-01
v -5.668472e-01 7.473430e-02 3.704693e-01
v -5.644483e-01 7.430126e-02 3.767399e-01
v -5.626421e-01 7.454403e-02 3.834923e-01
v -5.608486e-01 7.479136e-02 3.902201e-01
v -5.602534e-01 7.639478e-02 3.978869e-01
v -5.590876e-01 7.733083e-02 4.050290e-01
v -5.585400e-01 7.895182e-02 4.126039e-01
v -5.580177e-01 8.058229e-02 4.201297e-01
v -5.569152e-01 8.154177e-02 4.271490e-01
v -5.558318e-01 8.250832e-02 4.341318e-01
v -5.541556e-01 8.279912e-02 4.406327e-01
v -5.531071e-01 8.377854e-02 4.475479e-01
v -5.520775e-01 8.476503e-02 4.544263e-01
v -5.516883e-01 8.644480e-02 4.616945e-01
v -5.519489e-01 8.882145e-02 4.693342e-01
v -5.509860e-01 8.983258e-02 4.760838e-01
v -5.500420e-01 9.085080e-02 4.827967e-01
v -5.484831e-01 9.118504e-02 4.890707e-01
v -5.462996e-01 9.083191e-02 4.949243e-01
v -5.441225e-01 9.048109e-02 5.007656e-01
v -5.413082e-01 8.943817e-02 5.062111e-01
v -5.384939e-01 8.839525e-02 5.116565e-01
v -5.343798e-01 8.595868e-02 5.163592e-01
v -5.309062e-01 8.421542e-02 5.214516e-01
v -5.280824e-01 8.316896e-02 5.269155e-01
v -5.186650e-01 7.511907e-02 5.288495e-01
v -5.197846e-01 7.827003e-02 5.364558e-01
v -5.156168e-01 7.581350e-02 5.412627e-01
v -6.278459e-01 9.653516e-02 2.810524e-01
v -6.243792e-01 9.478721e-02 2.861395e-01
v -6.209061e-01 9.303692e-02 2.912389e-01
v -6.174266e-01 9.128419e-02 2.963506e-01
v -6.123352e-01 8.754443e-02 2.997190e-01
v -6.082953e-01 8.512077e-02 3.042944e-01
v -6.053256e-01 8.402028e-02 3.100404e-01
v -6.023561e-01 8.291984e-02 3.157862e-01
v -5.993864e-01 8.181936e-02 3.215322e-01
v -5.964168e-01 8.071888e-02 3.272781e-01
v -5.940015e-01 8.028707e-02 3.335724e-01
v -5.915925e-01 7.985757e-02 3.398545e-01
v -5.886292e-01 7.875948e-02 3.455881e-01
v -5.856660e-01 7.766134e-02 3.513218e-01
v -5.827027e-01 7.656321e-02 3.570554e-01
v -5.803095e-01 7.613965e-02 3.633069e-01
v -5.784958e-01 7.639401e-02 3.700575e-01
v -5.761185e-01 7.597628e-02 3.762783e-01
v -5.743271e-01 7.623894e-02 3.829861e-01
v -5.725484e-01 7.650629e-02 3.896694e-01
v -5.707823e-01 7.677832e-02 3.963282e-01
v -5.696180e-01 7.773664e-02 4.034433e-01
v -5.678805e-01 7.801926e-02 4.100470e-01
v -5.673464e-01 7.967438e-02 4.175633e-01
v -5.662391e-01 8.065381e-02 4.245682e-01
v -5.651509e-01 8.164030e-02 4.315362e-01
v -5.640816e-01 8.263383e-02 4.384674e-01
v -5.624233e-01 8.294575e-02 4.449177e-01
v -5.607776e-01 8.326246e-02 4.513434e-01
v -5.603735e-01 8.496569e-02 4.586084e-01
v -5.599948e-01 8.667842e-02 4.658243e-01
v -5.596414e-01 8.840046e-02 4.729913e-01
v -5.586895e-01 8.943745e-02 4.796956e-01
v -5.571293e-01 8.978585e-02 4.859557e-01
v -5.555819e-01 9.013890e-02 4.921914e-01
v -5.534138e-01 8.979875e-02 4.980074e-01
v -5.512519e-01 8.946085e-02 5.038112e-01
v -5.490964e-01 8.912529e-02 5.096026e-01
v -5.463043e-01 8.809060e-02 5.150051e-01
v -5.422200e-01 8.565053e-02 5.196665e-01
v -5.374736e-01 8.250183e-02 5.239879e-01
v -5.340132e-01 8.075625e-02 5.290628e-01
v -5.338246e-01 8.253939e-02 5.359108e-01
v -6.323424e-01 9.241047e-02 2.830140e-01
v -6.288857e-01 9.065894e-02 2.880897e-01
v -6.254226e-01 8.890512e-02 2.931775e-01
v -6.219533e-01 8.714894e-02 2.982778e-01
v -6.174146e-01 8.405545e-02 3.022215e-01
v -6.139262e-01 8.229223e-02 3.073584e-01
v -6.104315e-01 8.052667e-02 3.125077e-01
v -6.080124e-01 8.010066e-02 3.188012e-01
v -6.055996e-01 7.967706e-02 3.250825e-01
v -6.037405e-01 7.992912e-02 3.319052e-01
v -6.007932e-01 7.883688e-02 3.376082e-01
v -5.983994e-01 7.842036e-02 3.438527e-01
v -5.954552e-01 7.732930e-02 3.495495e-01
v -5.930708e-01 7.691619e-02 3.557756e-01
v -5.906929e-01 7.650553e-02 3.619894e-01
v -5.888877e-01 7.677754e-02 3.687079e-01
v -5.865257e-01 7.637276e-02 3.748911e-01
v -5.841700e-01 7.597030e-02 3.810619e-01
v -5.818206e-01 7.557017e-02 3.872205e-01
v -5.806356e-01 7.654255e-02 3.943517e-01
v -5.794696e-01 7.752201e-02 4.014460e-01
v -5.777373e-01 7.782103e-02 4.080235e-01
v -5.760176e-01 7.812483e-02 4.145764e-01
v -5.749023e-01 7.912301e-02 4.215726e-01
v -5.732112e-01 7.943733e-02 4.280704e-01
v -5.721308e-01 8.044855e-02 4.349992e-01
v -5.710694e-01 8.146675e-02 4.418913e-01
v -5.700270e-01 8.249196e-02 4.487465e-01
v -5.683961e-01 8.282860e-02 4.551277e-01
v -5.686099e-01 8.526041e-02 4.627777e-01
v -5.682417e-01 8.700600e-02 4.699413e-01
v -5.672816e-01 8.806176e-02 4.766371e-01
v -5.657205e-01 8.842426e-02 4.828835e-01
v -5.641720e-01 8.879139e-02 4.891052e-01
v -5.626361e-01 8.916330e-02 4.953025e-01
v -5.611129e-01 8.953986e-02 5.014752e-01
v -5.602354e-01 9.062618e-02 5.080116e-01
v -5.587407e-01 9.101330e-02 5.141290e-01
v -5.512927e-01 8.684173e-02 5.237021e-01
v -5.427126e-01 7.942753e-02 5.257890e-01
v -6.328590e-01 8.588437e-02 2.894346e-01
v -6.294029e-01 8.412584e-02 2.945172e-01
v -6.259404e-01 8.236494e-02 2.996121e-01
v -6.224716e-01 8.060177e-02 3.047192e-01
v -6.195274e-01 7.951070e-02 3.104161e-01
v -6.165831e-01 7.841961e-02 3.161130e-01
v -6.136389e-01 7.732854e-02 3.218097e-01
v -6.112350e-01 7.691545e-02 3.280657e-01
v -6.088376e-01 7.650476e-02 3.343094e-01
v -6.064465e-01 7.609643e-02 3.405407e-01
v -6.040617e-01 7.569039e-02 3.467599e-01
v -6.016832e-01 7.528680e-02 3.529668e-01
v -5.998673e-01 7.556940e-02 3.596898e-01
v -5.980642e-01 7.585676e-02 3.663883e-01
v -5.962737e-01 7.614870e-02 3.730622e-01
v -5.939301e-01 7.575800e-02 3.792016e-01
v -5.915928e-01 7.536962e-02 3.853288e-01
v -5.898340e-01 7.567338e-02 3.919414e-01
v -5.880879e-01 7.598185e-02 3.985295e-01
v -5.869329e-01 7.698708e-02 4.055786e-01
v -5.857969e-01 7.799949e-02 4.125908e-01
v -5.835104e-01 7.762983e-02 4.186198e-01
v -5.818181e-01 7.795824e-02 4.251037e-01
v -5.807297e-01 7.898820e-02 4.320240e-01
v -5.790660e-01 7.932720e-02 4.384527e-01
v -5.780124e-01 8.037008e-02 4.453055e-01
v -5.769778e-01 8.142001e-02 4.521215e-01
v -5.759623e-01 8.247695e-02 4.589007e-01
v -5.761797e-01 8.494637e-02 4.665038e-01
v -5.758187e-01 8.672362e-02 4.736213e-01
v -5.742564e-01 8.710022e-02 4.798538e-01
v -5.727067e-01 8.748147e-02 4.860617e-01
v -5.705501e-01 8.716003e-02 4.918393e-01
v -5.690227e-01 8.754956e-02 4.980043e-01
v -5.687599e-01 8.936322e-02 5.049317e-01
v -5.672642e-01 8.976444e-02 5.110354e-01
v -6.368250e-01 8.112155e-02 2.907780e-01
v -6.338934e-01 8.003519e-02 2.964503e-01
v -6.304409e-01 7.827074e-02 3.015337e-01
v -6.269822e-01 7.650399e-02 3.066294e-01
v -6.240443e-01 7.541530e-02 3.123139e-01
v -6.216368e-01 7.500809e-02 3.185691e-01
v -6.187021e-01 7.392053e-02 3.242475e-01
v -6.163040e-01 7.351692e-02 3.304843e-01
v -6.144521e-01 7.380070e-02 3.372609e-01
v -6.120700e-01 7.340296e-02 3.434669e-01
v -6.102404e-01 7.369498e-02 3.502006e-01
v -6.084233e-01 7.399167e-02 3.569097e-01
v -6.060665e-01 7.360325e-02 3.630667e-01
v -6.048275e-01 7.459915e-02 3.702545e-01
v -6.030486e-01 7.490998e-02 3.768900e-01
v -6.007202e-01 7.453215e-02 3.829918e-01
v -5.995287e-01 7.554568e-02 3.900875e-01
v -5.977878e-01 7.587062e-02 3.966495e-01
v -5.960596e-01 7.620020e-02 4.031870e-01
v -5.943440e-01 7.653446e-02 4.096999e-01
v -5.932190e-01 7.757260e-02 4.166668e-01
v -5.909510e-01 7.721714e-02 4.226521e-01
v -5.886892e-01 7.686408e-02 4.286252e-01
v -5.870211e-01 7.721589e-02 4.350460e-01
v -5.847753e-01 7.686864e-02 4.409884e-01
v -5.837232e-01 7.793384e-02 4.478143e-01
v -5.832871e-01 7.971227e-02 4.550452e-01
v -5.828763e-01 8.150018e-02 4.622270e-01
v -5.836973e-01 8.471452e-02 4.702187e-01
v -5.833436e-01 8.652355e-02 4.772901e-01
v -5.817960e-01 8.692003e-02 4.834780e-01
v -5.802611e-01 8.732129e-02 4.896414e-01
v -5.787389e-01 8.772721e-02 4.957803e-01
v -5.772293e-01 8.813785e-02 5.018946e-01
v -5.757324e-01 8.855318e-02 5.079843e-01
v -5.742482e-01 8.897323e-02 5.140496e-01
v -6.407834e-01 7.637048e-02 2.921198e-01
v -6.378550e-01 7.528529e-02 2.977859e-01
v -6.349266e-01 7.420007e-02 3.034522e-01
v -6.314779e-01 7.242976e-02 3.085363e-01
v -6.290698e-01 7.202969e-02 3.147845e-01
v -6.266680e-01 7.163187e-02 3.210204e-01
v -6.242726e-01 7.123648e-02 3.272440e-01
v -6.224165e-01 7.153323e-02 3.340129e-01
v -6.200370e-01 7.114366e-02 3.402060e-01
v -6.176637e-01 7.075643e-02 3.463866e-01
v -6.158393e-01 7.106489e-02 3.530942e-01
v -6.140275e-01 7.137802e-02 3.597772e-01
v -6.122285e-01 7.169590e-02 3.664357e-01
v -6.104421e-01 7.201845e-02 3.730697e-01
v -6.086684e-01 7.234569e-02 3.796791e-01
v -6.074656e-01 7.337682e-02 3.867724e-01
v -6.057205e-01 7.371461e-02 3.933266e-01
v -6.039880e-01 7.405716e-02 3.998564e-01
v -6.022681e-01 7.440433e-02 4.063615e-01
v -6.011320e-01 7.546020e-02 4.133260e-01
v -6.000148e-01 7.652302e-02 4.202537e-01
v -5.971847e-01 7.547421e-02 4.257299e-01
v -5.949351e-01 7.513284e-02 4.316714e-01
v -5.926917e-01 7.479373e-02 4.376007e-01
v -5.904548e-01 7.445706e-02 4.435178e-01
v -5.894042e-01 7.554460e-02 4.503168e-01
v -5.889658e-01 7.735123e-02 4.575199e-01
v -5.891491e-01 7.988051e-02 4.651088e-01
v -5.905632e-01 8.385043e-02 4.734937e-01
v -5.914190e-01 8.712123e-02 4.813702e-01
v -5.923128e-01 9.040613e-02 4.891732e-01
v -5.895904e-01 8.939727e-02 4.944408e-01
v -5.868680e-01 8.838838e-02 4.997084e-01
v -6.407887e-01 6.916983e-02 2.979330e-01
v -6.393974e-01 7.015281e-02 3.053672e-01
v -6.369918e-01 6.976092e-02 3.116024e-01
v -6.340730e-01 6.867926e-02 3.172502e-01
v -6.316770e-01 6.829091e-02 3.234670e-01
v -6.292874e-01 6.790486e-02 3.296713e-01
v -6.274333e-01 6.821681e-02 3.364202e-01
v -6.255919e-01 6.853357e-02 3.431446e-01
v -6.237632e-01 6.885492e-02 3.498443e-01
v -6.224859e-01 6.988016e-02 3.570580e-01
v -6.196019e-01 6.881140e-02 3.626383e-01
v -6.178080e-01 6.914565e-02 3.692706e-01
v -6.165751e-01 7.018734e-02 3.763983e-01
v -6.153613e-01 7.123612e-02 3.834892e-01
v -6.136117e-01 7.158685e-02 3.900358e-01
v -6.118750e-01 7.194232e-02 3.965577e-01
v -6.101509e-01 7.230243e-02 4.030551e-01
v -6.090035e-01 7.337584e-02 4.100173e-01
v -6.073079e-01 7.374656e-02 4.164595e-01
v -6.050545e-01 7.341103e-02 4.224003e-01
v -6.022340e-01 7.236576e-02 4.278580e-01
v -5.994132e-01 7.132049e-02 4.333157e-01
v -5.971726e-01 7.098966e-02 4.392319e-01
v -5.955214e-01 7.137681e-02 4.455883e-01
v -5.950554e-01 7.320229e-02 4.528128e-01
v -5.940253e-01 7.431912e-02 4.595480e-01
v -5.947922e-01 7.760050e-02 4.675486e-01
v -6.437299e-01 6.304272e-02 2.980816e-01
v -6.428338e-01 6.473780e-02 3.061061e-01
v -6.414503e-01 6.574545e-02 3.135013e-01
v -6.385378e-01 6.466615e-02 3.191368e-01
v -6.356252e-01 6.358679e-02 3.247724e-01
v -6.337573e-01 6.390814e-02 3.315318e-01
v -6.319022e-01 6.423427e-02 3.382669e-01
v -6.311170e-01 6.597037e-02 3.460768e-01
v -6.298254e-01 6.701213e-02 3.532941e-01
v -6.280178e-01 6.735582e-02 3.599371e-01
v -6.256846e-01 6.699792e-02 3.660242e-01
v -6.238991e-01 6.734988e-02 3.726243e-01
v -6.221264e-01 6.770650e-02 3.792000e-01
v -6.209140e-01 6.877756e-02 3.862639e-01
v -6.197206e-01 6.985565e-02 3.932910e-01
v -6.185463e-01 7.094087e-02 4.002814e-01
v -6.168337e-01 7.131976e-02 4.067404e-01
v -6.162545e-01 7.313224e-02 4.141518e-01
v -6.140101e-01 7.280731e-02 4.200672e-01
v -6.112053e-01 7.176792e-02 4.254943e-01
v -6.084006e-01 7.072850e-02 4.309213e-01
v -6.055957e-01 6.968910e-02 4.363484e-01
v -6.027909e-01 6.864971e-02 4.417755e-01
v -6.011450e-01 6.905335e-02 4.481057e-01
v -6.000942e-01 7.018427e-02 4.548569e-01
v -5.996482e-01 7.204612e-02 4.620107e-01
v -6.457643e-01 5.862122e-02 3.062594e-01
v -6.443665e-01 5.964535e-02 3.136583e-01
v -6.424753e-01 5.997259e-02 3.204468e-01
v -6.400813e-01 5.959948e-02 3.266435e-01
v -6.382124e-01 5.993501e-02 3.333892e-01
v -6.368779e-01 6.098253e-02 3.406654e-01
v -6.366123e-01 6.345426e-02 3.490026e-01
v -6.353222e-01 6.451833e-02 3.561930e-01
v -6.340511e-01 6.558939e-02 3.633466e-01
v -6.317300e-01 6.524330e-02 3.694022e-01
v -6.299530e-01 6.561284e-02 3.759701e-01
v -6.276478e-01 6.527263e-02 3.819951e-01
v -6.258929e-01 6.565036e-02 3.885199e-01
v -6.246979e-01 6.674963e-02 3.955264e-01
v -6.235219e-01 6.785590e-02 4.024959e-01
v -6.229183e-01 6.968840e-02 4.099224e-01
v -6.223401e-01 7.153026e-02 4.172999e-01
v -6.206676e-01 7.193856e-02 4.236654e-01
v -6.184449e-01 7.162893e-02 4.295310e-01
v -6.150961e-01 6.987384e-02 4.344458e-01
v -6.117410e-01 6.811650e-02 4.393731e-01
v -6.083795e-01 6.635677e-02 4.443125e-01
v -6.061631e-01 6.604946e-02 4.501658e-01
v -6.045318e-01 6.647302e-02 4.564516e-01
v -6.058232e-01 7.054982e-02 4.649055e-01
v -6.089146e-01 7.683583e-02 4.745708e-01
v -6.469140e-01 5.600055e-02 3.223279e-01
v -6.455461e-01 5.705753e-02 3.296445e-01
v -6.441972e-01 5.812155e-02 3.369244e-01
v -6.433855e-01 5.990590e-02 3.447219e-01
v -6.425990e-01 6.169957e-02 3.524702e-01
v -6.418380e-01 6.350276e-02 3.601694e-01
v -6.405747e-01 6.459846e-02 3.672838e-01
v -6.382690e-01 6.426528e-02 3.733019e-01
v -6.359695e-01 6.393448e-02 3.793077e-01
v -6.336765e-01 6.360605e-02 3.853014e-01
v -6.308495e-01 6.255841e-02 3.907713e-01
v -6.291093e-01 6.295612e-02 3.972517e-01
v -6.284751e-01 6.480622e-02 4.047056e-01
v -6.284159e-01 6.739073e-02 4.126035e-01
v -6.283884e-01 6.998701e-02 4.204400e-01
v -6.267243e-01 7.041297e-02 4.267732e-01
v -6.245136e-01 7.011502e-02 4.326074e-01
v -6.211845e-01 6.836004e-02 4.374924e-01
v -6.178489e-01 6.660261e-02 4.423897e-01
v -6.145070e-01 6.484288e-02 4.472993e-01
v -6.117308e-01 6.381404e-02 4.526711e-01
v -6.101047e-01 6.425410e-02 4.589307e-01
v -6.102262e-01 6.690555e-02 4.664791e-01
v -6.121237e-01 7.177901e-02 4.752609e-01
v -6.504730e-01 5.384576e-02 3.320735e-01
v -6.501448e-01 5.636684e-02 3.404517e-01
v -6.493340e-01 5.818059e-02 3.482153e-01
v -6.495834e-01 6.144434e-02 3.570244e-01
v -6.488297e-01 6.327915e-02 3.646776e-01
v -6.470536e-01 6.367804e-02 3.712115e-01
v -6.442361e-01 6.263395e-02 3.766630e-01
v -6.408884e-01 6.086485e-02 3.815918e-01
v -6.380678e-01 5.981960e-02 3.870495e-01
v -6.357837e-01 5.950166e-02 3.930178e-01
v -6.345853e-01 6.064318e-02 3.999825e-01
v -6.344916e-01 6.325124e-02 4.079070e-01
v -6.349757e-01 6.660189e-02 4.162624e-01
v -6.343993e-01 6.850249e-02 4.235722e-01
v -6.327437e-01 6.894606e-02 4.298731e-01
v -6.299896e-01 6.792547e-02 4.352020e-01
v -6.266769e-01 6.616923e-02 4.400633e-01
v -6.227958e-01 6.367392e-02 4.444754e-01
v -6.194672e-01 6.191190e-02 4.493674e-01
v -6.167005e-01 6.088658e-02 4.547208e-01
v -6.150764e-01 6.134180e-02 4.609605e-01
v -6.140397e-01 6.254329e-02 4.676125e-01
v -6.542184e-01 6.095572e-02 3.675532e-01
v -6.529676e-01 6.209959e-02 3.745953e-01
v -6.501660e-01 6.106135e-02 3.800162e-01
v -6.468380e-01 5.929219e-02 3.849151e-01
v -6.435035e-01 5.752075e-02 3.898263e-01
v -6.412284e-01 5.721341e-02 3.957692e-01
v -6.405674e-01 5.911168e-02 4.032106e-01
v -6.409485e-01 6.514674e-02 4.194203e-01
v -6.392745e-01 6.827697e-02 4.334439e-01
v -6.365394e-01 6.726340e-02 4.387360e-01
v -6.321394e-01 6.402545e-02 4.426277e-01
v -6.238437e-01 5.827221e-02 4.509762e-01
v -6.578116e-01 5.911098e-02 3.769042e-01
v -6.550195e-01 5.807631e-02 3.823066e-01
v -6.522274e-01 5.704159e-02 3.877092e-01
v -6.466432e-01 5.497218e-02 3.985142e-01
v -6.459800e-01 5.689863e-02 4.059279e-01
v -6.499268e-01 4.979794e-02 3.992202e-01
v -6.508343e-01 5.398643e-02 4.081367e-01
