v -3.808078e-01 1.464834e-01 1.941159e-01
v -3.707333e-01 1.469873e-01 1.989463e-01
v -4.305244e-01 1.381243e-01 1.850321e-01
v -4.207276e-01 1.378864e-01 1.869607e-01
v -4.100959e-01 1.389122e-01 1.937103e-01
v -3.998930e-01 1.394399e-01 1.985314e-01
v -3.892841e-01 1.407334e-01 2.062453e-01
v -3.784835e-01 1.425436e-01 2.158875e-01
v -3.679673e-01 1.441102e-01 2.245655e-01
v -3.575767e-01 1.456867e-01 2.332437e-01
v -4.397068e-01 1.310530e-01 1.923533e-01
v -4.286203e-01 1.326358e-01 2.010148e-01
v -4.187401e-01 1.326774e-01 2.039019e-01
v -4.082094e-01 1.337585e-01 2.106384e-01
v -3.977763e-01 1.348473e-01 2.173750e-01
v -3.874410e-01 1.359439e-01 2.241117e-01
v -3.767468e-01 1.378302e-01 2.337355e-01
v -3.660471e-01 1.399886e-01 2.443214e-01
v -3.238458e-01 1.508509e-01 2.943650e-01
v -3.143006e-01 1.522821e-01 3.020640e-01
v -3.048672e-01 1.537222e-01 3.097629e-01
v -2.965088e-01 1.525200e-01 3.078381e-01
v -4.571391e-01 1.260948e-01 2.044586e-01
v -4.474030e-01 1.258886e-01 2.063797e-01
v -4.373058e-01 1.262129e-01 2.102216e-01
v -4.270767e-01 1.268063e-01 2.150242e-01
v -4.169174e-01 1.274051e-01 2.198268e-01
v -4.061333e-01 1.290727e-01 2.284716e-01
v -3.958083e-01 1.302173e-01 2.351951e-01
v -3.854213e-01 1.316367e-01 2.428793e-01
v -3.746878e-01 1.338670e-01 2.534450e-01
v -3.636707e-01 1.369133e-01 2.668921e-01
v -3.522942e-01 1.410492e-01 2.841814e-01
v -3.411688e-01 1.452048e-01 3.014709e-01
v -3.310436e-01 1.477623e-01 3.129970e-01
v -3.217926e-01 1.487120e-01 3.187602e-01
v -3.122930e-01 1.504804e-01 3.274047e-01
v -3.030229e-01 1.519874e-01 3.350889e-01
v -2.944455e-01 1.518724e-01 3.370100e-01
v -2.859861e-01 1.514870e-01 3.379704e-01
v -2.763799e-01 1.549237e-01 3.523782e-01
v -4.549191e-01 1.208725e-01 2.203613e-01
v -4.352781e-01 1.210464e-01 2.261134e-01
v -4.255203e-01 1.211383e-01 2.289893e-01
v -4.152610e-01 1.220494e-01 2.347412e-01
v -4.047371e-01 1.235121e-01 2.424105e-01
v -3.939905e-01 1.255297e-01 2.519971e-01
v -3.833836e-01 1.275582e-01 2.615837e-01
v -3.723032e-01 1.306945e-01 2.750051e-01
v -3.611259e-01 1.343955e-01 2.903437e-01
v -3.501719e-01 1.381140e-01 3.056821e-01
v -3.391767e-01 1.424017e-01 3.229380e-01
v -3.293100e-01 1.447746e-01 3.334834e-01
v -3.199518e-01 1.463289e-01 3.411527e-01
v -3.107054e-01 1.478920e-01 3.488220e-01
v -3.018837e-01 1.486299e-01 3.536153e-01
v -2.932292e-01 1.490946e-01 3.574498e-01
v -2.845403e-01 1.498429e-01 3.622431e-01
v -2.762547e-01 1.494780e-01 3.632019e-01
v -4.631212e-01 1.149010e-01 2.304714e-01
v -4.531035e-01 1.152857e-01 2.342985e-01
v -4.431416e-01 1.156749e-01 2.381258e-01
v -4.334312e-01 1.157908e-01 2.409962e-01
v -4.243286e-01 1.150755e-01 2.409962e-01
v -4.143176e-01 1.157538e-01 2.457802e-01
v -4.035029e-01 1.178338e-01 2.553483e-01
v -3.923247e-01 1.207641e-01 2.677868e-01
v -3.814887e-01 1.234283e-01 2.792684e-01
v -3.702051e-01 1.272293e-01 2.945773e-01
v -3.588513e-01 1.316108e-01 3.117998e-01
v -3.473295e-01 1.368579e-01 3.318926e-01
v -3.368977e-01 1.404329e-01 3.462448e-01
v -3.275563e-01 1.420426e-01 3.538991e-01
v -3.185643e-01 1.430939e-01 3.596399e-01
v -3.097678e-01 1.438676e-01 3.644240e-01
v -3.012511e-01 1.440774e-01 3.672945e-01
v -2.929720e-01 1.437198e-01 3.682513e-01
v -2.847070e-01 1.433633e-01 3.692080e-01
v -4.896883e-01 1.101811e-01 2.395965e-01
v -4.798647e-01 1.103085e-01 2.424614e-01
v -4.614284e-01 1.091596e-01 2.434165e-01
v -4.516956e-01 1.092940e-01 2.462812e-01
v -4.413950e-01 1.102831e-01 2.520109e-01
v -4.315706e-01 1.107102e-01 2.558308e-01
v -4.225587e-01 1.100021e-01 2.558308e-01
v -4.130002e-01 1.101502e-01 2.586955e-01
v -4.019066e-01 1.128755e-01 2.701550e-01
v -3.909804e-01 1.156139e-01 2.816144e-01
v -3.807057e-01 1.175043e-01 2.902088e-01
v -3.696308e-01 1.211303e-01 3.045332e-01
v -3.559663e-01 1.302480e-01 3.370014e-01
v -3.440396e-01 1.368046e-01 3.608751e-01
v -3.349955e-01 1.378924e-01 3.666048e-01
v -3.262880e-01 1.384072e-01 3.704247e-01
v -3.177557e-01 1.386360e-01 3.732894e-01
v -3.093776e-01 1.385772e-01 3.751994e-01
v -3.012384e-01 1.379377e-01 3.751994e-01
v -2.931976e-01 1.370061e-01 3.742445e-01
v -2.851429e-01 1.360734e-01 3.732894e-01
v -6.077589e-01 1.118266e-01 2.458367e-01
v -5.983340e-01 1.113926e-01 2.467897e-01
v -5.879769e-01 1.118048e-01 2.506022e-01
v -5.177716e-01 1.035296e-01 2.420242e-01
v -5.073783e-01 1.042455e-01 2.467897e-01
v -4.975461e-01 1.043925e-01 2.496490e-01
v -4.882328e-01 1.039673e-01 2.506022e-01
v -4.787020e-01 1.038314e-01 2.525084e-01
v -4.689744e-01 1.039866e-01 2.553676e-01
v -4.592887e-01 1.041451e-01 2.582269e-01
v -4.498556e-01 1.040169e-01 2.601331e-01
v -4.400430e-01 1.044719e-01 2.639454e-01
v -4.300896e-01 1.052224e-01 2.687108e-01
v -4.203956e-01 1.056868e-01 2.725233e-01
v -4.103920e-01 1.067399e-01 2.782418e-01
v -3.997693e-01 1.089704e-01 2.877727e-01
v -3.889484e-01 1.117984e-01 2.992099e-01
v -3.422696e-01 1.338783e-01 3.792697e-01
v -3.336088e-01 1.344238e-01 3.830820e-01
v -3.253845e-01 1.340841e-01 3.840352e-01
v -3.171742e-01 1.337454e-01 3.849882e-01
v -3.089778e-01 1.334079e-01 3.859413e-01
v -3.011134e-01 1.321769e-01 3.840352e-01
v -2.932209e-01 1.309437e-01 3.821290e-01
v -2.856686e-01 1.285112e-01 3.764105e-01
v -6.044903e-01 1.064982e-01 2.596718e-01
v -5.961172e-01 1.052137e-01 2.577693e-01
v -5.678113e-01 1.042426e-01 2.615742e-01
v -5.602812e-01 1.020845e-01 2.568180e-01
v -5.523934e-01 1.002115e-01 2.530131e-01
v -5.342581e-01 9.878653e-02 2.530131e-01
v -5.251905e-01 9.807402e-02 2.530131e-01
v -5.156027e-01 9.794722e-02 2.549156e-01
v -5.055367e-01 9.840941e-02 2.587204e-01
v -4.957727e-01 9.858206e-02 2.615742e-01
v -4.865287e-01 9.816902e-02 2.625255e-01
v -4.772987e-01 9.775702e-02 2.634766e-01
v -4.678575e-01 9.764179e-02 2.653792e-01
v -4.582261e-01 9.782482e-02 2.682328e-01
v -4.488478e-01 9.771453e-02 2.701354e-01
v -4.390889e-01 9.820085e-02 2.739402e-01
v -4.289915e-01 9.928721e-02 2.796478e-01
v -4.185972e-01 1.009768e-01 2.872577e-01
v -4.064819e-01 1.056641e-01 3.043799e-01
v -3.085685e-01 1.283598e-01 3.966499e-01
v -3.005550e-01 1.277301e-01 3.966499e-01
v -2.932379e-01 1.249621e-01 3.899912e-01
v -6.256216e-01 9.716831e-02 2.554241e-01
v -6.121682e-01 1.002720e-01 2.677661e-01
v -6.018697e-01 1.007430e-01 2.715635e-01
v -5.922739e-01 1.006292e-01 2.734622e-01
v -5.823895e-01 1.008127e-01 2.763104e-01
v -5.728565e-01 1.007037e-01 2.782091e-01
v -5.642590e-01 9.970813e-02 2.772599e-01
v -5.556473e-01 9.871136e-02 2.763104e-01
v -5.461563e-01 9.860571e-02 2.782091e-01
v -5.375376e-01 9.760845e-02 2.772599e-01
v -5.291797e-01 9.631155e-02 2.753610e-01
v -5.210613e-01 9.471347e-02 2.725130e-01
v -5.123798e-01 9.371122e-02 2.715635e-01
v -5.029236e-01 9.360829e-02 2.734622e-01
v -4.939887e-01 9.290621e-02 2.734622e-01
v -4.848140e-01 9.250540e-02 2.744117e-01
v -4.749553e-01 9.301097e-02 2.782091e-01
v -4.660552e-01 9.231162e-02 2.782091e-01
v -4.571550e-01 9.161228e-02 2.782091e-01
v -4.476198e-01 9.182322e-02 2.810573e-01
v -4.379216e-01 9.234147e-02 2.848549e-01
v -4.282794e-01 9.286408e-02 2.886524e-01
v -6.211354e-01 9.292110e-02 2.720479e-01
v -6.104830e-01 9.371826e-02 2.767856e-01
v -5.992385e-01 9.512253e-02 2.834181e-01
v -5.884156e-01 9.623317e-02 2.891034e-01
v -5.783106e-01 9.674647e-02 2.928934e-01
v -5.695011e-01 9.605425e-02 2.928934e-01
v -5.609948e-01 9.505904e-02 2.919460e-01
v -5.515864e-01 9.497342e-02 2.938410e-01
v -5.422059e-01 9.488999e-02 2.957360e-01
v -5.342637e-01 9.328541e-02 2.928934e-01
v -5.262795e-01 9.167750e-02 2.900508e-01
v -5.182535e-01 9.006638e-02 2.872083e-01
v -5.096634e-01 8.906455e-02 2.862608e-01
v -5.008051e-01 8.836849e-02 2.862608e-01
v -4.921941e-01 8.736500e-02 2.853132e-01
v -4.830887e-01 8.697639e-02 2.862608e-01
v -4.732977e-01 8.751436e-02 2.900508e-01
v -4.646935e-01 8.651148e-02 2.891034e-01
v -4.562947e-01 8.519785e-02 2.872083e-01
v -4.423495e-01 9.194615e-02 3.099488e-01
v -6.183603e-01 8.734346e-02 2.838878e-01
v -6.060830e-01 8.971485e-02 2.933445e-01
v -5.942765e-01 9.178959e-02 3.018554e-01
v -5.832447e-01 9.325806e-02 3.084752e-01
v -5.735807e-01 9.349952e-02 3.113122e-01
v -5.658215e-01 9.188899e-02 3.084752e-01
v -5.574134e-01 9.089467e-02 3.075294e-01
v -5.483982e-01 9.051993e-02 3.084752e-01
v -5.402657e-01 8.921368e-02 3.065838e-01
v -5.323879e-01 8.759384e-02 3.037468e-01
v -5.241925e-01 8.628261e-02 3.018554e-01
v -5.165065e-01 8.434423e-02 2.980727e-01
v -5.079797e-01 8.334061e-02 2.971270e-01
v -4.991843e-01 8.264949e-02 2.971270e-01
v -4.901412e-01 8.227253e-02 2.980727e-01
v -4.813528e-01 8.158196e-02 2.980727e-01
v -4.711621e-01 8.278291e-02 3.037468e-01
v -4.594678e-01 8.620094e-02 3.160405e-01
v -4.132180e-01 1.279377e-01 4.446514e-01
v -4.073637e-01 1.244753e-01 4.361405e-01
v -3.978051e-01 1.267266e-01 4.446514e-01
v -3.900987e-01 1.261211e-01 4.446514e-01
v -3.822073e-01 1.258347e-01 4.455972e-01
v -6.138451e-01 8.346641e-02 3.004094e-01
v -6.003113e-01 8.716836e-02 3.136229e-01
v -5.863089e-01 9.151420e-02 3.287238e-01
v -5.659707e-01 9.331990e-02 3.381619e-01
v -5.587056e-01 9.138753e-02 3.343868e-01
v -5.510807e-01 8.976722e-02 3.315552e-01
v -5.437109e-01 8.782663e-02 3.277801e-01
v -5.362853e-01 8.588157e-02 3.240047e-01
v -5.273883e-01 8.552290e-02 3.249487e-01
v -5.187813e-01 8.484659e-02 3.249487e-01
v -4.123088e-01 1.227723e-01 4.533072e-01
v -4.021752e-01 1.260607e-01 4.646330e-01
v -3.955981e-01 1.238420e-01 4.599139e-01
v -3.885665e-01 1.222683e-01 4.570825e-01
v -3.807514e-01 1.219946e-01 4.580263e-01
v -3.727719e-01 1.220483e-01 4.599139e-01
v -3.651632e-01 1.214505e-01 4.599139e-01
v -5.749886e-01 9.479899e-02 3.649153e-01
v -5.656844e-01 9.510939e-02 3.677413e-01
v -5.583333e-01 9.349027e-02 3.649153e-01
v -5.515633e-01 9.122252e-02 3.602055e-01
v -5.450283e-01 8.862609e-02 3.545538e-01
v -5.360284e-01 8.861328e-02 3.564378e-01
v -4.678056e-01 1.179680e-01 4.506335e-01
v -4.578115e-01 1.203071e-01 4.591111e-01
v -4.491870e-01 1.210180e-01 4.628788e-01
v -4.131028e-01 1.150583e-01 4.544013e-01
v -4.002667e-01 1.227285e-01 4.779501e-01
v -3.947755e-01 1.188255e-01 4.685306e-01
v -3.864440e-01 1.195595e-01 4.722985e-01
v -3.796557e-01 1.176374e-01 4.685306e-01
v -3.719169e-01 1.173765e-01 4.694727e-01
v -5.679598e-01 9.430761e-02 3.887519e-01
v -5.601186e-01 9.333759e-02 3.878119e-01
v -4.965380e-01 1.159480e-01 4.611398e-01
v -4.886241e-01 1.156800e-01 4.620799e-01
v -4.807243e-01 1.154132e-01 4.630198e-01
v -4.728384e-01 1.151475e-01 4.639601e-01
v -4.641767e-01 1.158826e-01 4.677203e-01
v -4.558271e-01 1.162883e-01 4.705406e-01
v -4.482673e-01 1.156942e-01 4.705406e-01
v -5.269955e-01 1.116604e-01 4.650448e-01
v -5.181293e-01 1.124066e-01 4.687978e-01
v -5.099303e-01 1.124837e-01 4.706743e-01
v -5.020578e-01 1.122258e-01 4.716125e-01
v -4.941992e-01 1.119690e-01 4.725507e-01
v -4.860700e-01 1.120516e-01 4.744272e-01
v -4.779686e-01 1.121365e-01 4.763038e-01
v -4.698952e-01 1.122235e-01 4.781803e-01
v -4.613222e-01 1.129926e-01 4.819332e-01
v -5.221303e-01 1.101366e-01 4.829884e-01
v -5.143201e-01 1.098903e-01 4.839247e-01
v -5.068301e-01 1.093018e-01 4.839247e-01
v -4.993400e-01 1.087132e-01 4.839247e-01
v -4.915577e-01 1.084692e-01 4.848612e-01
v -4.832189e-01 1.089164e-01 4.876703e-01
v -4.749221e-01 1.093668e-01 4.904794e-01
v -4.661245e-01 1.105129e-01 4.951613e-01
v -4.558110e-01 1.137447e-01 5.054616e-01
v -5.198124e-01 1.060491e-01 4.933926e-01
v -5.117508e-01 1.061641e-01 4.952615e-01
v -5.043306e-01 1.055811e-01 4.952615e-01
v -4.972100e-01 1.046474e-01 4.943271e-01
v -4.897827e-01 1.040637e-01 4.943271e-01
v -4.817840e-01 1.041837e-01 4.961962e-01
v -4.729768e-01 1.053629e-01 5.008688e-01
v -5.141982e-01 9.687139e-02 4.916385e-01
v -5.027421e-01 1.009244e-01 5.037633e-01
v -4.953707e-01 1.003452e-01 5.037633e-01
v -4.891724e-01 9.833404e-02 5.000325e-01
v -3.035113e-01 1.654882e-01 2.262675e-01
v -2.864365e-01 1.551829e-01 2.231825e-01
v -2.820215e-01 1.533374e-01 2.298237e-01
v -2.918643e-01 1.609627e-01 2.469026e-01
v -2.889327e-01 1.600857e-01 2.544759e-01
v -2.852880e-01 1.587350e-01 2.615280e-01
v -2.809209e-01 1.569073e-01 2.680772e-01
v -2.794506e-01 1.569905e-01 2.766257e-01
v -2.787284e-01 1.575604e-01 2.856279e-01
v -3.091975e-01 1.596861e-01 2.282670e-01
v -3.076686e-01 1.597693e-01 2.369049e-01
v -3.047461e-01 1.589030e-01 2.444530e-01
v -3.011205e-01 1.575594e-01 2.514683e-01
v -2.967822e-01 1.557350e-01 2.579692e-01
v -2.938693e-01 1.548722e-01 2.654989e-01
v -2.902437e-01 1.535286e-01 2.725141e-01
v -2.873401e-01 1.526692e-01 2.800254e-01
v -2.837177e-01 1.513268e-01 2.870346e-01
v -2.815522e-01 1.509576e-01 2.950110e-01
v -2.767228e-01 1.519838e-01 3.289674e-01
v -2.805911e-01 1.555835e-01 3.404148e-01
v -2.815328e-01 1.572320e-01 3.499519e-01
v -2.817620e-01 1.584000e-01 3.589747e-01
v -3.131642e-01 1.503656e-01 2.090538e-01
v -3.136494e-01 1.518886e-01 2.194262e-01
v -3.148689e-01 1.539075e-01 2.302632e-01
v -3.147338e-01 1.549768e-01 2.399503e-01
v -3.125229e-01 1.546052e-01 2.479988e-01
v -3.096189e-01 1.537529e-01 2.555031e-01
v -3.067211e-01 1.529029e-01 2.629951e-01
v -3.038298e-01 1.520553e-01 2.704749e-01
v -3.009447e-01 1.512100e-01 2.779423e-01
v -2.973476e-01 1.498770e-01 2.849025e-01
v -2.937505e-01 1.485439e-01 2.918626e-01
v -2.923277e-01 1.486882e-01 3.002712e-01
v -2.938356e-01 1.508141e-01 3.105502e-01
v -2.917324e-01 1.504825e-01 3.183902e-01
v -2.896418e-01 1.501555e-01 3.262057e-01
v -2.890387e-01 1.508274e-01 3.349133e-01
v -2.899423e-01 1.525055e-01 3.444763e-01
v -2.893964e-01 1.531986e-01 3.530736e-01
v -2.888757e-01 1.539012e-01 3.616217e-01
v -2.898807e-01 1.556167e-01 3.709884e-01
v -3.204741e-01 1.444355e-01 2.023197e-01
v -3.195425e-01 1.450148e-01 2.116313e-01
v -3.207041e-01 1.470631e-01 2.225238e-01
v -3.219101e-01 1.491278e-01 2.333306e-01
v -3.210737e-01 1.497424e-01 2.424581e-01
v -3.195635e-01 1.498760e-01 2.510116e-01
v -3.180724e-01 1.500168e-01 2.595283e-01
v -3.158953e-01 1.496723e-01 2.674954e-01
v -3.144389e-01 1.498259e-01 2.759447e-01
v -3.122903e-01 1.494920e-01 2.838567e-01
v -3.094395e-01 1.486666e-01 2.912498e-01
v -3.065953e-01 1.478437e-01 2.986307e-01
v -3.051992e-01 1.480197e-01 3.069634e-01
v -3.038222e-01 1.482028e-01 3.152593e-01
v -3.017369e-01 1.478923e-01 3.230487e-01
v -3.003948e-01 1.480882e-01 3.312771e-01
v -3.005391e-01 1.492973e-01 3.403839e-01
v -2.999782e-01 1.500140e-01 3.489780e-01
v -2.979625e-01 1.497292e-01 3.566323e-01
v -2.944731e-01 1.484361e-01 3.633839e-01
v -2.902375e-01 1.466353e-01 3.697025e-01
v -3.527980e-01 1.501444e-01 1.658937e-01
v -3.491502e-01 1.487926e-01 1.729520e-01
v -3.368609e-01 1.437618e-01 1.929924e-01
v -3.325306e-01 1.419187e-01 1.995019e-01
v -3.288733e-01 1.405633e-01 2.065785e-01
v -3.286282e-01 1.416643e-01 2.163987e-01
v -3.304716e-01 1.442545e-01 2.277854e-01
v -3.302993e-01 1.453825e-01 2.374647e-01
v -3.294668e-01 1.460274e-01 2.465521e-01
v -3.286598e-01 1.466819e-01 2.555906e-01
v -3.271796e-01 1.468485e-01 2.640621e-01
v -3.257186e-01 1.470221e-01 2.724965e-01
v -3.242764e-01 1.472028e-01 2.808943e-01
v -3.228536e-01 1.473907e-01 2.892553e-01
v -3.207385e-01 1.470836e-01 2.970859e-01
v -3.186362e-01 1.467812e-01 3.048921e-01
v -3.165467e-01 1.464837e-01 3.126737e-01
v -3.151902e-01 1.466961e-01 3.209059e-01
v -3.138527e-01 1.469156e-01 3.291013e-01
v -3.118075e-01 1.466345e-01 3.367971e-01
v -3.105048e-01 1.468668e-01 3.449249e-01
v -3.092213e-01 1.471063e-01 3.530161e-01
v -3.050116e-01 1.453079e-01 3.592927e-01
v -3.000558e-01 1.429946e-01 3.651430e-01
v -2.943449e-01 1.401632e-01 3.705858e-01
v -2.893607e-01 1.378393e-01 3.764913e-01
v -3.777367e-01 1.547208e-01 1.547803e-01
v -3.741365e-01 1.533867e-01 1.617465e-01
v -3.705361e-01 1.520525e-01 1.687128e-01
v -3.643098e-01 1.487625e-01 1.733154e-01
v -3.580581e-01 1.454633e-01 1.779675e-01
v -3.524437e-01 1.426459e-01 1.832470e-01
v -3.474766e-01 1.403139e-01 1.891358e-01
v -3.445044e-01 1.394581e-01 1.967481e-01
v -3.422108e-01 1.390994e-01 2.049083e-01
v -3.406055e-01 1.392414e-01 2.135980e-01
v -3.396978e-01 1.398875e-01 2.227989e-01
v -3.401794e-01 1.415397e-01 2.330342e-01
v -3.393287e-01 1.422070e-01 2.421246e-01
v -3.385036e-01 1.428837e-01 2.511661e-01
v -3.370122e-01 1.430679e-01 2.596350e-01
v -3.355400e-01 1.432592e-01 2.680672e-01
v -3.347846e-01 1.439618e-01 2.769737e-01
v -3.333535e-01 1.441683e-01 2.853261e-01
v -3.312375e-01 1.438755e-01 2.931429e-01
v -3.291341e-01 1.435872e-01 3.009352e-01
v -3.277538e-01 1.438126e-01 3.091896e-01
v -3.271060e-01 1.445550e-01 3.178875e-01
v -3.257669e-01 1.447957e-01 3.260621e-01
v -3.244467e-01 1.450434e-01 3.342000e-01
v -3.216995e-01 1.442709e-01 3.413768e-01
v -3.196849e-01 1.440156e-01 3.489974e-01
v -3.176828e-01 1.437649e-01 3.565934e-01
v -3.142284e-01 1.424848e-01 3.632776e-01
v -3.078308e-01 1.391314e-01 3.682115e-01
v -2.999302e-01 1.347299e-01 3.723317e-01
v -2.934755e-01 1.313554e-01 3.773761e-01
v -2.877409e-01 1.284934e-01 3.828887e-01
v -4.006365e-01 1.595180e-01 1.529309e-01
v -3.938927e-01 1.557545e-01 1.567140e-01
v -3.858306e-01 1.509966e-01 1.593414e-01
v -3.803100e-01 1.481921e-01 1.644639e-01
v -3.760694e-01 1.463678e-01 1.708155e-01
v -3.724755e-01 1.450359e-01 1.777694e-01
v -3.688816e-01 1.437041e-01 1.847234e-01
v -3.646285e-01 1.418751e-01 1.910997e-01
v -3.603692e-01 1.400438e-01 1.974881e-01
v -3.574343e-01 1.392091e-01 2.050198e-01
v -3.558432e-01 1.393781e-01 2.136580e-01
v -3.535993e-01 1.390523e-01 2.217063e-01
v -3.513680e-01 1.387312e-01 2.297300e-01
v -3.498275e-01 1.389190e-01 2.382701e-01
v -3.483060e-01 1.391138e-01 2.467734e-01
v -3.468035e-01 1.393156e-01 2.552400e-01
v -3.453202e-01 1.395246e-01 2.636698e-01
v -3.431649e-01 1.392316e-01 2.715463e-01
v -3.424104e-01 1.399636e-01 2.804189e-01
v -3.409840e-01 1.401936e-01 2.887384e-01
v -3.395766e-01 1.404307e-01 2.970208e-01
v -3.374848e-01 1.401613e-01 3.047748e-01
v -3.368190e-01 1.409261e-01 3.134757e-01
v -3.368884e-01 1.422162e-01 3.226072e-01
v -3.362765e-01 1.430009e-01 3.312039e-01
v -3.342576e-01 1.427586e-01 3.388168e-01
v -3.315318e-01 1.420013e-01 3.459437e-01
v -3.280900e-01 1.407259e-01 3.526033e-01
v -3.253740e-01 1.399723e-01 3.597120e-01
v -3.219353e-01 1.386980e-01 3.663655e-01
v -3.177646e-01 1.368994e-01 3.725822e-01
v -3.113820e-01 1.335227e-01 3.775195e-01
v -3.042357e-01 1.296101e-01 3.820812e-01
v -3.022485e-01 1.293794e-01 3.896327e-01
v -3.039973e-01 1.317976e-01 3.992207e-01
v -4.146473e-01 1.592010e-01 1.532315e-01
v -4.086029e-01 1.559205e-01 1.575463e-01
v -4.012603e-01 1.516387e-01 1.606828e-01
v -3.945193e-01 1.478400e-01 1.645005e-01
v -3.890320e-01 1.450261e-01 1.695824e-01
v -3.841716e-01 1.427046e-01 1.752966e-01
v -3.799475e-01 1.408792e-01 1.816245e-01
v -3.776739e-01 1.405569e-01 1.897141e-01
v -3.754130e-01 1.402393e-01 1.977791e-01
v -3.718477e-01 1.389181e-01 2.046779e-01
v -3.696058e-01 1.386075e-01 2.127061e-01
v -3.660467e-01 1.372887e-01 2.195926e-01
v -3.631556e-01 1.364773e-01 2.270315e-01
v -3.602710e-01 1.356686e-01 2.344583e-01
v -3.587416e-01 1.358822e-01 2.429530e-01
v -3.572311e-01 1.361029e-01 2.514111e-01
v -3.550589e-01 1.358181e-01 2.593044e-01
v -3.528994e-01 1.355382e-01 2.671732e-01
v -3.507525e-01 1.352628e-01 2.750174e-01
v -3.493086e-01 1.355081e-01 2.833466e-01
v -3.492706e-01 1.367947e-01 2.926458e-01
v -3.478712e-01 1.370565e-01 3.008892e-01
v -3.457908e-01 1.368058e-01 3.086047e-01
v -3.444262e-01 1.370806e-01 3.167807e-01
v -3.451990e-01 1.389278e-01 3.263564e-01
v -3.453005e-01 1.402660e-01 3.353858e-01
v -3.425836e-01 1.395193e-01 3.424875e-01
v -3.398734e-01 1.387752e-01 3.495769e-01
v -3.371694e-01 1.380333e-01 3.566541e-01
v -3.344717e-01 1.372936e-01 3.637190e-01
v -3.310551e-01 1.360276e-01 3.703295e-01
v -3.283672e-01 1.352916e-01 3.773760e-01
v -3.249539e-01 1.340267e-01 3.839805e-01
v -3.200713e-01 1.316970e-01 3.897376e-01
v -3.159138e-01 1.298962e-01 3.959367e-01
v -3.154548e-01 1.307667e-01 4.042052e-01
v -4.235348e-01 1.549915e-01 1.485877e-01
v -4.194034e-01 1.531931e-01 1.547448e-01
v -4.092233e-01 1.480836e-01 1.652566e-01
v -4.037916e-01 1.452686e-01 1.702553e-01
v -3.989798e-01 1.429506e-01 1.758912e-01
v -3.935133e-01 1.401227e-01 1.809573e-01
v -3.893184e-01 1.383008e-01 1.872369e-01
v -3.870626e-01 1.379996e-01 1.952758e-01
v -3.848196e-01 1.377031e-01 2.032902e-01
v -3.819344e-01 1.369014e-01 2.107099e-01
v -3.783975e-01 1.355907e-01 2.175536e-01
v -3.741994e-01 1.337675e-01 2.238393e-01
v -3.706593e-01 1.324557e-01 2.306890e-01
v -3.691218e-01 1.326881e-01 2.391753e-01
v -3.669327e-01 1.324116e-01 2.470853e-01
v -3.640824e-01 1.316228e-01 2.544378e-01
v -3.619154e-01 1.313544e-01 2.623048e-01
v -3.590809e-01 1.305715e-01 2.696265e-01
v -3.576196e-01 1.308321e-01 2.779657e-01
v -3.568636e-01 1.316214e-01 2.867766e-01
v -3.568228e-01 1.329433e-01 2.960412e-01
v -3.547351e-01 1.327044e-01 3.037550e-01
v -3.526601e-01 1.324703e-01 3.114445e-01
v -3.526954e-01 1.338203e-01 3.205618e-01
v -3.527624e-01 1.351821e-01 3.296179e-01
v -3.521554e-01 1.360266e-01 3.381407e-01
v -3.508652e-01 1.363507e-01 3.461487e-01
v -3.495939e-01 1.366818e-01 3.541198e-01
v -3.476267e-01 1.364876e-01 3.616007e-01
v -3.449538e-01 1.357644e-01 3.686095e-01
v -3.430087e-01 1.355784e-01 3.760475e-01
v -3.403516e-01 1.348610e-01 3.830256e-01
v -3.384287e-01 1.346833e-01 3.904207e-01
v -3.365184e-01 1.345102e-01 3.977912e-01
v -3.368232e-01 1.359601e-01 4.063873e-01
v -3.504300e-01 1.471524e-01 4.223131e-01
v -3.515956e-01 1.491887e-01 4.310807e-01
v -3.527991e-01 1.512390e-01 4.397747e-01
v -3.518004e-01 1.516711e-01 4.472185e-01
v -4.358937e-01 1.520974e-01 1.371952e-01
v -4.317787e-01 1.502979e-01 1.433286e-01
v -4.282767e-01 1.490001e-01 1.501047e-01
v -4.247746e-01 1.477023e-01 1.568809e-01
v -4.206467e-01 1.458979e-01 1.630385e-01
v -4.165127e-01 1.440913e-01 1.692088e-01
v -4.117400e-01 1.417733e-01 1.747851e-01
v -4.075901e-01 1.399608e-01 1.809858e-01
v -4.027953e-01 1.376346e-01 1.866050e-01
v -3.986294e-01 1.358163e-01 1.928365e-01
v -3.963917e-01 1.355363e-01 2.008247e-01
v -3.941664e-01 1.352609e-01 2.087884e-01
v -3.913030e-01 1.344745e-01 2.161583e-01
v -3.877914e-01 1.331732e-01 2.229528e-01
v -3.829650e-01 1.308353e-01 2.286333e-01
v -3.787865e-01 1.290122e-01 2.348893e-01
v -3.772568e-01 1.292693e-01 2.433364e-01
v -3.737453e-01 1.279680e-01 2.501309e-01
v -3.709039e-01 1.271896e-01 2.574580e-01
v -3.687422e-01 1.269378e-01 2.652989e-01
v -3.665931e-01 1.266907e-01 2.731155e-01
v -3.651364e-01 1.269748e-01 2.814215e-01
v -3.643813e-01 1.277936e-01 2.901986e-01
v -3.629659e-01 1.280930e-01 2.984250e-01
v -3.615693e-01 1.283994e-01 3.066145e-01
v -3.608841e-01 1.292440e-01 3.152567e-01
v -3.602243e-01 1.300981e-01 3.238500e-01
v -3.595897e-01 1.309615e-01 3.323940e-01
v -3.596824e-01 1.323691e-01 3.413603e-01
v -3.591020e-01 1.332525e-01 3.498002e-01
v -3.578385e-01 1.336082e-01 3.577321e-01
v -3.565940e-01 1.339710e-01 3.656273e-01
v -3.546542e-01 1.338014e-01 3.730391e-01
v -3.541623e-01 1.347178e-01 3.813073e-01
v -3.522541e-01 1.345598e-01 3.886577e-01
v -3.510827e-01 1.349497e-01 3.964119e-01
v -3.521117e-01 1.369789e-01 4.053954e-01
v -3.561003e-01 1.412035e-01 4.159691e-01
v -3.586851e-01 1.443585e-01 4.256006e-01
v -3.591106e-01 1.458894e-01 4.339229e-01
v -3.573482e-01 1.457855e-01 4.409913e-01
v -3.555984e-01 1.456864e-01 4.480352e-01
v -3.523689e-01 1.444896e-01 4.542839e-01
v -4.400085e-01 1.456135e-01 1.380800e-01
v -4.365096e-01 1.443168e-01 1.448500e-01
v -4.330109e-01 1.430202e-01 1.516200e-01
v -4.301309e-01 1.422349e-01 1.590137e-01
v -4.260131e-01 1.404270e-01 1.651600e-01
v -4.218891e-01 1.386169e-01 1.713188e-01
v -4.190154e-01 1.378338e-01 1.787000e-01
v -4.155165e-01 1.365372e-01 1.854700e-01
v -4.107482e-01 1.342064e-01 1.910541e-01
v -4.072430e-01 1.329074e-01 1.978363e-01
v -4.037378e-01 1.316085e-01 2.046186e-01
v -4.008770e-01 1.308302e-01 2.119756e-01
v -3.980223e-01 1.300542e-01 2.193200e-01
v -3.945234e-01 1.287576e-01 2.260900e-01
v -3.903709e-01 1.269369e-01 2.323039e-01
v -3.862118e-01 1.251137e-01 2.385299e-01
v -3.833668e-01 1.243413e-01 2.458562e-01
v -3.798648e-01 1.230435e-01 2.526323e-01
v -3.776956e-01 1.228035e-01 2.604718e-01
v -3.762087e-01 1.230982e-01 2.688121e-01
v -3.740679e-01 1.228686e-01 2.765964e-01
v -3.719398e-01 1.226438e-01 2.843561e-01
v -3.705037e-01 1.229573e-01 2.925984e-01
v -3.697687e-01 1.238124e-01 3.013048e-01
v -3.690592e-01 1.246771e-01 3.099624e-01
v -3.690635e-01 1.260883e-01 3.190595e-01
v -3.677160e-01 1.264346e-01 3.271301e-01
v -3.670824e-01 1.273274e-01 3.356403e-01
v -3.671723e-01 1.287702e-01 3.445718e-01
v -3.658915e-01 1.291413e-01 3.525137e-01
v -3.653339e-01 1.300622e-01 3.608768e-01
v -3.648019e-01 1.309926e-01 3.691909e-01
v -3.642950e-01 1.319324e-01 3.774558e-01
v -3.638136e-01 1.328816e-01 3.856718e-01
v -3.640747e-01 1.343878e-01 3.942721e-01
v -3.643675e-01 1.359059e-01 4.028113e-01
v -3.654154e-01 1.379856e-01 4.117103e-01
v -3.665012e-01 1.400793e-01 4.205356e-01
v -3.661657e-01 1.410826e-01 4.284695e-01
v -3.651224e-01 1.415416e-01 4.359514e-01
v -3.618897e-01 1.403437e-01 4.422063e-01
v -3.593964e-01 1.397016e-01 4.488518e-01
v -3.583944e-01 1.401760e-01 4.562540e-01
v -3.574114e-01 1.406574e-01 4.636194e-01
v -4.435178e-01 1.386160e-01 1.383237e-01
v -4.406245e-01 1.378329e-01 1.457349e-01
v -4.377377e-01 1.370523e-01 1.531338e-01
v -4.354722e-01 1.367910e-01 1.611433e-01
v -4.319829e-01 1.354980e-01 1.678949e-01
v -4.284935e-01 1.342048e-01 1.746465e-01
v -4.268782e-01 1.344738e-01 1.832115e-01
v -4.227705e-01 1.326623e-01 1.893463e-01
v -4.173945e-01 1.298027e-01 1.943092e-01
v -4.145361e-01 1.290325e-01 2.016529e-01
v -4.110468e-01 1.277394e-01 2.084045e-01
v -4.075574e-01 1.264463e-01 2.151561e-01
v -4.040681e-01 1.251533e-01 2.219077e-01
v -4.018724e-01 1.249179e-01 2.297823e-01
v -3.977395e-01 1.230972e-01 2.359664e-01
v -3.929469e-01 1.207429e-01 2.416134e-01
v -3.901106e-01 1.199809e-01 2.489141e-01
v -3.872809e-01 1.192215e-01 2.562028e-01
v -3.844573e-01 1.184643e-01 2.634790e-01
v -3.823061e-01 1.182454e-01 2.712679e-01
v -3.794984e-01 1.174940e-01 2.785135e-01
v -3.780415e-01 1.178216e-01 2.867719e-01
v -3.772790e-01 1.186956e-01 2.954996e-01
v -3.765418e-01 1.195791e-01 3.041784e-01
v -3.758299e-01 1.204719e-01 3.128081e-01
v -3.758283e-01 1.219170e-01 3.218767e-01
v -3.751704e-01 1.228299e-01 3.304022e-01
v -3.745377e-01 1.237520e-01 3.388785e-01
v -3.739306e-01 1.246836e-01 3.473060e-01
v -3.733485e-01 1.256245e-01 3.556842e-01
v -3.727921e-01 1.265750e-01 3.640134e-01
v -3.729648e-01 1.280847e-01 3.727448e-01
v -3.731693e-01 1.296062e-01 3.814147e-01
v -3.734053e-01 1.311395e-01 3.900234e-01
v -3.743864e-01 1.332380e-01 3.990034e-01
v -3.746890e-01 1.347959e-01 4.074833e-01
v -3.743037e-01 1.358097e-01 4.154814e-01
v -3.739436e-01 1.368329e-01 4.234304e-01
v -3.721567e-01 1.367490e-01 4.305140e-01
v -3.703827e-01 1.366699e-01 4.375731e-01
v -3.678888e-01 1.360348e-01 4.442116e-01
v -3.654012e-01 1.354021e-01 4.508379e-01
v -3.621813e-01 1.342089e-01 4.570683e-01
v -3.611871e-01 1.347079e-01 4.644313e-01
v -4.476364e-01 1.321262e-01 1.392092e-01
v -4.447393e-01 1.313489e-01 1.466196e-01
v -4.424571e-01 1.310961e-01 1.546460e-01
v -4.414102e-01 1.318937e-01 1.638919e-01
v -4.385450e-01 1.311283e-01 1.712409e-01
v -4.356860e-01 1.303652e-01 1.785777e-01
v -4.340753e-01 1.306576e-01 1.871096e-01
v -4.299871e-01 1.288462e-01 1.932146e-01
v -4.258928e-01 1.270325e-01 1.993320e-01
v -4.224224e-01 1.257465e-01 2.060468e-01
v -4.189521e-01 1.244605e-01 2.127616e-01
v -4.148449e-01 1.226420e-01 2.189034e-01
v -4.120114e-01 1.218884e-01 2.261912e-01
v -4.091842e-01 1.211370e-01 2.334667e-01
v -4.037782e-01 1.182445e-01 2.385117e-01
v -3.996521e-01 1.164190e-01 2.446903e-01
v -3.961722e-01 1.151294e-01 2.514236e-01
v -3.940039e-01 1.149187e-01 2.592291e-01
v -3.911894e-01 1.141722e-01 2.664801e-01
v -3.877191e-01 1.128861e-01 2.731949e-01
v -3.855794e-01 1.126860e-01 2.809452e-01
v -3.847892e-01 1.135788e-01 2.896944e-01
v -3.840244e-01 1.144810e-01 2.983945e-01
v -3.826102e-01 1.148462e-01 3.065462e-01
v -3.818929e-01 1.157659e-01 3.151542e-01
v -3.818821e-01 1.172440e-01 3.242004e-01
v -3.819031e-01 1.187338e-01 3.331852e-01
v -3.812684e-01 1.196843e-01 3.416340e-01
v -3.820401e-01 1.217486e-01 3.509710e-01
v -3.814624e-01 1.227202e-01 3.593093e-01
v -3.809099e-01 1.237011e-01 3.675985e-01
v -3.810830e-01 1.252472e-01 3.762890e-01
v -3.819912e-01 1.273623e-01 3.853624e-01
v -3.822308e-01 1.289331e-01 3.939241e-01
v -3.832118e-01 1.310751e-01 4.028565e-01
v -3.828052e-01 1.321100e-01 4.108636e-01
v -3.817078e-01 1.325926e-01 4.184020e-01
v -3.799103e-01 1.325193e-01 4.254901e-01
v -3.781256e-01 1.324507e-01 4.325537e-01
v -3.756280e-01 1.318215e-01 4.391915e-01
v -3.731367e-01 1.311947e-01 4.458169e-01
v -3.699199e-01 1.300026e-01 4.520411e-01
v -3.674381e-01 1.293794e-01 4.586483e-01
v -3.627481e-01 1.270485e-01 4.641129e-01
v -3.573040e-01 1.241419e-01 4.692315e-01
v -4.517549e-01 1.256364e-01 1.400948e-01
v -4.494555e-01 1.253916e-01 1.481380e-01
v -4.483779e-01 1.262068e-01 1.574112e-01
v -4.479334e-01 1.275604e-01 1.672567e-01
v -4.450771e-01 1.268056e-01 1.745805e-01
v -4.416131e-01 1.255220e-01 1.812831e-01
v -4.393834e-01 1.253030e-01 1.891912e-01
v -4.365462e-01 1.245553e-01 1.964783e-01
v -4.330917e-01 1.232751e-01 2.031624e-01
v -4.296373e-01 1.219949e-01 2.098466e-01
v -4.255528e-01 1.201776e-01 2.159523e-01
v -4.220952e-01 1.188963e-01 2.226426e-01
v -4.180014e-01 1.170756e-01 2.287669e-01
v -4.145406e-01 1.157931e-01 2.354634e-01
v -4.104372e-01 1.139688e-01 2.416060e-01
v -4.063274e-01 1.121421e-01 2.477609e-01
v -4.022113e-01 1.103132e-01 2.539281e-01
v -4.000452e-01 1.101177e-01 2.617136e-01
v -3.978916e-01 1.099269e-01 2.694746e-01
v -3.950923e-01 1.091933e-01 2.766880e-01
v -3.929610e-01 1.090108e-01 2.844061e-01
v -3.915071e-01 1.093830e-01 2.926106e-01
v -3.900722e-01 1.097622e-01 3.007782e-01
v -3.886562e-01 1.101485e-01 3.089091e-01
v -3.886079e-01 1.116489e-01 3.179880e-01
v -3.885912e-01 1.131610e-01 3.270057e-01
v -3.886062e-01 1.146848e-01 3.359620e-01
v -3.886529e-01 1.162205e-01 3.448569e-01
v -3.901051e-01 1.188842e-01 3.546265e-01
v -3.902215e-01 1.204457e-01 3.633866e-01
v -3.882897e-01 1.203371e-01 3.707183e-01
v -3.891565e-01 1.224804e-01 3.798237e-01
v -3.900613e-01 1.246376e-01 3.888555e-01
v -3.910040e-01 1.268089e-01 3.978136e-01
v -3.912789e-01 1.284291e-01 4.062671e-01
v -3.894582e-01 1.283616e-01 4.133843e-01
v -3.876502e-01 1.282990e-01 4.204769e-01
v -3.872856e-01 1.293785e-01 4.283704e-01
v -3.855092e-01 1.293275e-01 4.354018e-01
v -3.830236e-01 1.287102e-01 4.420081e-01
v -3.798195e-01 1.275228e-01 4.482078e-01
v -3.766155e-01 1.263354e-01 4.544075e-01
v -3.734113e-01 1.251480e-01 4.606072e-01
v -3.687383e-01 1.228090e-01 4.660550e-01
v -3.633149e-01 1.198882e-01 4.711575e-01
v -4.599667e-01 1.209743e-01 1.348492e-01
v -4.564678e-01 1.196777e-01 1.416192e-01
v -4.553596e-01 1.205107e-01 1.509200e-01
v -4.548773e-01 1.218866e-01 1.607982e-01
v -4.538228e-01 1.227394e-01 1.699947e-01
v -4.509724e-01 1.219941e-01 1.772994e-01
v -4.475178e-01 1.207139e-01 1.839835e-01
v -4.452903e-01 1.205102e-01 1.918718e-01
v -4.430754e-01 1.203112e-01 1.997353e-01
v -4.402534e-01 1.195764e-01 2.069848e-01
v -4.361918e-01 1.177603e-01 2.130546e-01
v -4.327500e-01 1.164848e-01 2.197143e-01
v -4.286789e-01 1.146653e-01 2.258026e-01
v -4.246014e-01 1.128434e-01 2.319031e-01
v -4.211533e-01 1.115656e-01 2.385750e-01
v -4.177051e-01 1.102877e-01 2.452468e-01
v -4.136149e-01 1.084610e-01 2.513718e-01
v -4.101636e-01 1.071820e-01 2.580499e-01
v -4.073607e-01 1.064543e-01 2.652625e-01
v -4.052154e-01 1.062811e-01 2.729912e-01
v -4.030830e-01 1.061127e-01 2.806954e-01
v -4.003053e-01 1.053942e-01 2.878590e-01
v -3.975342e-01 1.046783e-01 2.950104e-01
v -3.960976e-01 1.050786e-01 3.031571e-01
v -3.960147e-01 1.066025e-01 3.122628e-01
v -3.952930e-01 1.075787e-01 3.208154e-01
v -3.952703e-01 1.091249e-01 3.298045e-01
v -3.952792e-01 1.106828e-01 3.387322e-01
v -3.960002e-01 1.128154e-01 3.480719e-01
v -3.974421e-01 1.155262e-01 3.578052e-01
v -3.968693e-01 1.165576e-01 3.660697e-01
v -3.963220e-01 1.175985e-01 3.742850e-01
v -3.978779e-01 1.203514e-01 3.837974e-01
v -3.980867e-01 1.219833e-01 3.923388e-01
v -3.997252e-01 1.247669e-01 4.016920e-01
v -3.993014e-01 1.258536e-01 4.096681e-01
v -3.974922e-01 1.258050e-01 4.167469e-01
v -3.964042e-01 1.263345e-01 4.242192e-01
v -3.953354e-01 1.268712e-01 4.316547e-01
v -3.935704e-01 1.268390e-01 4.386476e-01
v -3.911003e-01 1.262345e-01 4.452164e-01
v -3.886364e-01 1.256323e-01 4.517727e-01
v -3.854544e-01 1.244532e-01 4.579295e-01
v -3.822725e-01 1.232740e-01 4.640863e-01
v -3.783598e-01 1.215132e-01 4.698680e-01
v -3.773764e-01 1.220814e-01 4.771379e-01
v -4.710868e-01 1.189954e-01 1.328658e-01
v -4.670193e-01 1.171699e-01 1.389547e-01
v -4.653085e-01 1.174904e-01 1.476082e-01
v -4.642107e-01 1.183563e-01 1.568568e-01
v -4.625410e-01 1.186920e-01 1.654303e-01
v -4.608904e-01 1.190349e-01 1.739673e-01
v -4.592587e-01 1.193847e-01 1.824673e-01
v -4.564331e-01 1.186558e-01 1.897160e-01
v -4.530040e-01 1.173850e-01 1.963511e-01
v -4.514136e-01 1.177502e-01 2.047714e-01
v -4.479940e-01 1.164830e-01 2.113882e-01
v -4.439551e-01 1.146681e-01 2.174221e-01
v -4.411547e-01 1.139484e-01 2.246215e-01
v -4.377351e-01 1.126812e-01 2.312383e-01
v -4.330579e-01 1.103115e-01 2.367260e-01
v -4.290001e-01 1.084897e-01 2.427968e-01
v -4.249357e-01 1.066653e-01 2.488796e-01
v -4.208652e-01 1.048387e-01 2.549748e-01
v -4.174297e-01 1.035655e-01 2.616222e-01
v -4.146388e-01 1.028495e-01 2.688033e-01
v -4.112065e-01 1.015775e-01 2.754445e-01
v -4.090761e-01 1.014244e-01 2.831287e-01
v -4.069584e-01 1.012760e-01 2.907885e-01
v -4.048534e-01 1.011323e-01 2.984237e-01
v -4.040818e-01 1.021190e-01 3.070406e-01
v -4.033358e-01 1.031152e-01 3.156084e-01
v -4.026150e-01 1.041208e-01 3.241272e-01
v -4.019196e-01 1.051358e-01 3.325969e-01
v -4.019227e-01 1.067278e-01 3.414962e-01
v -4.026337e-01 1.089003e-01 3.508064e-01
v -4.040623e-01 1.116568e-01 3.605096e-01
v -4.048527e-01 1.138588e-01 3.696667e-01
v -4.043094e-01 1.149302e-01 3.778421e-01
v -4.058584e-01 1.177314e-01 3.873121e-01
v -4.067595e-01 1.199743e-01 3.962545e-01
v -4.083942e-01 1.228073e-01 4.055591e-01
v -4.079776e-01 1.239256e-01 4.134891e-01
v -4.068848e-01 1.244751e-01 4.209468e-01
v -4.065158e-01 1.256111e-01 4.287848e-01
v -4.047563e-01 1.255954e-01 4.357517e-01
v -4.030093e-01 1.255844e-01 4.426939e-01
v -4.012750e-01 1.255780e-01 4.496116e-01
v -4.002710e-01 1.261604e-01 4.568975e-01
v -3.992860e-01 1.267499e-01 4.641466e-01
v -3.990437e-01 1.279328e-01 4.717394e-01
v -3.980999e-01 1.285375e-01 4.789088e-01
v -4.000958e-01 1.315043e-01 4.875143e-01
v -4.028693e-01 1.350775e-01 4.963959e-01
v -4.838891e-01 1.206558e-01 1.434880e-01
v -4.804568e-01 1.193838e-01 1.501292e-01
v -4.776116e-01 1.186549e-01 1.574077e-01
v -4.753628e-01 1.184724e-01 1.653050e-01
v -4.731266e-01 1.182946e-01 1.731777e-01
v -4.709032e-01 1.181214e-01 1.810259e-01
v -4.680929e-01 1.174054e-01 1.882369e-01
v -4.652887e-01 1.166917e-01 1.954357e-01
v -4.624909e-01 1.159803e-01 2.026221e-01
v -4.603087e-01 1.158224e-01 2.103905e-01
v -4.569144e-01 1.145646e-01 2.169582e-01
v -4.529046e-01 1.127533e-01 2.229438e-01
v -4.488884e-01 1.109395e-01 2.289417e-01
v -4.454878e-01 1.096793e-01 2.355216e-01
v -4.414623e-01 1.078621e-01 2.415379e-01
v -4.374303e-01 1.060425e-01 2.475665e-01
v -4.321291e-01 1.031017e-01 2.525044e-01
v -4.274436e-01 1.007146e-01 2.580245e-01
v -4.240208e-01 9.944615e-02 2.646474e-01
v -4.205981e-01 9.817774e-02 2.712702e-01
v -4.171753e-01 9.690931e-02 2.778931e-01
v -4.150468e-01 9.677139e-02 2.855572e-01
v -4.135816e-01 9.720469e-02 2.937116e-01
v -4.121353e-01 9.764498e-02 3.018291e-01
v -4.107081e-01 9.809235e-02 3.099098e-01
v -4.092998e-01 9.854667e-02 3.179536e-01
v -4.085737e-01 9.957939e-02 3.264509e-01
v -4.085391e-01 1.011937e-01 3.353829e-01
v -4.085362e-01 1.028197e-01 3.442536e-01
v -4.099101e-01 1.056068e-01 3.540063e-01
v -4.120043e-01 1.089863e-01 3.641387e-01
v -4.127913e-01 1.112305e-01 3.732541e-01
v -4.129341e-01 1.129105e-01 3.818428e-01
v -4.137939e-01 1.151817e-01 3.908171e-01
v -4.153803e-01 1.180476e-01 4.001590e-01
v -4.163193e-01 1.203481e-01 4.089801e-01
v -4.166017e-01 1.220798e-01 4.172988e-01
v -4.162178e-01 1.232393e-01 4.251338e-01
v -4.165604e-01 1.249934e-01 4.333360e-01
v -4.155261e-01 1.255863e-01 4.406564e-01
v -4.145108e-01 1.261863e-01 4.479398e-01
v -4.149358e-01 1.279710e-01 4.559827e-01
v -4.146787e-01 1.291774e-01 4.635723e-01
v -4.137300e-01 1.298021e-01 4.707271e-01
v -4.135204e-01 1.310261e-01 4.782246e-01
v -4.140595e-01 1.328530e-01 4.860468e-01
v -4.139038e-01 1.340970e-01 4.934401e-01
v -4.123142e-01 1.341588e-01 5.000619e-01
v -5.120138e-01 1.351982e-01 1.612882e-01
v -5.040799e-01 1.295966e-01 1.625192e-01
v -4.966757e-01 1.245241e-01 1.644908e-01
v -4.921434e-01 1.221791e-01 1.697305e-01
v -4.875984e-01 1.198294e-01 1.749946e-01
v -4.842200e-01 1.185774e-01 1.815314e-01
v -4.820272e-01 1.184303e-01 1.893046e-01
v -4.786551e-01 1.171806e-01 1.958293e-01
v -4.746839e-01 1.153763e-01 2.017482e-01
v -4.713086e-01 1.141255e-01 2.082791e-01
v -4.679334e-01 1.128747e-01 2.148099e-01
v -4.639494e-01 1.110656e-01 2.207533e-01
v -4.605709e-01 1.098136e-01 2.272903e-01
v -4.565776e-01 1.080011e-01 2.332523e-01
v -4.519597e-01 1.056245e-01 2.386575e-01
v -4.485719e-01 1.043690e-01 2.452128e-01
v -4.445594e-01 1.025494e-01 2.512115e-01
v -4.386577e-01 9.903165e-02 2.555707e-01
v -4.339922e-01 9.663731e-02 2.610678e-01
v -4.305821e-01 9.537357e-02 2.676662e-01
v -4.271720e-01 9.410987e-02 2.742644e-01
v -4.244023e-01 9.341615e-02 2.813888e-01
v -4.222822e-01 9.329586e-02 2.890207e-01
v -4.208217e-01 9.375267e-02 2.971420e-01
v -4.187301e-01 9.364293e-02 3.047187e-01
v -4.173045e-01 9.411265e-02 3.127726e-01
v -4.158977e-01 9.458938e-02 3.207896e-01
v -4.158287e-01 9.622722e-02 3.297482e-01
v -4.151287e-01 9.729850e-02 3.381625e-01
v -4.171169e-01 1.006967e-01 3.484356e-01
v -4.191559e-01 1.041138e-01 3.586106e-01
v -4.192293e-01 1.058044e-01 3.672933e-01
v -4.200099e-01 1.080897e-01 3.763733e-01
v -4.201500e-01 1.098050e-01 3.849272e-01
v -4.216848e-01 1.127025e-01 3.943125e-01
v -4.239487e-01 1.162029e-01 4.040521e-01
v -4.248877e-01 1.185470e-01 4.128256e-01
v -4.258646e-01 1.209051e-01 4.215254e-01
v -4.261853e-01 1.226873e-01 4.297298e-01
v -4.265378e-01 1.244813e-01 4.378728e-01
v -4.269219e-01 1.262871e-01 4.459545e-01
v -4.266341e-01 1.275111e-01 4.535717e-01
v -4.270784e-01 1.293392e-01 4.615369e-01
v -4.275545e-01 1.311790e-01 4.694408e-01
v -4.259226e-01 1.312396e-01 4.761284e-01
v -4.250198e-01 1.319031e-01 4.831704e-01
v -4.255750e-01 1.337722e-01 4.909210e-01
v -4.247166e-01 1.344521e-01 4.978772e-01
v -4.216995e-01 1.333341e-01 5.037150e-01
v -5.366452e-01 1.452290e-01 1.659434e-01
v -5.283043e-01 1.390788e-01 1.662692e-01
v -5.221867e-01 1.351120e-01 1.693215e-01
v -5.160372e-01 1.311335e-01 1.724351e-01
v -5.098561e-01 1.271432e-01 1.756100e-01
v -5.048024e-01 1.242506e-01 1.801175e-01
v -5.003124e-01 1.219068e-01 1.852913e-01
v -4.958097e-01 1.195583e-01 1.904894e-01
v -4.924725e-01 1.183216e-01 1.969467e-01
v -4.885431e-01 1.165256e-01 2.027929e-01
v -4.834165e-01 1.136060e-01 2.074415e-01
v -4.794679e-01 1.118027e-01 2.133244e-01
v -4.749114e-01 1.094343e-01 2.186269e-01
v -4.709471e-01 1.076253e-01 2.245405e-01
v -4.669765e-01 1.058140e-01 2.304664e-01
v -4.629994e-01 1.040002e-01 2.364046e-01
v -4.584018e-01 1.016166e-01 2.417869e-01
v -4.550266e-01 1.003658e-01 2.483177e-01
v -4.510305e-01 9.854488e-02 2.542925e-01
v -4.451564e-01 9.500845e-02 2.586306e-01
v -4.411381e-01 9.317934e-02 2.646483e-01
v -4.383742e-01 9.249506e-02 2.717536e-01
v -4.349831e-01 9.123840e-02 2.783151e-01
v -4.315920e-01 8.998173e-02 2.848766e-01
v -4.294804e-01 8.987903e-02 2.924761e-01
v -4.267386e-01 8.920294e-02 2.995385e-01
v -4.246492e-01 8.910854e-02 3.070953e-01
v -4.238710e-01 9.017982e-02 3.156289e-01
v -4.237707e-01 9.184236e-02 3.246081e-01
v -4.230464e-01 9.293367e-02 3.330376e-01
v -4.230062e-01 9.461848e-02 3.419003e-01
v -4.256455e-01 9.865592e-02 3.526064e-01
v -4.270117e-01 1.015418e-01 3.622620e-01
v -4.264173e-01 1.026812e-01 3.704399e-01
v -4.271913e-01 1.050076e-01 3.794845e-01
v -4.280032e-01 1.073481e-01 3.884554e-01
v -4.302089e-01 1.108849e-01 3.982438e-01
v -4.324651e-01 1.144405e-01 4.079341e-01
v -4.334038e-01 1.168280e-01 4.166598e-01
v -4.350678e-01 1.198242e-01 4.257389e-01
v -4.360859e-01 1.222410e-01 4.343113e-01
v -4.357545e-01 1.234780e-01 4.419803e-01
v -4.361454e-01 1.253225e-01 4.500090e-01
v -4.365680e-01 1.271788e-01 4.579764e-01
v -4.370222e-01 1.290468e-01 4.658825e-01
v -4.368019e-01 1.303249e-01 4.733369e-01
v -4.351878e-01 1.304065e-01 4.799738e-01
v -4.350118e-01 1.317011e-01 4.873424e-01
v -4.355770e-01 1.336102e-01 4.950338e-01
v -4.347359e-01 1.343183e-01 5.019323e-01
v -5.404544e-01 1.392267e-01 1.667624e-01
v -5.355259e-01 1.363587e-01 1.710515e-01
v -5.300122e-01 1.329268e-01 1.747243e-01
v -5.250425e-01 1.300435e-01 1.790931e-01
v -5.189087e-01 1.260345e-01 1.822169e-01
v -5.144704e-01 1.236955e-01 1.873064e-01
v -5.105985e-01 1.219134e-01 1.930491e-01
v -5.055561e-01 1.190032e-01 1.975589e-01
v -5.016652e-01 1.172141e-01 2.033385e-01
v -4.977680e-01 1.154227e-01 2.091302e-01
v -4.926811e-01 1.124960e-01 2.137259e-01
v -4.875753e-01 1.095624e-01 2.183586e-01
v -4.830483e-01 1.071904e-01 2.236196e-01
v -4.797111e-01 1.059537e-01 2.300769e-01
v -4.757696e-01 1.041459e-01 2.359545e-01
v -4.706066e-01 1.011910e-01 2.406975e-01
v -4.660354e-01 9.880262e-02 2.460446e-01
v -4.620652e-01 9.698411e-02 2.519773e-01
v -4.580888e-01 9.516336e-02 2.579224e-01
v -4.528657e-01 9.218629e-02 2.627819e-01
v -4.482468e-01 8.978018e-02 2.682208e-01
v -4.448683e-01 8.852820e-02 2.747578e-01
v -4.414899e-01 8.727622e-02 2.812948e-01
v -4.387445e-01 8.660605e-02 2.883563e-01
v -4.360053e-01 8.593815e-02 2.954054e-01
v -4.339115e-01 8.585664e-02 3.029545e-01
v -4.318304e-01 8.577975e-02 3.104790e-01
v -4.310533e-01 8.688057e-02 3.189788e-01
v -4.309502e-01 8.857828e-02 3.279234e-01
v -4.308787e-01 9.028772e-02 3.368065e-01
v -4.308389e-01 9.200892e-02 3.456285e-01
v -4.328055e-01 9.551523e-02 3.558153e-01
v -4.334999e-01 9.785565e-02 3.649652e-01
v -4.335680e-01 9.961680e-02 3.735786e-01
v -4.343354e-01 1.019843e-01 3.825877e-01
v -4.351409e-01 1.043660e-01 3.915232e-01
v -4.380065e-01 1.085526e-01 4.017192e-01
v -4.402520e-01 1.121623e-01 4.113663e-01
v -4.432286e-01 1.163900e-01 4.213477e-01
v -4.448951e-01 1.194379e-01 4.303661e-01
v -4.452325e-01 1.212988e-01 4.384582e-01
v -4.449116e-01 1.225687e-01 4.460750e-01
v -4.446161e-01 1.238479e-01 4.536427e-01
v -4.443459e-01 1.251365e-01 4.611614e-01
v -4.441011e-01 1.264346e-01 4.686309e-01
v -4.431791e-01 1.271344e-01 4.756620e-01
v -4.422761e-01 1.278414e-01 4.826561e-01
v -4.428100e-01 1.297751e-01 4.903681e-01
v -4.433755e-01 1.317207e-01 4.980187e-01
v -4.418270e-01 1.318412e-01 5.045131e-01
v -4.381358e-01 1.301261e-01 5.099063e-01
v -5.414822e-01 1.304215e-01 1.642581e-01
v -5.399057e-01 1.309006e-01 1.725316e-01
v -5.366605e-01 1.296979e-01 1.788111e-01
v -5.317177e-01 1.268029e-01 1.831515e-01
v -5.261873e-01 1.233357e-01 1.868889e-01
v -5.217756e-01 1.209920e-01 1.919432e-01
v -5.179264e-01 1.192111e-01 1.976499e-01
v -5.140710e-01 1.174279e-01 2.033689e-01
v -5.096276e-01 1.150724e-01 2.084846e-01
v -5.057564e-01 1.132833e-01 2.142341e-01
v -5.012907e-01 1.109195e-01 2.193926e-01
v -4.956303e-01 1.074042e-01 2.233814e-01
v -4.911331e-01 1.050287e-01 2.286013e-01
v -4.872206e-01 1.032244e-01 2.344307e-01
v -4.827011e-01 1.008407e-01 2.396934e-01
v -4.793765e-01 9.960868e-02 2.461262e-01
v -4.754449e-01 9.779724e-02 2.519923e-01
v -4.708971e-01 9.540302e-02 2.573103e-01
v -4.669497e-01 9.358573e-02 2.632072e-01
v -4.611466e-01 9.001752e-02 2.674717e-01
v -4.553182e-01 8.643977e-02 2.717854e-01
v -4.513328e-01 8.460848e-02 2.777559e-01
v -4.485930e-01 8.394756e-02 2.847980e-01
v -4.464888e-01 8.387670e-02 2.923517e-01
v -4.443971e-01 8.381050e-02 2.998807e-01
v -4.416827e-01 8.315900e-02 3.068738e-01
v -4.389745e-01 8.250982e-02 3.138547e-01
v -4.375565e-01 8.304768e-02 3.218216e-01
v -4.380924e-01 8.537291e-02 3.312305e-01
v -4.386662e-01 8.771218e-02 3.405659e-01
v -4.392782e-01 9.006569e-02 3.498278e-01
v -4.399282e-01 9.243320e-02 3.590160e-01
v -4.406161e-01 9.481476e-02 3.681305e-01
v -4.413422e-01 9.721046e-02 3.771716e-01
v -4.434343e-01 1.008213e-01 3.870514e-01
v -4.442427e-01 1.032475e-01 3.959330e-01
v -4.464298e-01 1.068936e-01 4.056289e-01
v -4.486677e-01 1.105584e-01 4.152266e-01
v -4.516329e-01 1.148472e-01 4.251578e-01
v -4.532955e-01 1.179445e-01 4.341277e-01
v -4.536364e-01 1.198430e-01 4.421729e-01
v -4.540090e-01 1.217533e-01 4.501569e-01
v -4.530347e-01 1.224556e-01 4.572652e-01
v -4.520792e-01 1.231647e-01 4.643367e-01
v -4.504471e-01 1.232689e-01 4.709766e-01
v -4.495266e-01 1.239911e-01 4.779806e-01
v -4.493271e-01 1.253349e-01 4.853305e-01
v -4.498582e-01 1.273039e-01 4.930078e-01
v -4.504209e-01 1.292847e-01 5.006238e-01
v -4.481692e-01 1.288047e-01 5.067217e-01
v -4.437797e-01 1.264691e-01 5.117330e-01
v -5.442781e-01 1.254541e-01 1.740101e-01
v -5.410359e-01 1.242527e-01 1.802833e-01
v -5.366696e-01 1.219111e-01 1.852656e-01
v -5.317256e-01 1.189940e-01 1.896331e-01
v -5.278993e-01 1.172143e-01 1.953040e-01
v -5.240665e-01 1.154322e-01 2.009868e-01
v -5.202275e-01 1.136479e-01 2.066822e-01
v -5.158042e-01 1.112854e-01 2.117749e-01
v -5.119494e-01 1.094951e-01 2.175008e-01
v -5.080880e-01 1.077025e-01 2.232390e-01
v -5.048079e-01 1.064869e-01 2.295859e-01
v -5.003467e-01 1.041103e-01 2.347522e-01
v -4.958727e-01 1.017290e-01 2.399430e-01
v -4.901922e-01 9.817705e-02 2.440022e-01
v -4.868867e-01 9.695210e-02 2.503982e-01
v -4.841845e-01 9.631243e-02 2.573599e-01
v -4.790628e-01 9.332934e-02 2.620708e-01
v -4.751415e-01 9.151447e-02 2.679256e-01
v -4.699882e-01 8.851971e-02 2.726978e-01
v -4.641999e-01 8.492790e-02 2.769656e-01
v -4.602437e-01 8.310012e-02 2.828878e-01
v -4.562809e-01 8.126988e-02 2.888221e-01
v -4.535630e-01 8.062438e-02 2.958145e-01
v -4.508510e-01 7.998109e-02 3.027946e-01
v -4.481456e-01 7.934021e-02 3.097624e-01
v -4.454465e-01 7.870167e-02 3.167180e-01
v -4.446679e-01 7.985996e-02 3.251562e-01
v -4.458385e-01 8.282557e-02 3.350219e-01
v -4.464091e-01 8.520726e-02 3.443156e-01
v -4.470177e-01 8.760295e-02 3.535359e-01
v -4.476643e-01 9.001269e-02 3.626825e-01
v -4.490029e-01 9.304061e-02 3.722231e-01
v -4.510430e-01 9.669020e-02 3.821395e-01
v -4.531337e-01 1.003586e-01 3.919577e-01
v -4.539483e-01 1.028307e-01 4.007793e-01
v -4.554676e-01 1.059255e-01 4.099704e-01
v -4.577009e-01 1.096467e-01 4.195127e-01
v -4.599850e-01 1.133868e-01 4.289568e-01
v -4.616437e-01 1.165333e-01 4.378781e-01
v -4.626675e-01 1.190829e-01 4.462950e-01
v -4.616819e-01 1.198027e-01 4.534009e-01
v -4.607153e-01 1.205296e-01 4.604700e-01
v -4.597677e-01 1.212635e-01 4.675024e-01
v -4.581472e-01 1.213864e-01 4.741038e-01
v -4.565394e-01 1.215139e-01 4.806808e-01
v -4.556425e-01 1.222667e-01 4.876151e-01
v -4.554662e-01 1.236481e-01 4.948882e-01
v -4.553152e-01 1.250390e-01 5.021122e-01
v -4.523583e-01 1.239432e-01 5.078336e-01
v -4.494014e-01 1.228474e-01 5.135549e-01
v -5.486429e-01 1.200194e-01 1.754868e-01
v -5.454039e-01 1.188191e-01 1.817540e-01
v -5.410484e-01 1.164671e-01 1.867319e-01
v -5.366801e-01 1.141104e-01 1.917341e-01
v -5.328637e-01 1.123272e-01 1.973934e-01
v -5.296089e-01 1.111210e-01 2.036912e-01
v -5.263541e-01 1.099148e-01 2.099889e-01
v -5.225252e-01 1.081270e-01 2.156729e-01
v -5.186899e-01 1.063367e-01 2.213690e-01
v -5.148482e-01 1.045441e-01 2.270772e-01
v -5.115838e-01 1.033344e-01 2.333935e-01
v -5.083195e-01 1.021247e-01 2.397096e-01
v -5.044652e-01 1.003275e-01 2.454426e-01
v -4.994182e-01 9.735035e-02 2.500332e-01
v -4.943522e-01 9.436613e-02 2.546607e-01
v -4.904661e-01 9.255702e-02 2.604549e-01
v -4.865738e-01 9.074572e-02 2.662613e-01
v -4.820693e-01 8.833851e-02 2.715274e-01
v -4.775520e-01 8.592656e-02 2.768179e-01
v -4.730221e-01 8.350995e-02 2.821329e-01
v -4.690950e-01 8.168573e-02 2.880069e-01
v -4.651614e-01 7.985908e-02 2.938930e-01
v -4.618432e-01 7.862943e-02 3.003135e-01
v -4.591499e-01 7.800030e-02 3.072498e-01
v -4.558348e-01 7.677178e-02 3.136642e-01
v -4.537821e-01 7.674902e-02 3.210858e-01
v -4.536453e-01 7.854307e-02 3.299754e-01
v -4.541776e-01 8.095404e-02 3.392951e-01
v -4.547479e-01 8.337904e-02 3.485410e-01
v -4.547125e-01 8.521068e-02 3.572344e-01
v -4.566498e-01 8.888022e-02 3.672853e-01
v -4.579877e-01 9.195866e-02 3.767714e-01
v -4.600233e-01 9.566464e-02 3.866322e-01
v -4.621096e-01 9.938935e-02 3.963949e-01
v -4.629272e-01 1.019061e-01 4.051627e-01
v -4.651085e-01 1.056660e-01 4.147415e-01
v -4.666746e-01 1.088291e-01 4.237859e-01
v -4.689542e-01 1.126254e-01 4.331746e-01
v -4.706122e-01 1.158225e-01 4.420413e-01
v -4.702878e-01 1.171781e-01 4.495687e-01
v -4.693101e-01 1.179226e-01 4.566354e-01
v -4.683513e-01 1.186742e-01 4.636653e-01
v -4.667265e-01 1.188100e-01 4.702591e-01
v -4.651144e-01 1.189504e-01 4.768283e-01
v -4.635149e-01 1.190956e-01 4.833730e-01
v -4.619281e-01 1.192454e-01 4.898932e-01
v -4.610518e-01 1.200276e-01 4.967637e-01
v -4.587927e-01 1.195593e-01 5.028599e-01
v -4.565398e-01 1.190934e-01 5.089439e-01
v -4.528788e-01 1.173678e-01 5.143027e-01
v -5.524521e-01 1.140170e-01 1.763059e-01
v -5.492131e-01 1.128167e-01 1.825730e-01
v -5.459741e-01 1.116164e-01 1.888402e-01
v -5.421775e-01 1.098333e-01 1.944696e-01
v -5.383744e-01 1.080477e-01 2.001114e-01
v -5.345649e-01 1.062598e-01 2.057652e-01
v -5.313164e-01 1.050560e-01 2.120508e-01
v -5.280679e-01 1.038521e-01 2.183363e-01
v -5.248194e-01 1.026483e-01 2.246218e-01
v -5.221478e-01 1.020345e-01 2.315085e-01
v -5.183224e-01 1.002406e-01 2.371930e-01
v -5.144909e-01 9.844461e-02 2.428899e-01
v -5.106529e-01 9.664611e-02 2.485990e-01
v -5.068088e-01 9.484538e-02 2.543205e-01
v -5.017730e-01 9.185059e-02 2.589136e-01
v -4.979096e-01 9.004264e-02 2.646717e-01
v -4.940401e-01 8.823250e-02 2.704422e-01
v -4.901641e-01 8.641996e-02 2.762249e-01
v -4.856766e-01 8.400454e-02 2.814741e-01
v -4.817847e-01 8.218613e-02 2.872875e-01
v -4.778865e-01 8.036528e-02 2.931131e-01
v -4.739821e-01 7.854220e-02 2.989510e-01
v -4.713071e-01 7.792710e-02 3.058437e-01
v -4.686386e-01 7.731447e-02 3.127240e-01
v -4.653521e-01 7.609653e-02 3.190832e-01
v -4.633204e-01 7.609600e-02 3.264480e-01
v -4.625629e-01 7.732015e-02 3.347817e-01
v -4.630981e-01 7.977563e-02 3.440474e-01
v -4.630346e-01 8.163312e-02 3.527551e-01
v -4.642830e-01 8.472925e-02 3.623582e-01
v -4.662190e-01 8.845638e-02 3.723476e-01
v -4.682058e-01 9.220222e-02 3.822388e-01
v -4.695936e-01 9.534991e-02 3.915720e-01
v -4.716786e-01 9.913225e-02 4.012732e-01
v -4.718464e-01 1.010755e-01 4.095333e-01
v -4.733642e-01 1.042714e-01 4.186151e-01
v -4.755886e-01 1.081053e-01 4.280464e-01
v -4.778638e-01 1.119580e-01 4.373796e-01
v -4.781836e-01 1.139576e-01 4.453454e-01
v -4.778634e-01 1.153438e-01 4.528328e-01
v -4.768934e-01 1.161129e-01 4.598603e-01
v -4.752644e-01 1.162616e-01 4.664463e-01
v -4.736480e-01 1.164151e-01 4.730078e-01
v -4.713597e-01 1.159433e-01 4.791523e-01
v -4.697655e-01 1.161049e-01 4.856709e-01
v -4.681839e-01 1.162712e-01 4.921649e-01
v -4.666151e-01 1.164422e-01 4.986344e-01
v -4.636645e-01 1.153488e-01 5.043435e-01
v -4.607139e-01 1.142554e-01 5.100527e-01
v -4.563563e-01 1.118882e-01 5.150504e-01
v -5.557168e-01 1.074295e-01 1.764697e-01
v -5.535700e-01 1.074008e-01 1.840413e-01
v -5.508850e-01 1.067893e-01 1.909454e-01
v -5.470984e-01 1.050026e-01 1.965634e-01
v -5.433053e-01 1.032135e-01 2.021936e-01
v -5.406268e-01 1.026043e-01 2.090855e-01
v -5.373910e-01 1.014052e-01 2.153464e-01
v -5.341551e-01 1.002061e-01 2.216075e-01
v -5.314892e-01 9.960156e-02 2.284748e-01
v -5.294026e-01 9.959530e-02 2.359300e-01
v -5.261763e-01 9.839970e-02 2.421727e-01
v -5.217913e-01 9.600769e-02 2.472395e-01
v -5.179761e-01 9.421045e-02 2.529126e-01
v -5.147403e-01 9.301132e-02 2.591736e-01
v -5.115044e-01 9.181221e-02 2.654347e-01
v -5.070846e-01 8.940734e-02 2.705691e-01
v -5.026519e-01 8.699775e-02 2.757278e-01
v -4.988051e-01 8.518879e-02 2.814624e-01
v -4.955535e-01 8.398379e-02 2.877540e-01
v -4.910923e-01 8.156371e-02 2.929681e-01
v -4.872264e-01 7.974759e-02 2.987394e-01
v -4.833542e-01 7.792914e-02 3.045228e-01
v -4.807041e-01 7.733056e-02 3.113595e-01
v -4.774429e-01 7.612205e-02 3.176695e-01
v -4.741818e-01 7.491352e-02 3.239797e-01
v -4.721680e-01 7.493413e-02 3.312937e-01
v -4.720478e-01 7.680689e-02 3.400710e-01
v -4.725893e-01 7.930832e-02 3.492768e-01
v -4.731689e-01 8.182391e-02 3.584090e-01
v -4.737864e-01 8.435346e-02 3.674676e-01
v -4.757211e-01 8.813809e-02 3.773954e-01
v -4.783493e-01 9.256320e-02 3.876902e-01
v -4.797428e-01 9.576384e-02 3.969566e-01
v -4.805315e-01 9.835686e-02 4.056840e-01
v -4.807060e-01 1.003388e-01 4.138910e-01
v -4.828784e-01 1.042116e-01 4.233589e-01
v -4.851016e-01 1.081031e-01 4.327286e-01
v -4.867136e-01 1.113847e-01 4.415717e-01
v -4.863753e-01 1.127931e-01 4.490621e-01
v -4.860624e-01 1.142110e-01 4.565034e-01
v -4.844321e-01 1.143738e-01 4.630755e-01
v -4.828146e-01 1.145413e-01 4.696232e-01
v -4.812098e-01 1.147135e-01 4.761462e-01
v -4.782560e-01 1.136189e-01 4.818615e-01
v -4.753023e-01 1.125243e-01 4.875767e-01
v -4.737228e-01 1.127059e-01 4.940508e-01
v -4.714657e-01 1.122529e-01 5.001270e-01
v -4.692149e-01 1.118022e-01 5.061910e-01
v -4.662738e-01 1.107123e-01 5.118817e-01
v -5.611520e-01 1.031945e-01 1.792531e-01
v -5.584634e-01 1.025889e-01 1.861564e-01
v -5.557811e-01 1.019856e-01 1.930475e-01
v -5.520044e-01 1.001953e-01 1.986540e-01
v -5.493284e-01 9.959442e-02 2.055328e-01
v -5.466587e-01 9.899576e-02 2.123993e-01
v -5.439954e-01 9.839950e-02 2.192535e-01
v -5.407755e-01 9.720625e-02 2.254838e-01
v -5.381216e-01 9.661348e-02 2.323196e-01
v -5.354741e-01 9.602311e-02 2.391432e-01
v -5.328330e-01 9.543511e-02 2.459546e-01
v -5.296226e-01 9.424540e-02 2.521666e-01
v -5.264121e-01 9.305564e-02 2.583786e-01
v -5.232017e-01 9.186592e-02 2.645905e-01
v -5.199912e-01 9.067619e-02 2.708025e-01
v -5.167807e-01 8.948647e-02 2.770145e-01
v -5.129787e-01 8.768678e-02 2.826699e-01
v -5.079812e-01 8.466264e-02 2.872372e-01
v -5.035623e-01 8.224368e-02 2.923853e-01
v -4.997319e-01 8.043343e-02 2.980961e-01
v -4.971034e-01 7.985013e-02 3.048829e-01
v -4.932666e-01 7.803756e-02 3.106059e-01
v -4.894234e-01 7.622267e-02 3.163411e-01
v -4.874149e-01 7.625978e-02 3.236291e-01
v -4.848024e-01 7.568238e-02 3.303853e-01
v -4.828161e-01 7.572769e-02 3.376304e-01
v -4.827120e-01 7.764271e-02 3.463363e-01
v -4.832661e-01 8.019234e-02 3.554698e-01
v -4.838581e-01 8.275597e-02 3.645297e-01
v -4.838555e-01 8.470858e-02 3.730394e-01
v -4.857920e-01 8.855191e-02 3.828994e-01
v -4.884184e-01 9.304164e-02 3.931257e-01
v -4.898175e-01 9.629512e-02 4.023250e-01
v -4.899701e-01 9.830523e-02 4.105342e-01
v -4.908030e-01 1.009582e-01 4.191281e-01
v -4.923256e-01 1.042574e-01 4.280883e-01
v -4.945475e-01 1.082065e-01 4.373963e-01
v -4.955040e-01 1.109053e-01 4.457511e-01
v -4.951761e-01 1.123466e-01 4.531892e-01
v -4.942091e-01 1.131604e-01 4.601628e-01
v -4.925937e-01 1.133432e-01 4.666904e-01
v -4.909909e-01 1.135306e-01 4.731935e-01
v -4.887269e-01 1.130823e-01 4.792751e-01
v -4.857922e-01 1.119948e-01 4.849536e-01
v -4.828574e-01 1.109072e-01 4.906320e-01
v -4.806061e-01 1.104637e-01 4.966891e-01
v -4.776745e-01 1.093773e-01 5.023614e-01
v -4.747429e-01 1.082909e-01 5.080338e-01
v -5.638821e-01 9.839867e-02 1.889159e-01
v -5.606621e-01 9.720538e-02 1.951463e-01
v -5.568956e-01 9.541166e-02 2.007413e-01
v -5.542222e-01 9.481888e-02 2.076070e-01
v -5.521080e-01 9.483136e-02 2.150835e-01
v -5.500065e-01 9.484854e-02 2.225355e-01
v -5.479177e-01 9.487044e-02 2.299630e-01
v -5.458417e-01 9.489704e-02 2.373659e-01
v -5.437781e-01 9.492827e-02 2.447443e-01
v -5.411586e-01 9.435552e-02 2.515058e-01
v -5.385454e-01 9.378502e-02 2.582549e-01
v -5.353635e-01 9.260584e-02 2.644117e-01
v -5.316033e-01 9.081451e-02 2.699945e-01
v -5.284182e-01 8.963417e-02 2.761574e-01
v -5.252331e-01 8.845383e-02 2.823204e-01
v -5.220480e-01 8.727351e-02 2.884832e-01
v -5.176810e-01 8.485921e-02 2.935471e-01
v -5.121131e-01 8.120403e-02 2.975489e-01
v -5.083118e-01 7.939730e-02 3.032113e-01
v -5.069058e-01 8.007023e-02 3.110105e-01
v -5.037080e-01 7.888519e-02 3.171979e-01
v -4.986899e-01 7.583162e-02 3.218289e-01
v -4.967026e-01 7.589117e-02 3.290601e-01
v -4.953409e-01 7.658042e-02 3.367734e-01
v -4.939983e-01 7.727681e-02 3.444499e-01
v -4.939137e-01 7.923530e-02 3.530781e-01
v -4.938607e-01 8.120551e-02 3.616451e-01
v -4.944652e-01 8.381733e-02 3.706327e-01
v -4.944788e-01 8.581217e-02 3.790709e-01
v -4.964205e-01 8.971550e-02 3.888571e-01
v -4.977776e-01 9.300420e-02 3.980814e-01
v -4.998175e-01 9.694386e-02 4.076775e-01
v -5.006249e-01 9.963085e-02 4.162726e-01
v -5.014703e-01 1.023320e-01 4.247942e-01
v -5.023537e-01 1.050472e-01 4.332423e-01
v -5.039263e-01 1.084157e-01 4.420497e-01
v -5.035803e-01 1.098794e-01 4.494908e-01
v -5.026022e-01 1.107108e-01 4.564620e-01
v -5.016431e-01 1.115493e-01 4.633964e-01
v -5.007030e-01 1.123948e-01 4.702941e-01
v -4.984480e-01 1.119571e-01 4.763504e-01
v -4.961993e-01 1.115218e-01 4.823944e-01
v -4.939569e-01 1.110888e-01 4.884261e-01
v -4.903678e-01 1.093607e-01 4.936777e-01
v -4.874521e-01 1.082803e-01 4.993194e-01
v -4.838535e-01 1.065487e-01 5.045894e-01
v -4.802486e-01 1.048148e-01 5.098716e-01
v -5.687419e-01 9.363965e-02 1.910238e-01
v -5.655282e-01 9.244873e-02 1.972419e-01
v -5.623146e-01 9.125783e-02 2.034600e-01
v -5.601930e-01 9.128204e-02 2.109349e-01
v -5.586332e-01 9.191972e-02 2.190076e-01
v -5.581972e-01 9.378420e-02 2.282757e-01
v -5.572373e-01 9.504943e-02 2.368726e-01
v -5.557441e-01 9.571172e-02 2.448164e-01
v -5.537081e-01 9.576765e-02 2.521258e-01
v -5.516846e-01 9.582830e-02 2.594106e-01
v -5.491058e-01 9.527780e-02 2.660854e-01
v -5.453905e-01 9.349579e-02 2.715892e-01
v -5.416689e-01 9.171143e-02 2.771054e-01
v -5.379410e-01 8.992467e-02 2.826337e-01
v -5.347875e-01 8.875610e-02 2.887353e-01
v -5.322182e-01 8.820922e-02 2.953917e-01
v -5.284807e-01 8.641890e-02 3.009385e-01
v -5.223755e-01 8.213035e-02 3.043273e-01
v -5.180191e-01 7.970547e-02 3.093867e-01
v -5.160370e-01 7.978141e-02 3.165918e-01
v -5.128678e-01 7.860697e-02 3.227240e-01
v -5.090953e-01 7.680377e-02 3.283383e-01
v -5.071354e-01 7.688790e-02 3.355004e-01
v -5.057975e-01 7.760772e-02 3.431438e-01
v -5.057037e-01 7.959910e-02 3.517497e-01
v -5.056416e-01 8.160221e-02 3.602942e-01
v -5.056112e-01 8.361702e-02 3.687774e-01
v -5.049905e-01 8.500791e-02 3.767180e-01
v -5.056455e-01 8.768198e-02 3.855598e-01
v -5.075954e-01 9.164634e-02 3.952661e-01
v -5.083329e-01 9.435101e-02 4.039485e-01
v -5.103778e-01 9.835056e-02 4.134706e-01
v -5.111977e-01 1.010858e-01 4.219935e-01
v -5.114145e-01 1.031922e-01 4.299984e-01
v -5.123072e-01 1.059544e-01 4.383803e-01
v -5.119432e-01 1.074403e-01 4.458242e-01
v -5.109539e-01 1.082894e-01 4.527931e-01
v -5.099836e-01 1.091455e-01 4.597252e-01
v -5.096892e-01 1.106573e-01 4.670342e-01
v -5.081001e-01 1.108788e-01 4.734789e-01
v -5.065236e-01 1.111050e-01 4.798991e-01
v -5.036269e-01 1.100315e-01 4.855040e-01
v -5.013997e-01 1.096115e-01 4.914980e-01
v -4.978334e-01 1.078847e-01 4.967137e-01
v -4.935849e-01 1.054998e-01 5.015646e-01
v -4.900027e-01 1.037671e-01 5.068109e-01
v -4.864142e-01 1.020321e-01 5.120694e-01
v -5.730541e-01 8.829423e-02 1.924825e-01
v -5.703795e-01 8.771551e-02 1.993343e-01
v -5.682504e-01 8.775156e-02 2.068076e-01
v -5.672185e-01 8.901906e-02 2.155116e-01
v -5.673030e-01 9.152521e-02 2.254095e-01
v -5.685226e-01 9.527696e-02 2.364644e-01
v -5.686895e-01 9.781366e-02 2.462029e-01
v -5.672294e-01 9.851002e-02 2.540585e-01
v -5.652303e-01 9.859416e-02 2.612804e-01
v -5.626826e-01 9.806251e-02 2.678870e-01
v -5.595767e-01 9.691153e-02 2.738965e-01
v -5.553356e-01 9.451488e-02 2.787491e-01
v -5.510818e-01 9.211357e-02 2.836260e-01
v -5.479632e-01 9.095791e-02 2.896602e-01
v -5.448447e-01 8.980224e-02 2.956944e-01
v -5.417261e-01 8.864655e-02 3.017285e-01
v -5.374406e-01 8.623344e-02 3.066669e-01
v -5.319692e-01 8.255594e-02 3.105462e-01
v -5.282417e-01 8.076218e-02 3.160815e-01
v -5.251010e-01 7.959829e-02 3.221586e-01
v -5.213641e-01 7.780098e-02 3.277123e-01
v -5.188195e-01 7.727051e-02 3.343127e-01
v -5.174863e-01 7.801388e-02 3.419230e-01
v -5.167778e-01 7.940119e-02 3.500015e-01
v -5.154857e-01 8.015978e-02 3.575321e-01
v -5.154367e-01 8.220399e-02 3.660113e-01
v -5.160345e-01 8.490046e-02 3.749159e-01
v -5.160520e-01 8.696931e-02 3.832662e-01
v -5.173442e-01 9.033553e-02 3.925040e-01
v -5.174314e-01 9.243023e-02 4.007195e-01
v -5.188061e-01 9.582695e-02 4.097977e-01
v -5.202251e-01 9.924018e-02 4.187902e-01
v -5.210543e-01 1.020223e-01 4.272470e-01
v -5.206468e-01 1.035212e-01 4.347429e-01
v -5.209052e-01 1.056794e-01 4.426274e-01
v -5.205516e-01 1.071983e-01 4.500190e-01
v -5.202233e-01 1.087265e-01 4.573616e-01
v -5.186203e-01 1.089574e-01 4.638170e-01
v -5.170301e-01 1.091930e-01 4.702478e-01
v -5.161088e-01 1.100890e-01 4.770609e-01
v -5.152066e-01 1.109922e-01 4.838373e-01
v -5.129979e-01 1.105861e-01 4.897877e-01
v -5.081321e-01 1.075455e-01 4.941720e-01
v -5.039164e-01 1.051583e-01 4.989755e-01
v -4.990156e-01 1.021048e-01 5.034272e-01
v -5.746836e-01 8.238889e-02 2.007845e-01
v -5.725503e-01 8.243778e-02 2.082500e-01
v -5.774308e-01 9.054239e-02 2.238396e-01
v -5.829480e-01 9.930263e-02 2.398657e-01
v -5.820280e-01 1.006407e-01 2.483212e-01
v -5.800373e-01 1.007424e-01 2.555108e-01
v -5.786105e-01 1.014728e-01 2.632781e-01
v -5.760939e-01 1.009599e-01 2.698165e-01
v -5.730260e-01 9.982307e-02 2.757525e-01
v -5.688368e-01 9.743113e-02 2.805207e-01
v -5.646347e-01 9.503451e-02 2.853136e-01
v -5.609871e-01 9.326303e-02 2.907024e-01
v -5.579034e-01 9.212029e-02 2.966691e-01
v -5.542463e-01 9.034530e-02 3.020765e-01
v -5.505829e-01 8.856802e-02 3.074960e-01
v -5.474929e-01 8.742291e-02 3.134750e-01
v -5.426541e-01 8.437051e-02 3.178311e-01
v -5.383824e-01 8.194808e-02 3.227588e-01
v -5.346873e-01 8.015901e-02 3.282397e-01
v -5.309858e-01 7.836758e-02 3.337329e-01
v -5.290648e-01 7.849515e-02 3.407876e-01
v -5.289527e-01 8.055233e-02 3.493487e-01
v -5.288724e-01 8.262118e-02 3.578484e-01
v -5.276135e-01 8.341382e-02 3.652908e-01
v -5.269820e-01 8.485870e-02 3.731882e-01
v -5.269872e-01 8.695931e-02 3.815224e-01
v -5.276387e-01 8.971917e-02 3.902748e-01
v -5.277105e-01 9.184446e-02 3.984802e-01
v -5.284349e-01 9.463126e-02 4.070917e-01
v -5.291974e-01 9.743219e-02 4.156295e-01
v -5.299978e-01 1.002473e-01 4.240938e-01
v -5.302059e-01 1.024230e-01 4.320355e-01
v -5.298120e-01 1.039560e-01 4.394731e-01
v -5.294435e-01 1.054983e-01 4.468614e-01
v -5.297403e-01 1.077069e-01 4.546314e-01
v -5.287825e-01 1.086112e-01 4.614913e-01
v -5.278437e-01 1.095224e-01 4.683142e-01
v -5.269240e-01 1.104408e-01 4.751005e-01
v -5.260233e-01 1.113662e-01 4.818499e-01
v -5.244857e-01 1.116360e-01 4.881626e-01
v -6.035982e-01 1.109621e-01 2.509282e-01
v -6.005810e-01 1.098440e-01 2.567661e-01
v -5.959404e-01 1.068432e-01 2.607628e-01
v -5.907364e-01 1.032069e-01 2.641887e-01
v -5.871496e-01 1.014507e-01 2.694680e-01
v -5.841071e-01 1.003232e-01 2.753550e-01
v -5.805109e-01 9.856347e-02 2.806528e-01
v -5.763511e-01 9.616797e-02 2.853796e-01
v -5.727390e-01 9.440241e-02 2.907081e-01
v -5.696838e-01 9.327023e-02 2.966195e-01
v -5.666286e-01 9.213806e-02 3.025311e-01
v -5.641432e-01 9.164396e-02 3.090011e-01
v -5.605183e-01 8.987369e-02 3.143540e-01
v -5.568871e-01 8.810108e-02 3.197193e-01
v -5.532496e-01 8.632612e-02 3.250967e-01
v -5.490234e-01 8.390599e-02 3.299524e-01
v -5.459555e-01 8.276910e-02 3.358885e-01
v -5.434764e-01 8.227735e-02 3.423462e-01
v -5.421873e-01 8.308060e-02 3.498230e-01
v -5.415123e-01 8.453842e-02 3.577724e-01
v -5.402645e-01 8.535696e-02 3.651695e-01
v -5.396370e-01 8.683235e-02 3.730269e-01
v -5.390349e-01 8.831716e-02 3.808353e-01
v -5.384581e-01 8.981134e-02 3.885946e-01
v -5.379067e-01 9.131499e-02 3.963049e-01
v -5.379947e-01 9.348251e-02 4.044388e-01
v -5.387316e-01 9.631750e-02 4.129780e-01
v -5.388863e-01 9.850971e-02 4.209832e-01
v -5.390725e-01 1.007137e-01 4.289271e-01
v -5.386637e-01 1.022701e-01 4.363613e-01
v -5.382802e-01 1.038359e-01 4.437466e-01
v -5.379221e-01 1.054112e-01 4.510828e-01
v -5.382257e-01 1.076586e-01 4.587997e-01
v -5.372821e-01 1.085899e-01 4.656081e-01
v -5.363575e-01 1.095282e-01 4.723797e-01
v -5.360976e-01 1.111399e-01 4.795257e-01
v -5.352142e-01 1.120934e-01 4.862175e-01
v -5.323936e-01 1.110482e-01 4.916752e-01
v -6.119263e-01 1.110503e-01 2.573180e-01
v -6.089377e-01 1.099428e-01 2.631007e-01
v -6.043367e-01 1.069351e-01 2.670446e-01
v -5.997168e-01 1.039202e-01 2.710253e-01
v -5.950779e-01 1.008985e-01 2.750428e-01
v -5.915139e-01 9.914346e-02 2.802862e-01
v -5.873933e-01 9.674796e-02 2.849534e-01
v -5.832601e-01 9.434784e-02 2.896452e-01
v -5.796707e-01 9.258341e-02 2.949376e-01
v -5.760749e-01 9.081665e-02 3.002422e-01
v -5.735984e-01 9.033315e-02 3.066869e-01
v -5.716942e-01 9.049597e-02 3.136772e-01
v -5.692335e-01 9.001830e-02 3.200911e-01
v -5.662068e-01 8.889670e-02 3.259475e-01
v -5.626048e-01 8.712762e-02 3.312644e-01
v -5.595750e-01 8.600481e-02 3.371268e-01
v -5.582905e-01 8.683156e-02 3.445705e-01
v -5.564401e-01 8.701439e-02 3.514564e-01
v -5.540144e-01 8.654957e-02 3.578030e-01
v -5.527775e-01 8.739403e-02 3.651547e-01
v -5.521541e-01 8.889997e-02 3.729722e-01
v -5.509585e-01 8.975955e-02 3.802442e-01
v -5.497818e-01 9.062624e-02 3.874793e-01
v -5.486242e-01 9.150001e-02 3.946778e-01
v -5.480928e-01 9.304001e-02 4.023173e-01
v -5.475867e-01 9.458939e-02 4.099079e-01
v -5.471059e-01 9.614820e-02 4.174494e-01
v -5.466505e-01 9.771640e-02 4.249419e-01
v -5.468403e-01 9.995793e-02 4.328388e-01
v -5.470618e-01 1.022112e-01 4.406744e-01
v -5.473150e-01 1.044763e-01 4.484486e-01
v -5.482292e-01 1.074205e-01 4.565967e-01
v -5.479164e-01 1.090415e-01 4.638131e-01
v -5.463576e-01 1.093323e-01 4.701349e-01
v -5.448115e-01 1.096279e-01 4.764321e-01
v -5.445622e-01 1.112724e-01 4.835260e-01
v -5.424026e-01 1.109064e-01 4.893574e-01
v -5.383042e-01 1.085191e-01 4.939817e-01
v -6.140441e-01 1.063187e-01 2.657113e-01
v -6.105312e-01 1.045755e-01 2.708634e-01
v -6.064752e-01 1.021894e-01 2.754219e-01
v -6.018665e-01 9.915696e-02 2.794049e-01
v -5.977820e-01 9.676035e-02 2.840186e-01
v -5.942311e-01 9.500298e-02 2.892444e-01
v -5.901243e-01 9.259813e-02 2.939009e-01
v -5.865577e-01 9.083491e-02 2.991574e-01
v -5.835406e-01 8.971683e-02 3.049952e-01
v -5.810824e-01 8.924740e-02 3.113962e-01
v -5.791930e-01 8.943016e-02 3.183419e-01
v -5.767508e-01 8.896661e-02 3.247121e-01
v -5.748834e-01 8.915761e-02 3.316149e-01
v -5.718853e-01 8.804656e-02 3.374160e-01
v -5.700370e-01 8.824464e-02 3.442820e-01
v -5.699356e-01 9.041450e-02 3.527022e-01
v -5.663785e-01 8.865481e-02 3.579402e-01
v -5.633993e-01 8.755078e-02 3.637046e-01
v -5.639458e-01 9.040231e-02 3.725162e-01
v -5.633487e-01 9.194699e-02 3.802507e-01
v -5.621830e-01 9.283950e-02 3.874406e-01
v -5.598422e-01 9.241353e-02 3.936146e-01
v -5.581080e-01 9.265387e-02 4.002599e-01
v -5.563865e-01 9.289890e-02 4.068805e-01
v -5.552843e-01 9.381493e-02 4.139477e-01
v -5.542010e-01 9.473797e-02 4.209782e-01
v -5.549756e-01 9.767399e-02 4.293482e-01
v -5.557882e-01 1.006241e-01 4.376448e-01
v -5.566389e-01 1.035883e-01 4.458677e-01
v -5.575276e-01 1.065666e-01 4.540170e-01
v -5.584542e-01 1.095589e-01 4.620928e-01
v -5.575327e-01 1.105419e-01 4.688105e-01
v -5.541023e-01 1.088292e-01 4.738032e-01
v -5.519358e-01 1.084678e-01 4.796401e-01
v -5.510522e-01 1.094648e-01 4.862841e-01
v -5.501876e-01 1.104689e-01 4.928914e-01
v -6.180745e-01 1.014419e-01 2.670821e-01
v -6.150985e-01 1.003391e-01 2.728402e-01
v -6.115894e-01 9.858992e-02 2.779932e-01
v -6.075377e-01 9.619096e-02 2.825594e-01
v -6.040127e-01 9.443596e-02 2.877430e-01
v -6.004815e-01 9.267855e-02 2.929389e-01
v -5.974897e-01 9.156986e-02 2.987278e-01
v -5.939489e-01 8.980900e-02 3.039421e-01
v -5.915062e-01 8.935247e-02 3.103055e-01
v -5.890697e-01 8.889840e-02 3.166566e-01
v -5.871981e-01 8.910223e-02 3.235516e-01
v -5.853393e-01 8.931090e-02 3.304221e-01
v -5.829281e-01 8.886615e-02 3.367242e-01
v -5.805233e-01 8.842373e-02 3.430139e-01
v -5.792673e-01 8.930457e-02 3.503547e-01
v -5.780302e-01 9.019231e-02 3.576587e-01
v -5.745022e-01 8.843613e-02 3.628484e-01
v -5.727098e-01 8.866941e-02 3.695901e-01
v -5.720979e-01 9.023764e-02 3.773214e-01
v -5.709242e-01 9.114894e-02 3.845028e-01
v -5.691794e-01 9.139986e-02 3.911525e-01
v -5.680405e-01 9.232409e-02 3.982663e-01
v -5.657277e-01 9.191572e-02 4.043782e-01
v -5.634212e-01 9.150975e-02 4.104780e-01
v -5.623268e-01 9.245042e-02 4.175060e-01
v -5.618574e-01 9.407146e-02 4.249614e-01
v -5.626318e-01 9.705093e-02 4.332837e-01
v -5.640567e-01 1.007202e-01 4.419844e-01
v -5.587548e-01 9.696045e-02 4.456959e-01
v -5.664494e-01 1.114794e-01 4.733645e-01
v -5.617947e-01 1.084082e-01 4.774603e-01
v -5.533327e-01 1.012336e-01 4.791024e-01
v -6.185984e-01 9.482421e-02 2.735928e-01
v -6.156225e-01 9.372138e-02 2.793510e-01
v -6.131791e-01 9.327200e-02 2.857075e-01
v -6.096706e-01 9.151575e-02 2.908674e-01
v -6.066946e-01 9.041291e-02 2.966256e-01
v -6.037187e-01 8.931010e-02 3.023837e-01
v -6.007428e-01 8.820728e-02 3.081419e-01
v -5.983153e-01 8.776378e-02 3.144677e-01
v -5.958941e-01 8.732249e-02 3.207812e-01
v -5.945888e-01 8.820685e-02 3.281932e-01
v -5.933026e-01 8.909814e-02 3.355683e-01
v -5.909132e-01 8.866865e-02 3.418205e-01
v -5.885300e-01 8.824154e-02 3.480604e-01
v -5.872881e-01 8.914932e-02 3.553497e-01
v -5.854946e-01 8.939670e-02 3.620776e-01
v -5.825662e-01 8.831151e-02 3.677438e-01
v -5.813687e-01 8.923574e-02 3.749473e-01
v -5.801903e-01 9.016701e-02 3.821138e-01
v -5.784475e-01 9.043317e-02 3.887435e-01
v -5.767173e-01 9.070405e-02 3.953487e-01
v -5.755896e-01 9.165412e-02 4.024172e-01
v -5.738880e-01 9.193554e-02 4.089672e-01
v -5.716031e-01 9.154482e-02 4.150171e-01
v -5.699237e-01 9.183456e-02 4.215241e-01
v -5.688593e-01 9.280803e-02 4.284700e-01
v -5.690249e-01 9.514944e-02 4.362936e-01
v -5.716568e-01 1.002288e-01 4.458602e-01
v -5.725103e-01 1.032811e-01 4.539815e-01
v -6.220982e-01 8.930936e-02 2.743454e-01
v -6.201736e-01 8.952266e-02 2.813108e-01
v -6.177329e-01 8.908143e-02 2.876541e-01
v -6.147665e-01 8.798214e-02 2.933939e-01
v -6.123352e-01 8.754443e-02 2.997190e-01
v -6.099104e-01 8.710912e-02 3.060317e-01
v -6.069503e-01 8.601216e-02 3.117592e-01
v -6.045350e-01 8.558031e-02 3.180535e-01
v -6.026738e-01 8.581710e-02 3.248962e-01
v -6.008253e-01 8.605862e-02 3.317144e-01
v -5.995437e-01 8.697346e-02 3.390565e-01
v -5.977238e-01 8.722554e-02 3.458195e-01
v -5.959165e-01 8.748233e-02 3.525580e-01
v -5.935581e-01 8.707161e-02 3.587419e-01
v -5.917731e-01 8.733664e-02 3.654375e-01
v -5.900006e-01 8.760630e-02 3.721085e-01
v -5.888141e-01 8.855635e-02 3.792666e-01
v -5.876466e-01 8.951348e-02 3.863879e-01
v -5.859186e-01 8.979962e-02 3.929731e-01
v -5.847860e-01 9.076973e-02 4.000270e-01
v -5.830864e-01 9.106640e-02 4.065570e-01
v -5.808105e-01 9.068624e-02 4.125815e-01
v -5.785409e-01 9.030844e-02 4.185937e-01
v -5.762777e-01 8.993297e-02 4.245937e-01
v -5.746193e-01 9.024493e-02 4.310440e-01
v -5.753808e-01 9.330664e-02 4.392953e-01
v -6.255980e-01 8.379448e-02 2.750979e-01
v -6.247099e-01 8.534741e-02 2.832673e-01
v -6.227970e-01 8.557953e-02 2.901942e-01
v -6.203683e-01 8.515006e-02 2.965062e-01
v -6.179461e-01 8.472291e-02 3.028059e-01
v -6.155301e-01 8.429814e-02 3.090932e-01
v -6.125827e-01 8.320589e-02 3.147963e-01
v -6.107173e-01 8.345561e-02 3.216312e-01
v -6.088646e-01 8.371003e-02 3.284417e-01
v -6.075717e-01 8.464250e-02 3.357814e-01
v -6.062981e-01 8.558205e-02 3.430843e-01
v -6.044896e-01 8.585288e-02 3.498089e-01
v -6.015803e-01 8.477473e-02 3.554383e-01
v -5.992309e-01 8.437461e-02 3.615969e-01
v -5.974510e-01 8.465610e-02 3.682664e-01
v -5.962501e-01 8.562257e-02 3.754281e-01
v -5.956378e-01 8.727770e-02 3.830641e-01
v -5.944781e-01 8.825946e-02 3.901461e-01
v -5.933375e-01 8.924830e-02 3.971915e-01
v -5.922159e-01 9.024417e-02 4.042000e-01
v -5.905311e-01 9.056094e-02 4.106855e-01
v -5.876883e-01 8.950740e-02 4.161861e-01
v -5.842569e-01 8.776527e-02 4.212127e-01
v -5.820026e-01 8.740045e-02 4.271874e-01
v -5.809444e-01 8.841976e-02 4.340732e-01
v -5.811012e-01 9.083049e-02 4.418336e-01
v -5.830933e-01 9.533280e-02 4.508811e-01
v -6.302678e-01 8.253529e-02 2.864247e-01
v -6.278387e-01 8.211289e-02 2.927296e-01
v -6.254159e-01 8.169284e-02 2.990223e-01
v -6.229993e-01 8.127504e-02 3.053028e-01
v -6.200583e-01 8.018514e-02 3.109935e-01
v -6.176513e-01 7.977095e-02 3.172556e-01
v -6.163252e-01 8.071282e-02 3.246358e-01
v -6.150181e-01 8.166171e-02 3.319792e-01
v -6.137299e-01 8.261764e-02 3.392858e-01
v -6.124609e-01 8.358069e-02 3.465556e-01
v -6.112108e-01 8.455069e-02 3.537886e-01
v -6.077673e-01 8.279684e-02 3.588466e-01
v -6.054301e-01 8.240848e-02 3.649738e-01
v -6.047774e-01 8.407768e-02 3.726556e-01
v -6.035876e-01 8.507004e-02 3.797720e-01
v -6.024168e-01 8.606946e-02 3.868518e-01
v -6.018339e-01 8.776456e-02 3.943986e-01
v -6.007042e-01 8.877925e-02 4.013986e-01
v -5.995937e-01 8.980099e-02 4.083618e-01
v -5.967667e-01 8.875336e-02 4.138318e-01
v -5.939397e-01 8.770578e-02 4.193018e-01
v -5.911128e-01 8.665813e-02 4.247717e-01
v -5.882858e-01 8.561052e-02 4.302417e-01
v -5.866410e-01 8.595649e-02 4.366336e-01
v -5.861976e-01 8.770325e-02 4.439105e-01
v -5.875720e-01 9.155692e-02 4.524845e-01
v -6.328580e-01 7.868146e-02 2.952602e-01
v -6.299201e-01 7.759273e-02 3.009447e-01
v -6.269822e-01 7.650399e-02 3.066294e-01
v -6.245715e-01 7.609563e-02 3.128906e-01
v -6.232278e-01 7.705279e-02 3.202807e-01
v -6.224368e-01 7.869975e-02 3.281983e-01
v -6.216710e-01 8.035606e-02 3.360669e-01
v -6.209306e-01 8.202169e-02 3.438865e-01
v -6.191294e-01 8.232431e-02 3.505649e-01
v -6.173411e-01 8.263157e-02 3.572189e-01
v -6.144665e-01 8.156633e-02 3.627808e-01
v -6.126970e-01 8.188063e-02 3.693980e-01
v -6.109403e-01 8.219964e-02 3.759907e-01
v -6.103140e-01 8.390766e-02 3.835894e-01
v -6.097130e-01 8.562506e-02 3.911391e-01
v -6.097027e-01 8.804631e-02 3.991429e-01
v -6.091556e-01 8.978366e-02 4.065884e-01
v -6.069192e-01 8.943990e-02 4.125124e-01
v -6.041144e-01 8.840053e-02 4.179394e-01
v -6.007317e-01 8.666197e-02 4.228879e-01
v -5.973428e-01 8.492105e-02 4.278487e-01
v -5.945316e-01 8.387930e-02 4.332880e-01
v -5.923078e-01 8.354021e-02 4.391874e-01
v -5.912716e-01 8.461132e-02 4.459827e-01
v -6.301167e-01 7.340220e-02 3.159361e-01
v -6.293012e-01 7.506906e-02 3.238691e-01
v -6.295707e-01 7.812256e-02 3.328800e-01
v -6.293451e-01 8.050037e-02 3.412599e-01
v -6.286152e-01 8.219894e-02 3.490273e-01
v -6.268320e-01 8.252266e-02 3.556551e-01
v -6.239764e-01 8.146449e-02 3.611803e-01
v -6.211210e-01 8.040632e-02 3.667054e-01
v -6.188142e-01 8.004378e-02 3.727574e-01
v -6.170659e-01 8.038039e-02 3.793178e-01
v -6.158854e-01 8.141976e-02 3.863681e-01
v -6.163989e-01 8.456365e-02 3.949069e-01
v -6.163889e-01 8.702136e-02 4.028698e-01
v -6.158459e-01 8.878923e-02 4.102753e-01
v -6.141926e-01 8.916115e-02 4.166518e-01
v -6.119810e-01 8.883382e-02 4.225197e-01
v -6.080532e-01 8.639367e-02 4.269422e-01
v -6.041127e-01 8.394893e-02 4.313892e-01
v -6.001597e-01 8.149942e-02 4.358608e-01
v -5.973612e-01 8.046237e-02 4.412756e-01
v -5.957364e-01 8.084480e-02 4.475968e-01
v -6.366717e-01 7.213990e-02 3.201254e-01
v -6.348144e-01 7.245069e-02 3.268805e-01
v -6.356002e-01 7.623861e-02 3.364249e-01
v -6.364304e-01 8.004297e-02 3.458836e-01
v -6.367725e-01 8.316694e-02 3.547058e-01
v -6.350105e-01 8.351302e-02 3.612768e-01
v -6.316447e-01 8.176620e-02 3.662085e-01
v -6.282726e-01 8.001705e-02 3.711524e-01
v -6.248942e-01 7.826554e-02 3.761086e-01
v -6.226060e-01 7.791709e-02 3.821169e-01
v -6.230400e-01 8.357276e-02 3.986651e-01
v -6.213570e-01 8.394816e-02 4.050827e-01
v -6.136113e-01 8.407489e-02 4.295545e-01
v -6.125590e-01 8.518354e-02 4.363326e-01
v -6.046043e-01 7.773995e-02 4.374978e-01
v -6.006523e-01 7.527637e-02 4.419833e-01
v -6.450401e-01 8.177248e-02 3.521634e-01
v -6.443342e-01 8.353799e-02 3.598201e-01
v -6.415262e-01 8.249741e-02 3.652532e-01
v -6.326811e-01 7.617896e-02 3.729316e-01
v -6.298541e-01 7.513134e-02 3.784016e-01
v -6.281162e-01 7.550083e-02 3.849097e-01
