v -4.346134e-01 1.781749e-01 1.876262e-01
v -4.239755e-01 1.790106e-01 1.944279e-01
v -4.145000e-01 1.785048e-01 1.953995e-01
v -4.048680e-01 1.782255e-01 1.973428e-01
v -3.947735e-01 1.786263e-01 2.022010e-01
v -3.740462e-01 1.805796e-01 2.167759e-01
v -3.649087e-01 1.798616e-01 2.167759e-01
v -3.191885e-01 1.953729e-01 2.945081e-01
v -3.101788e-01 1.956201e-01 2.983948e-01
v -4.436738e-01 1.710465e-01 1.949604e-01
v -4.332102e-01 1.716977e-01 2.007792e-01
v -4.237551e-01 1.712004e-01 2.017491e-01
v -4.146700e-01 1.702409e-01 2.007792e-01
v -4.047160e-01 1.704410e-01 2.046584e-01
v -3.944896e-01 1.711109e-01 2.104772e-01
v -3.840330e-01 1.722538e-01 2.182356e-01
v -3.741383e-01 1.727041e-01 2.230845e-01
v -3.648856e-01 1.722227e-01 2.240545e-01
v -3.557831e-01 1.715074e-01 2.240545e-01
v -3.284175e-01 1.877748e-01 2.967891e-01
v -3.189172e-01 1.889929e-01 3.045475e-01
v -3.095286e-01 1.902198e-01 3.123060e-01
v -3.005553e-01 1.907425e-01 3.171549e-01
v -4.439804e-01 1.625410e-01 1.993724e-01
v -4.331427e-01 1.637081e-01 2.071158e-01
v -4.231585e-01 1.639330e-01 2.109876e-01
v -4.141228e-01 1.629706e-01 2.100196e-01
v -4.038724e-01 1.636792e-01 2.158274e-01
v -3.932121e-01 1.651126e-01 2.245387e-01
v -3.829926e-01 1.660760e-01 2.313144e-01
v -3.727202e-01 1.672876e-01 2.390579e-01
v -3.634211e-01 1.670616e-01 2.409938e-01
v -3.304169e-01 1.768330e-01 2.884230e-01
v -3.186375e-01 1.827206e-01 3.145574e-01
v -3.094092e-01 1.837619e-01 3.213328e-01
v -3.005838e-01 1.840778e-01 3.252047e-01
v -4.436849e-01 1.547926e-01 2.066750e-01
v -4.326849e-01 1.562602e-01 2.153697e-01
v -4.219964e-01 1.574933e-01 2.230983e-01
v -4.121358e-01 1.577549e-01 2.269627e-01
v -4.018149e-01 1.587577e-01 2.337254e-01
v -3.909313e-01 1.607528e-01 2.443522e-01
v -3.802014e-01 1.627599e-01 2.549791e-01
v -3.693227e-01 1.652736e-01 2.675384e-01
v -3.471499e-01 1.720821e-01 2.994191e-01
v -3.362136e-01 1.758869e-01 3.168087e-01
v -3.272536e-01 1.762192e-01 3.206729e-01
v -3.180006e-01 1.773060e-01 3.274357e-01
v -3.089547e-01 1.781498e-01 3.332321e-01
v -3.000947e-01 1.787492e-01 3.380625e-01
v -5.243878e-01 1.460316e-01 1.869607e-01
v -4.853226e-01 1.445573e-01 1.927459e-01
v -4.639854e-01 1.460714e-01 2.043168e-01
v -4.530275e-01 1.473374e-01 2.120305e-01
v -4.423817e-01 1.483621e-01 2.187802e-01
v -4.306725e-01 1.508986e-01 2.313152e-01
v -4.197044e-01 1.526956e-01 2.409575e-01
v -4.097738e-01 1.532447e-01 2.457786e-01
v -3.990501e-01 1.550610e-01 2.554209e-01
v -3.879691e-01 1.576468e-01 2.679559e-01
v -3.770697e-01 1.602469e-01 2.804909e-01
v -3.658967e-01 1.636231e-01 2.959185e-01
v -3.553812e-01 1.662533e-01 3.084534e-01
v -3.449095e-01 1.691530e-01 3.219528e-01
v -3.350253e-01 1.713011e-01 3.325593e-01
v -3.264083e-01 1.711557e-01 3.344877e-01
v -3.173521e-01 1.720394e-01 3.402730e-01
v -3.106848e-01 1.675272e-01 3.258096e-01
v -5.420532e-01 1.401857e-01 1.962029e-01
v -5.326784e-01 1.394491e-01 1.962029e-01
v -5.230467e-01 1.389649e-01 1.971653e-01
v -5.131791e-01 1.387348e-01 1.990900e-01
v -5.035824e-01 1.382534e-01 2.000523e-01
v -4.939995e-01 1.377731e-01 2.010148e-01
v -4.842018e-01 1.375485e-01 2.029394e-01
v -4.735439e-01 1.383470e-01 2.087138e-01
v -4.623248e-01 1.399194e-01 2.173750e-01
v -4.514395e-01 1.412453e-01 2.250740e-01
v -4.402637e-01 1.430937e-01 2.346977e-01
v -4.284513e-01 1.459828e-01 2.481711e-01
v -4.175826e-01 1.478554e-01 2.577948e-01
v -4.075739e-01 1.487049e-01 2.635690e-01
v -3.964373e-01 1.513743e-01 2.760798e-01
v -3.856482e-01 1.537985e-01 2.876284e-01
v -3.748675e-01 1.564960e-01 3.001392e-01
v -3.639640e-01 1.597291e-01 3.145748e-01
v -3.534150e-01 1.627174e-01 3.280479e-01
v -3.430615e-01 1.657211e-01 3.415213e-01
v -3.335596e-01 1.674284e-01 3.501825e-01
v -3.246805e-01 1.680940e-01 3.549944e-01
v -3.155193e-01 1.695554e-01 3.626933e-01
v -5.513032e-01 1.326556e-01 2.015771e-01
v -5.414065e-01 1.324368e-01 2.034981e-01
v -5.320667e-01 1.317029e-01 2.034981e-01
v -5.222120e-01 1.314874e-01 2.054190e-01
v -5.116339e-01 1.320533e-01 2.102216e-01
v -5.013691e-01 1.323645e-01 2.140638e-01
v -4.911601e-01 1.326800e-01 2.179058e-01
v -4.814660e-01 1.324772e-01 2.198268e-01
v -4.709096e-01 1.333243e-01 2.255900e-01
v -4.593594e-01 1.354905e-01 2.361557e-01
v -4.487971e-01 1.366165e-01 2.428793e-01
v -4.383324e-01 1.377502e-01 2.496028e-01
v -4.273817e-01 1.396841e-01 2.592080e-01
v -4.167582e-01 1.413642e-01 2.678528e-01
v -4.062603e-01 1.430542e-01 2.764973e-01
v -3.948463e-01 1.463488e-01 2.909051e-01
v -3.838082e-01 1.493935e-01 3.043524e-01
v -3.729657e-01 1.524536e-01 3.177995e-01
v -3.620132e-01 1.560639e-01 3.331678e-01
v -3.512840e-01 1.596917e-01 3.485362e-01
v -3.411946e-01 1.625315e-01 3.610229e-01
v -3.316818e-01 1.645784e-01 3.706281e-01
v -3.221839e-01 1.669058e-01 3.811938e-01
v -3.129574e-01 1.689751e-01 3.907990e-01
v -5.616516e-01 1.241076e-01 2.031054e-01
v -5.514542e-01 1.241649e-01 2.059815e-01
v -5.404828e-01 1.250200e-01 2.117334e-01
v -5.306551e-01 1.248202e-01 2.136508e-01
v -5.205971e-01 1.248885e-01 2.165267e-01
v -5.098282e-01 1.257595e-01 2.222786e-01
v -4.988992e-01 1.269042e-01 2.289893e-01
v -4.883048e-01 1.277889e-01 2.347412e-01
v -4.787143e-01 1.276077e-01 2.366585e-01
v -4.682595e-01 1.285035e-01 2.424105e-01
v -4.578885e-01 1.294058e-01 2.481626e-01
v -4.471832e-01 1.308542e-01 2.558318e-01
v -4.363873e-01 1.325817e-01 2.644597e-01
v -4.263026e-01 1.335066e-01 2.702118e-01
v -4.164897e-01 1.341665e-01 2.750051e-01
v -4.054785e-01 1.367357e-01 2.865089e-01
v -3.935898e-01 1.409532e-01 3.037649e-01
v -3.822868e-01 1.446443e-01 3.191035e-01
v -3.704061e-01 1.497211e-01 3.392354e-01
v -3.589718e-01 1.545467e-01 3.584086e-01
v -3.486942e-01 1.577459e-01 3.718297e-01
v -3.391692e-01 1.598595e-01 3.814163e-01
v -3.301807e-01 1.611567e-01 3.881271e-01
v -3.211647e-01 1.627378e-01 3.957963e-01
v -3.124969e-01 1.637740e-01 4.015482e-01
v -5.609289e-01 1.164339e-01 2.103783e-01
v -5.504853e-01 1.167852e-01 2.142057e-01
v -5.392802e-01 1.179556e-01 2.209033e-01
v -5.289694e-01 1.183172e-01 2.247304e-01
v -5.181973e-01 1.192287e-01 2.304714e-01
v -5.077604e-01 1.198734e-01 2.352553e-01
v -4.973936e-01 1.205237e-01 2.400393e-01
v -4.866213e-01 1.217281e-01 2.467369e-01
v -4.761773e-01 1.226654e-01 2.524779e-01
v -4.660407e-01 1.233337e-01 2.572619e-01
v -4.561904e-01 1.237316e-01 2.610890e-01
v -4.455577e-01 1.252399e-01 2.687434e-01
v -4.348338e-01 1.270341e-01 2.773548e-01
v -4.252140e-01 1.274501e-01 2.811819e-01
v -4.156499e-01 1.278705e-01 2.850092e-01
v -4.041432e-01 1.313610e-01 2.993613e-01
v -3.917976e-01 1.365434e-01 3.194542e-01
v -3.790744e-01 1.428680e-01 3.433744e-01
v -3.657357e-01 1.509022e-01 3.730353e-01
v -3.563663e-01 1.525098e-01 3.806896e-01
v -3.469618e-01 1.544076e-01 3.893010e-01
v -3.379627e-01 1.557513e-01 3.959985e-01
v -3.294597e-01 1.562551e-01 3.998259e-01
v -3.211384e-01 1.564801e-01 4.026962e-01
v -3.127400e-01 1.569921e-01 4.065235e-01
v -5.596270e-01 1.093820e-01 2.195426e-01
v -5.486703e-01 1.103195e-01 2.252723e-01
v -5.372514e-01 1.118203e-01 2.329120e-01
v -5.264763e-01 1.127721e-01 2.386417e-01
v -5.157847e-01 1.137305e-01 2.443713e-01
v -5.051770e-01 1.146955e-01 2.501011e-01
v -4.951433e-01 1.151060e-01 2.539208e-01
v -4.846891e-01 1.160831e-01 2.596506e-01
v -4.745499e-01 1.167851e-01 2.644252e-01
v -4.647045e-01 1.172104e-01 2.682450e-01
v -4.544807e-01 1.182056e-01 2.739747e-01
v -4.439205e-01 1.197738e-01 2.816144e-01
v -4.334718e-01 1.213508e-01 2.892540e-01
v -4.233312e-01 1.226522e-01 2.959385e-01
v -4.134773e-01 1.236764e-01 3.016684e-01
v -4.022496e-01 1.269906e-01 3.150375e-01
v -3.892897e-01 1.334660e-01 3.389113e-01
v -3.753328e-01 1.422610e-01 3.704247e-01
v -3.637720e-01 1.476473e-01 3.904785e-01
v -3.552816e-01 1.478794e-01 3.933434e-01
v -3.463910e-01 1.489793e-01 3.990732e-01
v -3.375844e-01 1.500858e-01 4.048027e-01
v -3.291280e-01 1.506203e-01 4.086227e-01
v -3.209804e-01 1.505796e-01 4.105324e-01
v -3.128607e-01 1.505411e-01 4.124423e-01
v -5.568805e-01 1.038440e-01 2.334465e-01
v -5.460044e-01 1.048285e-01 2.391649e-01
v -5.349385e-01 1.061046e-01 2.458367e-01
v -5.247699e-01 1.065317e-01 2.496490e-01
v -5.143977e-01 1.072493e-01 2.544144e-01
v -5.035901e-01 1.085457e-01 2.610861e-01
v -4.936170e-01 1.089882e-01 2.648986e-01
v -4.836997e-01 1.094349e-01 2.687108e-01
v -4.736067e-01 1.101745e-01 2.734763e-01
v -4.631341e-01 1.114972e-01 2.801481e-01
v -4.527593e-01 1.128277e-01 2.868197e-01
v -4.422716e-01 1.144557e-01 2.944445e-01
v -4.318956e-01 1.160926e-01 3.020692e-01
v -4.214346e-01 1.180293e-01 3.106470e-01
v -4.116683e-01 1.191010e-01 3.163656e-01
v -3.820172e-01 1.385341e-01 3.840352e-01
v -3.717326e-01 1.417108e-01 3.964254e-01
v -3.627622e-01 1.428450e-01 4.021439e-01
v -3.540303e-01 1.436915e-01 4.069093e-01
v -3.455160e-01 1.442485e-01 4.107218e-01
v -3.371986e-01 1.445146e-01 4.135811e-01
v -3.287891e-01 1.450798e-01 4.173933e-01
v -3.208161e-01 1.447599e-01 4.183466e-01
v -3.132169e-01 1.435497e-01 4.164404e-01
v -5.967629e-01 1.046378e-01 2.558668e-01
v -5.874004e-01 1.042154e-01 2.568180e-01
v -5.591014e-01 1.032450e-01 2.606230e-01
v -5.518174e-01 1.007929e-01 2.549156e-01
v -5.427638e-01 1.000814e-01 2.549156e-01
v -5.323399e-01 1.008288e-01 2.596718e-01
v -5.225201e-01 1.009971e-01 2.625255e-01
v -5.122220e-01 1.017544e-01 2.672817e-01
v -5.019936e-01 1.025171e-01 2.720379e-01
v -4.920812e-01 1.029914e-01 2.758427e-01
v -4.822246e-01 1.034701e-01 2.796478e-01
v -4.721918e-01 1.042482e-01 2.844040e-01
v -4.617784e-01 1.056230e-01 2.910625e-01
v -4.512445e-01 1.073017e-01 2.986725e-01
v -4.408224e-01 1.089891e-01 3.062824e-01
v -4.305119e-01 1.106852e-01 3.138923e-01
v -4.199187e-01 1.129858e-01 3.234047e-01
v -4.100358e-01 1.144023e-01 3.300633e-01
v -3.780466e-01 1.385186e-01 4.109185e-01
v -3.694604e-01 1.390971e-01 4.147233e-01
v -3.609302e-01 1.396800e-01 4.185284e-01
v -3.529217e-01 1.393640e-01 4.194795e-01
v -3.447789e-01 1.393507e-01 4.213820e-01
v -3.366641e-01 1.393397e-01 4.232846e-01
v -3.283082e-01 1.399363e-01 4.270895e-01
v -3.205181e-01 1.393242e-01 4.270895e-01
v -6.221780e-01 1.000984e-01 2.649179e-01
v -6.135177e-01 9.909777e-02 2.639684e-01
v -6.041824e-01 9.868434e-02 2.649179e-01
v -5.948611e-01 9.827194e-02 2.658672e-01
v -5.861867e-01 9.727030e-02 2.649179e-01
v -5.768794e-01 9.685900e-02 2.658672e-01
v -5.660738e-01 9.793032e-02 2.715635e-01
v -5.565338e-01 9.782081e-02 2.734622e-01
v -5.473102e-01 9.741616e-02 2.744117e-01
v -5.378192e-01 9.731048e-02 2.763104e-01
v -5.283560e-01 9.720702e-02 2.782091e-01
v -5.194559e-01 9.650768e-02 2.782091e-01
v -5.097740e-01 9.670710e-02 2.810573e-01
v -4.998804e-01 9.720999e-02 2.848549e-01
v -4.902893e-01 9.741652e-02 2.877029e-01
v -4.807400e-01 9.762636e-02 2.905511e-01
v -4.705347e-01 9.874489e-02 2.962475e-01
v -4.604131e-01 9.986995e-02 3.019438e-01
v -4.501565e-01 1.013045e-01 3.085894e-01
v -4.393626e-01 1.036570e-01 3.180833e-01
v -4.268655e-01 1.087562e-01 3.361214e-01
v -3.675099e-01 1.360988e-01 4.310595e-01
v -3.603852e-01 1.342587e-01 4.272621e-01
v -3.532044e-01 1.324142e-01 4.234644e-01
v -3.447767e-01 1.330323e-01 4.272621e-01
v -3.359792e-01 1.345814e-01 4.339077e-01
v -3.282238e-01 1.339721e-01 4.339077e-01
v -6.286910e-01 9.482210e-02 2.758379e-01
v -6.204456e-01 9.352053e-02 2.739429e-01
v -6.114967e-01 9.281735e-02 2.739429e-01
v -6.018859e-01 9.271585e-02 2.758379e-01
v -5.919790e-01 9.291791e-02 2.786805e-01
v -5.821141e-01 9.312331e-02 2.815232e-01
v -5.719810e-01 9.363440e-02 2.853132e-01
v -5.622068e-01 9.384689e-02 2.881558e-01
v -5.536585e-01 9.284839e-02 2.872083e-01
v -5.439402e-01 9.306522e-02 2.900508e-01
v -5.348278e-01 9.267608e-02 2.909984e-01
v -5.260044e-01 9.198276e-02 2.909984e-01
v -5.174493e-01 9.098365e-02 2.900508e-01
v -5.080967e-01 9.090247e-02 2.919460e-01
v -4.987720e-01 9.082344e-02 2.938410e-01
v -4.892282e-01 9.105404e-02 2.966836e-01
v -4.792459e-01 9.190385e-02 3.014212e-01
v -4.691002e-01 9.306763e-02 3.071063e-01
v -4.597169e-01 9.331083e-02 3.099488e-01
v -4.492792e-01 9.510541e-02 3.175291e-01
v -3.980144e-01 1.329124e-01 4.388124e-01
v -3.860712e-01 1.391644e-01 4.596578e-01
v -6.279583e-01 8.743042e-02 2.819964e-01
v -6.193966e-01 8.642403e-02 2.810506e-01
v -6.098057e-01 8.633762e-02 2.829420e-01
v -5.985854e-01 8.779128e-02 2.895618e-01
v -5.881118e-01 8.863635e-02 2.942901e-01
v -5.770731e-01 9.010422e-02 3.009098e-01
v -5.670635e-01 9.065211e-02 3.046924e-01
v -5.577169e-01 9.058494e-02 3.065838e-01
v -5.495844e-01 8.927866e-02 3.046924e-01
v -5.417135e-01 8.765935e-02 3.018554e-01
v -5.335182e-01 8.634818e-02 2.999640e-01
v -5.241925e-01 8.628261e-02 3.018554e-01
v -5.151635e-01 8.590676e-02 3.028010e-01
v -5.061482e-01 8.553201e-02 3.037468e-01
v -4.968923e-01 8.547193e-02 3.056381e-01
v -4.871690e-01 8.604231e-02 3.094207e-01
v -4.770201e-01 8.724653e-02 3.150948e-01
v -4.676562e-01 8.751158e-02 3.179318e-01
v -4.562935e-01 9.062202e-02 3.292798e-01
v -4.034536e-01 1.305066e-01 4.541081e-01
v -3.930335e-01 1.343584e-01 4.673476e-01
v -3.833843e-01 1.372699e-01 4.777499e-01
v -6.247511e-01 8.228107e-02 2.947465e-01
v -6.162667e-01 8.127406e-02 2.938028e-01
v -6.060736e-01 8.183461e-02 2.975780e-01
v -5.932805e-01 8.491399e-02 3.089038e-01
v -5.826048e-01 8.611740e-02 3.145666e-01
v -5.732852e-01 8.606584e-02 3.164542e-01
v -5.636822e-01 8.633243e-02 3.192857e-01
v -5.547294e-01 8.596936e-02 3.202296e-01
v -5.463845e-01 8.497324e-02 3.192857e-01
v -5.377357e-01 8.429364e-02 3.192857e-01
v -5.293701e-01 8.329594e-02 3.183420e-01
v -5.201620e-01 8.325316e-02 3.202296e-01
v -5.117893e-01 8.225486e-02 3.192857e-01
v -5.028783e-01 8.189506e-02 3.202296e-01
v -4.937260e-01 8.185668e-02 3.221172e-01
v -4.848500e-01 8.149961e-02 3.230610e-01
v -4.757466e-01 8.146506e-02 3.249487e-01
v -4.303512e-01 1.201054e-01 4.419814e-01
v -4.182040e-01 1.259586e-01 4.608576e-01
v -4.101756e-01 1.260086e-01 4.627454e-01
v -4.009372e-01 1.280057e-01 4.702959e-01
v -3.912125e-01 1.309857e-01 4.806777e-01
v -3.822184e-01 1.330021e-01 4.882282e-01
v -6.342504e-01 7.446043e-02 2.970944e-01
v -6.215322e-01 7.727979e-02 3.074559e-01
v -6.103534e-01 7.883147e-02 3.140496e-01
v -5.989328e-01 8.071133e-02 3.215853e-01
v -5.876239e-01 8.259995e-02 3.291209e-01
v -5.783799e-01 8.256789e-02 3.310049e-01
v -5.701194e-01 8.157169e-02 3.300630e-01
v -5.612218e-01 8.121966e-02 3.310049e-01
v -5.523382e-01 8.086881e-02 3.319469e-01
v -5.437663e-01 8.019525e-02 3.319469e-01
v -5.346129e-01 8.017028e-02 3.338307e-01
v -5.257712e-01 7.982272e-02 3.347728e-01
v -5.172201e-01 7.915080e-02 3.347728e-01
v -5.094781e-01 7.750099e-02 3.319469e-01
v -5.011688e-01 7.650088e-02 3.310049e-01
v -4.923340e-01 7.615386e-02 3.319469e-01
v -4.807771e-01 7.941158e-02 3.432503e-01
v -4.330443e-01 1.211382e-01 4.666468e-01
v -4.250149e-01 1.212016e-01 4.685306e-01
v -4.167925e-01 1.215970e-01 4.713566e-01
v -4.083983e-01 1.223260e-01 4.751243e-01
v -3.994393e-01 1.240521e-01 4.817181e-01
v -3.907779e-01 1.254545e-01 4.873697e-01
v -3.827790e-01 1.258674e-01 4.901956e-01
v -6.316708e-01 6.887612e-02 3.079033e-01
v -6.175937e-01 7.307888e-02 3.220048e-01
v -6.030319e-01 7.795140e-02 3.379864e-01
v -5.910877e-01 8.055213e-02 3.473874e-01
v -5.816143e-01 8.086953e-02 3.502077e-01
v -5.731609e-01 8.020528e-02 3.502077e-01
v -5.637503e-01 8.052761e-02 3.530280e-01
v -5.550057e-01 8.019446e-02 3.539682e-01
v -5.471906e-01 7.887248e-02 3.520879e-01
v -5.390493e-01 7.787887e-02 3.511479e-01
v -5.303117e-01 7.754619e-02 3.520879e-01
v -5.218724e-01 7.688306e-02 3.520879e-01
v -4.865772e-01 7.623323e-02 3.577285e-01
v -4.296180e-01 1.195377e-01 4.846422e-01
v -4.223911e-01 1.186160e-01 4.837022e-01
v -4.147076e-01 1.183661e-01 4.846422e-01
v -4.070381e-01 1.181174e-01 4.855824e-01
v -3.989677e-01 1.185451e-01 4.884027e-01
v -3.905385e-01 1.196524e-01 4.931032e-01
v -3.808250e-01 1.231363e-01 5.043844e-01
v -6.040698e-01 7.803970e-02 3.618378e-01
v -5.936010e-01 7.938134e-02 3.674674e-01
v -5.852594e-01 7.872588e-02 3.674674e-01
v -5.762505e-01 7.873935e-02 3.693438e-01
v -5.675962e-01 7.842006e-02 3.702821e-01
v -5.589559e-01 7.810180e-02 3.712203e-01
v -5.500170e-01 7.812083e-02 3.730969e-01
v -5.426341e-01 7.645861e-02 3.702821e-01
v -5.316253e-01 7.883984e-02 3.787262e-01
v -4.197525e-01 1.162188e-01 4.988216e-01
v -4.126099e-01 1.152969e-01 4.978834e-01
v -4.056683e-01 1.140300e-01 4.960068e-01
v -3.984909e-01 1.131054e-01 4.950687e-01
v -3.912995e-01 1.121795e-01 4.941303e-01
v -6.140921e-01 7.804309e-02 3.827947e-01
v -6.076582e-01 7.570017e-02 3.781127e-01
v -5.972492e-01 7.708710e-02 3.837311e-01
v -5.862278e-01 7.916089e-02 3.912223e-01
v -5.800932e-01 7.647397e-02 3.856038e-01
v -5.715360e-01 7.616909e-02 3.865403e-01
v -5.597217e-01 7.928295e-02 3.968406e-01
v -4.118339e-01 1.102891e-01 5.054616e-01
v -4.045045e-01 1.097132e-01 5.054616e-01
v -3.984256e-01 1.070307e-01 4.998434e-01
v -6.065872e-01 7.768865e-02 4.055465e-01
v -6.006721e-01 7.497836e-02 3.999391e-01
v -5.921843e-01 7.468569e-02 4.008738e-01
v -5.367482e-01 9.652676e-02 4.662910e-01
v -5.230190e-01 1.025587e-01 4.840472e-01
v -5.145739e-01 1.030178e-01 4.868508e-01
v -5.061708e-01 1.034802e-01 4.896544e-01
v -4.969103e-01 1.049980e-01 4.952615e-01
v -5.399361e-01 9.508362e-02 4.823117e-01
v -5.297788e-01 9.733357e-02 4.897730e-01
v -5.210180e-01 9.816929e-02 4.935039e-01
v -5.129414e-01 9.829670e-02 4.953692e-01
v -5.042783e-01 9.914000e-02 4.990998e-01
v -5.506758e-01 9.404920e-02 4.973459e-01
v -5.435842e-01 9.310413e-02 4.964149e-01
v -5.361430e-01 9.251942e-02 4.964149e-01
v -5.270583e-01 9.374454e-02 5.010690e-01
v -5.177217e-01 9.533765e-02 5.066540e-01
v -5.097277e-01 9.548507e-02 5.085156e-01
v -5.017618e-01 9.563475e-02 5.103774e-01
v -4.932222e-01 9.651489e-02 5.141006e-01
v -5.470370e-01 9.128539e-02 5.104700e-01
v -5.326722e-01 8.976212e-02 5.095412e-01
v -5.243271e-01 9.029008e-02 5.123281e-01
v -5.153794e-01 9.155980e-02 5.169729e-01
v -5.074472e-01 9.172565e-02 5.188308e-01
v -5.010846e-01 9.004200e-02 5.160439e-01
v -4.937760e-01 8.946771e-02 5.160439e-01
v -5.318828e-01 8.416734e-02 5.152057e-01
v -5.235639e-01 8.471770e-02 5.179872e-01
v -5.149643e-01 8.564727e-02 5.216955e-01
v -5.079994e-01 8.469872e-02 5.207685e-01
v -4.985501e-01 8.676554e-02 5.272583e-01
v -3.326197e-01 1.961374e-01 2.695576e-01
v -3.262880e-01 1.929826e-01 2.741718e-01
v -3.228113e-01 1.916942e-01 2.808989e-01
v -3.200578e-01 1.908759e-01 2.881358e-01
v -3.187637e-01 1.910027e-01 2.963677e-01
v -3.123813e-01 1.878291e-01 3.010801e-01
v -3.089046e-01 1.865407e-01 3.078072e-01
v -3.054280e-01 1.852523e-01 3.145343e-01
v -2.982557e-01 1.815839e-01 3.188656e-01
v -3.014437e-01 1.845842e-01 3.298805e-01
v -3.303032e-01 1.854658e-01 2.656869e-01
v -3.296635e-01 1.860661e-01 2.745298e-01
v -3.276163e-01 1.857262e-01 2.822931e-01
v -3.255819e-01 1.853910e-01 2.900321e-01
v -3.221148e-01 1.841061e-01 2.967408e-01
v -3.186476e-01 1.828213e-01 3.034495e-01
v -3.151804e-01 1.815364e-01 3.101582e-01
v -3.117132e-01 1.802515e-01 3.168668e-01
v -3.075107e-01 1.784849e-01 3.230972e-01
v -3.315750e-01 1.759933e-01 2.550178e-01
v -3.322917e-01 1.775585e-01 2.649904e-01
v -3.337560e-01 1.796174e-01 2.754098e-01
v -3.331266e-01 1.802506e-01 2.842002e-01
v -3.303753e-01 1.794477e-01 2.914172e-01
v -3.276303e-01 1.786470e-01 2.986218e-01
v -3.256138e-01 1.783329e-01 3.063101e-01
v -3.228845e-01 1.775381e-01 3.134840e-01
v -3.201618e-01 1.767458e-01 3.206457e-01
v -3.159819e-01 1.749801e-01 3.268400e-01
v -3.103262e-01 1.722345e-01 3.321038e-01
v -3.016225e-01 1.724748e-01 3.792361e-01
v -3.027545e-01 1.741939e-01 3.884054e-01
v -3.024040e-01 1.749305e-01 3.966562e-01
v -3.365205e-01 1.677516e-01 2.373846e-01
v -3.357558e-01 1.683637e-01 2.464050e-01
v -3.364153e-01 1.699513e-01 2.564401e-01
v -3.378154e-01 1.720372e-01 2.669275e-01
v -3.392598e-01 1.741395e-01 2.773290e-01
v -3.379131e-01 1.743120e-01 2.855906e-01
v -3.351612e-01 1.735161e-01 2.928005e-01
v -3.345614e-01 1.741893e-01 3.015020e-01
v -3.332685e-01 1.743817e-01 3.096593e-01
v -3.305514e-01 1.735986e-01 3.168018e-01
v -3.278406e-01 1.728179e-01 3.239320e-01
v -3.236804e-01 1.710524e-01 3.300965e-01
v -3.180517e-01 1.682949e-01 3.353320e-01
v -3.131382e-01 1.660263e-01 3.410688e-01
v -3.102220e-01 1.671843e-01 3.655637e-01
v -3.097901e-01 1.679197e-01 3.739402e-01
v -3.093835e-01 1.686645e-01 3.822675e-01
v -3.097556e-01 1.699217e-01 3.909736e-01
v -3.086465e-01 1.701823e-01 3.987752e-01
v -3.692185e-01 1.754418e-01 2.131264e-01
v -3.483613e-01 1.654014e-01 2.347112e-01
v -3.448308e-01 1.640931e-01 2.415425e-01
v -3.433778e-01 1.642480e-01 2.499858e-01
v -3.440309e-01 1.658767e-01 2.599854e-01
v -3.447218e-01 1.675194e-01 2.699114e-01
v -3.447488e-01 1.686851e-01 2.792451e-01
v -3.433973e-01 1.688775e-01 2.874919e-01
v -3.427730e-01 1.695707e-01 2.962087e-01
v -3.421741e-01 1.702732e-01 3.048762e-01
v -3.401712e-01 1.699932e-01 3.125062e-01
v -3.374631e-01 1.692208e-01 3.196234e-01
v -3.347613e-01 1.684507e-01 3.267283e-01
v -3.313417e-01 1.671834e-01 3.333450e-01
v -3.271947e-01 1.654155e-01 3.394919e-01
v -3.230413e-01 1.636452e-01 3.456510e-01
v -3.218164e-01 1.638847e-01 3.536525e-01
v -3.213476e-01 1.646354e-01 3.620688e-01
v -3.201639e-01 1.648901e-01 3.699906e-01
v -3.189992e-01 1.651518e-01 3.778757e-01
v -3.178537e-01 1.654207e-01 3.857240e-01
v -3.159774e-01 1.651876e-01 3.931086e-01
v -3.133613e-01 1.644493e-01 4.000480e-01
v -3.801651e-01 1.726815e-01 2.101382e-01
v -3.746729e-01 1.699311e-01 2.151578e-01
v -3.705074e-01 1.681491e-01 2.213484e-01
v -3.643074e-01 1.648980e-01 2.258684e-01
v -3.594404e-01 1.626176e-01 2.315470e-01
v -3.566082e-01 1.618064e-01 2.388965e-01
v -3.551535e-01 1.619825e-01 2.473188e-01
v -3.544064e-01 1.626591e-01 2.562406e-01
v -3.536850e-01 1.633453e-01 2.651136e-01
v -3.529888e-01 1.640407e-01 2.739374e-01
v -3.530162e-01 1.652427e-01 2.832304e-01
v -3.516724e-01 1.654599e-01 2.914380e-01
v -3.503477e-01 1.656841e-01 2.996089e-01
v -3.490419e-01 1.659153e-01 3.077429e-01
v -3.470442e-01 1.656518e-01 3.153467e-01
v -3.450591e-01 1.653928e-01 3.229260e-01
v -3.423695e-01 1.646345e-01 3.299994e-01
v -3.396861e-01 1.638785e-01 3.370605e-01
v -3.362855e-01 1.626182e-01 3.436404e-01
v -3.328848e-01 1.613581e-01 3.502203e-01
v -3.316743e-01 1.616246e-01 3.581705e-01
v -3.312157e-01 1.624081e-01 3.665343e-01
v -3.293099e-01 1.621786e-01 3.739604e-01
v -3.266773e-01 1.614413e-01 3.809233e-01
v -3.255363e-01 1.617337e-01 3.887386e-01
v -3.229228e-01 1.610036e-01 3.956648e-01
v -3.195666e-01 1.597598e-01 4.021589e-01
v -3.162103e-01 1.585161e-01 4.086530e-01
v -3.087392e-01 1.555090e-01 4.212394e-01
v -4.150982e-01 1.840407e-01 1.997425e-01
v -4.051640e-01 1.779030e-01 2.003526e-01
v -3.917026e-01 1.704582e-01 2.077879e-01
v -3.875756e-01 1.686832e-01 2.139119e-01
v -3.827764e-01 1.664135e-01 2.194756e-01
v -3.779646e-01 1.641391e-01 2.250640e-01
v -3.724675e-01 1.613651e-01 2.301166e-01
v -3.689782e-01 1.600720e-01 2.368682e-01
v -3.668463e-01 1.597732e-01 2.447156e-01
v -3.660908e-01 1.604758e-01 2.536222e-01
v -3.646756e-01 1.606882e-01 2.619440e-01
v -3.625913e-01 1.604071e-01 2.696994e-01
v -3.619023e-01 1.611342e-01 2.784772e-01
v -3.612387e-01 1.618708e-01 2.872059e-01
v -3.592050e-01 1.616085e-01 2.948632e-01
v -3.578850e-01 1.618562e-01 3.030010e-01
v -3.565839e-01 1.621109e-01 3.111020e-01
v -3.553017e-01 1.623726e-01 3.191662e-01
v -3.526179e-01 1.616237e-01 3.262205e-01
v -3.499404e-01 1.608770e-01 3.332624e-01
v -3.479859e-01 1.606440e-01 3.407665e-01
v -3.446043e-01 1.593909e-01 3.473096e-01
v -3.419458e-01 1.586513e-01 3.543147e-01
v -3.400199e-01 1.584289e-01 3.617637e-01
v -3.388360e-01 1.587270e-01 3.696377e-01
v -3.369387e-01 1.585152e-01 3.770314e-01
v -3.350539e-01 1.583080e-01 3.844006e-01
v -3.331818e-01 1.581054e-01 3.917451e-01
v -3.305804e-01 1.573871e-01 3.986400e-01
v -3.257495e-01 1.551056e-01 4.042650e-01
v -3.209058e-01 1.528193e-01 4.099147e-01
v -3.168012e-01 1.510526e-01 4.159958e-01
v -3.126900e-01 1.492835e-01 4.220890e-01
v -4.212116e-01 1.780166e-01 1.928058e-01
v -4.171582e-01 1.762615e-01 1.987955e-01
v -4.111495e-01 1.730234e-01 2.030092e-01
v -4.038099e-01 1.687861e-01 2.060917e-01
v -3.997122e-01 1.670147e-01 2.121674e-01
v -3.962672e-01 1.657381e-01 2.188332e-01
v -3.928223e-01 1.644614e-01 2.254989e-01
v -3.887118e-01 1.626853e-01 2.315992e-01
v -3.839263e-01 1.604062e-01 2.371523e-01
v -3.804719e-01 1.591260e-01 2.438364e-01
v -3.783673e-01 1.588519e-01 2.516149e-01
v -3.755974e-01 1.580783e-01 2.588277e-01
v -3.735150e-01 1.578123e-01 2.665631e-01
v -3.714452e-01 1.575511e-01 2.742740e-01
v -3.693883e-01 1.572946e-01 2.819605e-01
v -3.673440e-01 1.570428e-01 2.896224e-01
v -3.660063e-01 1.573057e-01 2.977700e-01
v -3.653849e-01 1.580869e-01 3.063852e-01
v -3.633882e-01 1.578528e-01 3.139550e-01
v -3.614040e-01 1.576232e-01 3.215003e-01
v -3.587260e-01 1.568837e-01 3.285355e-01
v -3.574740e-01 1.571784e-01 3.365176e-01
v -3.555279e-01 1.569630e-01 3.439894e-01
v -3.535944e-01 1.567522e-01 3.514365e-01
v -3.502350e-01 1.555072e-01 3.579367e-01
v -3.483207e-01 1.553036e-01 3.653471e-01
v -3.464191e-01 1.551047e-01 3.727331e-01
v -3.452588e-01 1.554333e-01 3.805374e-01
v -3.426537e-01 1.547208e-01 3.874314e-01
v -3.407900e-01 1.545359e-01 3.947437e-01
v -3.374622e-01 1.533027e-01 4.011826e-01
v -3.319099e-01 1.504865e-01 4.063664e-01
v -3.255939e-01 1.471345e-01 4.111749e-01
v -3.207483e-01 1.448330e-01 4.168445e-01
v -3.166409e-01 1.430579e-01 4.229385e-01
v -4.305345e-01 1.744534e-01 1.889165e-01
v -4.264974e-01 1.726972e-01 1.948826e-01
v -4.218114e-01 1.704404e-01 2.002594e-01
v -4.171127e-01 1.681788e-01 2.056608e-01
v -4.117521e-01 1.654120e-01 2.104975e-01
v -4.076770e-01 1.636416e-01 2.165372e-01
v -4.049065e-01 1.628751e-01 2.237433e-01
v -4.014838e-01 1.616067e-01 2.303661e-01
v -3.973991e-01 1.598328e-01 2.364241e-01
v -3.926433e-01 1.575502e-01 2.419358e-01
v -3.892110e-01 1.562782e-01 2.485771e-01
v -3.857787e-01 1.550063e-01 2.552184e-01
v -3.836953e-01 1.547545e-01 2.629399e-01
v -3.809469e-01 1.539962e-01 2.701030e-01
v -3.795665e-01 1.542650e-01 2.783096e-01
v -3.775211e-01 1.540273e-01 2.859576e-01
v -3.748012e-01 1.532795e-01 2.930655e-01
v -3.727779e-01 1.530500e-01 3.006705e-01
v -3.707674e-01 1.528252e-01 3.082511e-01
v -3.687695e-01 1.526050e-01 3.158070e-01
v -3.660845e-01 1.518702e-01 3.228475e-01
v -3.648118e-01 1.521790e-01 3.308456e-01
v -3.649703e-01 1.535384e-01 3.397646e-01
v -3.637419e-01 1.538636e-01 3.476768e-01
v -3.611075e-01 1.531475e-01 3.546191e-01
v -3.577640e-01 1.519084e-01 3.610886e-01
v -3.565769e-01 1.522489e-01 3.689211e-01
v -3.546867e-01 1.520687e-01 3.762686e-01
v -3.535345e-01 1.524221e-01 3.840338e-01
v -3.502162e-01 1.511924e-01 3.904542e-01
v -3.476295e-01 1.504940e-01 3.973045e-01
v -3.435798e-01 1.487331e-01 4.032951e-01
v -3.380480e-01 1.459028e-01 4.084629e-01
v -3.324974e-01 1.430654e-01 4.136676e-01
v -3.269278e-01 1.402210e-01 4.189090e-01
v -3.228338e-01 1.384438e-01 4.249856e-01
v -4.391865e-01 1.704177e-01 1.844400e-01
v -4.357954e-01 1.691611e-01 1.910015e-01
v -4.317683e-01 1.674014e-01 1.969562e-01
v -4.277351e-01 1.656393e-01 2.029232e-01
v -4.236954e-01 1.638749e-01 2.089023e-01
v -4.190042e-01 1.616017e-01 2.143053e-01
v -4.149487e-01 1.598314e-01 2.203151e-01
v -4.108870e-01 1.580588e-01 2.263373e-01
v -4.074737e-01 1.567939e-01 2.329417e-01
v -4.040604e-01 1.555290e-01 2.395462e-01
v -3.999858e-01 1.537516e-01 2.455928e-01
v -3.959051e-01 1.519720e-01 2.516517e-01
v -3.924855e-01 1.507048e-01 2.582685e-01
v -3.897364e-01 1.499534e-01 2.654245e-01
v -3.869940e-01 1.492045e-01 2.725683e-01
v -3.856118e-01 1.494945e-01 2.807541e-01
v -3.842486e-01 1.497915e-01 2.889031e-01
v -3.815377e-01 1.490543e-01 2.959856e-01
v -3.795196e-01 1.488412e-01 3.035645e-01
v -3.768246e-01 1.481099e-01 3.106164e-01
v -3.741359e-01 1.473808e-01 3.176558e-01
v -3.714535e-01 1.466543e-01 3.246833e-01
v -3.701759e-01 1.469830e-01 3.326668e-01
v -3.710246e-01 1.489018e-01 3.420475e-01
v -3.690889e-01 1.487193e-01 3.494670e-01
v -3.664572e-01 1.480114e-01 3.563962e-01
v -3.645439e-01 1.478371e-01 3.637728e-01
v -3.640732e-01 1.487323e-01 3.720320e-01
v -3.621914e-01 1.485697e-01 3.793472e-01
v -3.603224e-01 1.484118e-01 3.866379e-01
v -3.577415e-01 1.477228e-01 3.934690e-01
v -3.544391e-01 1.464990e-01 3.998588e-01
v -3.496749e-01 1.441987e-01 4.054029e-01
v -3.448980e-01 1.418937e-01 4.109714e-01
v -3.408458e-01 1.401246e-01 4.169752e-01
v -3.353062e-01 1.372696e-01 4.221821e-01
v -3.304914e-01 1.349505e-01 4.278244e-01
v -3.286507e-01 1.348032e-01 4.350598e-01
v -4.422075e-01 1.618526e-01 1.743650e-01
v -4.431746e-01 1.641335e-01 1.852976e-01
v -4.410413e-01 1.638922e-01 1.930834e-01
v -4.376565e-01 1.626379e-01 1.996326e-01
v -4.336366e-01 1.608735e-01 2.055820e-01
v -4.296101e-01 1.591068e-01 2.115437e-01
v -4.242941e-01 1.563128e-01 2.163421e-01
v -4.208935e-01 1.550526e-01 2.229220e-01
v -4.187888e-01 1.548220e-01 2.306527e-01
v -4.147435e-01 1.530482e-01 2.366512e-01
v -4.113460e-01 1.517892e-01 2.432249e-01
v -4.066337e-01 1.494936e-01 2.486847e-01
v -4.019086e-01 1.471933e-01 2.541690e-01
v -3.984984e-01 1.459295e-01 2.607673e-01
v -3.957553e-01 1.451877e-01 2.679042e-01
v -3.943588e-01 1.454941e-01 2.760938e-01
v -3.923080e-01 1.452834e-01 2.837201e-01
v -3.902698e-01 1.450773e-01 2.913219e-01
v -3.875647e-01 1.443496e-01 2.983853e-01
v -3.848659e-01 1.436240e-01 3.054363e-01
v -3.821736e-01 1.429010e-01 3.124751e-01
v -3.794874e-01 1.421802e-01 3.195017e-01
v -3.781922e-01 1.425241e-01 3.274949e-01
v -3.776117e-01 1.434076e-01 3.359348e-01
v -3.763578e-01 1.437669e-01 3.438484e-01
v -3.744211e-01 1.435984e-01 3.512540e-01
v -3.724969e-01 1.434347e-01 3.586351e-01
v -3.705856e-01 1.432756e-01 3.659917e-01
v -3.701096e-01 1.441979e-01 3.742292e-01
v -3.682300e-01 1.440506e-01 3.815245e-01
v -3.670806e-01 1.444486e-01 3.892358e-01
v -3.652295e-01 1.443119e-01 3.964759e-01
v -3.626670e-01 1.436369e-01 4.032632e-01
v -3.586564e-01 1.418761e-01 4.091941e-01
v -3.546395e-01 1.401128e-01 4.151372e-01
v -3.506163e-01 1.383473e-01 4.210928e-01
v -3.465867e-01 1.365793e-01 4.270605e-01
v -3.418110e-01 1.342603e-01 4.326429e-01
v -3.399946e-01 1.341364e-01 4.398155e-01
v -3.411759e-01 1.362221e-01 4.485048e-01
v -4.474594e-01 1.565497e-01 1.764755e-01
v -4.477848e-01 1.583616e-01 1.867726e-01
v -4.462724e-01 1.586468e-01 1.951620e-01
v -4.428939e-01 1.573948e-01 2.016990e-01
v -4.388840e-01 1.556270e-01 2.076370e-01
v -4.348676e-01 1.538567e-01 2.135870e-01
v -4.308451e-01 1.520841e-01 2.195495e-01
v -4.280981e-01 1.513480e-01 2.266855e-01
v -4.253576e-01 1.506144e-01 2.338094e-01
v -4.219761e-01 1.493612e-01 2.403525e-01
v -4.179438e-01 1.475851e-01 2.463332e-01
v -4.132517e-01 1.452825e-01 2.517702e-01
v -4.092036e-01 1.435004e-01 2.577816e-01
v -4.064694e-01 1.427691e-01 2.648932e-01
v -4.030783e-01 1.415124e-01 2.714547e-01
v -4.003536e-01 1.407846e-01 2.785479e-01
v -3.983049e-01 1.405892e-01 2.861542e-01
v -3.955959e-01 1.398672e-01 2.932167e-01
v -3.922175e-01 1.386152e-01 2.997537e-01
v -3.895183e-01 1.378968e-01 3.067978e-01
v -3.875074e-01 1.377154e-01 3.143306e-01
v -3.861948e-01 1.380747e-01 3.223337e-01
v -3.855899e-01 1.389781e-01 3.307889e-01
v -3.836267e-01 1.388144e-01 3.382297e-01
v -3.809811e-01 1.381159e-01 3.451695e-01
v -3.797382e-01 1.385010e-01 3.530377e-01
v -3.792157e-01 1.394350e-01 3.613334e-01
v -3.773095e-01 1.392924e-01 3.686639e-01
v -3.761237e-01 1.396986e-01 3.764217e-01
v -3.756676e-01 1.406573e-01 3.845886e-01
v -3.745230e-01 1.410788e-01 3.922667e-01
v -3.726801e-01 1.409596e-01 3.994745e-01
v -3.701298e-01 1.402964e-01 4.062305e-01
v -3.668623e-01 1.390856e-01 4.125528e-01
v -3.643214e-01 1.384258e-01 4.192902e-01
v -3.610570e-01 1.372161e-01 4.256065e-01
v -3.585257e-01 1.365600e-01 4.323257e-01
v -3.560007e-01 1.359062e-01 4.390324e-01
v -3.542213e-01 1.358106e-01 4.461176e-01
v -3.561670e-01 1.385049e-01 4.551006e-01
v -4.499772e-01 1.473710e-01 1.657130e-01
v -4.520813e-01 1.507532e-01 1.779599e-01
v -4.517691e-01 1.520833e-01 1.876294e-01
v -4.502456e-01 1.523860e-01 1.960163e-01
v -4.468671e-01 1.511341e-01 2.025533e-01
v -4.434887e-01 1.498821e-01 2.090903e-01
v -4.401103e-01 1.486301e-01 2.156273e-01
v -4.367319e-01 1.473781e-01 2.221642e-01
v -4.339908e-01 1.466516e-01 2.292812e-01
v -4.306155e-01 1.454008e-01 2.358121e-01
v -4.272403e-01 1.441500e-01 2.423429e-01
v -4.238650e-01 1.428992e-01 2.488738e-01
v -4.191898e-01 1.405883e-01 2.542938e-01
v -4.158081e-01 1.393352e-01 2.608370e-01
v -4.130828e-01 1.386143e-01 2.679231e-01
v -4.090450e-01 1.368289e-01 2.739232e-01
v -4.063260e-01 1.361104e-01 2.809971e-01
v -4.036135e-01 1.353944e-01 2.880588e-01
v -4.002383e-01 1.341436e-01 2.945897e-01
v -3.968630e-01 1.328928e-01 3.011206e-01
v -3.948384e-01 1.327208e-01 3.086639e-01
v -3.928266e-01 1.325535e-01 3.161829e-01
v -3.921908e-01 1.334746e-01 3.246654e-01
v -3.908955e-01 1.338620e-01 3.326110e-01
v -3.889312e-01 1.337124e-01 3.400380e-01
v -3.862884e-01 1.330222e-01 3.469648e-01
v -3.857350e-01 1.339737e-01 3.552879e-01
v -3.845094e-01 1.343870e-01 3.630985e-01
v -3.840035e-01 1.353561e-01 3.713296e-01
v -3.835231e-01 1.363347e-01 3.795117e-01
v -3.823609e-01 1.367715e-01 3.871997e-01
v -3.812177e-01 1.372153e-01 3.948509e-01
v -3.800935e-01 1.376661e-01 4.024652e-01
v -3.775553e-01 1.370147e-01 4.091897e-01
v -3.750234e-01 1.363655e-01 4.159018e-01
v -3.724979e-01 1.357188e-01 4.226018e-01
v -3.707046e-01 1.356325e-01 4.296976e-01
v -3.689241e-01 1.355510e-01 4.367689e-01
v -3.686212e-01 1.365954e-01 4.446075e-01
v -3.690791e-01 1.382109e-01 4.527870e-01
v -3.710462e-01 1.409639e-01 4.616724e-01
v -3.745415e-01 1.448615e-01 4.712271e-01
v -4.558386e-01 1.425759e-01 1.684656e-01
v -4.566956e-01 1.449684e-01 1.794426e-01
v -4.569826e-01 1.468532e-01 1.897178e-01
v -4.542188e-01 1.461253e-01 1.968707e-01
v -4.514613e-01 1.453999e-01 2.040114e-01
v -4.487102e-01 1.446768e-01 2.111398e-01
v -4.447108e-01 1.428983e-01 2.170731e-01
v -4.413356e-01 1.416475e-01 2.236039e-01
v -4.392274e-01 1.414591e-01 2.312930e-01
v -4.364953e-01 1.407430e-01 2.383846e-01
v -4.331296e-01 1.394958e-01 2.448970e-01
v -4.297638e-01 1.382485e-01 2.514095e-01
v -4.251056e-01 1.359294e-01 2.568127e-01
v -4.210840e-01 1.341427e-01 2.627890e-01
v -4.183614e-01 1.334301e-01 2.698622e-01
v -4.149893e-01 1.321805e-01 2.763869e-01
v -4.116172e-01 1.309309e-01 2.829116e-01
v -4.089072e-01 1.302230e-01 2.899601e-01
v -4.062036e-01 1.295176e-01 2.969966e-01
v -4.041746e-01 1.293584e-01 3.045322e-01
v -4.014870e-01 1.286589e-01 3.115380e-01
v -3.988055e-01 1.279615e-01 3.185314e-01
v -3.974864e-01 1.283619e-01 3.264990e-01
v -3.955051e-01 1.282205e-01 3.339428e-01
v -3.949051e-01 1.291839e-01 3.423241e-01
v -3.929556e-01 1.290542e-01 3.497065e-01
v -3.923999e-01 1.300339e-01 3.580019e-01
v -3.911758e-01 1.304695e-01 3.657855e-01
v -3.899709e-01 1.309122e-01 3.735326e-01
v -3.894850e-01 1.319178e-01 3.816930e-01
v -3.883210e-01 1.323756e-01 3.893602e-01
v -3.878828e-01 1.333989e-01 3.974287e-01
v -3.867602e-01 1.338720e-01 4.050161e-01
v -3.856564e-01 1.343522e-01 4.125668e-01
v -3.838559e-01 1.342778e-01 4.196610e-01
v -3.820679e-01 1.342080e-01 4.267307e-01
v -3.802926e-01 1.341430e-01 4.337759e-01
v -3.792555e-01 1.346479e-01 4.411978e-01
v -3.796948e-01 1.362927e-01 4.493732e-01
v -3.808977e-01 1.385169e-01 4.578763e-01
v -3.821385e-01 1.407552e-01 4.663058e-01
v -3.819410e-01 1.418676e-01 4.739082e-01
v -3.802862e-01 1.418472e-01 4.807203e-01
v -3.756659e-01 1.395422e-01 4.860500e-01
v -4.628865e-01 1.388713e-01 1.724679e-01
v -4.625181e-01 1.402531e-01 1.821663e-01
v -4.615704e-01 1.411165e-01 1.911880e-01
v -4.581919e-01 1.398646e-01 1.977250e-01
v -4.560480e-01 1.396774e-01 2.054678e-01
v -4.539166e-01 1.394949e-01 2.131859e-01
v -4.511744e-01 1.387823e-01 2.202889e-01
v -4.490652e-01 1.386081e-01 2.279641e-01
v -4.463388e-01 1.379013e-01 2.350363e-01
v -4.429857e-01 1.366587e-01 2.415243e-01
v -4.396327e-01 1.354161e-01 2.480122e-01
v -4.356403e-01 1.336330e-01 2.539403e-01
v -4.309989e-01 1.313057e-01 2.593267e-01
v -4.269906e-01 1.295167e-01 2.652855e-01
v -4.236248e-01 1.282694e-01 2.717980e-01
v -4.202591e-01 1.270221e-01 2.783103e-01
v -4.162381e-01 1.252283e-01 2.842935e-01
v -4.141860e-01 1.250752e-01 2.918583e-01
v -4.128081e-01 1.254755e-01 2.999155e-01
v -4.107845e-01 1.253330e-01 3.074252e-01
v -4.074379e-01 1.240928e-01 3.139008e-01
v -4.047621e-01 1.234048e-01 3.208751e-01
v -4.027670e-01 1.232728e-01 3.283295e-01
v -4.014620e-01 1.237002e-01 3.362457e-01
v -4.008568e-01 1.246906e-01 3.446054e-01
v -4.002767e-01 1.256903e-01 3.529159e-01
v -3.997220e-01 1.266993e-01 3.611774e-01
v -3.985026e-01 1.271584e-01 3.689280e-01
v -3.966090e-01 1.270640e-01 3.761863e-01
v -3.954244e-01 1.275360e-01 3.838694e-01
v -3.949585e-01 1.285780e-01 3.919592e-01
v -3.952207e-01 1.301935e-01 4.004372e-01
v -3.941028e-01 1.306902e-01 4.079916e-01
v -3.930037e-01 1.311939e-01 4.155092e-01
v -3.926360e-01 1.322723e-01 4.234089e-01
v -3.915784e-01 1.327913e-01 4.308469e-01
v -3.919767e-01 1.344573e-01 4.390612e-01
v -3.902416e-01 1.344215e-01 4.460128e-01
v -3.892440e-01 1.349629e-01 4.533342e-01
v -3.897217e-01 1.366582e-01 4.613952e-01
v -3.887686e-01 1.372159e-01 4.686307e-01
v -3.870999e-01 1.372049e-01 4.754535e-01
v -3.839686e-01 1.360445e-01 4.815122e-01
v -3.800966e-01 1.343060e-01 4.872072e-01
v -3.777062e-01 1.337238e-01 4.936294e-01
v -4.744836e-01 1.375469e-01 1.711661e-01
v -4.704981e-01 1.357591e-01 1.770889e-01
v -4.683180e-01 1.355731e-01 1.848851e-01
v -4.667579e-01 1.359277e-01 1.932711e-01
v -4.639960e-01 1.352150e-01 2.004039e-01
v -4.618540e-01 1.350431e-01 2.081266e-01
v -4.603414e-01 1.354153e-01 2.164206e-01
v -4.588477e-01 1.357945e-01 2.246778e-01
v -4.561273e-01 1.350973e-01 2.317309e-01
v -4.534129e-01 1.344023e-01 2.387718e-01
v -4.500757e-01 1.331656e-01 2.452291e-01
v -4.454735e-01 1.308383e-01 2.505559e-01
v -4.421299e-01 1.295992e-01 2.570255e-01
v -4.375088e-01 1.272649e-01 2.623890e-01
v -4.335168e-01 1.254746e-01 2.683239e-01
v -4.301637e-01 1.242321e-01 2.748118e-01
v -4.268107e-01 1.229895e-01 2.812997e-01
v -4.221546e-01 1.206422e-01 2.867308e-01
v -4.194499e-01 1.199509e-01 2.937533e-01
v -4.174094e-01 1.198165e-01 3.012797e-01
v -4.147204e-01 1.191310e-01 3.082715e-01
v -4.120378e-01 1.184477e-01 3.152511e-01
v -4.100290e-01 1.183251e-01 3.227162e-01
v -4.080329e-01 1.182073e-01 3.301567e-01
v -4.073967e-01 1.192152e-01 3.385438e-01
v -4.061091e-01 1.196708e-01 3.464025e-01
v -4.055204e-01 1.206963e-01 3.546975e-01
v -4.056404e-01 1.222953e-01 3.634107e-01
v -4.037330e-01 1.222103e-01 3.706796e-01
v -4.011486e-01 1.215635e-01 3.774690e-01
v -4.013415e-01 1.231895e-01 3.860411e-01
v -4.015661e-01 1.248273e-01 3.945518e-01
v -4.018223e-01 1.264769e-01 4.030014e-01
v -4.014081e-01 1.275671e-01 4.109592e-01
v -4.003138e-01 1.280943e-01 4.184437e-01
v -3.999470e-01 1.292020e-01 4.263095e-01
v -4.003173e-01 1.308938e-01 4.345383e-01
v -4.007193e-01 1.325974e-01 4.427056e-01
v -3.989989e-01 1.325817e-01 4.496128e-01
v -3.972911e-01 1.325706e-01 4.564952e-01
v -3.963204e-01 1.331436e-01 4.637406e-01
v -3.946412e-01 1.331431e-01 4.705679e-01
v -3.922438e-01 1.325657e-01 4.769956e-01
v -3.883850e-01 1.308248e-01 4.826730e-01
v -3.837829e-01 1.284975e-01 4.879998e-01
v -3.813887e-01 1.279211e-01 4.944213e-01
v -3.790009e-01 1.273472e-01 5.008305e-01
v -4.859841e-01 1.362883e-01 1.699390e-01
v -4.802460e-01 1.328892e-01 1.739178e-01
v -4.774678e-01 1.321779e-01 1.810744e-01
v -4.758964e-01 1.325500e-01 1.894579e-01
v -4.743440e-01 1.329293e-01 1.978046e-01
v -4.722041e-01 1.327726e-01 2.055074e-01
v -4.694670e-01 1.320765e-01 2.125843e-01
v -4.679623e-01 1.324734e-01 2.208391e-01
v -4.658604e-01 1.323308e-01 2.284681e-01
v -4.625327e-01 1.310976e-01 2.349069e-01
v -4.592049e-01 1.298644e-01 2.413458e-01
v -4.565028e-01 1.291813e-01 2.483554e-01
v -4.525495e-01 1.273980e-01 2.542235e-01
v -4.485899e-01 1.256126e-01 2.601042e-01
v -4.433538e-01 1.227176e-01 2.648926e-01
v -4.387368e-01 1.203703e-01 2.702639e-01
v -4.360314e-01 1.196859e-01 2.772795e-01
v -4.326878e-01 1.184469e-01 2.837490e-01
v -4.286966e-01 1.166496e-01 2.896909e-01
v -4.260007e-01 1.159688e-01 2.966880e-01
v -4.233114e-01 1.152903e-01 3.036730e-01
v -4.206281e-01 1.146141e-01 3.106456e-01
v -4.179515e-01 1.139404e-01 3.176059e-01
v -4.159446e-01 1.138330e-01 3.250510e-01
v -4.146173e-01 1.142957e-01 3.329625e-01
v -4.126390e-01 1.141988e-01 3.403524e-01
v -4.113465e-01 1.146744e-01 3.481963e-01
v -4.100731e-01 1.151571e-01 3.560035e-01
v -4.101776e-01 1.167866e-01 3.647065e-01
v -4.089485e-01 1.172857e-01 3.724278e-01
v -4.070526e-01 1.172194e-01 3.796583e-01
v -4.079253e-01 1.194518e-01 3.886559e-01
v -4.081439e-01 1.211237e-01 3.971382e-01
v -4.090895e-01 1.233831e-01 4.059947e-01
v -4.086762e-01 1.245027e-01 4.139187e-01
v -4.075865e-01 1.250534e-01 4.213702e-01
v -4.079256e-01 1.267698e-01 4.296194e-01
v -4.075882e-01 1.279175e-01 4.373961e-01
v -4.065652e-01 1.284929e-01 4.447189e-01
v -4.048467e-01 1.284924e-01 4.516059e-01
v -4.031410e-01 1.284967e-01 4.584684e-01
v -4.014479e-01 1.285055e-01 4.653064e-01
v -3.997676e-01 1.285192e-01 4.721199e-01
v -3.973729e-01 1.279500e-01 4.785345e-01
v -3.927939e-01 1.256167e-01 4.838322e-01
v -3.882023e-01 1.232789e-01 4.891545e-01
v -3.850711e-01 1.221185e-01 4.952131e-01
v -3.819399e-01 1.209581e-01 5.012718e-01
v -4.963957e-01 1.360294e-01 1.777987e-01
v -4.895270e-01 1.315316e-01 1.804512e-01
v -4.873670e-01 1.313819e-01 1.881767e-01
v -4.852196e-01 1.312370e-01 1.958777e-01
v -4.830848e-01 1.310967e-01 2.035541e-01
v -4.815657e-01 1.315101e-01 2.118128e-01
v -4.788535e-01 1.308304e-01 2.188337e-01
v -4.761476e-01 1.301530e-01 2.258423e-01
v -4.734481e-01 1.294781e-01 2.328387e-01
v -4.701394e-01 1.282520e-01 2.392407e-01
v -4.662119e-01 1.264711e-01 2.450669e-01
v -4.635220e-01 1.257997e-01 2.520449e-01
v -4.595882e-01 1.240165e-01 2.578832e-01
v -4.543917e-01 1.211145e-01 2.626189e-01
v -4.485449e-01 1.176461e-01 2.668401e-01
v -4.439418e-01 1.152895e-01 2.722007e-01
v -4.412390e-01 1.146133e-01 2.792033e-01
v -4.372610e-01 1.128137e-01 2.851275e-01
v -4.339206e-01 1.115758e-01 2.915909e-01
v -4.312273e-01 1.109032e-01 2.985750e-01
v -4.291910e-01 1.107994e-01 3.060614e-01
v -4.271672e-01 1.107002e-01 3.135233e-01
v -4.244993e-01 1.100370e-01 3.204583e-01
v -4.224978e-01 1.099461e-01 3.278773e-01
v -4.198457e-01 1.092887e-01 3.347817e-01
v -4.178663e-01 1.092061e-01 3.421577e-01
v -4.165690e-01 1.097016e-01 3.499870e-01
v -4.159634e-01 1.107789e-01 3.582511e-01
v -4.160588e-01 1.124413e-01 3.669318e-01
v -4.155068e-01 1.135385e-01 3.750916e-01
v -4.142983e-01 1.140669e-01 3.827492e-01
v -4.151645e-01 1.163405e-01 3.917114e-01
v -4.153803e-01 1.180476e-01 4.001590e-01
v -4.156278e-01 1.197664e-01 4.085453e-01
v -4.145175e-01 1.203312e-01 4.160127e-01
v -4.148220e-01 1.220711e-01 4.242886e-01
v -4.151582e-01 1.238229e-01 4.325031e-01
v -4.148218e-01 1.249999e-01 4.402460e-01
v -4.130960e-01 1.250112e-01 4.471315e-01
v -4.113828e-01 1.250272e-01 4.539924e-01
v -4.089685e-01 1.244579e-01 4.604369e-01
v -4.065606e-01 1.238910e-01 4.668690e-01
v -4.041589e-01 1.233265e-01 4.732890e-01
v -4.017637e-01 1.227642e-01 4.796966e-01
v -3.971954e-01 1.204205e-01 4.849898e-01
v -3.926144e-01 1.180720e-01 4.903075e-01
v -3.887536e-01 1.163158e-01 4.960049e-01
v -3.848865e-01 1.145574e-01 5.017146e-01
v -5.219652e-01 1.465376e-01 1.826284e-01
v -5.152392e-01 1.420490e-01 1.850524e-01
v -5.090584e-01 1.380951e-01 1.881866e-01
v -5.046054e-01 1.357796e-01 1.932730e-01
v -5.001396e-01 1.334593e-01 1.983838e-01
v -4.962539e-01 1.316867e-01 2.041371e-01
v -4.929579e-01 1.304652e-01 2.105146e-01
v -4.896618e-01 1.292438e-01 2.168922e-01
v -4.869681e-01 1.285783e-01 2.238694e-01
v -4.836753e-01 1.273580e-01 2.302408e-01
v -4.809910e-01 1.266959e-01 2.371995e-01
v -4.770896e-01 1.249175e-01 2.429836e-01
v -4.731817e-01 1.231366e-01 2.487798e-01
v -4.705039e-01 1.224770e-01 2.557264e-01
v -4.659685e-01 1.201308e-01 2.609722e-01
v -4.607958e-01 1.172159e-01 2.656857e-01
v -4.543489e-01 1.131634e-01 2.693350e-01
v -4.491319e-01 1.102320e-01 2.741344e-01
v -4.457978e-01 1.089965e-01 2.805855e-01
v -4.424638e-01 1.077610e-01 2.870366e-01
v -4.397700e-01 1.070955e-01 2.940138e-01
v -4.370826e-01 1.064322e-01 3.009786e-01
v -4.350482e-01 1.063436e-01 3.084450e-01
v -4.336762e-01 1.068332e-01 3.163946e-01
v -4.310175e-01 1.061807e-01 3.233043e-01
v -4.283649e-01 1.055303e-01 3.302017e-01
v -4.250593e-01 1.043054e-01 3.365976e-01
v -4.230789e-01 1.042368e-01 3.439599e-01
v -4.231081e-01 1.059111e-01 3.527284e-01
v -4.231690e-01 1.075970e-01 3.614357e-01
v -4.225894e-01 1.087129e-01 3.696168e-01
v -4.213603e-01 1.092555e-01 3.772905e-01
v -4.208283e-01 1.103890e-01 3.853797e-01
v -4.216848e-01 1.127025e-01 3.943125e-01
v -4.218946e-01 1.144437e-01 4.027316e-01
v -4.214484e-01 1.156091e-01 4.106553e-01
v -4.217184e-01 1.173725e-01 4.189578e-01
v -4.220201e-01 1.191477e-01 4.271990e-01
v -4.223536e-01 1.209346e-01 4.353789e-01
v -4.227187e-01 1.227334e-01 4.434974e-01
v -4.203007e-01 1.221700e-01 4.499411e-01
v -4.178890e-01 1.216089e-01 4.563725e-01
v -4.161937e-01 1.216460e-01 4.631827e-01
v -4.130847e-01 1.204939e-01 4.691984e-01
v -4.106921e-01 1.199399e-01 4.755931e-01
v -4.083057e-01 1.193882e-01 4.819754e-01
v -4.037576e-01 1.170374e-01 4.872457e-01
v -3.984709e-01 1.140803e-01 4.921800e-01
v -3.938942e-01 1.117189e-01 4.975054e-01
v -3.893048e-01 1.093528e-01 5.028554e-01
v -5.297942e-01 1.443899e-01 1.879843e-01
v -5.242656e-01 1.409814e-01 1.916537e-01
v -5.192912e-01 1.381182e-01 1.960079e-01
v -5.154631e-01 1.363595e-01 2.016578e-01
v -5.104570e-01 1.334847e-01 2.060734e-01
v -5.060208e-01 1.311608e-01 2.111428e-01
v -5.015720e-01 1.288323e-01 2.162369e-01
v -4.977060e-01 1.270598e-01 2.219605e-01
v -4.950306e-01 1.264082e-01 2.288938e-01
v -4.911583e-01 1.246333e-01 2.346297e-01
v -4.866746e-01 1.222918e-01 2.397912e-01
v -4.827865e-01 1.205111e-01 2.455576e-01
v -4.788918e-01 1.187279e-01 2.513363e-01
v -4.756053e-01 1.175100e-01 2.576955e-01
v -4.717012e-01 1.157232e-01 2.634925e-01
v -4.671699e-01 1.133641e-01 2.687460e-01
v -4.613783e-01 1.098582e-01 2.729245e-01
v -4.561883e-01 1.069151e-01 2.776957e-01
v -4.522398e-01 1.051119e-01 2.835786e-01
v -4.489185e-01 1.038810e-01 2.900052e-01
v -4.462337e-01 1.032261e-01 2.969571e-01
v -4.441949e-01 1.031504e-01 3.044157e-01
v -4.408831e-01 1.019231e-01 3.108239e-01
v -4.382174e-01 1.012752e-01 3.177390e-01
v -4.355579e-01 1.006296e-01 3.246417e-01
v -4.335573e-01 1.005681e-01 3.320269e-01
v -4.309137e-01 9.992829e-02 3.388988e-01
v -4.295940e-01 1.004591e-01 3.467235e-01
v -4.296172e-01 1.021673e-01 3.554634e-01
v -4.296721e-01 1.038873e-01 3.641421e-01
v -4.290905e-01 1.050316e-01 3.722957e-01
v -4.278627e-01 1.055963e-01 3.799423e-01
v -4.273286e-01 1.067582e-01 3.880038e-01
v -4.288532e-01 1.097027e-01 3.973528e-01
v -4.290603e-01 1.114791e-01 4.057371e-01
v -4.292990e-01 1.132672e-01 4.140603e-01
v -4.288821e-01 1.144724e-01 4.218948e-01
v -4.291811e-01 1.162829e-01 4.301014e-01
v -4.295118e-01 1.181051e-01 4.382466e-01
v -4.284804e-01 1.187427e-01 4.455130e-01
v -4.274682e-01 1.193874e-01 4.527426e-01
v -4.250686e-01 1.188381e-01 4.591426e-01
v -4.233817e-01 1.188929e-01 4.659206e-01
v -4.209981e-01 1.183495e-01 4.722899e-01
v -4.179080e-01 1.172044e-01 4.782688e-01
v -4.155338e-01 1.166645e-01 4.846197e-01
v -4.110090e-01 1.143078e-01 4.898609e-01
v -4.050271e-01 1.107313e-01 4.944073e-01
v -4.011959e-01 1.089716e-01 5.000633e-01
v -3.980869e-01 1.078194e-01 5.060791e-01
v -5.387102e-01 1.434410e-01 1.946231e-01
v -5.343703e-01 1.411384e-01 1.995225e-01
v -5.288660e-01 1.377098e-01 2.031768e-01
v -5.239154e-01 1.348336e-01 2.075088e-01
v -5.189458e-01 1.319504e-01 2.118776e-01
v -5.139572e-01 1.290602e-01 2.162833e-01
v -5.101266e-01 1.272935e-01 2.219463e-01
v -5.062895e-01 1.255243e-01 2.276215e-01
v -5.018513e-01 1.231853e-01 2.327111e-01
v -4.974006e-01 1.208416e-01 2.378252e-01
v -4.935382e-01 1.190630e-01 2.435494e-01
v -4.896695e-01 1.172823e-01 2.492860e-01
v -4.864021e-01 1.160714e-01 2.556084e-01
v -4.825237e-01 1.142869e-01 2.613633e-01
v -4.780254e-01 1.119256e-01 2.665693e-01
v -4.735144e-01 1.095595e-01 2.717999e-01
v -4.689906e-01 1.071887e-01 2.770549e-01
v -4.638309e-01 1.042351e-01 2.817918e-01
v -4.599051e-01 1.024331e-01 2.876387e-01
v -4.559730e-01 1.006287e-01 2.934980e-01
v -4.526675e-01 9.940371e-02 2.998939e-01
v -4.493620e-01 9.817880e-02 3.062898e-01
v -4.460564e-01 9.695382e-02 3.126858e-01
v -4.433933e-01 9.631417e-02 3.195878e-01
v -4.413820e-01 9.626311e-02 3.269773e-01
v -4.393834e-01 9.621688e-02 3.343424e-01
v -4.373976e-01 9.617536e-02 3.416830e-01
v -4.360794e-01 9.672843e-02 3.494806e-01
v -4.360966e-01 9.847079e-02 3.581921e-01
v -4.354842e-01 9.963256e-02 3.663730e-01
v -4.348971e-01 1.008037e-01 3.745048e-01
v -4.343354e-01 1.019843e-01 3.825877e-01
v -4.337991e-01 1.031743e-01 3.906214e-01
v -4.346361e-01 1.055677e-01 3.994956e-01
v -4.355114e-01 1.079751e-01 4.082962e-01
v -4.364245e-01 1.103967e-01 4.170232e-01
v -4.373757e-01 1.128323e-01 4.256765e-01
v -4.369915e-01 1.140786e-01 4.334159e-01
v -4.366326e-01 1.153344e-01 4.411063e-01
v -4.356060e-01 1.159955e-01 4.483397e-01
v -4.339021e-01 1.160585e-01 4.551345e-01
v -4.322109e-01 1.161261e-01 4.619047e-01
v -4.305324e-01 1.161985e-01 4.686504e-01
v -4.288666e-01 1.162755e-01 4.753716e-01
v -4.272135e-01 1.163572e-01 4.820683e-01
v -4.248609e-01 1.158327e-01 4.883694e-01
v -4.196536e-01 1.128613e-01 4.931981e-01
v -4.144273e-01 1.098830e-01 4.980637e-01
v -4.113468e-01 1.087414e-01 5.040242e-01
v -4.082663e-01 1.075999e-01 5.099847e-01
v -5.447302e-01 1.397773e-01 1.980161e-01
v -5.409794e-01 1.380329e-01 2.035327e-01
v -5.355059e-01 1.345867e-01 2.071595e-01
v -5.300070e-01 1.311312e-01 2.108354e-01
v -5.262181e-01 1.293727e-01 2.164256e-01
v -5.224229e-01 1.276117e-01 2.220281e-01
v -5.186213e-01 1.258486e-01 2.276428e-01
v -5.142255e-01 1.235107e-01 2.326666e-01
v -5.086347e-01 1.200211e-01 2.365203e-01
v -5.042072e-01 1.176714e-01 2.416053e-01
v -5.003643e-01 1.158929e-01 2.472997e-01
v -4.965153e-01 1.141121e-01 2.530064e-01
v -4.932637e-01 1.129071e-01 2.592981e-01
v -4.900120e-01 1.117021e-01 2.655899e-01
v -4.855401e-01 1.093361e-01 2.707607e-01
v -4.816688e-01 1.075470e-01 2.765103e-01
v -4.771748e-01 1.051727e-01 2.817240e-01
v -4.720483e-01 1.022096e-01 2.864203e-01
v -4.687713e-01 1.009952e-01 2.927611e-01
v -4.636164e-01 9.802159e-02 2.975125e-01
v -4.584423e-01 9.504083e-02 3.023007e-01
v -4.545141e-01 9.323068e-02 3.081607e-01
v -4.518503e-01 9.259794e-02 3.150557e-01
v -4.491930e-01 9.196770e-02 3.219386e-01
v -4.471838e-01 9.193201e-02 3.293082e-01
v -4.451872e-01 9.190094e-02 3.366533e-01
v -4.438515e-01 9.246928e-02 3.444606e-01
v -4.425349e-01 9.304473e-02 3.522313e-01
v -4.418916e-01 9.422407e-02 3.604396e-01
v -4.412738e-01 9.541294e-02 3.685990e-01
v -4.413422e-01 9.721046e-02 3.771716e-01
v -4.414422e-01 9.901975e-02 3.856829e-01
v -4.409068e-01 1.002391e-01 3.936828e-01
v -4.410670e-01 1.020707e-01 4.020775e-01
v -4.419325e-01 1.045181e-01 4.108487e-01
v -4.435128e-01 1.075848e-01 4.199781e-01
v -4.444574e-01 1.100615e-01 4.285959e-01
v -4.447571e-01 1.119448e-01 4.367209e-01
v -4.437162e-01 1.126224e-01 4.439580e-01
v -4.426943e-01 1.133070e-01 4.511583e-01
v -4.423838e-01 1.146097e-01 4.587228e-01
v -4.407074e-01 1.146973e-01 4.654485e-01
v -4.397425e-01 1.154030e-01 4.725385e-01
v -4.394986e-01 1.167305e-01 4.799742e-01
v -4.385750e-01 1.174515e-01 4.869844e-01
v -4.362535e-01 1.169456e-01 4.932172e-01
v -4.325153e-01 1.152059e-01 4.987093e-01
v -4.280561e-01 1.128445e-01 5.038556e-01
v -4.264557e-01 1.129604e-01 5.104341e-01
v -4.248680e-01 1.130809e-01 5.169881e-01
v -4.261898e-01 1.156974e-01 5.248763e-01
v -5.495964e-01 1.350206e-01 2.001116e-01
v -5.452904e-01 1.327015e-01 2.049774e-01
v -5.398350e-01 1.292331e-01 2.086014e-01
v -5.354973e-01 1.269022e-01 2.135286e-01
v -5.322964e-01 1.257160e-01 2.197221e-01
v -5.285175e-01 1.239539e-01 2.253009e-01
v -5.241514e-01 1.216125e-01 2.302831e-01
v -5.203566e-01 1.198446e-01 2.358926e-01
v -5.159682e-01 1.174949e-01 2.409179e-01
v -5.121577e-01 1.157211e-01 2.465579e-01
v -5.071534e-01 1.127815e-01 2.510419e-01
v -5.021302e-01 1.098350e-01 2.555628e-01
v -4.982879e-01 1.080494e-01 2.612642e-01
v -4.950426e-01 1.068468e-01 2.675437e-01
v -4.917973e-01 1.056441e-01 2.738230e-01
v -4.873328e-01 1.032663e-01 2.789955e-01
v -4.828557e-01 1.008838e-01 2.841924e-01
v -4.795977e-01 9.967643e-02 2.904964e-01
v -4.751015e-01 9.728678e-02 2.957301e-01
v -4.693482e-01 9.370800e-02 2.999305e-01
v -4.648204e-01 9.130668e-02 3.052256e-01
v -4.615371e-01 9.008995e-02 3.115786e-01
v -4.588854e-01 8.946896e-02 3.184421e-01
v -4.556052e-01 8.825339e-02 3.247890e-01
v -4.529631e-01 8.763605e-02 3.316342e-01
v -4.516100e-01 8.821968e-02 3.394515e-01
v -4.502757e-01 8.881032e-02 3.472319e-01
v -4.489605e-01 8.940791e-02 3.549755e-01
v -4.483151e-01 9.061557e-02 3.631563e-01
v -4.476951e-01 9.183259e-02 3.712878e-01
v -4.490716e-01 9.487465e-02 3.807550e-01
v -4.498323e-01 9.732666e-02 3.896808e-01
v -4.486408e-01 9.797020e-02 3.971853e-01
v -4.488014e-01 9.983822e-02 4.055392e-01
v -4.489938e-01 1.017180e-01 4.138318e-01
v -4.505637e-01 1.048317e-01 4.229249e-01
v -4.515019e-01 1.073495e-01 4.315073e-01
v -4.517988e-01 1.092680e-01 4.395976e-01
v -4.514449e-01 1.105836e-01 4.472141e-01
v -4.518021e-01 1.125245e-01 4.551879e-01
v -4.515021e-01 1.138601e-01 4.627002e-01
v -4.505356e-01 1.145871e-01 4.697693e-01
v -4.481977e-01 1.140824e-01 4.760257e-01
v -4.472629e-01 1.148210e-01 4.830335e-01
v -4.456455e-01 1.149450e-01 4.896289e-01
v -4.447455e-01 1.156966e-01 4.965692e-01
v -4.424488e-01 1.152072e-01 5.027460e-01
v -4.394476e-01 1.140950e-01 5.085532e-01
v -4.378745e-01 1.142355e-01 5.150628e-01
v -4.363143e-01 1.143806e-01 5.215477e-01
v -4.354871e-01 1.151592e-01 5.283470e-01
v -4.354026e-01 1.165747e-01 5.354423e-01
v -5.533310e-01 1.291357e-01 2.009147e-01
v -5.495940e-01 1.273819e-01 2.064207e-01
v -5.452859e-01 1.250475e-01 2.113065e-01
v -5.415329e-01 1.232878e-01 2.168431e-01
v -5.377738e-01 1.215257e-01 2.223920e-01
v -5.340082e-01 1.197614e-01 2.279532e-01
v -5.296589e-01 1.174117e-01 2.329188e-01
v -5.258774e-01 1.156414e-01 2.385105e-01
v -5.220897e-01 1.138688e-01 2.441146e-01
v -5.182956e-01 1.120939e-01 2.497310e-01
v -5.139051e-01 1.097289e-01 2.547762e-01
v -5.083156e-01 1.061818e-01 2.586915e-01
v -5.032972e-01 1.032152e-01 2.632270e-01
v -5.006577e-01 1.026060e-01 2.700592e-01
v -4.986272e-01 1.025915e-01 2.774378e-01
v -4.935802e-01 9.961426e-02 2.820285e-01
v -4.897323e-01 9.781936e-02 2.877491e-01
v -4.871023e-01 9.721367e-02 2.945628e-01
v -4.807864e-01 9.302842e-02 2.981585e-01
v -4.750577e-01 8.942968e-02 3.023437e-01
v -4.711684e-01 8.761940e-02 3.081439e-01
v -4.691475e-01 8.760838e-02 3.155042e-01
v -4.658832e-01 8.639868e-02 3.218204e-01
v -4.626188e-01 8.518899e-02 3.281367e-01
v -4.593545e-01 8.397929e-02 3.344529e-01
v -4.573653e-01 8.398006e-02 3.417519e-01
v -4.566701e-01 8.519826e-02 3.499967e-01
v -4.560002e-01 8.642576e-02 3.581926e-01
v -4.547087e-01 8.705405e-02 3.658665e-01
v -4.547367e-01 8.890913e-02 3.744371e-01
v -4.554496e-01 9.138709e-02 3.834073e-01
v -4.562007e-01 9.387911e-02 3.923038e-01
v -4.550105e-01 9.454493e-02 3.997813e-01
v -4.551652e-01 9.644698e-02 4.081068e-01
v -4.560177e-01 9.897656e-02 4.168070e-01
v -4.575773e-01 1.021372e-01 4.258637e-01
v -4.585090e-01 1.046962e-01 4.344107e-01
v -4.588032e-01 1.066499e-01 4.424663e-01
v -4.591290e-01 1.086155e-01 4.504606e-01
v -4.594866e-01 1.105927e-01 4.583936e-01
v -4.598758e-01 1.125817e-01 4.662652e-01
v -4.589201e-01 1.133344e-01 4.732890e-01
v -4.566008e-01 1.128439e-01 4.795018e-01
v -4.549823e-01 1.129820e-01 4.860832e-01
v -4.540743e-01 1.137523e-01 4.930151e-01
v -4.545871e-01 1.157871e-01 5.006476e-01
v -4.523153e-01 1.153142e-01 5.067684e-01
v -4.493425e-01 1.142126e-01 5.125204e-01
v -4.477906e-01 1.143753e-01 5.189731e-01
v -4.462514e-01 1.145429e-01 5.254013e-01
v -4.454416e-01 1.153496e-01 5.321430e-01
v -4.439309e-01 1.155277e-01 5.385160e-01
v -5.570656e-01 1.232508e-01 2.017177e-01
v -5.533323e-01 1.214911e-01 2.072245e-01
v -5.495926e-01 1.197290e-01 2.127435e-01
v -5.464107e-01 1.185499e-01 2.189004e-01
v -5.426615e-01 1.167844e-01 2.244378e-01
v -5.389059e-01 1.150164e-01 2.299875e-01
v -5.362914e-01 1.144237e-01 2.367636e-01
v -5.325294e-01 1.126534e-01 2.423256e-01
v -5.281814e-01 1.102897e-01 2.473050e-01
v -5.238205e-01 1.079213e-01 2.523089e-01
v -5.206196e-01 1.067350e-01 2.585025e-01
v -5.150609e-01 1.031703e-01 2.623903e-01
v -5.100694e-01 1.001919e-01 2.668976e-01
v -5.068463e-01 9.899748e-02 2.731341e-01
v -5.042221e-01 9.840122e-02 2.799285e-01
v -5.010021e-01 9.720794e-02 2.861589e-01
v -4.977822e-01 9.601471e-02 2.923893e-01
v -4.939537e-01 9.421977e-02 2.980801e-01
v -4.882841e-01 9.061391e-02 3.021826e-01
v -4.832039e-01 8.760271e-02 3.068615e-01
v -4.793406e-01 8.579478e-02 3.126196e-01
v -4.767134e-01 8.519739e-02 3.194203e-01
v -4.734680e-01 8.399477e-02 3.256998e-01
v -4.695951e-01 8.218331e-02 3.314763e-01
v -4.663467e-01 8.097950e-02 3.377618e-01
v -4.637320e-01 8.038679e-02 3.445381e-01
v -4.630346e-01 8.163312e-02 3.527551e-01
v -4.617224e-01 8.227550e-02 3.604450e-01
v -4.623591e-01 8.476868e-02 3.695146e-01
v -4.623875e-01 8.666021e-02 3.780444e-01
v -4.630971e-01 8.918045e-02 3.869730e-01
v -4.625391e-01 9.047845e-02 3.949203e-01
v -4.613505e-01 9.116661e-02 4.023709e-01
v -4.621584e-01 9.372319e-02 4.111093e-01
v -4.630043e-01 9.629392e-02 4.197741e-01
v -4.645538e-01 9.950158e-02 4.287947e-01
v -4.648102e-01 1.014776e-01 4.368830e-01
v -4.657703e-01 1.040906e-01 4.453270e-01
v -4.660934e-01 1.060913e-01 4.532867e-01
v -4.664481e-01 1.081038e-01 4.611849e-01
v -4.675158e-01 1.107568e-01 4.694205e-01
v -4.665681e-01 1.115342e-01 4.764051e-01
v -4.656394e-01 1.123186e-01 4.833529e-01
v -4.654205e-01 1.137423e-01 4.906441e-01
v -4.645330e-01 1.145421e-01 4.975122e-01
v -4.629672e-01 1.147142e-01 5.039756e-01
v -4.614143e-01 1.148911e-01 5.104145e-01
v -4.591704e-01 1.144358e-01 5.164731e-01
v -4.576395e-01 1.146209e-01 5.228690e-01
v -4.554115e-01 1.141715e-01 5.288970e-01
v -4.546159e-01 1.150052e-01 5.355873e-01
v -4.524069e-01 1.145629e-01 5.415784e-01
v -5.608003e-01 1.173659e-01 2.025208e-01
v -5.565167e-01 1.150116e-01 2.073914e-01
v -5.533348e-01 1.138324e-01 2.135482e-01
v -5.507131e-01 1.132444e-01 2.203297e-01
v -5.469709e-01 1.114741e-01 2.258617e-01
v -5.437889e-01 1.102949e-01 2.320185e-01
v -5.406070e-01 1.091158e-01 2.381753e-01
v -5.379981e-01 1.085325e-01 2.449323e-01
v -5.348193e-01 1.073545e-01 2.510830e-01
v -5.310612e-01 1.055783e-01 2.566456e-01
v -5.267141e-01 1.032005e-01 2.616389e-01
v -5.217688e-01 1.002175e-01 2.660811e-01
v -5.185710e-01 9.903243e-02 2.722685e-01
v -5.141891e-01 9.664166e-02 2.773293e-01
v -5.103898e-01 9.485021e-02 2.829717e-01
v -5.077808e-01 9.426691e-02 2.897287e-01
v -5.051784e-01 9.368597e-02 2.964733e-01
v -5.019774e-01 9.249975e-02 3.026669e-01
v -4.975606e-01 9.009600e-02 3.077951e-01
v -4.919091e-01 8.646786e-02 3.118946e-01
v -4.874607e-01 8.405247e-02 3.170842e-01
v -4.842344e-01 8.285685e-02 3.233268e-01
v -4.803874e-01 8.104780e-02 3.290612e-01
v -4.765342e-01 7.923637e-02 3.348080e-01
v -4.733016e-01 7.803843e-02 3.410629e-01
v -4.713292e-01 7.807445e-02 3.482974e-01
v -4.700026e-01 7.873319e-02 3.559908e-01
v -4.693314e-01 8.001835e-02 3.641251e-01
v -4.706044e-01 8.317428e-02 3.736244e-01
v -4.706363e-01 8.510341e-02 3.821074e-01
v -4.706998e-01 8.704427e-02 3.905291e-01
v -4.694969e-01 8.774881e-02 3.979834e-01
v -4.683129e-01 8.846046e-02 4.054010e-01
v -4.697697e-01 9.168454e-02 4.145446e-01
v -4.706124e-01 9.429758e-02 4.231679e-01
v -4.714929e-01 9.692458e-02 4.317174e-01
v -4.724116e-01 9.956580e-02 4.401935e-01
v -4.733682e-01 1.022211e-01 4.485960e-01
v -4.736917e-01 1.042583e-01 4.565148e-01
v -4.740468e-01 1.063072e-01 4.643722e-01
v -4.744335e-01 1.083678e-01 4.721684e-01
v -4.741713e-01 1.098045e-01 4.795116e-01
v -4.732504e-01 1.106135e-01 4.864202e-01
v -4.723485e-01 1.114297e-01 4.932920e-01
v -4.707754e-01 1.116136e-01 4.997538e-01
v -4.699083e-01 1.124427e-01 5.065582e-01
v -4.683638e-01 1.126372e-01 5.129648e-01
v -4.668317e-01 1.128364e-01 5.193468e-01
v -4.653125e-01 1.130404e-01 5.257043e-01
v -4.630998e-01 1.126039e-01 5.316947e-01
v -4.623120e-01 1.134622e-01 5.383457e-01
v -5.639878e-01 1.108876e-01 2.026816e-01
v -5.602588e-01 1.091149e-01 2.081961e-01
v -5.576303e-01 1.085316e-01 2.149829e-01
v -5.550081e-01 1.079506e-01 2.217574e-01
v -5.518326e-01 1.067738e-01 2.279019e-01
v -5.486569e-01 1.055969e-01 2.340464e-01
v -5.454814e-01 1.044201e-01 2.401909e-01
v -5.428751e-01 1.038450e-01 2.469348e-01
v -5.397026e-01 1.026694e-01 2.530732e-01
v -5.365302e-01 1.014937e-01 2.592115e-01
v -5.333578e-01 1.003181e-01 2.653500e-01
v -5.290214e-01 9.792975e-02 2.703387e-01
v -5.258427e-01 9.675177e-02 2.764894e-01
v -5.232522e-01 9.618247e-02 2.832025e-01
v -5.194851e-01 9.439577e-02 2.887906e-01
v -5.163064e-01 9.321781e-02 2.949413e-01
v -5.119320e-01 9.081534e-02 3.000035e-01
v -5.087469e-01 8.963500e-02 3.061665e-01
v -5.049575e-01 8.784001e-02 3.117975e-01
v -5.005547e-01 8.542701e-02 3.169150e-01
v -4.955285e-01 8.239219e-02 3.215374e-01
v -4.917107e-01 8.058671e-02 3.272236e-01
v -4.872697e-01 7.815955e-02 3.324147e-01
v -4.840561e-01 7.696864e-02 3.386329e-01
v -4.802193e-01 7.515606e-02 3.443558e-01
v -4.788816e-01 7.583246e-02 3.520470e-01
v -4.788219e-01 7.776394e-02 3.606670e-01
v -4.781612e-01 7.908198e-02 3.687490e-01
v -4.781617e-01 8.103578e-02 3.772525e-01
v -4.781940e-01 8.300127e-02 3.856947e-01
v -4.776157e-01 8.434981e-02 3.936172e-01
v -4.770628e-01 8.570777e-02 4.014907e-01
v -4.765352e-01 8.707511e-02 4.093151e-01
v -4.779881e-01 9.034852e-02 4.184102e-01
v -4.794854e-01 9.363838e-02 4.274195e-01
v -4.803690e-01 9.631013e-02 4.359153e-01
v -4.806294e-01 9.836017e-02 4.439159e-01
v -4.815859e-01 1.010589e-01 4.522706e-01
v -4.819129e-01 1.031337e-01 4.601425e-01
v -4.822715e-01 1.052201e-01 4.679530e-01
v -4.826619e-01 1.073183e-01 4.757023e-01
v -4.810528e-01 1.075035e-01 4.822176e-01
v -4.801365e-01 1.083361e-01 4.890931e-01
v -4.792393e-01 1.091757e-01 4.959319e-01
v -4.769880e-01 1.087321e-01 5.019889e-01
v -4.754327e-01 1.089373e-01 5.084001e-01
v -4.745830e-01 1.097945e-01 5.151469e-01
v -4.730563e-01 1.100102e-01 5.215028e-01
v -4.715422e-01 1.102305e-01 5.278341e-01
v -4.700408e-01 1.104556e-01 5.341410e-01
v -4.678466e-01 1.100331e-01 5.400877e-01
v -5.677262e-01 1.049968e-01 2.034855e-01
v -5.640009e-01 1.032183e-01 2.090007e-01
v -5.619184e-01 1.032425e-01 2.164159e-01
v -5.592957e-01 1.026686e-01 2.231836e-01
v -5.566794e-01 1.020970e-01 2.299389e-01
v -5.540694e-01 1.015277e-01 2.366819e-01
v -5.520281e-01 1.015672e-01 2.440173e-01
v -5.488683e-01 1.003963e-01 2.501312e-01
v -5.457085e-01 9.922535e-02 2.562451e-01
v -5.425488e-01 9.805442e-02 2.623589e-01
v -5.399641e-01 9.749454e-02 2.690530e-01
v -5.368076e-01 9.632476e-02 2.751606e-01
v -5.330695e-01 9.454160e-02 2.807005e-01
v -5.310790e-01 9.459984e-02 2.879379e-01
v -5.279256e-01 9.343126e-02 2.940394e-01
v -5.241812e-01 9.164572e-02 2.995915e-01
v -5.192424e-01 8.862159e-02 3.040691e-01
v -5.142844e-01 8.559035e-02 3.085836e-01
v -5.111089e-01 8.441352e-02 3.147281e-01
v -5.073297e-01 8.261512e-02 3.203477e-01
v -5.029374e-01 8.019148e-02 3.254607e-01
v -4.991423e-01 7.838712e-02 3.311108e-01
v -4.965672e-01 7.783084e-02 3.377865e-01
v -4.933820e-01 7.665049e-02 3.439494e-01
v -4.901970e-01 7.547017e-02 3.501123e-01
v -4.882571e-01 7.554719e-02 3.572516e-01
v -4.869558e-01 7.625887e-02 3.648483e-01
v -4.863023e-01 7.760854e-02 3.728841e-01
v -4.863064e-01 7.959990e-02 3.813407e-01
v -4.863422e-01 8.160300e-02 3.897360e-01
v -4.864096e-01 8.361783e-02 3.980699e-01
v -4.858672e-01 8.500870e-02 4.058911e-01
v -4.853500e-01 8.640894e-02 4.136633e-01
v -4.861542e-01 8.909476e-02 4.222646e-01
v -4.882988e-01 9.307322e-02 4.316583e-01
v -4.885310e-01 9.514911e-02 4.396733e-01
v -4.881375e-01 9.659516e-02 4.472063e-01
v -4.897513e-01 9.997902e-02 4.559340e-01
v -4.900818e-01 1.020914e-01 4.637590e-01
v -4.904441e-01 1.042154e-01 4.715226e-01
v -4.894976e-01 1.050585e-01 4.784325e-01
v -4.885702e-01 1.059088e-01 4.853057e-01
v -4.869853e-01 1.061174e-01 4.917581e-01
v -4.854130e-01 1.063307e-01 4.981860e-01
v -4.831707e-01 1.058977e-01 5.042177e-01
v -4.809346e-01 1.054670e-01 5.102372e-01
v -4.793942e-01 1.056921e-01 5.166038e-01
v -4.778663e-01 1.059218e-01 5.229457e-01
v -4.763511e-01 1.061563e-01 5.292633e-01
v -4.755473e-01 1.070523e-01 5.358973e-01
v -4.733588e-01 1.066392e-01 5.418248e-01
v -5.714646e-01 9.910608e-02 2.042893e-01
v -5.682858e-01 9.792810e-02 2.104399e-01
v -5.656530e-01 9.735765e-02 2.172190e-01
v -5.635759e-01 9.739833e-02 2.246081e-01
v -5.615113e-01 9.744372e-02 2.319726e-01
v -5.594593e-01 9.749373e-02 2.393125e-01
v -5.579788e-01 9.816078e-02 2.472319e-01
v -5.553935e-01 9.760793e-02 2.539190e-01
v -5.528147e-01 9.705748e-02 2.605937e-01
v -5.502422e-01 9.650936e-02 2.672563e-01
v -5.476760e-01 9.596361e-02 2.739066e-01
v -5.433925e-01 9.356582e-02 2.788249e-01
v -5.402518e-01 9.240191e-02 2.849020e-01
v -5.376919e-01 9.185847e-02 2.915401e-01
v -5.351384e-01 9.131745e-02 2.981658e-01
v -5.314168e-01 8.953304e-02 3.036818e-01
v -5.265081e-01 8.649839e-02 3.081251e-01
v -5.215804e-01 8.345657e-02 3.126052e-01
v -5.184238e-01 8.228680e-02 3.187129e-01
v -5.146674e-01 8.048953e-02 3.242965e-01
v -5.109046e-01 7.868989e-02 3.298924e-01
v -5.077417e-01 7.751779e-02 3.360123e-01
v -5.051881e-01 7.697668e-02 3.426380e-01
v -5.020283e-01 7.580576e-02 3.487519e-01
v -4.994843e-01 7.526820e-02 3.553592e-01
v -4.969467e-01 7.473302e-02 3.619543e-01
v -4.956594e-01 7.547167e-02 3.694996e-01
v -4.950164e-01 7.685432e-02 3.774832e-01
v -4.950272e-01 7.888439e-02 3.858867e-01
v -4.950697e-01 8.092627e-02 3.942288e-01
v -4.951440e-01 8.297990e-02 4.025097e-01
v -4.952498e-01 8.504523e-02 4.107293e-01
v -4.947463e-01 8.647953e-02 4.184430e-01
v -4.955567e-01 8.921118e-02 4.269844e-01
v -4.951102e-01 9.066659e-02 4.345877e-01
v -4.953397e-01 9.277773e-02 4.425681e-01
v -4.962546e-01 9.554816e-02 4.509071e-01
v -4.978645e-01 9.898132e-02 4.595862e-01
v -4.981986e-01 1.011312e-01 4.673642e-01
v -4.979011e-01 1.026419e-01 4.746794e-01
v -4.969625e-01 1.035097e-01 4.815502e-01
v -4.953733e-01 1.037312e-01 4.879948e-01
v -4.931241e-01 1.033029e-01 4.940319e-01
v -4.908811e-01 1.028770e-01 5.000567e-01
v -4.879654e-01 1.017965e-01 5.056984e-01
v -4.864142e-01 1.020321e-01 5.120694e-01
v -4.848758e-01 1.022724e-01 5.184160e-01
v -4.826613e-01 1.018570e-01 5.243856e-01
v -4.818368e-01 1.027671e-01 5.310356e-01
v -4.810313e-01 1.036843e-01 5.376488e-01
v -5.752029e-01 9.321533e-02 2.050932e-01
v -5.720242e-01 9.203736e-02 2.112437e-01
v -5.699300e-01 9.208621e-02 2.186497e-01
v -5.678484e-01 9.213980e-02 2.260310e-01
v -5.663282e-01 9.281384e-02 2.340031e-01
v -5.648270e-01 9.349500e-02 2.419385e-01
v -5.633448e-01 9.418313e-02 2.498370e-01
v -5.618816e-01 9.487833e-02 2.576987e-01
v -5.598761e-01 9.496007e-02 2.649329e-01
v -5.578833e-01 9.504652e-02 2.721425e-01
v -5.553356e-01 9.451488e-02 2.787491e-01
v -5.516526e-01 9.273751e-02 2.841984e-01
v -5.479632e-01 9.095791e-02 2.896602e-01
v -5.448447e-01 8.980224e-02 2.956944e-01
v -5.423064e-01 8.927405e-02 3.022825e-01
v -5.386076e-01 8.749089e-02 3.077626e-01
v -5.331424e-01 8.381570e-02 3.116297e-01
v -5.288316e-01 8.139321e-02 3.166172e-01
v -5.256940e-01 8.023049e-02 3.226881e-01
v -5.219602e-01 7.843441e-02 3.282356e-01
v -5.188195e-01 7.727051e-02 3.343127e-01
v -5.156788e-01 7.610664e-02 3.403897e-01
v -5.119324e-01 7.430577e-02 3.459619e-01
v -5.081797e-01 7.250265e-02 3.515463e-01
v -5.062566e-01 7.261494e-02 3.586209e-01
v -5.049613e-01 7.337238e-02 3.661577e-01
v -5.043036e-01 7.477853e-02 3.741381e-01
v -5.042925e-01 7.683680e-02 3.825437e-01
v -5.036885e-01 7.826293e-02 3.904199e-01
v -5.037378e-01 8.034355e-02 3.987089e-01
v -5.038186e-01 8.243586e-02 4.069367e-01
v -5.032971e-01 8.389254e-02 4.146535e-01
v -5.034382e-01 8.600719e-02 4.227647e-01
v -5.036110e-01 8.813361e-02 4.308146e-01
v -5.038155e-01 9.027178e-02 4.388032e-01
v -5.046986e-01 9.307387e-02 4.471558e-01
v -5.049696e-01 9.523670e-02 4.550157e-01
v -5.052724e-01 9.741131e-02 4.628142e-01
v -5.056068e-01 9.959762e-02 4.705515e-01
v -5.053135e-01 1.011388e-01 4.778266e-01
v -5.037200e-01 1.013733e-01 4.842636e-01
v -5.021392e-01 1.016124e-01 4.906760e-01
v -5.005711e-01 1.018563e-01 4.970639e-01
v -4.976712e-01 1.007816e-01 5.026749e-01
v -4.947713e-01 9.970701e-02 5.082859e-01
v -4.925500e-01 9.929623e-02 5.142608e-01
v -4.896533e-01 9.822277e-02 5.198657e-01
v -4.874415e-01 9.781562e-02 5.258222e-01
v -4.859241e-01 9.807823e-02 5.321120e-01
v -4.844194e-01 9.834560e-02 5.383772e-01
v -5.762979e-01 8.676469e-02 2.126805e-01
v -5.747380e-01 8.744582e-02 2.207055e-01
v -5.731970e-01 8.813397e-02 2.286936e-01
v -5.722200e-01 8.945084e-02 2.372594e-01
v -5.718164e-01 9.139991e-02 2.463847e-01
v -5.708933e-01 9.273676e-02 2.548463e-01
v -5.699954e-01 9.408296e-02 2.632589e-01
v -5.680079e-01 9.418587e-02 2.704424e-01
v -5.660330e-01 9.429355e-02 2.776014e-01
v -5.629430e-01 9.314843e-02 2.835804e-01
v -5.598530e-01 9.200331e-02 2.895592e-01
v -5.567630e-01 9.085823e-02 2.955382e-01
v -5.536730e-01 8.971311e-02 3.015172e-01
v -5.505829e-01 8.856802e-02 3.074960e-01
v -5.463333e-01 8.615374e-02 3.123808e-01
v -5.414883e-01 8.309908e-02 3.167492e-01
v -5.366241e-01 8.003728e-02 3.211543e-01
v -5.329195e-01 7.824472e-02 3.266536e-01
v -5.298010e-01 7.708905e-02 3.326878e-01
v -5.272779e-01 7.657380e-02 3.392383e-01
v -5.247614e-01 7.606094e-02 3.457766e-01
v -5.210472e-01 7.426479e-02 3.512943e-01
v -5.173267e-01 7.246638e-02 3.568243e-01
v -5.154247e-01 7.260097e-02 3.638422e-01
v -5.141468e-01 7.338662e-02 3.713214e-01
v -5.135026e-01 7.482682e-02 3.792434e-01
v -5.135015e-01 7.692505e-02 3.875898e-01
v -5.129112e-01 7.838518e-02 3.954076e-01
v -5.129703e-01 8.050580e-02 4.036375e-01
v -5.130610e-01 8.263804e-02 4.118060e-01
v -5.125530e-01 8.412874e-02 4.194643e-01
v -5.114368e-01 8.497425e-02 4.266307e-01
v -5.116132e-01 8.713826e-02 4.346337e-01
v -5.131011e-01 9.062777e-02 4.434366e-01
v -5.133472e-01 9.281762e-02 4.513047e-01
v -5.129787e-01 9.435999e-02 4.586932e-01
v -5.132850e-01 9.657218e-02 4.664448e-01
v -5.129704e-01 9.813452e-02 4.737290e-01
v -5.126811e-01 9.970627e-02 4.809642e-01
v -5.104402e-01 9.929550e-02 4.869690e-01
v -5.088678e-01 9.955226e-02 4.933491e-01
v -5.066428e-01 9.914745e-02 4.993233e-01
v -5.037556e-01 9.807750e-02 5.049097e-01
v -5.015400e-01 9.767622e-02 5.108655e-01
v -4.986560e-01 9.660748e-02 5.164459e-01
v -4.950940e-01 9.486766e-02 5.216691e-01
v -4.915256e-01 9.312562e-02 5.269048e-01
v -4.906882e-01 9.407448e-02 5.335315e-01
v -4.878074e-01 9.300691e-02 5.391058e-01
v -5.816704e-01 8.532968e-02 2.252622e-01
v -5.828272e-01 8.917421e-02 2.363104e-01
v -5.818702e-01 9.052750e-02 2.448056e-01
v -5.814828e-01 9.251887e-02 2.538594e-01
v -5.805796e-01 9.389212e-02 2.622503e-01
v -5.797018e-01 9.527478e-02 2.705923e-01
v -5.771878e-01 9.477007e-02 2.771175e-01
v -5.741231e-01 9.363439e-02 2.830474e-01
v -5.710585e-01 9.249867e-02 2.889772e-01
v -5.679938e-01 9.136298e-02 2.949071e-01
v -5.643626e-01 8.959035e-02 3.002724e-01
v -5.612947e-01 8.845349e-02 3.062084e-01
v -5.582269e-01 8.731660e-02 3.121444e-01
v -5.545830e-01 8.553924e-02 3.175341e-01
v -5.503536e-01 8.311797e-02 3.223959e-01
v -5.461115e-01 8.069195e-02 3.272823e-01
v -5.412713e-01 7.761728e-02 3.316654e-01
v -5.375894e-01 7.582590e-02 3.371286e-01
v -5.356767e-01 7.597113e-02 3.441512e-01
v -5.325867e-01 7.482603e-02 3.501301e-01
v -5.300949e-01 7.432954e-02 3.566124e-01
v -5.276094e-01 7.383545e-02 3.630824e-01
v -5.251303e-01 7.334374e-02 3.695401e-01
v -5.238729e-01 7.415873e-02 3.769556e-01
v -5.232454e-01 7.563417e-02 3.848130e-01
v -5.226434e-01 7.711900e-02 3.926215e-01
v -5.214494e-01 7.795745e-02 3.999143e-01
v -5.215152e-01 8.011678e-02 4.080911e-01
v -5.216127e-01 8.228785e-02 4.162066e-01
v -5.211152e-01 8.381140e-02 4.238126e-01
v -5.200130e-01 8.468396e-02 4.309276e-01
v -5.208293e-01 8.754831e-02 4.393135e-01
v -5.210472e-01 8.976400e-02 4.471959e-01
v -5.206574e-01 9.132750e-02 4.545935e-01
v -5.209356e-01 9.356550e-02 4.623595e-01
v -5.212454e-01 9.581528e-02 4.700642e-01
v -5.202891e-01 9.674184e-02 4.768970e-01
v -5.186998e-01 9.700680e-02 4.832939e-01
v -5.171231e-01 9.727648e-02 4.896664e-01
v -5.155591e-01 9.755089e-02 4.960143e-01
v -5.133462e-01 9.715785e-02 5.019569e-01
v -5.098101e-01 9.542042e-02 5.071382e-01
v -5.076035e-01 9.502973e-02 5.130686e-01
v -5.040611e-01 9.328995e-02 5.182621e-01
v -4.998380e-01 9.087097e-02 5.231117e-01
v -4.962797e-01 8.912541e-02 5.283358e-01
v -4.947568e-01 8.941503e-02 5.346040e-01
v -4.918792e-01 8.834863e-02 5.401721e-01
v -5.966496e-01 9.540155e-02 2.488622e-01
v -5.946629e-01 9.553385e-02 2.560118e-01
v -5.932296e-01 9.630538e-02 2.637437e-01
v -5.918153e-01 9.708396e-02 2.714387e-01
v -5.893261e-01 9.659578e-02 2.779081e-01
v -5.862931e-01 9.547182e-02 2.837766e-01
v -5.827068e-01 9.370853e-02 2.890628e-01
v -5.791142e-01 9.194294e-02 2.943614e-01
v -5.760749e-01 9.081665e-02 3.002422e-01
v -5.724728e-01 8.904754e-02 3.055592e-01
v -5.682984e-01 8.663212e-02 3.103307e-01
v -5.652496e-01 8.550229e-02 3.162298e-01
v -5.622008e-01 8.437247e-02 3.221291e-01
v -5.580010e-01 8.194764e-02 3.269496e-01
v -5.549458e-01 8.081548e-02 3.328611e-01
v -5.507271e-01 7.838361e-02 3.377184e-01
v -5.470806e-01 7.659801e-02 3.431212e-01
v -5.440159e-01 7.546231e-02 3.490511e-01
v -5.409513e-01 7.432662e-02 3.549809e-01
v -5.384811e-01 7.384551e-02 3.614134e-01
v -5.372125e-01 7.467806e-02 3.688265e-01
v -5.347613e-01 7.420396e-02 3.752221e-01
v -5.329205e-01 7.439026e-02 3.820897e-01
v -5.316995e-01 7.524054e-02 3.894107e-01
v -5.311078e-01 7.675817e-02 3.971668e-01
v -5.305415e-01 7.828531e-02 4.048739e-01
v -5.306172e-01 8.048454e-02 4.129915e-01
v -5.301047e-01 8.203161e-02 4.205943e-01
v -5.296177e-01 8.358807e-02 4.281481e-01
v -5.291559e-01 8.515391e-02 4.356528e-01
v -5.299783e-01 8.806406e-02 4.439787e-01
v -5.295736e-01 8.965111e-02 4.513730e-01
v -5.285586e-01 9.057766e-02 4.582955e-01
v -5.288402e-01 9.285324e-02 4.660145e-01
v -5.291537e-01 9.514057e-02 4.736722e-01
v -5.282084e-01 9.609304e-02 4.804598e-01
v -5.259854e-01 9.570344e-02 4.864139e-01
v -5.244203e-01 9.599192e-02 4.927479e-01
v -5.222131e-01 9.560826e-02 4.986714e-01
v -5.193545e-01 9.454887e-02 5.042027e-01
v -5.164958e-01 9.348954e-02 5.097340e-01
v -5.129729e-01 9.174977e-02 5.148976e-01
v -5.094437e-01 9.000772e-02 5.200736e-01
v -5.052376e-01 8.758055e-02 5.249063e-01
v -5.016926e-01 8.583253e-02 5.301128e-01
v -6.087387e-01 9.993769e-02 2.595286e-01
v -6.067953e-01 1.001005e-01 2.665785e-01
v -6.037909e-01 9.898712e-02 2.723918e-01
v -6.002464e-01 9.723211e-02 2.776054e-01
v -5.977820e-01 9.676035e-02 2.840186e-01
v -5.942311e-01 9.500298e-02 2.892444e-01
v -5.906739e-01 9.324324e-02 2.944823e-01
v -5.865577e-01 9.083491e-02 2.991574e-01
v -5.835406e-01 8.971683e-02 3.049952e-01
v -5.799644e-01 8.795006e-02 3.102701e-01
v -5.763818e-01 8.618090e-02 3.155572e-01
v -5.727929e-01 8.440947e-02 3.208565e-01
v -5.697663e-01 8.328786e-02 3.267128e-01
v -5.661679e-01 8.151289e-02 3.320306e-01
v -5.619883e-01 7.908099e-02 3.368282e-01
v -5.595302e-01 7.861161e-02 3.432292e-01
v -5.553347e-01 7.617385e-02 3.480574e-01
v -5.522954e-01 7.504754e-02 3.539382e-01
v -5.504313e-01 7.523974e-02 3.608349e-01
v -5.479891e-01 7.477617e-02 3.672051e-01
v -5.461471e-01 7.497652e-02 3.740588e-01
v -5.443178e-01 7.518170e-02 3.808880e-01
v -5.425012e-01 7.539142e-02 3.876925e-01
v -5.406973e-01 7.560593e-02 3.944726e-01
v -5.401192e-01 7.715770e-02 4.021704e-01
v -5.401763e-01 7.938632e-02 4.102841e-01
v -5.402651e-01 8.162675e-02 4.183364e-01
v -5.397694e-01 8.320900e-02 4.258747e-01
v -5.392991e-01 8.480067e-02 4.333639e-01
v -5.388542e-01 8.640180e-02 4.408041e-01
v -5.390602e-01 8.868555e-02 4.486295e-01
v -5.374116e-01 8.895765e-02 4.551091e-01
v -5.364075e-01 8.991002e-02 4.619863e-01
v -5.366928e-01 9.222323e-02 4.696584e-01
v -5.363714e-01 9.387010e-02 4.768594e-01
v -5.347926e-01 9.416799e-02 4.832041e-01
v -5.332263e-01 9.447053e-02 4.895242e-01
v -5.316727e-01 9.477787e-02 4.958199e-01
v -5.288299e-01 9.372441e-02 5.013205e-01
v -5.253330e-01 9.198698e-02 5.064420e-01
v -5.224870e-01 9.093229e-02 5.119488e-01
v -5.189805e-01 8.919131e-02 5.170887e-01
v -5.148040e-01 8.676066e-02 5.218803e-01
v -5.112817e-01 8.501387e-02 5.270508e-01
v -5.084231e-01 8.395448e-02 5.325821e-01
v -6.180745e-01 1.014419e-01 2.670821e-01
v -6.156285e-01 1.009843e-01 2.734516e-01
v -6.115894e-01 9.858992e-02 2.779932e-01
v -6.075377e-01 9.619096e-02 2.825594e-01
v -6.045522e-01 9.508461e-02 2.883360e-01
v -6.015668e-01 9.397825e-02 2.941126e-01
v -5.974897e-01 9.156986e-02 2.987278e-01
v -5.939489e-01 8.980900e-02 3.039421e-01
v -5.904018e-01 8.804574e-02 3.091687e-01
v -5.868484e-01 8.628020e-02 3.144075e-01
v -5.832886e-01 8.451223e-02 3.196586e-01
v -5.808459e-01 8.405578e-02 3.260220e-01
v -5.778445e-01 8.294355e-02 3.318292e-01
v -5.737072e-01 8.051280e-02 3.365610e-01
v -5.701284e-01 7.873780e-02 3.418488e-01
v -5.676919e-01 7.828368e-02 3.482000e-01
v -5.646844e-01 7.716912e-02 3.540195e-01
v -5.616767e-01 7.605453e-02 3.598390e-01
v -5.586691e-01 7.493999e-02 3.656585e-01
v -5.562485e-01 7.449173e-02 3.719789e-01
v -5.550146e-01 7.538074e-02 3.792768e-01
v -5.537997e-01 7.627679e-02 3.865378e-01
v -5.520074e-01 7.651004e-02 3.932795e-01
v -5.502277e-01 7.674805e-02 3.999967e-01
v -5.496665e-01 7.833509e-02 4.076299e-01
v -5.497365e-01 8.060481e-02 4.156782e-01
v -5.492292e-01 8.221171e-02 4.232072e-01
v -5.493595e-01 8.450380e-02 4.311390e-01
v -5.482905e-01 8.545382e-02 4.381179e-01
v -5.472404e-01 8.641097e-02 4.450601e-01
v -5.468313e-01 8.805435e-02 4.523989e-01
v -5.458224e-01 8.902672e-02 4.592613e-01
v -5.448326e-01 9.000619e-02 4.660871e-01
v -5.444931e-01 9.167539e-02 4.732910e-01
v -5.435445e-01 9.267013e-02 4.800369e-01
v -5.419771e-01 9.298673e-02 4.863432e-01
v -5.397816e-01 9.262185e-02 4.922283e-01
v -5.382364e-01 9.294679e-02 4.984917e-01
v -5.354095e-01 9.189916e-02 5.039616e-01
v -5.325825e-01 9.085157e-02 5.094316e-01
v -5.291019e-01 8.911294e-02 5.145293e-01
v -5.256150e-01 8.737200e-02 5.196394e-01
v -5.221218e-01 8.562876e-02 5.247618e-01
v -5.186222e-01 8.388311e-02 5.298963e-01
v -6.257589e-01 1.011258e-01 2.727680e-01
v -6.222821e-01 9.938135e-02 2.778666e-01
v -6.182695e-01 9.698241e-02 2.823731e-01
v -6.142443e-01 9.457872e-02 2.869039e-01
v -6.112778e-01 9.347940e-02 2.926438e-01
v -6.072336e-01 9.106868e-02 2.972116e-01
v -6.031766e-01 8.865319e-02 3.018038e-01
v -6.001975e-01 8.754919e-02 3.075682e-01
v -5.966700e-01 8.578601e-02 3.127649e-01
v -5.931360e-01 8.402041e-02 3.179738e-01
v -5.907054e-01 8.357565e-02 3.243058e-01
v -5.882811e-01 8.313322e-02 3.306254e-01
v -5.853020e-01 8.202924e-02 3.363897e-01
v -5.817586e-01 8.026016e-02 3.416171e-01
v -5.793438e-01 7.982125e-02 3.479183e-01
v -5.775059e-01 8.005225e-02 3.547321e-01
v -5.745331e-01 7.895061e-02 3.604841e-01
v -5.709835e-01 7.717909e-02 3.657238e-01
v -5.685877e-01 7.674732e-02 3.719882e-01
v -5.661982e-01 7.631779e-02 3.782404e-01
v -5.649880e-01 7.723738e-02 3.854684e-01
v -5.637968e-01 7.816390e-02 3.926595e-01
v -5.626246e-01 7.909754e-02 3.998139e-01
v -5.608756e-01 7.936134e-02 4.064559e-01
v -5.597382e-01 8.030790e-02 4.135429e-01
v -5.586200e-01 8.126154e-02 4.205930e-01
v -5.581262e-01 8.290253e-02 4.280635e-01
v -5.576578e-01 8.455296e-02 4.354850e-01
v -5.559911e-01 8.484731e-02 4.419676e-01
v -5.543370e-01 8.514635e-02 4.484256e-01
v -5.539320e-01 8.682029e-02 4.557245e-01
v -5.535522e-01 8.850361e-02 4.629743e-01
v -5.531980e-01 9.019629e-02 4.701750e-01
v -5.522413e-01 9.120978e-02 4.769124e-01
v -5.513037e-01 9.223031e-02 4.836130e-01
v -5.491171e-01 9.187599e-02 4.894727e-01
v -5.469368e-01 9.152401e-02 4.953202e-01
v -5.454031e-01 9.186770e-02 5.015452e-01
v -5.432387e-01 9.152161e-02 5.073620e-01
v -5.397872e-01 8.978658e-02 5.124115e-01
v -5.356796e-01 8.735233e-02 5.171019e-01
v -5.322123e-01 8.561142e-02 5.221821e-01
v -5.287385e-01 8.386815e-02 5.272746e-01
v -5.259179e-01 8.282288e-02 5.327323e-01
v -6.283685e-01 9.719209e-02 2.816621e-01
v -6.243792e-01 9.478721e-02 2.861395e-01
v -6.209061e-01 9.303692e-02 2.912389e-01
v -6.168946e-01 9.062381e-02 2.957592e-01
v -6.123352e-01 8.754443e-02 2.997190e-01
v -6.082953e-01 8.512077e-02 3.042944e-01
v -6.053256e-01 8.402028e-02 3.100404e-01
v -6.029008e-01 8.358495e-02 3.163530e-01
v -5.999344e-01 8.248566e-02 3.220928e-01
v -5.975190e-01 8.205383e-02 3.283872e-01
v -5.951100e-01 8.162438e-02 3.346692e-01
v -5.927073e-01 8.119721e-02 3.409390e-01
v -5.897504e-01 8.010144e-02 3.466604e-01
v -5.879208e-01 8.034996e-02 3.534418e-01
v -5.855372e-01 7.992991e-02 3.596748e-01
v -5.825898e-01 7.883766e-02 3.653777e-01
v -5.802156e-01 7.842110e-02 3.715925e-01
v -5.784242e-01 7.868374e-02 3.783002e-01
v -5.766454e-01 7.895107e-02 3.849835e-01
v -5.742966e-01 7.854393e-02 3.911491e-01
v -5.725400e-01 7.881950e-02 3.977894e-01
v -5.713852e-01 7.978132e-02 4.048862e-01
v -5.702494e-01 8.075019e-02 4.119462e-01
v -5.685372e-01 8.104216e-02 4.185008e-01
v -5.668377e-01 8.133886e-02 4.250307e-01
v -5.657526e-01 8.232654e-02 4.319926e-01
v -5.652914e-01 8.400864e-02 4.393680e-01
v -5.636395e-01 8.432301e-02 4.458060e-01
v -5.620002e-01 8.464204e-02 4.522195e-01
v -5.616024e-01 8.634767e-02 4.594722e-01
v -5.612300e-01 8.806266e-02 4.666759e-01
v -5.608829e-01 8.978706e-02 4.738305e-01
v -5.599373e-01 9.082642e-02 4.805226e-01
v -5.590107e-01 9.187284e-02 4.871778e-01
v -5.568425e-01 9.153262e-02 4.929939e-01
v -5.546807e-01 9.119473e-02 4.987976e-01
v -5.537984e-01 9.225756e-02 5.053670e-01
v -5.522954e-01 9.262705e-02 5.115168e-01
v -5.488761e-01 9.089672e-02 5.165119e-01
v -5.435122e-01 8.705590e-02 5.204076e-01
v -5.394215e-01 8.461351e-02 5.250813e-01
v -6.333800e-01 9.373601e-02 2.842319e-01
v -6.294076e-01 9.132290e-02 2.886925e-01
v -6.254226e-01 8.890512e-02 2.931775e-01
v -6.214250e-01 8.648261e-02 2.976873e-01
v -6.179461e-01 8.472291e-02 3.028059e-01
v -6.139262e-01 8.229223e-02 3.073584e-01
v -6.109693e-01 8.119645e-02 3.130798e-01
v -6.080124e-01 8.010066e-02 3.188012e-01
v -6.055996e-01 7.967706e-02 3.250825e-01
v -6.037405e-01 7.992912e-02 3.319052e-01
v -6.018941e-01 8.018590e-02 3.387034e-01
v -5.995066e-01 7.977171e-02 3.449356e-01
v -5.965688e-01 7.868299e-02 3.506202e-01
v -5.941909e-01 7.827228e-02 3.568340e-01
v -5.918193e-01 7.786392e-02 3.630356e-01
v -5.894541e-01 7.745796e-02 3.692249e-01
v -5.876647e-01 7.773587e-02 3.759126e-01
v -5.864607e-01 7.870123e-02 3.830806e-01
v -5.841240e-01 7.830581e-02 3.892147e-01
v -5.817936e-01 7.791269e-02 3.953365e-01
v -5.806339e-01 7.889449e-02 4.024186e-01
v -5.794933e-01 7.988334e-02 4.094640e-01
v -5.777832e-01 8.019059e-02 4.159984e-01
v -5.760857e-01 8.050259e-02 4.225084e-01
v -5.744009e-01 8.081923e-02 4.289940e-01
v -5.733269e-01 8.183277e-02 4.359105e-01
v -5.722718e-01 8.285327e-02 4.427902e-01
v -5.712357e-01 8.388093e-02 4.496332e-01
v -5.702187e-01 8.491557e-02 4.564394e-01
v -5.704421e-01 8.735089e-02 4.640709e-01
v -5.706971e-01 8.979801e-02 4.716412e-01
v -5.691328e-01 9.015928e-02 4.778936e-01
v -5.675811e-01 9.052526e-02 4.841215e-01
v -5.666654e-01 9.159750e-02 4.907315e-01
v -5.645157e-01 9.127137e-02 4.965037e-01
v -5.630021e-01 9.165151e-02 5.026581e-01
v -5.621340e-01 9.274130e-02 5.091760e-01
v -6.328590e-01 8.588437e-02 2.894346e-01
v -6.294029e-01 8.412584e-02 2.945172e-01
v -6.259404e-01 8.236494e-02 2.996121e-01
v -6.224716e-01 8.060177e-02 3.047192e-01
v -6.195274e-01 7.951070e-02 3.104161e-01
v -6.165831e-01 7.841961e-02 3.161130e-01
v -6.136389e-01 7.732854e-02 3.218097e-01
v -6.117755e-01 7.759349e-02 3.286248e-01
v -6.093812e-01 7.718396e-02 3.348623e-01
v -6.075400e-01 7.745722e-02 3.416344e-01
v -6.057115e-01 7.773511e-02 3.483819e-01
v -6.027894e-01 7.665226e-02 3.540358e-01
v -6.004236e-01 7.625332e-02 3.602182e-01
v -5.997425e-01 7.791195e-02 3.679551e-01
v -5.973989e-01 7.752125e-02 3.740945e-01
v -5.950616e-01 7.713291e-02 3.802217e-01
v -5.927307e-01 7.674683e-02 3.863365e-01
v -5.915504e-01 7.774270e-02 3.934346e-01
v -5.898137e-01 7.805467e-02 4.000043e-01
v -5.880898e-01 7.837136e-02 4.065495e-01
v -5.863785e-01 7.869272e-02 4.130702e-01
v -5.846800e-01 7.901880e-02 4.195663e-01
v -5.829941e-01 7.934962e-02 4.260379e-01
v -5.819120e-01 8.038190e-02 4.329459e-01
v -5.802546e-01 8.072322e-02 4.393623e-01
v -5.792073e-01 8.176847e-02 4.462029e-01
v -5.781791e-01 8.282071e-02 4.530067e-01
v -5.777737e-01 8.458150e-02 4.602100e-01
v -5.786076e-01 8.775714e-02 4.682249e-01
v -5.782593e-01 8.953910e-02 4.753180e-01
v -5.773230e-01 9.062548e-02 4.819440e-01
v -5.751727e-01 9.030640e-02 4.877093e-01
v -5.730288e-01 8.998962e-02 4.934623e-01
v -5.715140e-01 9.038385e-02 4.996028e-01
v -5.700119e-01 9.078271e-02 5.057187e-01
v -6.368250e-01 8.112155e-02 2.907780e-01
v -6.333757e-01 7.935830e-02 2.958552e-01
v -6.304409e-01 7.827074e-02 3.015337e-01
v -6.269822e-01 7.650399e-02 3.066294e-01
v -6.240443e-01 7.541530e-02 3.123139e-01
v -6.211064e-01 7.432656e-02 3.179985e-01
v -6.192356e-01 7.460331e-02 3.248119e-01
v -6.173774e-01 7.488474e-02 3.316008e-01
v -6.149920e-01 7.448577e-02 3.378130e-01
v -6.131561e-01 7.477550e-02 3.445589e-01
v -6.113327e-01 7.506982e-02 3.512804e-01
v -6.095221e-01 7.536889e-02 3.579772e-01
v -6.071717e-01 7.498289e-02 3.641220e-01
v -6.059389e-01 7.598106e-02 3.712974e-01
v -6.036075e-01 7.560212e-02 3.774053e-01
v -6.018443e-01 7.591879e-02 3.840102e-01
v -6.000939e-01 7.624018e-02 3.905905e-01
v -5.989246e-01 7.726192e-02 3.976434e-01
v -5.972027e-01 7.759384e-02 4.041686e-01
v -5.954934e-01 7.793050e-02 4.106692e-01
v -5.943749e-01 7.897104e-02 4.176239e-01
v -5.921131e-01 7.861786e-02 4.235969e-01
v -5.898577e-01 7.826704e-02 4.295577e-01
v -5.881960e-01 7.862133e-02 4.359663e-01
v -5.859564e-01 7.827646e-02 4.418965e-01
v -5.855044e-01 8.004896e-02 4.491580e-01
v -5.850778e-01 8.183096e-02 4.563705e-01
v -5.846765e-01 8.362232e-02 4.635338e-01
v -5.861104e-01 8.754887e-02 4.719367e-01
v -5.857693e-01 8.936254e-02 4.789836e-01
v -5.842343e-01 8.976373e-02 4.851470e-01
v -5.827122e-01 9.016962e-02 4.912858e-01
v -5.805867e-01 8.986707e-02 4.969952e-01
v -6.412941e-01 7.705201e-02 2.927201e-01
v -6.378550e-01 7.528529e-02 2.977859e-01
v -6.344095e-01 7.351614e-02 3.028639e-01
v -6.314779e-01 7.242976e-02 3.085363e-01
v -6.290698e-01 7.202969e-02 3.147845e-01
v -6.261414e-01 7.094447e-02 3.204507e-01
v -6.242726e-01 7.123648e-02 3.272440e-01
v -6.224165e-01 7.153323e-02 3.340129e-01
v -6.205730e-01 7.183458e-02 3.407573e-01
v -6.182030e-01 7.144856e-02 3.469318e-01
v -6.169242e-01 7.245149e-02 3.541723e-01
v -6.151188e-01 7.276700e-02 3.608431e-01
v -6.127773e-01 7.239157e-02 3.669625e-01
v -6.109940e-01 7.271527e-02 3.735903e-01
v -6.092236e-01 7.304369e-02 3.801936e-01
v -6.080240e-01 7.407601e-02 3.872808e-01
v -6.068435e-01 7.511536e-02 3.943312e-01
v -6.051173e-01 7.546017e-02 4.008486e-01
v -6.039716e-01 7.651251e-02 4.078316e-01
v -6.022740e-01 7.686791e-02 4.142938e-01
v -6.011631e-01 7.793309e-02 4.212092e-01
v -5.989167e-01 7.759288e-02 4.271447e-01
v -5.960961e-01 7.654762e-02 4.326024e-01
v -5.932754e-01 7.550234e-02 4.380601e-01
v -5.916285e-01 7.587654e-02 4.444242e-01
v -5.911743e-01 7.767734e-02 4.516580e-01
v -5.907454e-01 7.948749e-02 4.588428e-01
v -5.909382e-01 8.202035e-02 4.664132e-01
v -5.929613e-01 8.670825e-02 4.752085e-01
v -5.938297e-01 8.998374e-02 4.830604e-01
v -5.923128e-01 9.040613e-02 4.891732e-01
v -5.895904e-01 8.939727e-02 4.944408e-01
v -6.412989e-01 6.985849e-02 2.985264e-01
v -6.388839e-01 6.946303e-02 3.047800e-01
v -6.364753e-01 6.906998e-02 3.110212e-01
v -6.340730e-01 6.867926e-02 3.172502e-01
v -6.316770e-01 6.829091e-02 3.234670e-01
v -6.292874e-01 6.790486e-02 3.296713e-01
v -6.274333e-01 6.821681e-02 3.364202e-01
v -6.261243e-01 6.923031e-02 3.436952e-01
v -6.248344e-01 7.025090e-02 3.509332e-01
v -6.230246e-01 7.057930e-02 3.575962e-01
v -6.206857e-01 7.021208e-02 3.637025e-01
v -6.188983e-01 7.054876e-02 3.703227e-01
v -6.165751e-01 7.018734e-02 3.763983e-01
v -6.153613e-01 7.123612e-02 3.834892e-01
v -6.141664e-01 7.229190e-02 3.905433e-01
v -6.129906e-01 7.335476e-02 3.975606e-01
v -6.118337e-01 7.442466e-02 4.045412e-01
v -6.101317e-01 7.479300e-02 4.109957e-01
v -6.084425e-01 7.516604e-02 4.174257e-01
v -6.067659e-01 7.554380e-02 4.238311e-01
v -6.039548e-01 7.450209e-02 4.292704e-01
v -6.005669e-01 7.274700e-02 4.342450e-01
v -5.977526e-01 7.170406e-02 4.396905e-01
v -5.966876e-01 7.280803e-02 4.464932e-01
v -5.962280e-01 7.463582e-02 4.537054e-01
v -5.957937e-01 7.647298e-02 4.608685e-01
v -5.971627e-01 8.047700e-02 4.692846e-01
v -5.985760e-01 8.449750e-02 4.776148e-01
v -6.409374e-01 6.504863e-02 3.129210e-01
v -6.380217e-01 6.396812e-02 3.185626e-01
v -6.361443e-01 6.428593e-02 3.253405e-01
v -6.342797e-01 6.460852e-02 3.320938e-01
v -6.324276e-01 6.493572e-02 3.388228e-01
v -6.316457e-01 6.667312e-02 3.466266e-01
v -6.303572e-01 6.771599e-02 3.538377e-01
v -6.290878e-01 6.876591e-02 3.610120e-01
v -6.272992e-01 6.911663e-02 3.676182e-01
v -6.249819e-01 6.876473e-02 3.736748e-01
v -6.226709e-01 6.841508e-02 3.797190e-01
v -6.214617e-01 6.948733e-02 3.867768e-01
v -6.202715e-01 7.056658e-02 3.937979e-01
v -6.196543e-01 7.236504e-02 4.012828e-01
v -6.185053e-01 7.345961e-02 4.082241e-01
v -6.173753e-01 7.456117e-02 4.151287e-01
v -6.151373e-01 7.423860e-02 4.210318e-01
v -6.129055e-01 7.391835e-02 4.269228e-01
v -6.101103e-01 7.288246e-02 4.323314e-01
v -6.067419e-01 7.112746e-02 4.372762e-01
v -6.039434e-01 7.009041e-02 4.426909e-01
v -6.023038e-01 7.049631e-02 4.490089e-01
v -6.012593e-01 7.162962e-02 4.557479e-01
v -6.014054e-01 7.421770e-02 4.633288e-01
v -6.438573e-01 5.894264e-02 3.130787e-01
v -6.424753e-01 5.997259e-02 3.204468e-01
v -6.405968e-01 6.030452e-02 3.272109e-01
v -6.392496e-01 6.134741e-02 3.345115e-01
v -6.384432e-01 6.310473e-02 3.423306e-01
v -6.376622e-01 6.487141e-02 3.501005e-01
v -6.369066e-01 6.664759e-02 3.578215e-01
v -6.356450e-01 6.772219e-02 3.649566e-01
v -6.333335e-01 6.737963e-02 3.709939e-01
v -6.310283e-01 6.703938e-02 3.770189e-01
v -6.281886e-01 6.598707e-02 3.825134e-01
v -6.264369e-01 6.636597e-02 3.890321e-01
v -6.257921e-01 6.818322e-02 3.965384e-01
v -6.246225e-01 6.929187e-02 4.034957e-01
v -6.245788e-01 7.184588e-02 4.114037e-01
v -6.240101e-01 7.369129e-02 4.187628e-01
v -6.223471e-01 7.410305e-02 4.251098e-01
v -6.195708e-01 7.307419e-02 4.304817e-01
v -6.162284e-01 7.132156e-02 4.353843e-01
v -6.128796e-01 6.956657e-02 4.402992e-01
v -6.095246e-01 6.780913e-02 4.452264e-01
v -6.073144e-01 6.750422e-02 4.510675e-01
v -6.056895e-01 6.793008e-02 4.573409e-01
v -6.464054e-01 5.529078e-02 3.217552e-01
v -6.460578e-01 5.776845e-02 3.302111e-01
v -6.462568e-01 6.096997e-02 3.391660e-01
v -6.459758e-01 6.347228e-02 3.474932e-01
v -6.452051e-01 6.527190e-02 3.552109e-01
v -6.439356e-01 6.636522e-02 3.623375e-01
v -6.416299e-01 6.603206e-02 3.683555e-01
v -6.387997e-01 6.498327e-02 3.738316e-01
v -6.365034e-01 6.465366e-02 3.798313e-01
v -6.342135e-01 6.432632e-02 3.858188e-01
v -6.319300e-01 6.400139e-02 3.917939e-01
v -6.307396e-01 6.512416e-02 3.987673e-01
v -6.301149e-01 6.697783e-02 4.062028e-01
v -6.306149e-01 7.029080e-02 4.145752e-01
v -6.300472e-01 7.216562e-02 4.219005e-01
v -6.283926e-01 7.259503e-02 4.282153e-01
v -6.256321e-01 7.157208e-02 4.335565e-01
v -6.217469e-01 6.908974e-02 4.379608e-01
v -6.178489e-01 6.660261e-02 4.423897e-01
v -6.150758e-01 6.557496e-02 4.477555e-01
v -6.123027e-01 6.454729e-02 4.531212e-01
v -6.106798e-01 6.498852e-02 4.593747e-01
v -6.542341e-01 6.211071e-02 3.449285e-01
v -6.539630e-01 6.465293e-02 3.531964e-01
v -6.503917e-01 6.544363e-02 3.663011e-01
v -6.481013e-01 6.512344e-02 3.722817e-01
v -6.447632e-01 6.335778e-02 3.771920e-01
v -6.414187e-01 6.158985e-02 3.821146e-01
v -6.386012e-01 6.054578e-02 3.875662e-01
v -6.368568e-01 6.095645e-02 3.940389e-01
v -6.362044e-01 6.282885e-02 4.014958e-01
v -6.361202e-01 6.544044e-02 4.094019e-01
v -6.366137e-01 6.879458e-02 4.177388e-01
v -6.360470e-01 7.069872e-02 4.250302e-01
v -6.344008e-01 7.114575e-02 4.313127e-01
v -6.316562e-01 7.012866e-02 4.366232e-01
v -6.272356e-01 6.690483e-02 4.405309e-01
v -6.227958e-01 6.367392e-02 4.444754e-01
v -6.194672e-01 6.191190e-02 4.493674e-01
v -6.172686e-01 6.162566e-02 4.551700e-01
v -6.590847e-01 6.490224e-02 3.643000e-01
v -6.573201e-01 6.531990e-02 3.707956e-01
v -6.545280e-01 6.428519e-02 3.761981e-01
v -6.506893e-01 6.179109e-02 3.805443e-01
v -6.440331e-01 5.825280e-02 3.903422e-01
v -6.422939e-01 5.867993e-02 3.967887e-01
v -6.399318e-01 6.101939e-02 4.106030e-01
v -6.420331e-01 6.662031e-02 4.204030e-01
v -6.403731e-01 6.707671e-02 4.266962e-01
v -6.360242e-01 6.921573e-02 4.458954e-01
