v -4.300875e-01 1.915279e-01 2.046113e-01
v -4.208802e-01 1.908044e-01 2.046113e-01
v -4.134422e-01 1.878997e-01 1.948761e-01
v -4.419762e-01 1.811414e-01 1.973428e-01
v -4.307851e-01 1.826500e-01 2.070594e-01
v -4.217622e-01 1.817022e-01 2.060878e-01
v -4.127254e-01 1.807533e-01 2.051160e-01
v -4.053795e-01 1.775494e-01 1.944279e-01
v -3.923211e-01 1.820156e-01 2.167759e-01
v -3.824011e-01 1.824301e-01 2.216342e-01
v -3.732985e-01 1.817149e-01 2.216342e-01
v -4.503090e-01 1.747603e-01 2.075678e-01
v -4.404910e-01 1.747255e-01 2.104772e-01
v -4.301391e-01 1.753855e-01 2.162961e-01
v -4.207957e-01 1.748969e-01 2.172658e-01
v -4.118222e-01 1.739462e-01 2.162961e-01
v -4.016379e-01 1.746194e-01 2.221148e-01
v -3.915372e-01 1.752991e-01 2.279335e-01
v -3.816774e-01 1.757522e-01 2.327825e-01
v -3.717373e-01 1.764446e-01 2.386014e-01
v -3.353179e-01 1.915095e-01 3.093965e-01
v -3.260969e-01 1.922583e-01 3.152154e-01
v -4.505948e-01 1.663412e-01 2.119556e-01
v -4.403902e-01 1.668010e-01 2.167953e-01
v -4.294857e-01 1.682152e-01 2.255066e-01
v -4.196342e-01 1.684505e-01 2.293784e-01
v -4.105525e-01 1.677369e-01 2.293784e-01
v -4.002702e-01 1.686954e-01 2.361541e-01
v -3.899210e-01 1.699009e-01 2.438977e-01
v -3.799987e-01 1.706353e-01 2.497052e-01
v -3.688049e-01 1.735408e-01 2.642243e-01
v -3.555226e-01 1.803198e-01 2.942305e-01
v -3.443127e-01 1.842335e-01 3.126215e-01
v -3.350535e-01 1.850199e-01 3.184290e-01
v -3.260008e-01 1.855703e-01 3.232687e-01
v -3.170178e-01 1.861262e-01 3.281085e-01
v -3.081047e-01 1.866875e-01 3.329482e-01
v -4.500506e-01 1.589203e-01 2.202001e-01
v -4.396853e-01 1.596606e-01 2.259967e-01
v -4.286318e-01 1.613832e-01 2.356576e-01
v -4.186480e-01 1.618942e-01 2.404880e-01
v -4.087340e-01 1.624108e-01 2.453184e-01
v -3.980295e-01 1.641608e-01 2.549791e-01
v -3.874646e-01 1.659218e-01 2.646400e-01
v -3.771975e-01 1.674471e-01 2.733349e-01
v -3.655448e-01 1.714546e-01 2.916904e-01
v -3.535807e-01 1.764741e-01 3.139103e-01
v -3.433094e-01 1.790355e-01 3.264695e-01
v -3.340006e-01 1.801179e-01 3.332321e-01
v -3.254056e-01 1.799608e-01 3.351643e-01
v -3.171871e-01 1.790559e-01 3.341983e-01
v -3.075345e-01 1.814067e-01 3.457912e-01
v -5.496085e-01 1.509381e-01 1.975671e-01
v -5.402616e-01 1.502037e-01 1.975671e-01
v -5.324948e-01 1.479981e-01 1.917818e-01
v -5.241315e-01 1.462774e-01 1.879248e-01
v -5.162110e-01 1.440597e-01 1.821395e-01
v -5.055405e-01 1.445507e-01 1.869607e-01
v -4.717332e-01 1.485414e-01 2.110664e-01
v -4.596959e-01 1.510521e-01 2.236014e-01
v -4.490851e-01 1.520795e-01 2.303509e-01
v -4.383714e-01 1.533648e-01 2.380648e-01
v -4.273825e-01 1.551601e-01 2.477071e-01
v -4.170927e-01 1.562128e-01 2.544566e-01
v -4.070802e-01 1.570214e-01 2.602421e-01
v -3.961161e-01 1.593505e-01 2.718127e-01
v -3.851538e-01 1.619456e-01 2.843477e-01
v -3.740558e-01 1.650619e-01 2.988111e-01
v -3.622572e-01 1.697184e-01 3.190601e-01
v -3.514751e-01 1.731254e-01 3.344877e-01
v -3.418804e-01 1.747644e-01 3.431657e-01
v -3.328033e-01 1.756465e-01 3.489512e-01
v -3.240575e-01 1.760228e-01 3.528080e-01
v -3.164182e-01 1.740931e-01 3.479868e-01
v -5.596635e-01 1.426601e-01 2.000523e-01
v -5.494832e-01 1.426781e-01 2.029394e-01
v -5.396156e-01 1.424481e-01 2.048641e-01
v -5.310952e-01 1.409606e-01 2.019771e-01
v -5.222761e-01 1.397223e-01 2.000523e-01
v -5.124293e-01 1.394939e-01 2.019771e-01
v -5.028536e-01 1.390141e-01 2.029394e-01
v -4.935276e-01 1.382813e-01 2.029394e-01
v -4.828280e-01 1.390765e-01 2.087138e-01
v -4.706581e-01 1.416648e-01 2.212246e-01
v -4.590998e-01 1.437558e-01 2.318106e-01
v -4.481111e-01 1.453463e-01 2.404721e-01
v -4.374491e-01 1.466898e-01 2.481711e-01
v -4.265107e-01 1.485569e-01 2.577948e-01
v -4.155248e-01 1.506929e-01 2.683809e-01
v -4.050525e-01 1.523240e-01 2.770421e-01
v -3.941868e-01 1.547421e-01 2.885906e-01
v -3.828239e-01 1.582118e-01 3.039886e-01
v -3.715252e-01 1.619591e-01 3.203489e-01
v -3.606160e-01 1.654645e-01 3.357469e-01
v -3.506562e-01 1.676812e-01 3.463331e-01
v -3.408501e-01 1.699099e-01 3.569192e-01
v -3.309349e-01 1.726753e-01 3.694300e-01
v -3.216984e-01 1.744035e-01 3.780914e-01
v -5.589450e-01 1.349326e-01 2.073401e-01
v -5.493547e-01 1.344585e-01 2.083006e-01
v -5.389642e-01 1.347597e-01 2.121427e-01
v -5.299517e-01 1.337722e-01 2.111823e-01
v -5.206675e-01 1.330426e-01 2.111823e-01
v -5.101313e-01 1.336119e-01 2.159848e-01
v -4.999084e-01 1.339263e-01 2.198268e-01
v -4.902142e-01 1.337235e-01 2.217479e-01
v -4.796301e-01 1.345683e-01 2.275109e-01
v -4.684620e-01 1.362057e-01 2.361557e-01
v -4.569886e-01 1.383779e-01 2.467213e-01
v -4.460859e-01 1.400361e-01 2.553660e-01
v -4.357120e-01 1.411769e-01 2.620895e-01
v -4.250467e-01 1.428538e-01 2.707343e-01
v -4.141317e-01 1.450699e-01 2.812999e-01
v -4.033703e-01 1.472980e-01 2.918657e-01
v -3.918943e-01 1.508672e-01 3.072340e-01
v -3.804749e-01 1.547202e-01 3.235628e-01
v -3.691332e-01 1.588588e-01 3.408521e-01
v -3.583482e-01 1.624823e-01 3.562204e-01
v -3.482238e-01 1.653193e-01 3.687071e-01
v -3.382809e-01 1.681706e-01 3.811938e-01
v -3.283877e-01 1.713053e-01 3.946410e-01
v -3.193139e-01 1.731072e-01 4.032857e-01
v -5.585071e-01 1.270087e-01 2.136508e-01
v -5.483864e-01 1.270721e-01 2.165267e-01
v -5.377637e-01 1.276684e-01 2.213200e-01
v -5.282708e-01 1.272087e-01 2.222786e-01
v -5.182756e-01 1.272819e-01 2.251546e-01
v -5.080714e-01 1.276249e-01 2.289893e-01
v -4.976793e-01 1.282394e-01 2.337826e-01
v -4.871198e-01 1.291268e-01 2.395345e-01
v -4.766441e-01 1.300209e-01 2.452866e-01
v -4.662522e-01 1.309216e-01 2.510385e-01
v -4.550797e-01 1.329057e-01 2.606252e-01
v -4.440470e-01 1.349009e-01 2.702118e-01
v -4.339622e-01 1.358256e-01 2.759636e-01
v -4.237661e-01 1.370279e-01 2.826744e-01
v -4.131032e-01 1.390521e-01 2.922610e-01
v -4.016742e-01 1.424471e-01 3.066409e-01
v -3.897580e-01 1.469486e-01 3.248553e-01
v -3.777725e-01 1.520171e-01 3.449872e-01
v -3.660803e-01 1.571087e-01 3.651192e-01
v -3.554474e-01 1.608524e-01 3.804578e-01
v -3.454766e-01 1.637896e-01 3.929204e-01
v -3.362445e-01 1.656400e-01 4.015482e-01
v -3.274025e-01 1.669486e-01 4.082589e-01
v -5.580649e-01 1.191386e-01 2.199464e-01
v -5.468530e-01 1.203085e-01 2.266441e-01
v -5.357387e-01 1.214860e-01 2.333418e-01
v -5.252530e-01 1.221269e-01 2.381258e-01
v -5.148371e-01 1.227734e-01 2.429098e-01
v -5.049940e-01 1.228788e-01 2.457802e-01
v -4.949484e-01 1.232614e-01 2.496073e-01
v -4.847210e-01 1.239226e-01 2.543914e-01
v -4.745635e-01 1.245893e-01 2.591754e-01
v -4.642522e-01 1.255370e-01 2.649163e-01
v -4.538080e-01 1.267671e-01 2.716139e-01
v -4.430423e-01 1.285580e-01 2.802252e-01
v -4.324023e-01 1.303587e-01 2.888364e-01
v -4.218880e-01 1.321694e-01 2.974477e-01
v -4.109333e-01 1.348243e-01 3.089294e-01
v -3.992377e-01 1.388858e-01 3.251949e-01
v -3.870806e-01 1.440831e-01 3.452880e-01
v -3.743781e-01 1.507024e-01 3.701649e-01
v -3.633245e-01 1.551074e-01 3.873874e-01
v -3.537523e-01 1.572850e-01 3.969555e-01
v -3.446133e-01 1.589107e-01 4.046099e-01
v -3.358656e-01 1.599811e-01 4.103506e-01
v -3.274673e-01 1.604932e-01 4.141779e-01
v -5.561840e-01 1.127084e-01 2.310021e-01
v -5.450311e-01 1.139303e-01 2.376866e-01
v -5.337030e-01 1.154382e-01 2.453264e-01
v -5.227525e-01 1.166759e-01 2.520109e-01
v -5.124178e-01 1.173626e-01 2.567856e-01
v -5.026569e-01 1.174949e-01 2.596506e-01
v -4.931829e-01 1.173499e-01 2.615604e-01
v -4.837369e-01 1.172072e-01 2.634703e-01
v -4.733945e-01 1.181930e-01 2.692000e-01
v -4.629117e-01 1.194676e-01 2.758846e-01
v -4.527438e-01 1.204671e-01 2.816144e-01
v -4.422394e-01 1.220397e-01 2.892540e-01
v -4.306277e-01 1.253237e-01 3.026232e-01
v -4.199962e-01 1.274858e-01 3.121727e-01
v -4.091259e-01 1.302287e-01 3.236322e-01
v -3.973297e-01 1.346973e-01 3.408213e-01
v -3.840327e-01 1.420454e-01 3.675598e-01
v -3.719678e-01 1.479916e-01 3.895237e-01
v -3.619980e-01 1.508052e-01 4.009831e-01
v -3.532758e-01 1.516185e-01 4.057577e-01
v -3.444760e-01 1.527256e-01 4.114875e-01
v -3.360407e-01 1.532617e-01 4.153072e-01
v -3.276612e-01 1.538023e-01 4.191271e-01
v -3.195904e-01 1.537676e-01 4.210370e-01
v -5.654849e-01 1.051332e-01 2.353527e-01
v -5.542934e-01 1.063994e-01 2.420242e-01
v -5.423583e-01 1.085268e-01 2.515551e-01
v -5.316566e-01 1.095250e-01 2.572738e-01
v -5.218383e-01 1.096731e-01 2.601331e-01
v -5.118024e-01 1.101106e-01 2.639454e-01
v -5.023274e-01 1.099791e-01 2.658515e-01
v -4.923892e-01 1.104243e-01 2.696640e-01
v -4.822681e-01 1.111616e-01 2.744295e-01
v -4.722170e-01 1.119044e-01 2.791950e-01
v -4.617864e-01 1.132304e-01 2.858665e-01
v -4.514535e-01 1.145641e-01 2.925381e-01
v -4.405863e-01 1.167755e-01 3.020692e-01
v -4.286366e-01 1.207408e-01 3.173186e-01
v -4.180906e-01 1.229774e-01 3.268495e-01
v -4.078738e-01 1.249333e-01 3.354275e-01
v -3.788534e-01 1.438029e-01 4.011909e-01
v -3.697072e-01 1.452298e-01 4.078624e-01
v -3.611441e-01 1.457831e-01 4.116749e-01
v -3.527917e-01 1.460463e-01 4.145341e-01
v -3.443333e-01 1.466078e-01 4.183466e-01
v -3.359309e-01 1.471736e-01 4.221588e-01
v -3.277180e-01 1.474478e-01 4.250182e-01
v -3.196740e-01 1.474288e-01 4.269243e-01
v -5.641157e-01 9.831297e-02 2.444519e-01
v -5.518174e-01 1.007929e-01 2.549156e-01
v -5.396728e-01 1.032848e-01 2.653792e-01
v -5.295998e-01 1.037464e-01 2.691840e-01
v -5.206509e-01 1.030433e-01 2.691840e-01
v -5.111817e-01 1.029258e-01 2.710865e-01
v -5.007282e-01 1.039842e-01 2.767941e-01
v -4.903585e-01 1.050491e-01 2.825015e-01
v -4.803116e-01 1.058261e-01 2.872577e-01
v -4.707990e-01 1.060185e-01 2.901113e-01
v -4.606526e-01 1.071010e-01 2.958187e-01
v -4.497173e-01 1.093747e-01 3.053311e-01
v -4.387105e-01 1.119560e-01 3.157948e-01
v -4.276529e-01 1.148467e-01 3.272095e-01
v -4.163685e-01 1.183461e-01 3.405269e-01
v -3.759311e-01 1.421119e-01 4.223333e-01
v -3.679366e-01 1.417970e-01 4.232846e-01
v -3.597939e-01 1.417837e-01 4.251871e-01
v -3.519896e-01 1.411705e-01 4.251871e-01
v -3.440371e-01 1.408589e-01 4.261382e-01
v -3.358157e-01 1.411528e-01 4.289919e-01
v -3.277706e-01 1.411472e-01 4.308944e-01
v -6.155418e-01 9.733648e-02 2.582722e-01
v -6.058344e-01 9.721381e-02 2.601710e-01
v -5.971250e-01 9.620935e-02 2.592215e-01
v -5.861867e-01 9.727030e-02 2.649179e-01
v -5.740944e-01 9.952078e-02 2.744117e-01
v -5.648639e-01 9.911550e-02 2.753610e-01
v -5.568292e-01 9.752400e-02 2.725130e-01
v -5.458677e-01 9.890314e-02 2.791586e-01
v -5.355670e-01 9.969407e-02 2.839055e-01
v -5.269832e-01 9.869948e-02 2.829560e-01
v -5.181181e-01 9.800289e-02 2.829560e-01
v -5.084711e-01 9.820505e-02 2.858042e-01
v -4.981051e-01 9.931096e-02 2.915006e-01
v -4.888095e-01 9.922064e-02 2.933992e-01
v -4.790625e-01 9.973500e-02 2.971968e-01
v -4.689060e-01 1.008573e-01 3.028930e-01
v -4.586076e-01 1.022886e-01 3.095387e-01
v -4.479694e-01 1.043333e-01 3.180833e-01
v -4.378805e-01 1.057810e-01 3.247288e-01
v -3.752862e-01 1.367098e-01 4.310595e-01
v -3.681893e-01 1.348720e-01 4.272621e-01
v -3.585937e-01 1.376387e-01 4.377053e-01
v -6.397790e-01 9.373238e-02 2.701529e-01
v -6.315058e-01 9.242859e-02 2.682577e-01
v -6.221701e-01 9.202189e-02 2.692054e-01
v -6.118347e-01 9.251707e-02 2.729954e-01
v -6.022168e-01 9.241505e-02 2.748905e-01
v -5.935987e-01 9.141099e-02 2.739429e-01
v -5.833819e-01 9.191554e-02 2.777330e-01
v -5.726010e-01 9.302944e-02 2.834181e-01
v -5.631158e-01 9.293780e-02 2.853132e-01
v -5.530665e-01 9.345555e-02 2.891034e-01
v -5.424950e-01 9.458586e-02 2.947884e-01
v -5.331354e-01 9.450413e-02 2.966836e-01
v -5.251793e-01 9.289843e-02 2.938410e-01
v -5.161088e-01 9.251251e-02 2.947884e-01
v -5.065300e-01 9.274035e-02 2.976310e-01
v -4.964848e-01 9.358522e-02 3.023686e-01
v -4.870039e-01 9.382076e-02 3.052112e-01
v -4.773245e-01 9.436758e-02 3.090014e-01
v -4.672346e-01 9.553574e-02 3.146865e-01
v -4.567761e-01 9.732864e-02 3.222667e-01
v -6.375841e-01 8.751953e-02 2.801050e-01
v -6.290155e-01 8.651267e-02 2.791594e-01
v -6.193966e-01 8.642403e-02 2.810506e-01
v -6.087905e-01 8.725868e-02 2.857790e-01
v -5.985854e-01 8.779128e-02 2.895618e-01
v -5.894097e-01 8.740385e-02 2.905073e-01
v -5.792955e-01 8.794359e-02 2.942901e-01
v -5.686160e-01 8.910605e-02 2.999640e-01
v -5.592346e-01 8.903611e-02 3.018554e-01
v -5.504741e-01 8.834773e-02 3.018554e-01
v -5.417135e-01 8.765935e-02 3.018554e-01
v -5.321053e-01 8.790520e-02 3.046924e-01
v -5.230900e-01 8.753047e-02 3.056381e-01
v -5.140889e-01 8.715679e-02 3.065838e-01
v -5.043167e-01 8.772336e-02 3.103665e-01
v -4.948550e-01 8.798073e-02 3.132035e-01
v -4.854352e-01 8.824138e-02 3.160405e-01
v -4.758166e-01 8.882002e-02 3.198232e-01
v -4.620469e-01 9.507742e-02 3.406278e-01
v -4.104519e-01 1.320573e-01 4.569451e-01
v -3.999549e-01 1.359031e-01 4.701846e-01
v -3.900512e-01 1.391282e-01 4.815326e-01
v -6.364605e-01 8.047814e-02 2.871961e-01
v -6.265157e-01 8.071783e-02 2.900275e-01
v -6.169586e-01 8.064766e-02 2.919152e-01
v -6.060736e-01 8.183461e-02 2.975780e-01
v -5.952723e-01 8.302821e-02 3.032410e-01
v -5.852048e-01 8.359863e-02 3.070161e-01
v -5.755112e-01 8.385808e-02 3.098475e-01
v -5.655484e-01 8.443680e-02 3.136229e-01
v -5.553375e-01 8.533638e-02 3.183420e-01
v -5.466816e-01 8.465623e-02 3.183420e-01
v -5.383159e-01 8.365849e-02 3.173982e-01
v -5.282376e-01 8.456849e-02 3.221172e-01
v -5.193335e-01 8.420922e-02 3.230610e-01
v -5.112510e-01 8.289331e-02 3.211733e-01
v -5.018297e-01 8.317415e-02 3.240047e-01
v -4.924501e-01 8.345829e-02 3.268362e-01
v -4.841054e-01 8.246221e-02 3.258924e-01
v -4.704395e-01 8.853642e-02 3.457124e-01
v -4.652657e-01 8.336456e-02 3.324992e-01
v -4.287603e-01 1.223631e-01 4.485882e-01
v -4.184242e-01 1.256356e-01 4.599139e-01
v -4.088958e-01 1.279503e-01 4.684081e-01
v -3.988739e-01 1.312474e-01 4.797340e-01
v -3.896177e-01 1.335835e-01 4.882282e-01
v -6.338900e-01 7.477930e-02 2.980365e-01
v -6.229460e-01 7.600229e-02 3.036882e-01
v -6.124322e-01 7.691192e-02 3.083980e-01
v -6.026673e-01 7.718609e-02 3.112239e-01
v -5.922790e-01 7.810559e-02 3.159337e-01
v -5.816351e-01 7.935213e-02 3.215853e-01
v -5.723493e-01 7.931679e-02 3.234692e-01
v -5.637144e-01 7.863828e-02 3.234692e-01
v -5.538612e-01 7.925271e-02 3.272371e-01
v -5.443614e-01 7.954771e-02 3.300630e-01
v -5.354848e-01 7.919732e-02 3.310049e-01
v -5.263386e-01 7.917295e-02 3.328888e-01
v -5.174968e-01 7.882535e-02 3.338307e-01
v -5.092085e-01 7.782692e-02 3.328888e-01
v -5.001179e-01 7.780697e-02 3.347728e-01
v -4.913111e-01 7.746208e-02 3.357146e-01
v -4.344530e-01 1.191660e-01 4.609949e-01
v -4.252427e-01 1.208723e-01 4.675886e-01
v -4.167925e-01 1.215970e-01 4.713566e-01
v -4.073292e-01 1.239777e-01 4.798341e-01
v -3.975776e-01 1.270302e-01 4.901956e-01
v -3.893788e-01 1.277746e-01 4.939635e-01
v -6.172397e-01 7.340500e-02 3.229449e-01
v -6.065019e-01 7.468478e-02 3.285854e-01
v -5.961879e-01 7.564399e-02 3.332859e-01
v -5.866098e-01 7.595315e-02 3.361062e-01
v -5.764214e-01 7.692222e-02 3.408067e-01
v -5.678983e-01 7.625250e-02 3.408067e-01
v -5.606234e-01 7.426519e-02 3.370464e-01
v -5.517673e-01 7.392319e-02 3.379864e-01
v -5.414343e-01 7.523485e-02 3.436271e-01
v -5.329321e-01 7.456678e-02 3.436271e-01
v -5.244299e-01 7.389870e-02 3.436271e-01
v -5.148189e-01 7.455917e-02 3.473874e-01
v -5.052638e-01 7.522411e-02 3.511479e-01
v -4.442790e-01 1.210437e-01 4.855824e-01
v -4.375576e-01 1.194538e-01 4.827621e-01
v -4.305591e-01 1.181960e-01 4.808819e-01
v -4.230760e-01 1.176080e-01 4.808819e-01
v -4.149289e-01 1.180296e-01 4.837022e-01
v -4.059663e-01 1.198029e-01 4.902829e-01
v -6.076148e-01 7.471126e-02 3.524554e-01
v -5.988139e-01 7.438046e-02 3.533937e-01
v -5.879837e-01 7.605430e-02 3.599613e-01
v -5.785855e-01 7.639797e-02 3.627762e-01
v -5.708620e-01 7.506968e-02 3.608997e-01
v -5.624716e-01 7.441039e-02 3.608997e-01
v -5.537684e-01 7.408717e-02 3.618378e-01
v -5.459962e-01 7.275505e-02 3.599613e-01
v -5.387933e-01 7.074632e-02 3.562085e-01
v -5.312428e-01 6.907093e-02 3.533937e-01
v -4.499804e-01 1.175119e-01 4.960068e-01
v -4.428449e-01 1.165906e-01 4.950687e-01
v -4.349669e-01 1.166929e-01 4.969452e-01
v -4.278244e-01 1.157709e-01 4.960068e-01
v -4.208968e-01 1.145052e-01 4.941303e-01
v -4.134974e-01 1.139238e-01 4.941303e-01
v -4.052385e-01 1.147177e-01 4.978834e-01
v -6.105544e-01 7.298800e-02 3.706217e-01
v -6.004446e-01 7.403097e-02 3.753037e-01
v -5.900564e-01 7.541950e-02 3.809219e-01
v -5.824807e-01 7.408927e-02 3.790491e-01
v -5.728724e-01 7.480417e-02 3.827947e-01
v -5.662640e-01 7.244754e-02 3.781127e-01
v -4.477096e-01 1.142106e-01 5.082709e-01
v -4.411520e-01 1.125928e-01 5.054616e-01
v -4.338225e-01 1.120169e-01 5.054616e-01
v -4.257839e-01 1.124877e-01 5.082709e-01
v -4.189341e-01 1.112145e-01 5.063981e-01
v -4.120563e-01 1.099392e-01 5.045253e-01
v -6.061102e-01 6.979202e-02 3.859211e-01
v -5.939621e-01 7.295417e-02 3.962011e-01
v -5.816189e-01 7.647519e-02 4.074154e-01
v -4.174197e-01 1.073595e-01 5.167558e-01
v -4.101599e-01 1.067891e-01 5.167558e-01
v -5.239087e-01 9.496725e-02 4.851096e-01
v -5.141982e-01 9.687139e-02 4.916385e-01
v -5.064289e-01 9.664186e-02 4.925711e-01
v -5.989986e-01 8.660034e-02 4.703519e-01
v -5.947600e-01 8.277723e-02 4.619747e-01
v -5.866899e-01 8.253090e-02 4.629055e-01
v -5.731798e-01 8.767389e-02 4.777985e-01
v -5.613196e-01 9.139546e-02 4.889685e-01
v -5.538225e-01 9.080637e-02 4.889685e-01
v -5.456401e-01 9.093899e-02 4.908301e-01
v -5.371500e-01 9.143524e-02 4.936226e-01
v -5.273869e-01 9.338261e-02 5.001383e-01
v -5.199737e-01 9.280010e-02 5.001383e-01
v -5.119310e-01 9.294367e-02 5.019999e-01
v -5.033006e-01 9.381672e-02 5.057233e-01
v -5.930309e-01 8.543001e-02 4.881750e-01
v -5.851349e-01 8.520409e-02 4.891038e-01
v -5.787372e-01 8.351773e-02 4.863170e-01
v -5.682922e-01 8.585345e-02 4.937486e-01
v -5.590304e-01 8.709848e-02 4.983935e-01
v -5.512390e-01 8.688086e-02 4.993225e-01
v -5.431184e-01 8.703188e-02 5.011804e-01
v -5.343533e-01 8.792142e-02 5.048963e-01
v -5.249856e-01 8.955266e-02 5.104700e-01
v -5.166685e-01 9.008280e-02 5.132569e-01
v -5.087083e-01 9.024645e-02 5.151148e-01
v -5.001597e-01 9.115302e-02 5.188308e-01
v -5.936005e-01 7.818094e-02 4.901739e-01
v -5.845682e-01 7.907652e-02 4.938822e-01
v -5.560173e-01 8.365580e-02 5.096432e-01
v -5.479446e-01 8.382413e-02 5.114974e-01
v -5.402434e-01 8.362029e-02 5.124244e-01
v -5.318828e-01 8.416734e-02 5.152057e-01
v -5.235639e-01 8.471770e-02 5.179872e-01
v -5.152871e-01 8.527137e-02 5.207685e-01
v -5.070520e-01 8.582827e-02 5.235498e-01
v -4.976237e-01 8.789675e-02 5.300396e-01
v -5.544267e-01 7.882782e-02 5.171545e-01
v -5.460434e-01 7.939344e-02 5.199304e-01
v -5.383906e-01 7.920023e-02 5.208557e-01
v -3.288560e-01 2.046201e-01 2.872540e-01
v -3.254236e-01 2.033481e-01 2.938952e-01
v -3.363248e-01 1.995314e-01 2.814808e-01
v -3.177706e-01 1.884115e-01 2.772873e-01
v -3.294602e-01 1.969876e-01 2.947632e-01
v -3.260279e-01 1.957156e-01 3.014044e-01
v -3.225956e-01 1.944436e-01 3.080456e-01
v -3.191632e-01 1.931717e-01 3.146869e-01
v -3.157310e-01 1.918998e-01 3.213281e-01
v -3.130379e-01 1.911039e-01 3.284486e-01
v -3.088663e-01 1.893559e-01 3.346105e-01
v -3.352096e-01 1.877027e-01 2.599962e-01
v -3.374035e-01 1.901906e-01 2.709610e-01
v -3.382217e-01 1.917499e-01 2.807850e-01
v -3.369290e-01 1.918989e-01 2.889899e-01
v -3.349358e-01 1.915789e-01 2.966492e-01
v -3.322326e-01 1.907866e-01 3.037810e-01
v -3.288098e-01 1.895182e-01 3.104039e-01
v -3.246579e-01 1.877702e-01 3.165360e-01
v -3.212319e-01 1.865006e-01 3.231650e-01
v -3.178059e-01 1.852310e-01 3.297940e-01
v -3.129029e-01 1.829953e-01 3.354785e-01
v -3.371959e-01 1.787261e-01 2.498215e-01
v -3.379032e-01 1.802878e-01 2.598124e-01
v -3.400610e-01 1.828203e-01 2.707829e-01
v -3.422695e-01 1.853716e-01 2.816553e-01
v -3.416783e-01 1.860190e-01 2.903723e-01
v -3.403966e-01 1.861939e-01 2.985320e-01
v -3.369770e-01 1.849266e-01 3.051487e-01
v -3.342794e-01 1.841436e-01 3.122613e-01
v -3.308629e-01 1.828775e-01 3.188719e-01
v -3.281751e-01 1.820981e-01 3.259661e-01
v -3.240300e-01 1.803453e-01 3.320930e-01
v -3.191440e-01 1.781015e-01 3.377608e-01
v -3.127692e-01 1.748726e-01 3.425224e-01
v -3.078514e-01 1.726170e-01 3.482515e-01
v -3.114224e-01 1.789223e-01 3.848861e-01
v -3.103245e-01 1.791653e-01 3.926901e-01
v -3.441440e-01 1.730392e-01 2.433707e-01
v -3.434144e-01 1.736643e-01 2.523237e-01
v -3.441086e-01 1.752647e-01 2.622913e-01
v -3.462462e-01 1.778478e-01 2.732370e-01
v -3.470230e-01 1.794789e-01 2.830453e-01
v -3.464200e-01 1.801508e-01 2.917529e-01
v -3.451302e-01 1.803444e-01 2.999041e-01
v -3.431443e-01 1.800562e-01 3.075172e-01
v -3.411710e-01 1.797728e-01 3.151059e-01
v -3.384887e-01 1.790026e-01 3.221808e-01
v -3.358130e-01 1.782349e-01 3.292436e-01
v -3.324155e-01 1.769758e-01 3.358174e-01
v -3.268248e-01 1.742324e-01 3.409793e-01
v -3.212150e-01 1.714819e-01 3.461781e-01
v -3.180064e-01 1.734270e-01 3.787796e-01
v -3.176347e-01 1.741847e-01 3.870395e-01
v -3.165352e-01 1.744489e-01 3.948228e-01
v -3.600880e-01 1.725205e-01 2.345478e-01
v -3.559093e-01 1.707408e-01 2.407561e-01
v -3.531029e-01 1.699320e-01 2.480633e-01
v -3.516879e-01 1.701009e-01 2.564327e-01
v -3.516832e-01 1.712548e-01 2.658277e-01
v -3.531080e-01 1.734006e-01 2.762114e-01
v -3.531731e-01 1.745803e-01 2.854715e-01
v -3.518595e-01 1.747869e-01 2.936448e-01
v -3.505648e-01 1.750005e-01 3.017813e-01
v -3.500009e-01 1.757159e-01 3.103815e-01
v -3.480328e-01 1.754489e-01 3.179439e-01
v -3.453596e-01 1.746893e-01 3.249936e-01
v -3.426926e-01 1.739321e-01 3.320309e-01
v -3.400321e-01 1.731773e-01 3.390563e-01
v -3.351958e-01 1.709228e-01 3.446598e-01
v -3.303467e-01 1.686636e-01 3.502877e-01
v -3.284199e-01 1.684118e-01 3.577705e-01
v -3.279794e-01 1.691731e-01 3.661315e-01
v -3.275643e-01 1.699437e-01 3.744434e-01
v -3.256882e-01 1.697107e-01 3.818281e-01
v -3.245711e-01 1.699901e-01 3.896211e-01
v -3.227235e-01 1.697676e-01 3.969505e-01
v -3.208885e-01 1.695499e-01 4.042554e-01
v -4.037559e-01 1.861912e-01 2.018758e-01
v -4.023170e-01 1.863731e-01 2.102674e-01
v -3.874977e-01 1.780209e-01 2.165115e-01
v -3.833797e-01 1.762565e-01 2.226100e-01
v -3.785825e-01 1.740020e-01 2.281538e-01
v -3.717444e-01 1.702760e-01 2.320391e-01
v -3.669124e-01 1.680087e-01 2.376504e-01
v -3.647973e-01 1.677016e-01 2.454811e-01
v -3.640664e-01 1.683843e-01 2.543724e-01
v -3.626718e-01 1.685825e-01 2.626781e-01
v -3.612963e-01 1.687879e-01 2.709471e-01
v -3.606351e-01 1.694964e-01 2.797036e-01
v -3.599989e-01 1.702141e-01 2.884109e-01
v -3.586870e-01 1.704431e-01 2.965573e-01
v -3.580984e-01 1.711784e-01 3.051726e-01
v -3.568275e-01 1.714226e-01 3.132392e-01
v -3.541538e-01 1.706701e-01 3.202820e-01
v -3.514863e-01 1.699199e-01 3.273125e-01
v -3.495425e-01 1.696764e-01 3.348121e-01
v -3.476113e-01 1.694375e-01 3.422871e-01
v -3.435219e-01 1.676836e-01 3.483305e-01
v -3.394263e-01 1.659275e-01 3.543863e-01
v -3.375141e-01 1.656957e-01 3.618244e-01
v -3.363478e-01 1.659786e-01 3.696887e-01
v -3.359367e-01 1.667797e-01 3.779606e-01
v -3.333328e-01 1.660531e-01 3.848685e-01
v -3.314777e-01 1.658424e-01 3.921962e-01
v -3.296351e-01 1.656363e-01 3.994995e-01
v -3.278054e-01 1.654350e-01 4.067782e-01
v -3.244840e-01 1.642041e-01 4.132049e-01
v -3.204074e-01 1.624551e-01 4.192238e-01
v -3.185998e-01 1.622620e-01 4.264597e-01
v -4.163986e-01 1.850139e-01 2.009487e-01
v -4.097375e-01 1.813173e-01 2.045315e-01
v -4.050144e-01 1.790757e-01 2.099481e-01
v -3.996189e-01 1.763393e-01 2.148045e-01
v -3.948671e-01 1.740872e-01 2.202763e-01
v -3.901029e-01 1.718304e-01 2.257726e-01
v -3.853258e-01 1.695689e-01 2.312935e-01
v -3.798637e-01 1.668079e-01 2.362787e-01
v -3.764092e-01 1.655277e-01 2.429629e-01
v -3.749909e-01 1.657390e-01 2.512908e-01
v -3.742733e-01 1.664555e-01 2.601236e-01
v -3.728962e-01 1.666822e-01 2.683719e-01
v -3.701617e-01 1.659144e-01 2.755242e-01
v -3.681249e-01 1.656508e-01 2.831877e-01
v -3.674896e-01 1.663979e-01 2.918612e-01
v -3.668801e-01 1.671545e-01 3.004856e-01
v -3.648939e-01 1.669098e-01 3.080510e-01
v -3.622163e-01 1.661631e-01 3.150928e-01
v -3.602524e-01 1.659266e-01 3.226154e-01
v -3.583011e-01 1.656948e-01 3.301133e-01
v -3.570761e-01 1.659777e-01 3.380671e-01
v -3.558701e-01 1.662676e-01 3.459842e-01
v -3.518034e-01 1.645150e-01 3.519917e-01
v -3.477304e-01 1.627599e-01 3.580113e-01
v -3.458299e-01 1.625469e-01 3.654111e-01
v -3.446713e-01 1.628545e-01 3.732362e-01
v -3.435319e-01 1.631691e-01 3.810245e-01
v -3.409399e-01 1.624542e-01 3.879010e-01
v -3.383543e-01 1.617416e-01 3.947650e-01
v -3.357751e-01 1.610315e-01 4.016169e-01
v -3.332021e-01 1.603236e-01 4.084565e-01
v -3.291386e-01 1.585721e-01 4.144579e-01
v -3.243172e-01 1.562942e-01 4.200646e-01
v -3.179735e-01 1.529608e-01 4.248943e-01
v -4.276446e-01 1.829292e-01 1.988902e-01
v -4.223298e-01 1.802011e-01 2.036140e-01
v -4.156969e-01 1.764786e-01 2.071824e-01
v -4.109908e-01 1.742289e-01 2.125822e-01
v -4.069278e-01 1.724703e-01 2.185904e-01
v -4.028587e-01 1.707095e-01 2.246110e-01
v -3.987829e-01 1.689463e-01 2.306438e-01
v -3.947011e-01 1.671807e-01 2.366888e-01
v -3.892755e-01 1.644115e-01 2.416274e-01
v -3.865181e-01 1.636425e-01 2.488157e-01
v -3.844422e-01 1.633790e-01 2.565389e-01
v -3.830569e-01 1.636243e-01 2.647785e-01
v -3.810095e-01 1.633713e-01 2.724466e-01
v -3.782902e-01 1.626165e-01 2.795613e-01
v -3.755773e-01 1.618640e-01 2.866638e-01
v -3.742523e-01 1.621317e-01 2.947870e-01
v -3.729463e-01 1.624063e-01 3.028733e-01
v -3.709624e-01 1.621769e-01 3.104188e-01
v -3.689909e-01 1.619521e-01 3.179395e-01
v -3.670321e-01 1.617319e-01 3.254358e-01
v -3.650860e-01 1.615165e-01 3.329076e-01
v -3.645725e-01 1.623377e-01 3.413142e-01
v -3.626580e-01 1.621340e-01 3.487247e-01
v -3.593240e-01 1.608985e-01 3.551758e-01
v -3.559899e-01 1.596630e-01 3.616269e-01
v -3.541009e-01 1.594687e-01 3.689883e-01
v -3.522246e-01 1.592791e-01 3.763251e-01
v -3.503609e-01 1.590943e-01 3.836375e-01
v -3.485099e-01 1.589141e-01 3.909253e-01
v -3.466716e-01 1.587386e-01 3.981886e-01
v -3.433693e-01 1.575148e-01 4.045784e-01
v -3.385839e-01 1.552357e-01 4.101315e-01
v -3.345304e-01 1.534806e-01 4.161214e-01
v -3.289748e-01 1.506632e-01 4.213113e-01
v -3.218982e-01 1.467764e-01 4.257382e-01
v -4.375348e-01 1.799090e-01 1.956679e-01
v -4.328930e-01 1.776686e-01 2.009590e-01
v -4.282387e-01 1.754236e-01 2.062746e-01
v -4.229257e-01 1.726742e-01 2.110192e-01
v -4.182429e-01 1.704186e-01 2.163900e-01
v -4.135473e-01 1.681583e-01 2.217853e-01
v -4.101498e-01 1.668992e-01 2.283592e-01
v -4.060937e-01 1.651360e-01 2.343619e-01
v -4.026931e-01 1.638758e-01 2.409418e-01
v -3.979628e-01 1.616026e-01 2.464046e-01
v -3.945558e-01 1.603400e-01 2.529968e-01
v -3.924913e-01 1.600952e-01 2.606816e-01
v -3.904396e-01 1.598551e-01 2.683418e-01
v -3.877229e-01 1.591085e-01 2.754436e-01
v -3.850126e-01 1.583643e-01 2.825329e-01
v -3.823085e-01 1.576223e-01 2.896100e-01
v -3.802979e-01 1.573975e-01 2.971907e-01
v -3.783002e-01 1.571775e-01 3.047467e-01
v -3.777017e-01 1.579962e-01 3.132850e-01
v -3.757356e-01 1.577879e-01 3.207796e-01
v -3.730823e-01 1.570648e-01 3.277588e-01
v -3.711382e-01 1.568646e-01 3.352105e-01
v -3.699131e-01 1.571910e-01 3.431166e-01
v -3.687069e-01 1.575245e-01 3.509860e-01
v -3.668073e-01 1.573408e-01 3.583519e-01
v -3.634891e-01 1.561111e-01 3.647724e-01
v -3.616084e-01 1.559344e-01 3.721014e-01
v -3.597405e-01 1.557625e-01 3.794061e-01
v -3.571601e-01 1.550664e-01 3.862441e-01
v -3.560427e-01 1.554327e-01 3.939418e-01
v -3.549443e-01 1.558060e-01 4.016026e-01
v -3.501916e-01 1.535245e-01 4.071082e-01
v -3.446885e-01 1.507048e-01 4.122209e-01
v -3.399073e-01 1.484127e-01 4.177817e-01
v -3.351134e-01 1.461159e-01 4.233671e-01
v -3.303070e-01 1.438145e-01 4.289770e-01
v -3.292402e-01 1.441996e-01 4.365765e-01
v -4.454814e-01 1.754244e-01 1.906310e-01
v -4.421220e-01 1.741794e-01 1.971312e-01
v -4.381268e-01 1.724315e-01 2.030246e-01
v -4.334861e-01 1.701770e-01 2.083294e-01
v -4.294751e-01 1.684233e-01 2.142535e-01
v -4.254577e-01 1.666671e-01 2.201898e-01
v -4.214339e-01 1.649085e-01 2.261382e-01
v -4.174038e-01 1.631477e-01 2.320992e-01
v -4.133673e-01 1.613844e-01 2.380721e-01
v -4.106406e-01 1.606414e-01 2.451853e-01
v -4.059367e-01 1.583634e-01 2.506128e-01
v -4.018843e-01 1.565943e-01 2.566166e-01
v -3.991608e-01 1.558524e-01 2.637236e-01
v -3.964435e-01 1.551128e-01 2.708183e-01
v -3.937326e-01 1.543756e-01 2.779009e-01
v -3.910280e-01 1.536407e-01 2.849710e-01
v -3.883299e-01 1.529083e-01 2.920290e-01
v -3.863213e-01 1.526987e-01 2.995896e-01
v -3.850119e-01 1.530156e-01 3.076343e-01
v -3.837218e-01 1.533397e-01 3.156423e-01
v -3.817576e-01 1.531466e-01 3.231170e-01
v -3.791101e-01 1.524329e-01 3.300768e-01
v -3.764688e-01 1.517215e-01 3.370244e-01
v -3.752388e-01 1.520678e-01 3.449158e-01
v -3.747334e-01 1.529501e-01 3.532425e-01
v -3.721271e-01 1.522516e-01 3.601226e-01
v -3.695271e-01 1.515555e-01 3.669905e-01
v -3.690786e-01 1.524589e-01 3.752066e-01
v -3.672191e-01 1.523045e-01 3.824790e-01
v -3.653723e-01 1.521550e-01 3.897268e-01
v -3.635381e-01 1.520100e-01 3.969501e-01
v -3.609888e-01 1.513327e-01 4.037199e-01
v -3.569840e-01 1.495813e-01 4.096316e-01
v -3.522389e-01 1.472880e-01 4.151388e-01
v -3.467437e-01 1.444495e-01 4.202601e-01
v -3.419701e-01 1.421456e-01 4.258225e-01
v -3.379273e-01 1.403801e-01 4.318078e-01
v -3.331314e-01 1.380680e-01 4.374132e-01
v -3.328223e-01 1.390230e-01 4.453595e-01
v -4.509238e-01 1.689277e-01 1.831071e-01
v -4.494322e-01 1.691988e-01 1.914805e-01
v -4.467018e-01 1.684617e-01 1.985930e-01
v -4.427133e-01 1.667090e-01 2.044809e-01
v -4.387187e-01 1.649540e-01 2.103812e-01
v -4.347177e-01 1.631967e-01 2.162938e-01
v -4.307103e-01 1.614370e-01 2.222185e-01
v -4.273414e-01 1.601885e-01 2.287371e-01
v -4.246205e-01 1.594549e-01 2.358312e-01
v -4.206035e-01 1.576916e-01 2.417743e-01
v -4.165804e-01 1.559261e-01 2.477298e-01
v -4.118934e-01 1.536399e-01 2.531405e-01
v -4.085149e-01 1.523878e-01 2.596774e-01
v -4.051364e-01 1.511359e-01 2.662144e-01
v -4.024251e-01 1.504058e-01 2.732901e-01
v -3.997200e-01 1.496780e-01 2.803534e-01
v -3.983678e-01 1.500008e-01 2.884569e-01
v -3.956816e-01 1.492800e-01 2.954835e-01
v -3.936815e-01 1.490881e-01 3.030118e-01
v -3.910113e-01 1.483733e-01 3.100076e-01
v -3.890333e-01 1.481895e-01 3.174930e-01
v -3.870681e-01 1.480105e-01 3.249538e-01
v -3.851156e-01 1.478363e-01 3.323902e-01
v -3.831756e-01 1.476666e-01 3.398020e-01
v -3.812485e-01 1.475017e-01 3.471892e-01
v -3.800357e-01 1.478763e-01 3.550231e-01
v -3.767270e-01 1.466501e-01 3.614251e-01
v -3.748347e-01 1.464981e-01 3.687449e-01
v -3.750890e-01 1.479656e-01 3.773984e-01
v -3.739461e-01 1.483660e-01 3.850973e-01
v -3.721043e-01 1.482327e-01 3.923189e-01
v -3.702753e-01 1.481042e-01 3.995161e-01
v -3.677351e-01 1.474376e-01 4.062606e-01
v -3.644739e-01 1.462290e-01 4.125707e-01
v -3.597521e-01 1.439300e-01 4.180489e-01
v -3.557509e-01 1.421725e-01 4.239613e-01
v -3.510069e-01 1.398653e-01 4.294825e-01
v -3.469900e-01 1.381020e-01 4.354257e-01
v -3.437098e-01 1.368864e-01 4.417726e-01
v -3.411759e-01 1.362221e-01 4.485048e-01
v -4.484035e-01 1.557720e-01 1.673642e-01
v -4.536482e-01 1.616621e-01 1.827118e-01
v -4.533831e-01 1.629733e-01 1.923300e-01
v -4.518994e-01 1.632692e-01 2.006644e-01
v -4.479210e-01 1.615129e-01 2.065409e-01
v -4.439365e-01 1.597545e-01 2.124298e-01
v -4.405802e-01 1.585108e-01 2.189239e-01
v -4.372240e-01 1.572670e-01 2.254179e-01
v -4.338678e-01 1.560232e-01 2.319120e-01
v -4.305115e-01 1.547795e-01 2.384061e-01
v -4.258604e-01 1.524921e-01 2.437631e-01
v -4.224978e-01 1.512459e-01 2.502694e-01
v -4.184815e-01 1.494758e-01 2.562196e-01
v -4.144588e-01 1.477031e-01 2.621820e-01
v -4.117500e-01 1.469812e-01 2.692445e-01
v -4.090475e-01 1.462615e-01 2.762947e-01
v -4.063513e-01 1.455443e-01 2.833326e-01
v -4.043310e-01 1.453594e-01 2.908838e-01
v -4.023235e-01 1.451793e-01 2.984106e-01
v -3.996526e-01 1.444714e-01 3.053995e-01
v -3.963091e-01 1.432324e-01 3.118690e-01
v -3.936479e-01 1.425281e-01 3.188396e-01
v -3.916783e-01 1.423620e-01 3.262926e-01
v -3.904100e-01 1.427377e-01 3.342100e-01
v -3.891608e-01 1.431204e-01 3.420904e-01
v -3.872356e-01 1.429708e-01 3.494577e-01
v -3.853231e-01 1.428259e-01 3.568004e-01
v -3.834233e-01 1.426856e-01 3.641186e-01
v -3.815362e-01 1.425501e-01 3.714122e-01
v -3.810770e-01 1.435075e-01 3.795853e-01
v -3.792215e-01 1.433837e-01 3.868176e-01
v -3.780927e-01 1.438111e-01 3.944652e-01
v -3.769829e-01 1.442455e-01 4.020758e-01
v -3.758921e-01 1.446870e-01 4.096496e-01
v -3.726500e-01 1.434855e-01 4.159229e-01
v -3.679545e-01 1.411816e-01 4.213659e-01
v -3.639762e-01 1.394256e-01 4.272426e-01
v -3.599916e-01 1.376670e-01 4.331313e-01
v -3.567367e-01 1.364608e-01 4.394291e-01
v -3.556999e-01 1.369223e-01 4.468988e-01
v -3.517121e-01 1.351625e-01 4.527937e-01
v -4.573210e-01 1.535623e-01 1.732606e-01
v -4.582328e-01 1.559243e-01 1.841882e-01
v -4.573339e-01 1.567478e-01 1.931796e-01
v -4.558390e-01 1.570613e-01 2.015115e-01
v -4.537383e-01 1.568611e-01 2.092022e-01
v -4.503947e-01 1.556220e-01 2.156717e-01
v -4.464203e-01 1.538601e-01 2.215491e-01
v -4.430735e-01 1.526198e-01 2.280247e-01
v -4.403640e-01 1.519049e-01 2.350803e-01
v -4.363801e-01 1.501394e-01 2.409760e-01
v -4.330334e-01 1.488991e-01 2.474517e-01
v -4.296866e-01 1.476589e-01 2.539273e-01
v -4.256899e-01 1.458886e-01 2.598476e-01
v -4.216867e-01 1.441160e-01 2.657801e-01
v -4.189901e-01 1.434058e-01 2.728112e-01
v -4.156401e-01 1.421644e-01 2.792929e-01
v -4.122902e-01 1.409230e-01 2.857748e-01
v -4.096062e-01 1.402175e-01 2.927812e-01
v -4.069284e-01 1.395143e-01 2.997754e-01
v -4.042572e-01 1.388136e-01 3.067575e-01
v -4.015920e-01 1.381150e-01 3.137271e-01
v -3.982548e-01 1.368784e-01 3.201844e-01
v -3.962811e-01 1.367253e-01 3.276298e-01
v -3.956896e-01 1.376627e-01 3.360265e-01
v -3.944355e-01 1.380654e-01 3.438924e-01
v -3.925093e-01 1.379299e-01 3.512457e-01
v -3.905956e-01 1.377990e-01 3.585745e-01
v -3.893923e-01 1.382206e-01 3.663423e-01
v -3.882079e-01 1.386491e-01 3.740732e-01
v -3.870426e-01 1.390847e-01 3.817674e-01
v -3.858962e-01 1.395274e-01 3.894247e-01
v -3.847689e-01 1.399770e-01 3.970452e-01
v -3.836606e-01 1.404337e-01 4.046289e-01
v -3.818547e-01 1.403428e-01 4.117493e-01
v -3.793418e-01 1.397008e-01 4.184247e-01
v -3.768353e-01 1.390611e-01 4.250878e-01
v -3.736090e-01 1.378655e-01 4.313305e-01
v -3.703827e-01 1.366699e-01 4.375731e-01
v -3.686212e-01 1.365954e-01 4.446075e-01
v -3.683435e-01 1.376491e-01 4.523971e-01
v -3.710462e-01 1.409639e-01 4.616724e-01
v -3.827026e-01 1.510666e-01 4.753800e-01
v -4.637458e-01 1.493595e-01 1.766317e-01
v -4.628099e-01 1.501982e-01 1.856629e-01
v -4.618994e-01 1.510465e-01 1.946451e-01
v -4.597786e-01 1.508534e-01 2.023587e-01
v -4.576705e-01 1.506649e-01 2.100478e-01
v -4.555752e-01 1.504813e-01 2.177122e-01
v -4.516107e-01 1.487158e-01 2.235781e-01
v -4.482704e-01 1.474779e-01 2.300415e-01
v -4.455635e-01 1.467712e-01 2.370840e-01
v -4.422263e-01 1.455345e-01 2.435413e-01
v -4.395290e-01 1.448313e-01 2.505654e-01
v -4.361950e-01 1.435958e-01 2.570165e-01
v -4.315684e-01 1.412885e-01 2.623584e-01
v -4.275784e-01 1.395135e-01 2.682734e-01
v -4.242348e-01 1.382744e-01 2.747429e-01
v -4.208913e-01 1.370353e-01 2.812124e-01
v -4.175477e-01 1.357963e-01 2.876820e-01
v -4.148664e-01 1.350991e-01 2.946754e-01
v -4.121912e-01 1.344041e-01 3.016565e-01
v -4.088540e-01 1.331674e-01 3.081138e-01
v -4.061884e-01 1.324760e-01 3.150766e-01
v -4.035292e-01 1.317870e-01 3.220272e-01
v -4.022322e-01 1.321955e-01 3.299518e-01
v -4.009542e-01 1.326111e-01 3.378398e-01
v -3.996953e-01 1.330339e-01 3.456911e-01
v -3.984554e-01 1.334636e-01 3.535054e-01
v -3.965439e-01 1.333481e-01 3.608143e-01
v -3.953388e-01 1.337907e-01 3.685612e-01
v -3.934557e-01 1.336856e-01 3.758148e-01
v -3.929858e-01 1.346972e-01 3.839446e-01
v -3.925411e-01 1.357180e-01 3.920254e-01
v -3.914152e-01 1.361899e-01 3.996190e-01
v -3.903085e-01 1.366690e-01 4.071758e-01
v -3.885078e-01 1.365946e-01 4.142700e-01
v -3.867198e-01 1.365248e-01 4.213397e-01
v -3.856637e-01 1.370226e-01 4.287984e-01
v -3.839043e-01 1.369635e-01 4.358129e-01
v -3.814321e-01 1.363437e-01 4.424017e-01
v -3.804236e-01 1.368592e-01 4.497683e-01
v -3.808977e-01 1.385169e-01 4.578763e-01
v -3.836086e-01 1.418928e-01 4.670715e-01
v -3.856320e-01 1.447174e-01 4.757919e-01
v -4.689318e-01 1.441482e-01 1.787416e-01
v -4.673796e-01 1.444840e-01 1.871361e-01
v -4.664573e-01 1.453568e-01 1.961088e-01
v -4.643323e-01 1.451767e-01 2.038147e-01
v -4.622200e-01 1.450012e-01 2.114961e-01
v -4.601203e-01 1.448305e-01 2.191528e-01
v -4.574098e-01 1.441297e-01 2.261946e-01
v -4.547056e-01 1.434312e-01 2.332239e-01
v -4.513778e-01 1.421980e-01 2.396628e-01
v -4.480501e-01 1.409648e-01 2.461017e-01
v -4.447224e-01 1.397316e-01 2.525405e-01
v -4.407554e-01 1.379579e-01 2.584196e-01
v -4.361393e-01 1.356399e-01 2.637569e-01
v -4.328021e-01 1.344032e-01 2.702142e-01
v -4.294649e-01 1.331665e-01 2.766715e-01
v -4.261276e-01 1.319298e-01 2.831287e-01
v -4.227904e-01 1.306931e-01 2.895860e-01
v -4.194532e-01 1.294564e-01 2.960432e-01
v -4.167776e-01 1.287685e-01 3.030175e-01
v -4.141082e-01 1.280830e-01 3.099795e-01
v -4.114452e-01 1.273998e-01 3.169291e-01
v -4.094597e-01 1.272713e-01 3.243652e-01
v -4.081610e-01 1.277010e-01 3.322691e-01
v -4.062040e-01 1.275831e-01 3.396500e-01
v -4.049401e-01 1.280257e-01 3.474865e-01
v -4.043793e-01 1.290325e-01 3.557603e-01
v -4.038435e-01 1.300486e-01 3.639849e-01
v -4.019530e-01 1.299554e-01 3.712370e-01
v -4.000753e-01 1.298669e-01 3.784646e-01
v -3.996030e-01 1.309065e-01 3.865666e-01
v -3.991561e-01 1.319555e-01 3.946196e-01
v -3.987345e-01 1.330139e-01 4.026235e-01
v -3.976325e-01 1.335165e-01 4.101473e-01
v -3.965493e-01 1.340261e-01 4.176343e-01
v -3.947730e-01 1.339752e-01 4.246656e-01
v -3.944401e-01 1.350664e-01 4.324977e-01
v -3.941326e-01 1.361672e-01 4.402810e-01
v -3.916851e-01 1.355638e-01 4.468137e-01
v -3.914189e-01 1.366798e-01 4.545172e-01
v -3.911780e-01 1.378052e-01 4.621715e-01
v -3.916937e-01 1.395146e-01 4.701590e-01
v -3.907722e-01 1.400841e-01 4.773332e-01
v -3.898698e-01 1.406607e-01 4.844706e-01
v -3.860231e-01 1.389315e-01 4.901165e-01
v -3.806821e-01 1.360413e-01 4.950596e-01
v -4.774717e-01 1.402088e-01 1.743296e-01
v -4.747037e-01 1.394940e-01 1.814748e-01
v -4.731498e-01 1.398509e-01 1.898485e-01
v -4.722220e-01 1.407508e-01 1.987997e-01
v -4.700991e-01 1.405859e-01 2.064855e-01
v -4.673754e-01 1.398875e-01 2.135449e-01
v -4.652745e-01 1.397307e-01 2.211877e-01
v -4.625667e-01 1.390382e-01 2.282165e-01
v -4.604881e-01 1.388898e-01 2.358164e-01
v -4.584221e-01 1.387459e-01 2.433919e-01
v -4.544810e-01 1.369746e-01 2.492287e-01
v -4.499009e-01 1.346554e-01 2.545125e-01
v -4.459440e-01 1.328782e-01 2.603801e-01
v -4.413417e-01 1.305509e-01 2.657068e-01
v -4.380108e-01 1.293165e-01 2.721519e-01
v -4.353250e-01 1.286321e-01 2.791375e-01
v -4.313491e-01 1.268478e-01 2.850418e-01
v -4.273667e-01 1.250610e-01 2.909584e-01
v -4.240327e-01 1.238255e-01 2.974095e-01
v -4.220142e-01 1.236993e-01 3.048929e-01
v -4.193475e-01 1.230221e-01 3.118419e-01
v -4.166871e-01 1.223471e-01 3.187785e-01
v -4.153678e-01 1.227909e-01 3.266985e-01
v -4.133970e-01 1.226824e-01 3.340899e-01
v -4.114389e-01 1.225786e-01 3.414569e-01
v -4.101702e-01 1.230412e-01 3.492788e-01
v -4.096007e-01 1.240738e-01 3.575370e-01
v -4.097397e-01 1.256799e-01 3.662135e-01
v -4.085376e-01 1.261672e-01 3.739065e-01
v -4.066650e-01 1.260951e-01 3.811079e-01
v -4.061905e-01 1.271629e-01 3.891822e-01
v -4.050455e-01 1.276713e-01 3.967649e-01
v -4.053175e-01 1.293267e-01 4.051837e-01
v -4.042169e-01 1.298516e-01 4.126805e-01
v -4.031353e-01 1.303835e-01 4.201405e-01
v -4.027812e-01 1.314959e-01 4.279818e-01
v -4.024525e-01 1.326178e-01 4.357741e-01
v -4.021491e-01 1.337491e-01 4.435173e-01
v -4.011531e-01 1.343126e-01 4.508116e-01
v -4.001760e-01 1.348834e-01 4.580693e-01
v -3.992180e-01 1.354611e-01 4.652902e-01
v -3.975514e-01 1.354653e-01 4.720930e-01
v -3.966283e-01 1.360560e-01 4.792464e-01
v -3.942562e-01 1.354878e-01 4.856250e-01
v -3.896794e-01 1.331699e-01 4.909027e-01
v -3.850899e-01 1.308473e-01 4.962050e-01
v -3.812311e-01 1.291064e-01 5.018824e-01
v -4.883471e-01 1.384367e-01 1.724911e-01
v -4.849971e-01 1.371953e-01 1.789729e-01
v -4.822444e-01 1.364933e-01 1.860804e-01
v -4.806982e-01 1.368749e-01 1.944150e-01
v -4.785679e-01 1.367218e-01 2.020993e-01
v -4.764501e-01 1.365733e-01 2.097590e-01
v -4.737353e-01 1.358854e-01 2.167928e-01
v -4.710269e-01 1.351999e-01 2.238146e-01
v -4.689408e-01 1.350632e-01 2.314130e-01
v -4.662482e-01 1.343836e-01 2.384040e-01
v -4.641844e-01 1.342551e-01 2.459595e-01
v -4.608820e-01 1.330313e-01 2.523493e-01
v -4.569508e-01 1.312563e-01 2.581746e-01
v -4.530134e-01 1.294790e-01 2.640123e-01
v -4.477994e-01 1.265923e-01 2.687578e-01
v -4.432047e-01 1.242532e-01 2.740863e-01
v -4.405215e-01 1.235770e-01 2.810589e-01
v -4.378448e-01 1.229033e-01 2.880192e-01
v -4.338787e-01 1.211154e-01 2.939120e-01
v -4.299065e-01 1.193252e-01 2.998171e-01
v -4.272360e-01 1.186537e-01 3.067652e-01
v -4.252292e-01 1.185464e-01 3.142104e-01
v -4.225746e-01 1.178808e-01 3.211278e-01
v -4.205900e-01 1.177817e-01 3.285299e-01
v -4.186181e-01 1.176873e-01 3.359076e-01
v -4.166588e-01 1.175976e-01 3.432607e-01
v -4.160584e-01 1.186477e-01 3.515464e-01
v -4.148071e-01 1.191385e-01 3.593106e-01
v -4.149338e-01 1.207763e-01 3.679707e-01
v -4.144096e-01 1.218548e-01 3.761093e-01
v -4.118533e-01 1.212256e-01 3.828366e-01
v -4.113702e-01 1.223193e-01 3.908955e-01
v -4.116046e-01 1.239970e-01 3.993471e-01
v -4.111754e-01 1.251106e-01 4.073017e-01
v -4.107716e-01 1.262337e-01 4.152072e-01
v -4.103931e-01 1.273661e-01 4.230638e-01
v -4.100399e-01 1.285079e-01 4.308712e-01
v -4.097122e-01 1.296591e-01 4.386295e-01
v -4.094098e-01 1.308198e-01 4.463389e-01
v -4.084184e-01 1.314068e-01 4.536002e-01
v -4.067285e-01 1.314170e-01 4.604321e-01
v -4.043306e-01 1.308465e-01 4.668528e-01
v -4.033868e-01 1.314513e-01 4.740222e-01
v -4.017349e-01 1.314754e-01 4.807805e-01
v -3.979052e-01 1.297381e-01 4.864096e-01
v -3.940692e-01 1.279984e-01 4.920511e-01
v -3.902268e-01 1.262562e-01 4.977047e-01
v -3.863780e-01 1.245118e-01 5.033706e-01
v -5.251165e-01 1.590389e-01 1.896015e-01
v -5.137355e-01 1.502655e-01 1.868005e-01
v -4.987438e-01 1.382013e-01 1.803477e-01
v -4.942483e-01 1.358845e-01 1.854998e-01
v -4.921137e-01 1.357443e-01 1.931763e-01
v -4.887986e-01 1.345159e-01 1.995907e-01
v -4.860832e-01 1.338350e-01 2.066177e-01
v -4.839771e-01 1.337053e-01 2.142390e-01
v -4.812776e-01 1.330304e-01 2.212354e-01
v -4.785844e-01 1.323579e-01 2.282195e-01
v -4.758975e-01 1.316875e-01 2.351913e-01
v -4.732171e-01 1.310197e-01 2.421509e-01
v -4.699242e-01 1.297994e-01 2.485223e-01
v -4.666313e-01 1.285791e-01 2.548938e-01
v -4.633385e-01 1.273589e-01 2.612651e-01
v -4.594173e-01 1.255803e-01 2.670790e-01
v -4.542272e-01 1.226807e-01 2.718024e-01
v -4.496526e-01 1.203345e-01 2.771079e-01
v -4.457031e-01 1.185455e-01 2.829770e-01
v -4.430288e-01 1.178799e-01 2.899243e-01
v -4.397170e-01 1.166526e-01 2.963325e-01
v -4.364051e-01 1.154253e-01 3.027406e-01
v -4.330933e-01 1.141980e-01 3.091489e-01
v -4.310885e-01 1.141059e-01 3.165740e-01
v -4.290965e-01 1.140186e-01 3.239745e-01
v -4.264571e-01 1.133659e-01 3.308544e-01
v -4.238242e-01 1.127157e-01 3.377220e-01
v -4.218638e-01 1.126401e-01 3.450612e-01
v -4.212549e-01 1.137161e-01 3.533316e-01
v -4.206714e-01 1.148015e-01 3.615528e-01
v -4.207889e-01 1.164722e-01 3.701904e-01
v -4.195804e-01 1.170006e-01 3.778480e-01
v -4.177086e-01 1.169578e-01 3.850155e-01
v -4.179055e-01 1.186579e-01 3.934998e-01
v -4.174456e-01 1.197892e-01 4.014819e-01
v -4.177025e-01 1.215115e-01 4.098498e-01
v -4.179912e-01 1.232456e-01 4.181564e-01
v -4.176137e-01 1.244074e-01 4.259789e-01
v -4.172614e-01 1.255786e-01 4.337525e-01
v -4.169346e-01 1.267592e-01 4.414770e-01
v -4.159257e-01 1.273615e-01 4.487482e-01
v -4.149358e-01 1.279710e-01 4.559827e-01
v -4.125374e-01 1.274076e-01 4.623965e-01
v -4.101453e-01 1.268466e-01 4.687980e-01
v -4.077595e-01 1.262879e-01 4.751873e-01
v -4.061034e-01 1.263250e-01 4.819378e-01
v -4.022805e-01 1.245829e-01 4.875617e-01
v -3.977218e-01 1.222427e-01 4.928365e-01
v -3.953487e-01 1.216887e-01 4.992012e-01
v -3.915101e-01 1.199407e-01 5.048556e-01
v -3.869259e-01 1.175911e-01 5.101796e-01
v -5.283115e-01 1.525489e-01 1.897640e-01
v -5.187199e-01 1.453349e-01 1.889078e-01
v -5.102250e-01 1.391928e-01 1.894595e-01
v -5.057782e-01 1.368796e-01 1.945335e-01
v -5.024980e-01 1.356640e-01 2.008804e-01
v -4.986251e-01 1.338961e-01 2.066092e-01
v -4.953418e-01 1.326794e-01 2.129622e-01
v -4.926575e-01 1.320173e-01 2.199210e-01
v -4.893773e-01 1.308017e-01 2.262679e-01
v -4.860971e-01 1.295861e-01 2.326147e-01
v -4.834256e-01 1.289289e-01 2.395490e-01
v -4.801486e-01 1.277145e-01 2.458897e-01
v -4.762566e-01 1.259394e-01 2.516553e-01
v -4.723584e-01 1.241622e-01 2.574333e-01
v -4.690750e-01 1.229454e-01 2.637863e-01
v -4.651671e-01 1.211646e-01 2.695826e-01
v -4.606254e-01 1.188162e-01 2.748406e-01
v -4.560709e-01 1.164630e-01 2.801232e-01
v -4.515036e-01 1.141051e-01 2.854302e-01
v -4.475610e-01 1.123114e-01 2.912940e-01
v -4.442522e-01 1.110852e-01 2.976961e-01
v -4.415871e-01 1.104302e-01 3.046179e-01
v -4.389282e-01 1.097776e-01 3.115277e-01
v -4.362757e-01 1.091273e-01 3.184252e-01
v -4.342825e-01 1.090540e-01 3.258119e-01
v -4.323019e-01 1.089855e-01 3.331741e-01
v -4.296748e-01 1.083445e-01 3.400224e-01
v -4.277164e-01 1.082842e-01 3.473417e-01
v -4.271021e-01 1.093872e-01 3.555903e-01
v -4.271820e-01 1.110802e-01 3.642607e-01
v -4.266216e-01 1.122033e-01 3.724052e-01
v -4.247362e-01 1.121699e-01 3.795834e-01
v -4.235418e-01 1.127253e-01 3.871895e-01
v -4.244110e-01 1.150435e-01 3.960978e-01
v -4.246335e-01 1.167894e-01 4.044923e-01
v -4.248877e-01 1.185470e-01 4.128256e-01
v -4.244825e-01 1.197275e-01 4.206694e-01
v -4.241027e-01 1.209175e-01 4.284644e-01
v -4.244457e-01 1.227080e-01 4.366258e-01
v -4.241198e-01 1.239179e-01 4.443165e-01
v -4.231156e-01 1.245438e-01 4.515547e-01
v -4.214234e-01 1.245821e-01 4.583588e-01
v -4.190339e-01 1.240293e-01 4.647472e-01
v -4.159376e-01 1.228818e-01 4.707384e-01
v -4.135576e-01 1.223325e-01 4.771085e-01
v -4.111840e-01 1.217856e-01 4.834664e-01
v -4.066485e-01 1.194395e-01 4.887121e-01
v -4.028262e-01 1.176903e-01 4.943428e-01
v -3.997267e-01 1.165417e-01 5.003402e-01
v -3.958949e-01 1.147891e-01 5.059893e-01
v -3.920569e-01 1.130341e-01 5.116507e-01
v -5.332335e-01 1.477040e-01 1.918716e-01
v -5.271475e-01 1.437490e-01 1.948624e-01
v -5.216093e-01 1.403369e-01 1.985504e-01
v -5.177940e-01 1.385831e-01 2.041759e-01
v -5.133864e-01 1.362699e-01 2.091901e-01
v -5.089661e-01 1.339519e-01 2.142289e-01
v -5.045331e-01 1.316293e-01 2.192922e-01
v -5.006830e-01 1.298626e-01 2.249852e-01
v -4.974250e-01 1.286553e-01 2.312892e-01
v -4.935653e-01 1.268850e-01 2.370005e-01
v -4.903041e-01 1.256765e-01 2.433105e-01
v -4.870430e-01 1.244680e-01 2.496206e-01
v -4.825593e-01 1.221266e-01 2.547821e-01
v -4.780629e-01 1.197804e-01 2.599682e-01
v -4.741715e-01 1.179984e-01 2.657406e-01
v -4.702737e-01 1.162140e-01 2.715255e-01
v -4.657458e-01 1.138562e-01 2.767729e-01
v -4.624592e-01 1.126383e-01 2.831320e-01
v -4.585424e-01 1.108468e-01 2.889536e-01
v -4.533525e-01 1.079038e-01 2.937248e-01
v -4.500533e-01 1.066812e-01 3.001085e-01
v -4.467541e-01 1.054586e-01 3.064922e-01
v -4.440978e-01 1.048141e-01 3.133887e-01
v -4.414479e-01 1.041721e-01 3.202733e-01
v -4.401029e-01 1.046934e-01 3.281467e-01
v -4.374719e-01 1.040583e-01 3.349943e-01
v -4.355030e-01 1.040086e-01 3.423181e-01
v -4.335468e-01 1.039635e-01 3.496173e-01
v -4.329269e-01 1.050935e-01 3.578443e-01
v -4.336629e-01 1.074059e-01 3.669624e-01
v -4.324320e-01 1.079695e-01 3.746153e-01
v -4.305486e-01 1.079514e-01 3.817734e-01
v -4.300271e-01 1.091179e-01 3.898104e-01
v -4.308866e-01 1.114760e-01 3.986893e-01
v -4.311031e-01 1.132560e-01 4.070553e-01
v -4.313514e-01 1.150476e-01 4.153600e-01
v -4.302567e-01 1.156618e-01 4.227491e-01
v -4.305620e-01 1.174745e-01 4.309434e-01
v -4.308990e-01 1.192991e-01 4.390763e-01
v -4.312677e-01 1.211354e-01 4.471479e-01
v -4.295681e-01 1.211854e-01 4.539505e-01
v -4.278812e-01 1.212402e-01 4.607285e-01
v -4.247944e-01 1.200962e-01 4.667013e-01
v -4.217075e-01 1.189523e-01 4.726741e-01
v -4.193333e-01 1.184124e-01 4.790249e-01
v -4.169654e-01 1.178748e-01 4.853636e-01
v -4.131660e-01 1.161269e-01 4.909583e-01
v -4.079158e-01 1.131615e-01 4.958460e-01
v -4.040972e-01 1.114065e-01 5.014775e-01
v -4.002724e-01 1.096491e-01 5.071213e-01
v -3.964411e-01 1.078895e-01 5.127774e-01
v -5.404187e-01 1.451157e-01 1.965644e-01
v -5.355156e-01 1.422572e-01 2.008044e-01
v -5.300177e-01 1.388310e-01 2.044464e-01
v -5.262314e-01 1.370807e-01 2.100236e-01
v -5.218566e-01 1.347651e-01 2.149904e-01
v -5.168839e-01 1.318807e-01 2.193654e-01
v -5.124805e-01 1.295545e-01 2.243874e-01
v -5.086562e-01 1.277902e-01 2.300382e-01
v -5.042308e-01 1.254558e-01 2.351032e-01
v -4.997925e-01 1.231167e-01 2.401926e-01
v -4.965440e-01 1.219128e-01 2.464782e-01
v -4.932956e-01 1.207090e-01 2.527637e-01
v -4.894396e-01 1.189329e-01 2.584758e-01
v -4.837451e-01 1.154339e-01 2.624981e-01
v -4.798670e-01 1.136496e-01 2.682531e-01
v -4.765995e-01 1.124388e-01 2.745755e-01
v -4.720916e-01 1.100739e-01 2.797998e-01
v -4.688178e-01 1.088606e-01 2.861345e-01
v -4.649174e-01 1.070681e-01 2.919324e-01
v -4.603810e-01 1.046926e-01 2.972119e-01
v -4.564648e-01 1.028941e-01 3.030406e-01
v -4.525422e-01 1.010932e-01 3.088813e-01
v -4.492525e-01 9.987413e-02 3.152466e-01
v -4.478899e-01 1.004108e-01 3.231300e-01
v -4.459009e-01 1.003681e-01 3.304768e-01
v -4.432757e-01 9.974239e-02 3.373051e-01
v -4.413088e-01 9.970788e-02 3.446088e-01
v -4.386996e-01 9.908816e-02 3.514066e-01
v -4.387295e-01 1.008352e-01 3.600936e-01
v -4.387911e-01 1.025939e-01 3.687192e-01
v -4.375553e-01 1.031776e-01 3.763573e-01
v -4.363386e-01 1.037682e-01 3.839586e-01
v -4.358117e-01 1.049617e-01 3.919740e-01
v -4.366583e-01 1.073586e-01 4.008298e-01
v -4.368658e-01 1.091714e-01 4.091734e-01
v -4.377853e-01 1.115953e-01 4.178880e-01
v -4.380593e-01 1.134327e-01 4.261028e-01
v -4.383650e-01 1.152820e-01 4.342563e-01
v -4.380124e-01 1.165401e-01 4.419344e-01
v -4.369922e-01 1.172036e-01 4.491555e-01
v -4.359909e-01 1.178740e-01 4.563399e-01
v -4.336098e-01 1.173389e-01 4.626960e-01
v -4.305324e-01 1.161985e-01 4.686504e-01
v -4.274551e-01 1.150581e-01 4.746048e-01
v -4.265046e-01 1.157474e-01 4.816911e-01
v -4.234367e-01 1.146105e-01 4.876271e-01
v -4.189383e-01 1.122491e-01 4.928331e-01
v -4.144273e-01 1.098830e-01 4.980637e-01
v -4.099035e-01 1.075123e-01 5.033187e-01
v -4.068166e-01 1.063683e-01 5.092915e-01
v -5.464274e-01 1.414696e-01 1.999549e-01
v -5.421172e-01 1.391634e-01 2.048130e-01
v -5.372221e-01 1.362861e-01 2.090616e-01
v -5.334586e-01 1.345369e-01 2.146028e-01
v -5.291103e-01 1.322167e-01 2.195344e-01
v -5.247493e-01 1.298917e-01 2.244906e-01
v -5.197909e-01 1.269908e-01 2.288618e-01
v -5.159893e-01 1.252276e-01 2.344765e-01
v -5.121814e-01 1.234620e-01 2.401036e-01
v -5.071786e-01 1.205448e-01 2.445607e-01
v -5.033517e-01 1.187721e-01 2.502245e-01
v -5.007197e-01 1.181512e-01 2.570582e-01
v -4.968864e-01 1.163762e-01 2.627342e-01
v -4.912259e-01 1.128608e-01 2.667230e-01
v -4.873705e-01 1.110776e-01 2.724419e-01
v -4.828953e-01 1.087103e-01 2.776188e-01
v -4.784077e-01 1.063385e-01 2.828204e-01
v -4.751465e-01 1.051299e-01 2.891305e-01
v -4.718853e-01 1.039214e-01 2.954406e-01
v -4.667461e-01 1.009536e-01 3.001613e-01
v -4.628464e-01 9.915402e-02 3.059662e-01
v -4.595726e-01 9.794082e-02 3.123008e-01
v -4.556633e-01 9.613766e-02 3.181240e-01
v -4.536635e-01 9.610543e-02 3.254752e-01
v -4.510348e-01 9.548574e-02 3.323028e-01
v -4.490572e-01 9.546176e-02 3.396112e-01
v -4.470922e-01 9.544248e-02 3.468948e-01
v -4.451401e-01 9.542789e-02 3.541540e-01
v -4.445096e-01 9.661206e-02 3.623380e-01
v -4.439045e-01 9.780555e-02 3.704728e-01
v -4.439855e-01 9.960779e-02 3.790209e-01
v -4.440982e-01 1.014218e-01 3.875076e-01
v -4.429083e-01 1.020441e-01 3.950329e-01
v -4.424078e-01 1.032764e-01 4.029654e-01
v -4.432796e-01 1.057262e-01 4.117244e-01
v -4.441894e-01 1.081900e-01 4.204097e-01
v -4.458171e-01 1.112742e-01 4.294470e-01
v -4.454402e-01 1.125523e-01 4.371402e-01
v -4.444024e-01 1.132311e-01 4.443712e-01
v -4.433836e-01 1.139169e-01 4.515654e-01
v -4.430763e-01 1.152208e-01 4.591238e-01
v -4.414031e-01 1.153096e-01 4.658434e-01
v -4.390436e-01 1.147896e-01 4.721498e-01
v -4.366905e-01 1.142720e-01 4.784438e-01
v -4.357541e-01 1.149884e-01 4.854786e-01
v -4.327116e-01 1.138609e-01 4.913656e-01
v -4.282460e-01 1.114972e-01 4.965241e-01
v -4.251973e-01 1.103673e-01 5.024233e-01
v -4.214305e-01 1.086170e-01 5.079706e-01
v -4.190996e-01 1.081077e-01 5.142218e-01
v -4.189476e-01 1.094691e-01 5.214797e-01
v -5.518445e-01 1.373005e-01 2.026937e-01
v -5.475512e-01 1.349861e-01 2.075349e-01
v -5.426768e-01 1.320947e-01 2.117675e-01
v -5.389265e-01 1.303432e-01 2.172911e-01
v -5.345951e-01 1.280147e-01 2.222059e-01
v -5.302512e-01 1.256815e-01 2.271454e-01
v -5.258945e-01 1.233436e-01 2.321093e-01
v -5.221092e-01 1.215792e-01 2.377003e-01
v -5.194925e-01 1.209712e-01 2.444964e-01
v -5.145200e-01 1.180433e-01 2.489191e-01
v -5.101220e-01 1.156901e-01 2.539627e-01
v -5.063084e-01 1.139152e-01 2.596089e-01
v -5.030884e-01 1.127219e-01 2.658393e-01
v -4.986619e-01 1.103582e-01 2.709382e-01
v -4.942228e-01 1.079897e-01 2.760615e-01
v -4.891615e-01 1.050291e-01 2.806560e-01
v -4.840812e-01 1.020613e-01 2.852871e-01
v -4.802135e-01 1.002663e-01 2.910376e-01
v -4.763397e-01 9.846910e-02 2.968003e-01
v -4.718371e-01 9.607711e-02 3.020463e-01
v -4.679475e-01 9.427400e-02 3.078398e-01
v -4.646800e-01 9.306317e-02 3.141621e-01
v -4.620442e-01 9.244800e-02 3.209949e-01
v -4.587798e-01 9.123831e-02 3.273112e-01
v -4.561536e-01 9.062683e-02 3.341257e-01
v -4.548162e-01 9.121630e-02 3.419123e-01
v -4.534979e-01 9.181284e-02 3.496621e-01
v -4.521984e-01 9.241633e-02 3.573751e-01
v -4.502674e-01 9.242418e-02 3.645776e-01
v -4.503108e-01 9.424875e-02 3.731584e-01
v -4.503859e-01 9.608507e-02 3.816780e-01
v -4.511528e-01 9.853941e-02 3.905915e-01
v -4.499677e-01 9.918531e-02 3.980838e-01
v -4.494680e-01 1.004470e-01 4.059824e-01
v -4.496636e-01 1.023279e-01 4.142689e-01
v -4.512366e-01 1.054427e-01 4.233557e-01
v -4.521780e-01 1.079617e-01 4.319320e-01
v -4.517988e-01 1.092680e-01 4.395976e-01
v -4.514449e-01 1.105836e-01 4.472141e-01
v -4.511164e-01 1.119087e-01 4.547815e-01
v -4.515021e-01 1.138601e-01 4.627002e-01
v -4.505356e-01 1.145871e-01 4.697693e-01
v -4.481977e-01 1.140824e-01 4.760257e-01
v -4.465645e-01 1.142005e-01 4.826517e-01
v -4.449441e-01 1.143234e-01 4.892533e-01
v -4.419269e-01 1.132053e-01 4.950912e-01
v -4.382020e-01 1.114632e-01 5.005656e-01
v -4.351816e-01 1.103439e-01 5.064097e-01
v -4.335896e-01 1.104774e-01 5.129559e-01
v -4.320103e-01 1.106155e-01 5.194777e-01
v -4.326052e-01 1.126444e-01 5.269916e-01
v -4.339554e-01 1.153150e-01 5.347768e-01
v -5.561225e-01 1.320150e-01 2.041381e-01
v -5.524013e-01 1.302670e-01 2.096134e-01
v -5.481092e-01 1.279385e-01 2.144687e-01
v -5.443720e-01 1.261846e-01 2.199746e-01
v -5.400576e-01 1.238479e-01 2.248726e-01
v -5.357306e-01 1.215066e-01 2.297952e-01
v -5.319681e-01 1.197433e-01 2.353502e-01
v -5.287798e-01 1.185618e-01 2.415192e-01
v -5.255916e-01 1.173803e-01 2.476883e-01
v -5.218166e-01 1.156123e-01 2.532679e-01
v -5.174451e-01 1.132545e-01 2.582764e-01
v -5.124678e-01 1.103031e-01 2.627321e-01
v -5.080678e-01 1.079347e-01 2.677957e-01
v -5.042547e-01 1.061526e-01 2.734489e-01
v -4.998326e-01 1.037760e-01 2.785555e-01
v -4.953978e-01 1.013947e-01 2.836866e-01
v -4.903413e-01 9.841397e-02 2.882956e-01
v -4.858779e-01 9.602208e-02 2.934820e-01
v -4.807864e-01 9.302842e-02 2.981585e-01
v -4.775317e-01 9.182226e-02 3.044562e-01
v -4.742768e-01 9.061608e-02 3.107541e-01
v -4.703973e-01 8.880947e-02 3.165360e-01
v -4.677672e-01 8.820372e-02 3.233497e-01
v -4.657748e-01 8.820326e-02 3.306549e-01
v -4.625263e-01 8.699945e-02 3.369404e-01
v -4.611904e-01 8.761129e-02 3.447001e-01
v -4.592328e-01 8.762371e-02 3.519377e-01
v -4.579318e-01 8.824847e-02 3.596299e-01
v -4.572969e-01 8.948898e-02 3.677583e-01
v -4.566873e-01 9.073889e-02 3.758377e-01
v -4.574098e-01 9.322032e-02 3.847894e-01
v -4.575138e-01 9.510362e-02 3.932129e-01
v -4.563300e-01 9.577175e-02 4.006782e-01
v -4.564910e-01 9.767620e-02 4.089914e-01
v -4.566837e-01 9.959236e-02 4.172432e-01
v -4.582466e-01 1.027542e-01 4.262938e-01
v -4.591815e-01 1.053143e-01 4.348347e-01
v -4.588032e-01 1.066499e-01 4.424663e-01
v -4.584502e-01 1.079950e-01 4.500490e-01
v -4.588047e-01 1.099710e-01 4.579880e-01
v -4.591907e-01 1.119588e-01 4.658658e-01
v -4.582319e-01 1.127104e-01 4.728958e-01
v -4.572922e-01 1.134690e-01 4.798889e-01
v -4.549823e-01 1.129820e-01 4.860832e-01
v -4.533766e-01 1.131248e-01 4.926402e-01
v -4.517834e-01 1.132723e-01 4.991726e-01
v -4.487949e-01 1.121648e-01 5.049554e-01
v -4.458063e-01 1.110573e-01 5.107381e-01
v -4.449489e-01 1.118464e-01 5.175718e-01
v -4.433970e-01 1.120093e-01 5.240245e-01
v -4.418577e-01 1.121767e-01 5.304526e-01
v -4.403312e-01 1.123490e-01 5.368563e-01
v -5.615023e-01 1.279046e-01 2.068689e-01
v -5.572365e-01 1.255714e-01 2.116887e-01
v -5.523972e-01 1.226494e-01 2.159017e-01
v -5.486670e-01 1.208909e-01 2.214023e-01
v -5.454978e-01 1.197165e-01 2.275345e-01
v -5.411876e-01 1.173667e-01 2.324403e-01
v -5.374385e-01 1.156012e-01 2.379777e-01
v -5.342597e-01 1.144233e-01 2.441285e-01
v -5.310809e-01 1.132453e-01 2.502791e-01
v -5.279022e-01 1.120672e-01 2.564297e-01
v -5.235509e-01 1.097024e-01 2.614153e-01
v -5.191869e-01 1.073327e-01 2.664252e-01
v -5.154029e-01 1.055543e-01 2.720302e-01
v -5.110167e-01 1.031764e-01 2.770832e-01
v -5.066179e-01 1.007938e-01 2.821607e-01
v -5.022064e-01 9.840665e-02 2.872627e-01
v -4.983874e-01 9.661518e-02 2.929350e-01
v -4.927368e-01 9.301642e-02 2.970008e-01
v -4.870609e-01 8.940821e-02 3.011156e-01
v -4.838188e-01 8.820672e-02 3.073888e-01
v -4.824304e-01 8.882083e-02 3.152258e-01
v -4.785767e-01 8.701655e-02 3.209656e-01
v -4.747166e-01 8.520981e-02 3.267177e-01
v -4.721050e-01 8.461828e-02 3.334877e-01
v -4.688693e-01 8.341915e-02 3.397487e-01
v -4.669010e-01 8.344219e-02 3.469909e-01
v -4.649455e-01 8.346992e-02 3.542085e-01
v -4.636428e-01 8.411579e-02 3.618799e-01
v -4.642891e-01 8.661256e-02 3.709311e-01
v -4.643269e-01 8.850756e-02 3.794426e-01
v -4.637468e-01 8.979737e-02 3.874329e-01
v -4.631919e-01 9.109659e-02 3.953741e-01
v -4.626625e-01 9.240520e-02 4.032662e-01
v -4.628176e-01 9.434369e-02 4.115509e-01
v -4.636667e-01 9.691559e-02 4.202095e-01
v -4.645538e-01 9.950158e-02 4.287947e-01
v -4.654789e-01 1.021016e-01 4.373061e-01
v -4.650984e-01 1.034655e-01 4.449101e-01
v -4.654183e-01 1.054650e-01 4.528758e-01
v -4.657699e-01 1.074763e-01 4.607802e-01
v -4.661531e-01 1.094994e-01 4.686234e-01
v -4.658835e-01 1.109043e-01 4.760127e-01
v -4.656394e-01 1.123186e-01 4.833529e-01
v -4.640389e-01 1.124779e-01 4.898837e-01
v -4.624509e-01 1.126418e-01 4.963900e-01
v -4.608757e-01 1.128105e-01 5.028718e-01
v -4.586128e-01 1.123482e-01 5.089673e-01
v -4.570598e-01 1.125250e-01 5.154060e-01
v -4.555195e-01 1.127066e-01 5.218204e-01
v -4.532820e-01 1.122537e-01 5.278668e-01
v -4.524768e-01 1.130839e-01 5.345755e-01
v -4.495420e-01 1.119964e-01 5.402539e-01
v -5.657579e-01 1.226543e-01 2.083085e-01
v -5.609488e-01 1.197217e-01 2.124869e-01
v -5.566779e-01 1.173722e-01 2.173331e-01
v -5.529546e-01 1.156089e-01 2.228284e-01
v -5.497885e-01 1.144356e-01 2.289545e-01
v -5.460558e-01 1.126689e-01 2.344683e-01
v -5.423165e-01 1.108997e-01 2.399941e-01
v -5.391441e-01 1.097241e-01 2.461326e-01
v -5.365480e-01 1.091455e-01 2.528650e-01
v -5.327993e-01 1.073728e-01 2.584093e-01
v -5.290443e-01 1.055978e-01 2.639659e-01
v -5.252830e-01 1.038206e-01 2.695348e-01
v -5.221043e-01 1.026426e-01 2.756855e-01
v -5.183334e-01 1.008617e-01 2.812728e-01
v -5.139610e-01 9.847448e-02 2.863151e-01
v -5.095761e-01 9.608257e-02 2.913820e-01
v -5.057799e-01 9.429228e-02 2.970182e-01
v -5.007679e-01 9.128456e-02 3.015892e-01
v -4.951290e-01 8.766107e-02 3.056643e-01
v -4.919091e-01 8.646786e-02 3.118946e-01
v -4.893033e-01 8.588565e-02 3.186454e-01
v -4.867040e-01 8.530585e-02 3.253840e-01
v -4.816286e-01 8.227467e-02 3.300776e-01
v -4.771580e-01 7.985101e-02 3.353100e-01
v -4.745555e-01 7.927008e-02 3.420547e-01
v -4.725893e-01 7.930832e-02 3.492768e-01
v -4.712691e-01 7.996950e-02 3.569581e-01
v -4.706043e-01 8.125694e-02 3.650801e-01
v -4.712441e-01 8.379479e-02 3.740958e-01
v -4.712790e-01 8.572509e-02 3.825727e-01
v -4.713458e-01 8.766709e-02 3.909882e-01
v -4.694969e-01 8.774881e-02 3.979834e-01
v -4.689652e-01 8.908561e-02 4.058478e-01
v -4.697697e-01 9.168454e-02 4.145446e-01
v -4.712709e-01 9.492508e-02 4.236024e-01
v -4.714929e-01 9.692458e-02 4.317174e-01
v -4.717466e-01 9.893595e-02 4.397712e-01
v -4.727001e-01 1.015901e-01 4.481798e-01
v -4.730204e-01 1.036260e-01 4.561047e-01
v -4.733723e-01 1.056737e-01 4.639683e-01
v -4.737560e-01 1.077332e-01 4.717706e-01
v -4.728097e-01 1.085329e-01 4.787283e-01
v -4.725664e-01 1.099766e-01 4.860347e-01
v -4.716614e-01 1.107916e-01 4.929126e-01
v -4.707754e-01 1.116136e-01 4.997538e-01
v -4.692149e-01 1.118022e-01 5.061910e-01
v -4.676671e-01 1.119956e-01 5.126037e-01
v -4.654322e-01 1.115508e-01 5.186371e-01
v -4.632036e-01 1.111085e-01 5.246582e-01
v -4.616875e-01 1.113135e-01 5.310095e-01
v -4.616026e-01 1.128159e-01 5.380093e-01
v -4.601182e-01 1.130327e-01 5.442993e-01
v -5.683649e-01 1.156353e-01 2.078198e-01
v -5.635606e-01 1.126828e-01 2.120130e-01
v -5.603976e-01 1.115107e-01 2.181330e-01
v -5.577913e-01 1.109355e-01 2.248768e-01
v -5.546315e-01 1.097646e-01 2.309906e-01
v -5.509089e-01 1.079943e-01 2.364929e-01
v -5.471798e-01 1.062217e-01 2.420074e-01
v -5.445831e-01 1.056501e-01 2.487328e-01
v -5.419926e-01 1.050809e-01 2.554461e-01
v -5.388328e-01 1.039099e-01 2.615599e-01
v -5.350942e-01 1.021338e-01 2.670928e-01
v -5.313494e-01 1.003553e-01 2.726379e-01
v -5.281833e-01 9.918200e-02 2.787641e-01
v -5.244289e-01 9.739998e-02 2.843277e-01
v -5.206681e-01 9.561560e-02 2.899035e-01
v -5.174956e-01 9.443996e-02 2.960419e-01
v -5.125298e-01 9.142756e-02 3.005477e-01
v -5.075449e-01 8.840812e-02 3.050905e-01
v -5.037493e-01 8.661086e-02 3.107338e-01
v -4.999473e-01 8.481117e-02 3.163892e-01
v -4.967495e-01 8.362616e-02 3.225767e-01
v -4.947791e-01 8.367736e-02 3.297911e-01
v -4.903539e-01 8.125606e-02 3.349516e-01
v -4.846762e-01 7.758915e-02 3.391341e-01
v -4.814657e-01 7.639944e-02 3.453460e-01
v -4.795079e-01 7.645530e-02 3.525360e-01
v -4.788219e-01 7.776394e-02 3.606670e-01
v -4.781612e-01 7.908198e-02 3.687490e-01
v -4.781617e-01 8.103578e-02 3.772525e-01
v -4.781940e-01 8.300127e-02 3.856947e-01
v -4.782578e-01 8.497851e-02 3.940755e-01
v -4.770628e-01 8.570777e-02 4.014907e-01
v -4.765352e-01 8.707511e-02 4.093151e-01
v -4.773364e-01 8.971632e-02 4.179704e-01
v -4.788305e-01 9.300501e-02 4.269857e-01
v -4.790528e-01 9.504094e-02 4.350599e-01
v -4.793070e-01 9.708868e-02 4.430729e-01
v -4.802571e-01 9.978507e-02 4.514398e-01
v -4.805778e-01 1.018575e-01 4.593239e-01
v -4.816008e-01 1.045809e-01 4.675499e-01
v -4.813140e-01 1.060374e-01 4.749083e-01
v -4.803757e-01 1.068619e-01 4.818268e-01
v -4.794563e-01 1.076933e-01 4.887084e-01
v -4.778725e-01 1.078878e-01 4.951747e-01
v -4.769880e-01 1.087321e-01 5.019889e-01
v -4.754327e-01 1.089373e-01 5.084001e-01
v -4.745830e-01 1.097945e-01 5.151469e-01
v -4.723602e-01 1.093615e-01 5.211487e-01
v -4.708430e-01 1.095806e-01 5.274862e-01
v -4.693385e-01 1.098045e-01 5.337992e-01
v -4.685522e-01 1.106853e-01 5.404233e-01
v -4.677849e-01 1.115731e-01 5.470106e-01
v -5.709865e-01 1.085928e-01 2.073343e-01
v -5.672803e-01 1.068214e-01 2.128128e-01
v -5.646670e-01 1.062510e-01 2.195620e-01
v -5.620602e-01 1.056829e-01 2.262989e-01
v -5.594597e-01 1.051172e-01 2.330236e-01
v -5.568656e-01 1.045538e-01 2.397360e-01
v -5.537153e-01 1.033864e-01 2.458314e-01
v -5.505651e-01 1.022190e-01 2.519270e-01
v -5.479836e-01 1.016603e-01 2.586148e-01
v -5.454084e-01 1.011039e-01 2.652903e-01
v -5.416895e-01 9.932784e-02 2.707934e-01
v -5.379641e-01 9.754933e-02 2.763087e-01
v -5.348139e-01 9.638190e-02 2.824042e-01
v -5.304944e-01 9.398523e-02 2.873761e-01
v -5.273378e-01 9.281549e-02 2.934838e-01
v -5.247722e-01 9.226265e-02 3.001410e-01
v -5.198365e-01 8.923973e-02 3.046126e-01
v -5.142844e-01 8.559035e-02 3.085836e-01
v -5.117093e-01 8.503403e-02 3.152593e-01
v -5.085369e-01 8.385841e-02 3.213976e-01
v -5.041509e-01 8.143713e-02 3.264984e-01
v -5.009722e-01 8.025916e-02 3.326490e-01
v -4.977934e-01 7.908117e-02 3.387996e-01
v -4.939983e-01 7.727681e-02 3.444499e-01
v -4.901970e-01 7.547017e-02 3.501123e-01
v -4.882571e-01 7.554719e-02 3.572516e-01
v -4.869558e-01 7.625887e-02 3.648483e-01
v -4.863023e-01 7.760854e-02 3.728841e-01
v -4.863064e-01 7.959990e-02 3.813407e-01
v -4.863422e-01 8.160300e-02 3.897360e-01
v -4.857711e-01 8.298326e-02 3.976124e-01
v -4.852255e-01 8.437293e-02 4.054398e-01
v -4.847052e-01 8.577202e-02 4.132180e-01
v -4.855062e-01 8.845668e-02 4.218255e-01
v -4.863453e-01 9.115543e-02 4.303593e-01
v -4.859137e-01 9.258735e-02 4.379660e-01
v -4.868225e-01 9.531196e-02 4.463649e-01
v -4.877693e-01 9.805062e-02 4.546903e-01
v -4.887542e-01 1.008034e-01 4.629420e-01
v -4.891101e-01 1.029251e-01 4.707180e-01
v -4.888274e-01 1.044122e-01 4.780364e-01
v -4.872235e-01 1.046138e-01 4.845256e-01
v -4.863088e-01 1.054687e-01 4.913742e-01
v -4.847335e-01 1.056809e-01 4.978082e-01
v -4.824878e-01 1.052467e-01 5.038461e-01
v -4.809346e-01 1.054670e-01 5.102372e-01
v -4.793942e-01 1.056921e-01 5.166038e-01
v -4.778663e-01 1.059218e-01 5.229457e-01
v -4.763511e-01 1.061563e-01 5.292633e-01
v -4.755473e-01 1.070523e-01 5.358973e-01
v -4.740607e-01 1.072973e-01 5.421596e-01
v -5.741629e-01 1.021322e-01 2.074927e-01
v -5.715428e-01 1.015664e-01 2.142472e-01
v -5.689291e-01 1.010030e-01 2.209894e-01
v -5.663217e-01 1.004420e-01 2.277194e-01
v -5.642730e-01 1.004933e-01 2.350533e-01
v -5.616814e-01 9.993806e-02 2.417527e-01
v -5.590962e-01 9.938527e-02 2.484396e-01
v -5.565173e-01 9.883480e-02 2.551145e-01
v -5.539447e-01 9.828669e-02 2.617770e-01
v -5.519467e-01 9.835669e-02 2.690127e-01
v -5.476760e-01 9.596361e-02 2.739066e-01
v -5.439670e-01 9.418393e-02 2.793981e-01
v -5.414072e-01 9.364052e-02 2.860362e-01
v -5.376919e-01 9.185847e-02 2.915401e-01
v -5.351384e-01 9.131745e-02 2.981658e-01
v -5.320040e-01 9.015591e-02 3.042306e-01
v -5.270984e-01 8.712233e-02 3.086676e-01
v -5.221739e-01 8.408176e-02 3.131416e-01
v -5.190205e-01 8.291316e-02 3.192432e-01
v -5.158671e-01 8.174456e-02 3.253448e-01
v -5.121106e-01 7.994726e-02 3.309283e-01
v -5.077417e-01 7.751779e-02 3.360123e-01
v -5.045787e-01 7.634568e-02 3.421323e-01
v -5.020283e-01 7.580576e-02 3.487519e-01
v -4.988686e-01 7.463482e-02 3.548657e-01
v -4.969467e-01 7.473302e-02 3.619543e-01
v -4.956594e-01 7.547167e-02 3.694996e-01
v -4.950164e-01 7.685432e-02 3.774832e-01
v -4.943989e-01 7.824635e-02 3.854177e-01
v -4.944382e-01 8.028699e-02 3.937660e-01
v -4.945092e-01 8.233946e-02 4.020530e-01
v -4.939741e-01 8.376204e-02 4.098281e-01
v -4.934642e-01 8.519399e-02 4.175541e-01
v -4.936240e-01 8.727929e-02 4.256694e-01
v -4.931680e-01 8.873122e-02 4.332912e-01
v -4.933879e-01 9.083882e-02 4.412900e-01
v -4.942934e-01 9.360567e-02 4.496473e-01
v -4.952368e-01 9.638660e-02 4.579311e-01
v -4.955582e-01 9.853180e-02 4.657336e-01
v -4.959113e-01 1.006888e-01 4.734748e-01
v -4.956296e-01 1.022053e-01 4.807594e-01
v -4.940341e-01 1.024245e-01 4.872164e-01
v -4.924513e-01 1.026484e-01 4.936488e-01
v -4.902052e-01 1.022212e-01 4.996797e-01
v -4.879654e-01 1.017965e-01 5.056984e-01
v -4.864142e-01 1.020321e-01 5.120694e-01
v -4.848758e-01 1.022724e-01 5.184160e-01
v -4.826613e-01 1.018570e-01 5.243856e-01
v -4.818368e-01 1.027671e-01 5.310356e-01
v -4.817264e-01 1.043470e-01 5.379889e-01
v -4.802449e-01 1.046085e-01 5.442252e-01
v -5.784185e-01 9.688183e-02 2.089324e-01
v -5.757980e-01 9.632315e-02 2.156799e-01
v -5.737259e-01 9.638030e-02 2.230429e-01
v -5.705757e-01 9.521286e-02 2.291384e-01
v -5.679741e-01 9.466124e-02 2.358491e-01
v -5.659305e-01 9.472888e-02 2.431568e-01
v -5.638998e-01 9.480128e-02 2.504400e-01
v -5.618816e-01 9.487833e-02 2.576987e-01
v -5.604374e-01 9.558057e-02 2.655237e-01
v -5.584478e-01 9.566822e-02 2.727272e-01
v -5.547679e-01 9.389202e-02 2.781705e-01
v -5.510818e-01 9.211357e-02 2.836260e-01
v -5.485372e-01 9.158301e-02 2.902265e-01
v -5.454218e-01 9.042854e-02 2.962545e-01
v -5.423064e-01 8.927405e-02 3.022825e-01
v -5.380241e-01 8.686218e-02 3.072147e-01
v -5.325558e-01 8.318586e-02 3.110880e-01
v -5.294214e-01 8.202428e-02 3.171528e-01
v -5.256940e-01 8.023049e-02 3.226881e-01
v -5.219602e-01 7.843441e-02 3.282356e-01
v -5.188195e-01 7.727051e-02 3.343127e-01
v -5.156788e-01 7.610664e-02 3.403897e-01
v -5.119324e-01 7.430577e-02 3.459619e-01
v -5.087885e-01 7.314070e-02 3.520451e-01
v -5.062566e-01 7.261494e-02 3.586209e-01
v -5.043462e-01 7.273196e-02 3.656712e-01
v -5.043036e-01 7.477853e-02 3.741381e-01
v -5.036710e-01 7.619402e-02 3.820694e-01
v -5.024391e-01 7.697496e-02 3.894835e-01
v -5.024820e-01 7.905321e-02 3.977849e-01
v -5.025567e-01 8.114323e-02 4.060249e-01
v -5.020287e-01 8.259750e-02 4.137539e-01
v -5.015261e-01 8.406118e-02 4.214338e-01
v -5.010489e-01 8.553422e-02 4.290646e-01
v -5.012407e-01 8.766767e-02 4.370777e-01
v -5.014642e-01 8.981293e-02 4.450297e-01
v -5.017195e-01 9.196984e-02 4.529202e-01
v -5.020064e-01 9.413856e-02 4.607493e-01
v -5.029814e-01 9.697479e-02 4.689240e-01
v -5.033349e-01 9.916814e-02 4.766245e-01
v -5.017318e-01 9.939904e-02 4.830798e-01
v -5.001415e-01 9.963471e-02 4.895107e-01
v -4.985639e-01 9.987496e-02 4.959169e-01
v -4.963268e-01 9.945841e-02 5.019225e-01
v -4.947713e-01 9.970701e-02 5.082859e-01
v -4.932286e-01 9.996020e-02 5.146247e-01
v -4.903351e-01 9.888789e-02 5.202235e-01
v -4.874415e-01 9.781562e-02 5.258222e-01
v -4.873002e-01 9.941319e-02 5.328030e-01
v -4.858019e-01 9.968285e-02 5.390560e-01
v -4.843161e-01 9.995721e-02 5.452845e-01
v -5.795102e-01 9.047350e-02 2.164781e-01
v -5.774308e-01 9.054239e-02 2.238396e-01
v -5.748223e-01 8.999547e-02 2.305557e-01
v -5.727649e-01 9.007249e-02 2.378739e-01
v -5.712683e-01 9.077710e-02 2.457763e-01
v -5.703421e-01 9.211275e-02 2.542440e-01
v -5.688867e-01 9.283264e-02 2.620666e-01
v -5.674504e-01 9.355951e-02 2.698524e-01
v -5.649115e-01 9.303844e-02 2.764335e-01
v -5.618152e-01 9.189097e-02 2.824248e-01
v -5.592859e-01 9.137339e-02 2.889876e-01
v -5.561927e-01 9.022712e-02 2.949727e-01
v -5.525261e-01 8.844861e-02 3.003984e-01
v -5.488531e-01 8.666776e-02 3.058364e-01
v -5.445941e-01 8.425002e-02 3.107396e-01
v -5.397395e-01 8.119178e-02 3.151263e-01
v -5.366241e-01 8.003728e-02 3.211543e-01
v -5.329195e-01 7.824472e-02 3.266536e-01
v -5.286161e-01 7.581048e-02 3.316426e-01
v -5.254912e-01 7.465245e-02 3.376891e-01
v -5.235639e-01 7.477772e-02 3.447560e-01
v -5.204453e-01 7.362203e-02 3.507902e-01
v -5.173267e-01 7.246638e-02 3.568243e-01
v -5.142082e-01 7.131070e-02 3.628584e-01
v -5.129240e-01 7.209396e-02 3.703498e-01
v -5.128880e-01 7.417929e-02 3.787637e-01
v -5.116481e-01 7.497902e-02 3.861693e-01
v -5.110483e-01 7.643563e-02 3.940054e-01
v -5.110978e-01 7.855267e-02 4.022538e-01
v -5.105518e-01 8.002924e-02 4.099856e-01
v -5.100313e-01 8.151524e-02 4.176685e-01
v -5.089023e-01 8.235609e-02 4.248594e-01
v -5.090660e-01 8.451539e-02 4.328869e-01
v -5.099013e-01 8.734336e-02 4.412837e-01
v -5.101315e-01 8.952730e-02 4.491825e-01
v -5.097472e-01 9.106384e-02 4.566017e-01
v -5.100376e-01 9.327007e-02 4.643839e-01
v -5.103597e-01 9.548814e-02 4.721049e-01
v -5.100578e-01 9.705519e-02 4.793646e-01
v -5.084632e-01 9.730369e-02 4.857876e-01
v -5.062192e-01 9.689183e-02 4.917986e-01
v -5.046468e-01 9.714860e-02 4.981787e-01
v -5.030871e-01 9.741005e-02 5.045344e-01
v -5.008684e-01 9.700755e-02 5.104962e-01
v -4.979812e-01 9.593762e-02 5.160827e-01
v -4.950940e-01 9.486766e-02 5.216691e-01
v -4.922068e-01 9.379775e-02 5.272556e-01
v -4.906882e-01 9.407448e-02 5.335315e-01
v -4.891824e-01 9.435591e-02 5.397829e-01
v -4.869986e-01 9.396642e-02 5.456773e-01
v -5.827400e-01 8.657999e-02 2.265141e-01
v -5.801373e-01 8.604247e-02 2.332111e-01
v -5.791644e-01 8.738983e-02 2.417370e-01
v -5.782168e-01 8.874667e-02 2.502138e-01
v -5.772946e-01 9.011285e-02 2.586415e-01
v -5.763977e-01 9.148844e-02 2.670203e-01
v -5.744186e-01 9.160898e-02 2.741715e-01
v -5.724521e-01 9.173424e-02 2.812982e-01
v -5.704982e-01 9.186412e-02 2.884003e-01
v -5.679938e-01 9.136298e-02 2.949071e-01
v -5.637960e-01 8.895340e-02 2.997077e-01
v -5.595857e-01 8.653916e-02 3.045327e-01
v -5.559355e-01 8.475949e-02 3.099347e-01
v -5.528549e-01 8.361791e-02 3.158953e-01
v -5.480369e-01 8.055151e-02 3.202354e-01
v -5.437821e-01 7.812080e-02 3.251462e-01
v -5.418568e-01 7.826131e-02 3.321933e-01
v -5.381781e-01 7.647104e-02 3.376504e-01
v -5.339011e-01 7.403210e-02 3.426042e-01
v -5.308016e-01 7.288349e-02 3.486016e-01
v -5.277020e-01 7.173488e-02 3.545989e-01
v -5.264067e-01 7.253581e-02 3.620880e-01
v -5.245258e-01 7.269271e-02 3.690491e-01
v -5.220498e-01 7.220217e-02 3.755007e-01
v -5.208019e-01 7.302068e-02 3.828977e-01
v -5.201871e-01 7.450079e-02 3.907306e-01
v -5.195977e-01 7.599035e-02 3.985146e-01
v -5.190337e-01 7.748922e-02 4.062494e-01
v -5.184949e-01 7.899751e-02 4.139351e-01
v -5.179815e-01 8.051520e-02 4.215718e-01
v -5.168636e-01 8.138188e-02 4.287174e-01
v -5.170308e-01 8.357879e-02 4.366980e-01
v -5.178660e-01 8.645019e-02 4.450471e-01
v -5.180998e-01 8.867175e-02 4.528989e-01
v -5.177227e-01 9.023994e-02 4.602719e-01
v -5.186625e-01 9.315015e-02 4.684187e-01
v -5.183424e-01 9.473946e-02 4.756813e-01
v -5.167435e-01 9.500091e-02 4.820966e-01
v -5.151573e-01 9.526706e-02 4.884875e-01
v -5.135838e-01 9.553795e-02 4.948537e-01
v -5.106998e-01 9.446921e-02 5.004341e-01
v -5.078158e-01 9.340046e-02 5.060145e-01
v -5.055997e-01 9.300615e-02 5.119632e-01
v -5.033899e-01 9.261429e-02 5.178998e-01
v -4.998380e-01 9.087097e-02 5.231117e-01
v -4.969571e-01 8.980338e-02 5.286859e-01
v -4.947568e-01 8.941503e-02 5.346040e-01
v -4.925630e-01 8.902899e-02 5.405098e-01
v -4.896884e-01 8.796377e-02 5.460718e-01
v -5.912135e-01 8.643922e-02 2.329352e-01
v -5.897041e-01 8.718256e-02 2.408143e-01
v -5.887512e-01 8.856643e-02 2.492695e-01
v -5.883642e-01 9.059418e-02 2.582824e-01
v -5.863775e-01 9.072647e-02 2.654320e-01
v -5.849505e-01 9.150035e-02 2.731517e-01
v -5.824423e-01 9.100510e-02 2.796577e-01
v -5.804937e-01 9.115143e-02 2.867338e-01
v -5.791142e-01 9.194294e-02 2.943614e-01
v -5.755153e-01 9.017504e-02 2.996722e-01
v -5.707845e-01 8.711916e-02 3.038675e-01
v -5.671665e-01 8.534420e-02 3.092152e-01
v -5.641113e-01 8.421202e-02 3.151266e-01
v -5.610562e-01 8.307980e-02 3.210381e-01
v -5.562746e-01 8.000515e-02 3.253315e-01
v -5.520526e-01 7.757208e-02 3.301950e-01
v -5.489816e-01 7.643401e-02 3.361371e-01
v -5.459106e-01 7.529598e-02 3.420793e-01
v -5.422515e-01 7.350576e-02 3.475066e-01
v -5.391773e-01 7.236657e-02 3.534549e-01
v -5.366976e-01 7.188181e-02 3.599057e-01
v -5.354196e-01 7.271097e-02 3.673372e-01
v -5.341605e-01 7.354708e-02 3.747318e-01
v -5.317125e-01 7.307412e-02 3.811213e-01
v -5.298780e-01 7.326279e-02 3.879766e-01
v -5.286665e-01 7.411658e-02 3.952793e-01
v -5.274740e-01 7.497733e-02 4.025451e-01
v -5.269172e-01 7.650797e-02 4.102337e-01
v -5.263857e-01 7.804797e-02 4.178734e-01
v -5.265026e-01 8.026248e-02 4.259113e-01
v -5.260251e-01 8.182247e-02 4.334467e-01
v -5.262022e-01 8.405933e-02 4.413681e-01
v -5.264110e-01 8.630790e-02 4.492282e-01
v -5.253802e-01 8.722864e-02 4.561813e-01
v -5.262849e-01 9.016929e-02 4.643477e-01
v -5.265856e-01 9.245194e-02 4.720300e-01
v -5.256277e-01 9.339968e-02 4.788420e-01
v -5.240403e-01 9.367991e-02 4.852190e-01
v -5.224657e-01 9.396493e-02 4.915714e-01
v -5.202490e-01 9.357769e-02 4.975133e-01
v -5.173808e-01 9.251478e-02 5.030630e-01
v -5.138517e-01 9.077274e-02 5.082389e-01
v -5.109803e-01 8.970866e-02 5.137947e-01
v -5.087763e-01 8.932610e-02 5.197120e-01
v -5.052376e-01 8.758055e-02 5.249063e-01
v -5.016926e-01 8.583253e-02 5.301128e-01
v -4.994950e-01 8.545242e-02 5.360179e-01
v -4.966236e-01 8.438839e-02 5.415738e-01
v -4.951186e-01 8.469910e-02 5.477913e-01
v -6.012021e-01 8.831496e-02 2.412150e-01
v -6.023722e-01 9.228052e-02 2.521095e-01
v -6.019919e-01 9.434706e-02 2.610693e-01
v -6.000327e-01 9.450395e-02 2.681499e-01
v -5.964661e-01 9.274075e-02 2.734062e-01
v -5.939794e-01 9.226071e-02 2.798624e-01
v -5.914991e-01 9.178306e-02 2.863063e-01
v -5.890253e-01 9.130784e-02 2.927380e-01
v -5.860050e-01 9.018858e-02 2.985820e-01
v -5.829847e-01 8.906931e-02 3.044260e-01
v -5.788462e-01 8.665267e-02 3.091439e-01
v -5.746951e-01 8.423144e-02 3.138864e-01
v -5.705314e-01 8.180538e-02 3.186533e-01
v -5.680606e-01 8.133127e-02 3.250788e-01
v -5.638810e-01 7.889942e-02 3.298764e-01
v -5.591138e-01 7.580826e-02 3.341661e-01
v -5.554837e-01 7.402156e-02 3.395452e-01
v -5.530097e-01 7.354626e-02 3.459768e-01
v -5.499577e-01 7.241526e-02 3.518822e-01
v -5.474933e-01 7.194351e-02 3.582954e-01
v -5.456260e-01 7.213451e-02 3.651981e-01
v -5.431775e-01 7.166861e-02 3.715807e-01
v -5.413324e-01 7.186786e-02 3.784405e-01
v -5.394999e-01 7.207174e-02 3.852758e-01
v -5.376801e-01 7.228038e-02 3.920865e-01
v -5.370862e-01 7.382627e-02 3.998149e-01
v -5.371274e-01 7.604901e-02 4.079592e-01
v -5.365874e-01 7.761485e-02 4.155834e-01
v -5.360727e-01 7.919012e-02 4.231585e-01
v -5.355834e-01 8.077477e-02 4.306845e-01
v -5.351195e-01 8.236879e-02 4.381615e-01
v -5.353065e-01 8.464560e-02 4.460238e-01
v -5.342676e-01 8.558513e-02 4.529683e-01
v -5.332478e-01 8.653162e-02 4.598761e-01
v -5.335172e-01 8.883894e-02 4.675789e-01
v -5.331800e-01 9.047991e-02 4.748106e-01
v -5.315852e-01 9.077198e-02 4.811859e-01
v -5.306478e-01 9.174904e-02 4.879342e-01
v -5.290816e-01 9.205165e-02 4.942545e-01
v -5.268770e-01 9.167614e-02 5.001648e-01
v -5.240247e-01 9.061912e-02 5.056838e-01
v -5.211723e-01 8.956211e-02 5.112028e-01
v -5.183200e-01 8.850510e-02 5.167219e-01
v -5.154677e-01 8.744809e-02 5.222409e-01
v -5.112817e-01 8.501387e-02 5.270508e-01
v -5.070830e-01 8.257493e-02 5.318851e-01
v -5.048912e-01 8.220420e-02 5.377710e-01
v -5.027057e-01 8.183574e-02 5.436446e-01
v -6.149136e-01 9.757808e-02 2.633774e-01
v -6.129786e-01 9.775851e-02 2.703950e-01
v -6.094569e-01 9.600463e-02 2.755724e-01
v -6.053924e-01 9.360095e-02 2.801631e-01
v -6.023943e-01 9.248992e-02 2.859643e-01
v -5.993962e-01 9.137888e-02 2.917654e-01
v -5.958523e-01 8.961686e-02 2.969858e-01
v -5.923020e-01 8.785240e-02 3.022185e-01
v -5.892975e-01 8.673902e-02 3.080318e-01
v -5.862931e-01 8.562563e-02 3.138452e-01
v -5.821716e-01 8.320079e-02 3.185463e-01
v -5.780375e-01 8.077129e-02 3.232719e-01
v -5.750203e-01 7.965320e-02 3.291099e-01
v -5.708672e-01 7.721657e-02 3.338722e-01
v -5.672725e-01 7.543578e-02 3.391908e-01
v -5.642458e-01 7.431413e-02 3.450471e-01
v -5.612192e-01 7.319254e-02 3.509033e-01
v -5.587733e-01 7.273483e-02 3.572729e-01
v -5.557498e-01 7.161440e-02 3.631230e-01
v -5.527264e-01 7.049398e-02 3.689732e-01
v -5.508833e-01 7.070853e-02 3.758131e-01
v -5.490529e-01 7.092765e-02 3.826283e-01
v -5.478317e-01 7.182138e-02 3.899016e-01
v -5.466295e-01 7.272209e-02 3.971381e-01
v -5.466521e-01 7.497422e-02 4.052785e-01
v -5.461003e-01 7.656473e-02 4.128933e-01
v -5.455739e-01 7.816465e-02 4.204590e-01
v -5.444604e-01 7.909829e-02 4.275238e-01
v -5.433661e-01 8.003899e-02 4.345518e-01
v -5.429094e-01 8.166472e-02 4.419827e-01
v -5.424780e-01 8.329985e-02 4.493644e-01
v -5.420720e-01 8.494445e-02 4.566972e-01
v -5.416914e-01 8.659834e-02 4.639808e-01
v -5.407048e-01 8.757902e-02 4.708004e-01
v -5.403717e-01 8.925053e-02 4.779921e-01
v -5.387885e-01 8.956136e-02 4.843290e-01
v -5.365771e-01 8.919054e-02 4.902447e-01
v -5.356601e-01 9.019705e-02 4.969294e-01
v -5.334677e-01 8.983331e-02 5.028083e-01
v -5.306312e-01 8.878217e-02 5.082967e-01
v -5.277947e-01 8.773102e-02 5.137850e-01
v -5.249583e-01 8.667988e-02 5.192733e-01
v -5.214619e-01 8.493545e-02 5.244019e-01
v -5.172960e-01 8.249416e-02 5.291888e-01
v -5.137838e-01 8.074381e-02 5.343479e-01
v -6.241897e-01 9.917633e-02 2.709180e-01
v -6.212296e-01 9.807938e-02 2.766455e-01
v -6.172106e-01 9.567798e-02 2.811642e-01
v -6.137117e-01 9.392531e-02 2.863057e-01
v -6.102063e-01 9.217034e-02 2.914596e-01
v -6.061557e-01 8.975721e-02 2.960396e-01
v -6.020923e-01 8.733943e-02 3.006441e-01
v -5.991069e-01 8.623310e-02 3.064207e-01
v -5.955731e-01 8.446753e-02 3.116296e-01
v -5.920329e-01 8.269957e-02 3.168509e-01
v -5.884863e-01 8.092929e-02 3.220844e-01
v -5.854913e-01 7.981944e-02 3.278794e-01
v -5.824964e-01 7.870954e-02 3.336743e-01
v -5.795015e-01 7.759969e-02 3.394693e-01
v -5.770740e-01 7.715613e-02 3.457951e-01
v -5.740822e-01 7.604741e-02 3.515839e-01
v -5.705166e-01 7.427010e-02 3.568542e-01
v -5.675217e-01 7.316021e-02 3.626493e-01
v -5.651069e-01 7.272134e-02 3.689504e-01
v -5.621151e-01 7.161266e-02 3.747393e-01
v -5.602962e-01 7.185066e-02 3.815162e-01
v -5.590797e-01 7.276779e-02 3.887564e-01
v -5.578822e-01 7.369208e-02 3.959599e-01
v -5.572997e-01 7.530017e-02 4.036021e-01
v -5.561434e-01 7.623973e-02 4.107259e-01
v -5.556084e-01 7.786543e-02 4.182762e-01
v -5.544933e-01 7.882026e-02 4.253201e-01
v -5.533972e-01 7.978209e-02 4.323274e-01
v -5.517083e-01 8.006817e-02 4.388528e-01
v -5.506470e-01 8.104290e-02 4.457926e-01
v -5.496048e-01 8.202470e-02 4.526955e-01
v -5.492030e-01 8.369979e-02 4.599883e-01
v -5.494510e-01 8.607170e-02 4.676525e-01
v -5.491029e-01 8.776679e-02 4.748409e-01
v -5.475187e-01 8.809166e-02 4.811640e-01
v -5.459470e-01 8.842122e-02 4.874625e-01
v -5.437509e-01 8.806342e-02 4.933407e-01
v -5.422014e-01 8.840119e-02 4.995963e-01
v -5.400211e-01 8.804923e-02 5.054438e-01
v -5.372005e-01 8.700395e-02 5.109015e-01
v -5.343798e-01 8.595868e-02 5.163592e-01
v -5.309062e-01 8.421542e-02 5.214516e-01
v -5.267700e-01 8.177063e-02 5.261972e-01
v -5.239399e-01 8.072185e-02 5.316733e-01
v -6.307870e-01 9.762508e-02 2.753617e-01
v -6.273234e-01 9.587832e-02 2.804427e-01
v -6.238535e-01 9.412915e-02 2.855359e-01
v -6.209061e-01 9.303692e-02 2.912389e-01
v -6.174266e-01 9.128419e-02 2.963506e-01
v -6.128704e-01 8.820605e-02 3.003042e-01
v -6.077569e-01 8.445804e-02 3.037154e-01
v -6.047842e-01 8.335639e-02 3.094674e-01
v -6.018114e-01 8.225477e-02 3.152194e-01
v -5.982907e-01 8.048680e-02 3.204108e-01
v -5.947637e-01 7.871646e-02 3.256145e-01
v -5.923389e-01 7.828115e-02 3.319272e-01
v -5.899203e-01 7.784817e-02 3.382277e-01
v -5.869476e-01 7.674652e-02 3.439797e-01
v -5.845385e-01 7.631701e-02 3.502617e-01
v -5.815689e-01 7.521653e-02 3.560077e-01
v -5.785993e-01 7.411606e-02 3.617536e-01
v -5.762030e-01 7.369127e-02 3.680111e-01
v -5.743894e-01 7.394576e-02 3.747619e-01
v -5.720089e-01 7.352681e-02 3.809888e-01
v -5.702174e-01 7.378942e-02 3.876966e-01
v -5.690245e-01 7.473717e-02 3.948669e-01
v -5.678508e-01 7.569193e-02 4.020005e-01
v -5.661037e-01 7.597102e-02 4.086225e-01
v -5.649647e-01 7.693874e-02 4.156887e-01
v -5.638447e-01 7.791348e-02 4.227179e-01
v -5.627438e-01 7.889526e-02 4.297105e-01
v -5.622669e-01 8.057153e-02 4.371166e-01
v -5.599909e-01 8.019136e-02 4.431410e-01
v -5.583326e-01 8.050335e-02 4.495913e-01
v -5.573014e-01 8.151097e-02 4.564489e-01
v -5.569067e-01 8.321776e-02 4.636955e-01
v -5.571583e-01 8.562725e-02 4.713127e-01
v -5.561936e-01 8.665959e-02 4.780416e-01
v -5.546209e-01 8.700324e-02 4.843263e-01
v -5.530608e-01 8.735162e-02 4.905864e-01
v -5.508800e-01 8.700672e-02 4.964270e-01
v -5.487054e-01 8.666413e-02 5.022552e-01
v -5.465373e-01 8.632391e-02 5.080712e-01
v -5.437325e-01 8.528454e-02 5.134983e-01
v -5.409277e-01 8.424513e-02 5.189253e-01
v -5.368243e-01 8.179800e-02 5.236235e-01
v -5.320558e-01 7.864107e-02 5.279878e-01
v -5.292351e-01 7.759581e-02 5.334456e-01
v -6.328612e-01 9.307320e-02 2.836229e-01
v -6.294076e-01 9.132290e-02 2.886925e-01
v -6.259478e-01 8.957024e-02 2.937743e-01
v -6.224816e-01 8.781522e-02 2.988683e-01
v -6.184776e-01 8.539039e-02 3.033903e-01
v -6.139262e-01 8.229223e-02 3.073584e-01
v -6.104315e-01 8.052667e-02 3.125077e-01
v -6.074714e-01 7.942971e-02 3.182352e-01
v -6.045113e-01 7.833275e-02 3.239628e-01
v -6.020986e-01 7.790912e-02 3.302440e-01
v -5.996921e-01 7.748785e-02 3.365130e-01
v -5.967384e-01 7.639327e-02 3.422282e-01
v -5.937846e-01 7.529868e-02 3.479435e-01
v -5.913908e-01 7.488208e-02 3.541880e-01
v -5.895666e-01 7.514713e-02 3.609432e-01
v -5.866224e-01 7.405606e-02 3.666401e-01
v -5.836781e-01 7.296497e-02 3.723370e-01
v -5.824519e-01 7.392208e-02 3.795478e-01
v -5.806690e-01 7.420236e-02 3.862235e-01
v -5.783195e-01 7.380223e-02 3.923821e-01
v -5.771409e-01 7.477700e-02 3.995009e-01
v -5.753958e-01 7.507130e-02 4.061029e-01
v -5.742521e-01 7.605904e-02 4.131544e-01
v -5.725355e-01 7.636392e-02 4.197011e-01
v -5.714267e-01 7.736452e-02 4.266852e-01
v -5.703367e-01 7.837211e-02 4.336323e-01
v -5.698670e-01 8.008008e-02 4.409923e-01
v -5.676095e-01 7.971401e-02 4.469731e-01
v -5.659659e-01 8.004596e-02 4.533788e-01
v -5.655564e-01 8.177629e-02 4.606222e-01
v -5.657861e-01 8.421397e-02 4.682415e-01
v -5.648134e-01 8.526503e-02 4.749618e-01
v -5.632396e-01 8.562282e-02 4.812326e-01
v -5.616784e-01 8.598531e-02 4.874789e-01
v -5.601299e-01 8.635249e-02 4.937008e-01
v -5.585940e-01 8.672436e-02 4.998980e-01
v -5.570709e-01 8.710096e-02 5.060707e-01
v -5.555604e-01 8.748218e-02 5.122189e-01
v -5.527841e-01 8.645333e-02 5.175907e-01
v -5.493654e-01 8.471595e-02 5.225928e-01
v -5.427126e-01 7.942753e-02 5.257890e-01
v -5.379679e-01 7.625766e-02 5.301312e-01
v -5.351599e-01 7.521710e-02 5.355644e-01
v -6.344137e-01 8.789385e-02 2.912407e-01
v -6.304458e-01 8.546781e-02 2.957089e-01
v -6.264650e-01 8.303712e-02 3.002018e-01
v -6.229993e-01 8.127504e-02 3.053028e-01
v -6.195274e-01 7.951070e-02 3.104161e-01
v -6.165831e-01 7.841961e-02 3.161130e-01
v -6.136389e-01 7.732854e-02 3.218097e-01
v -6.106946e-01 7.623745e-02 3.275067e-01
v -6.082939e-01 7.582555e-02 3.337564e-01
v -6.058997e-01 7.541603e-02 3.399939e-01
v -6.035117e-01 7.500885e-02 3.462192e-01
v -6.005770e-01 7.392132e-02 3.518977e-01
v -5.987548e-01 7.420162e-02 3.586330e-01
v -5.969452e-01 7.448654e-02 3.653437e-01
v -5.940232e-01 7.340369e-02 3.709976e-01
v -5.916670e-01 7.300829e-02 3.771616e-01
v -5.898860e-01 7.330382e-02 3.838171e-01
v -5.881177e-01 7.360401e-02 3.904481e-01
v -5.863620e-01 7.390900e-02 3.970547e-01
v -5.846191e-01 7.421859e-02 4.036366e-01
v -5.834705e-01 7.522623e-02 4.106734e-01
v -5.817560e-01 7.554640e-02 4.172002e-01
v -5.800543e-01 7.587138e-02 4.237025e-01
v -5.783651e-01 7.620093e-02 4.301802e-01
v -5.772831e-01 7.723321e-02 4.370882e-01
v -5.768174e-01 7.897180e-02 4.444082e-01
v -5.751759e-01 7.931895e-02 4.507939e-01
v -5.735471e-01 7.967085e-02 4.571550e-01
v -5.737518e-01 8.213556e-02 4.647826e-01
v -5.727679e-01 8.320422e-02 4.715005e-01
v -5.718031e-01 8.428005e-02 4.781817e-01
v -5.702408e-01 8.465656e-02 4.844141e-01
v -5.686912e-01 8.503786e-02 4.906220e-01
v -5.671542e-01 8.542379e-02 4.968054e-01
v -5.662560e-01 8.652426e-02 5.033577e-01
v -5.653767e-01 8.763171e-02 5.098733e-01
v -5.632518e-01 8.732203e-02 5.155896e-01
v -5.624042e-01 8.844119e-02 5.220438e-01
v -5.583823e-01 8.599526e-02 5.266164e-01
v -6.383685e-01 8.314861e-02 2.925815e-01
v -6.344111e-01 8.071204e-02 2.970453e-01
v -6.309618e-01 7.894880e-02 3.021226e-01
v -6.280302e-01 7.786241e-02 3.077950e-01
v -6.245715e-01 7.609563e-02 3.128906e-01
v -6.216368e-01 7.500809e-02 3.185691e-01
v -6.187021e-01 7.392053e-02 3.242475e-01
v -6.163040e-01 7.351692e-02 3.304843e-01
v -6.139123e-01 7.311565e-02 3.367088e-01
v -6.115269e-01 7.271669e-02 3.429209e-01
v -6.096942e-01 7.300751e-02 3.496607e-01
v -6.073247e-01 7.261448e-02 3.558423e-01
v -6.055140e-01 7.291351e-02 3.625391e-01
v -6.037161e-01 7.321726e-02 3.692115e-01
v -6.019307e-01 7.352571e-02 3.758593e-01
v -5.995961e-01 7.314555e-02 3.819734e-01
v -5.972678e-01 7.276777e-02 3.880752e-01
v -5.960826e-01 7.378361e-02 3.951586e-01
v -5.949164e-01 7.480654e-02 4.022053e-01
v -5.931945e-01 7.513847e-02 4.087305e-01
v -5.909074e-01 7.477589e-02 4.147526e-01
v -5.886267e-01 7.441574e-02 4.207624e-01
v -5.869364e-01 7.475944e-02 4.272263e-01
v -5.858464e-01 7.581054e-02 4.341258e-01
v -5.841847e-01 7.616479e-02 4.405344e-01
v -5.825357e-01 7.652375e-02 4.469185e-01
v -5.808994e-01 7.688740e-02 4.532782e-01
v -5.804759e-01 7.867055e-02 4.604845e-01
v -5.806811e-01 8.117169e-02 4.680713e-01
v -5.797051e-01 8.226500e-02 4.747500e-01
v -5.793576e-01 8.407636e-02 4.818091e-01
v -5.778101e-01 8.447295e-02 4.879971e-01
v -5.756592e-01 8.416086e-02 4.937554e-01
v -5.741338e-01 8.456563e-02 4.999004e-01
v -5.726211e-01 8.497511e-02 5.060209e-01
v -5.711211e-01 8.538923e-02 5.121168e-01
v -5.683765e-01 8.437215e-02 5.174273e-01
v -6.407834e-01 7.637048e-02 2.921198e-01
v -6.383689e-01 7.596803e-02 2.983801e-01
v -6.354437e-01 7.488399e-02 3.040402e-01
v -6.325184e-01 7.379996e-02 3.097003e-01
v -6.295932e-01 7.271591e-02 3.153603e-01
v -6.266680e-01 7.163187e-02 3.210204e-01
v -6.242726e-01 7.123648e-02 3.272440e-01
v -6.218836e-01 7.084343e-02 3.334555e-01
v -6.195008e-01 7.045272e-02 3.396546e-01
v -6.171244e-01 7.006432e-02 3.458415e-01
v -6.152968e-01 7.037155e-02 3.525551e-01
v -6.129362e-01 6.998908e-02 3.587113e-01
v -6.116796e-01 7.100024e-02 3.659089e-01
v -6.098901e-01 7.132160e-02 3.725490e-01
v -6.081132e-01 7.164769e-02 3.791645e-01
v -6.063490e-01 7.197846e-02 3.857556e-01
v -6.040360e-01 7.161361e-02 3.918197e-01
v -6.028586e-01 7.265409e-02 3.988640e-01
v -6.011325e-01 7.299898e-02 4.053815e-01
v -5.994189e-01 7.334851e-02 4.118744e-01
v -5.977181e-01 7.370282e-02 4.183428e-01
v -5.954527e-01 7.335556e-02 4.243150e-01
v -5.937740e-01 7.371801e-02 4.307405e-01
v -5.915244e-01 7.337663e-02 4.366820e-01
v -5.892811e-01 7.303760e-02 4.426114e-01
v -5.876341e-01 7.341180e-02 4.489755e-01
v -5.865931e-01 7.450283e-02 4.557561e-01
v -5.867637e-01 7.702748e-02 4.633695e-01
v -5.875656e-01 8.027821e-02 4.713503e-01
v -5.878028e-01 8.282748e-02 4.788349e-01
v -5.874658e-01 8.467170e-02 4.858418e-01
v -5.859362e-01 8.508940e-02 4.919790e-01
v -5.838070e-01 8.479268e-02 4.976876e-01
v -5.816841e-01 8.449825e-02 5.033838e-01
v -5.795676e-01 8.420614e-02 5.090679e-01
v -6.412989e-01 6.985849e-02 2.985264e-01
v -6.399107e-01 7.084261e-02 3.059546e-01
v -6.369918e-01 6.976092e-02 3.116024e-01
v -6.340730e-01 6.867926e-02 3.172502e-01
v -6.316770e-01 6.829091e-02 3.234670e-01
v -6.292874e-01 6.790486e-02 3.296713e-01
v -6.269040e-01 6.752117e-02 3.358636e-01
v -6.250595e-01 6.783666e-02 3.425940e-01
v -6.232276e-01 6.815686e-02 3.493000e-01
v -6.214084e-01 6.848178e-02 3.559814e-01
v -6.190600e-01 6.811104e-02 3.621061e-01
v -6.172629e-01 6.844416e-02 3.687446e-01
v -6.154786e-01 6.878193e-02 3.753586e-01
v -6.142584e-01 6.982837e-02 3.824617e-01
v -6.125026e-01 7.017676e-02 3.890205e-01
v -6.107594e-01 7.052987e-02 3.955548e-01
v -6.090290e-01 7.088764e-02 4.020645e-01
v -6.078753e-01 7.195867e-02 4.090388e-01
v -6.061734e-01 7.232707e-02 4.154933e-01
v -6.039137e-01 7.198920e-02 4.214464e-01
v -6.016603e-01 7.165366e-02 4.273871e-01
v -5.988365e-01 7.060720e-02 4.328510e-01
v -5.965926e-01 7.027521e-02 4.387734e-01
v -5.943551e-01 6.994555e-02 4.446835e-01
v -5.932965e-01 7.105182e-02 4.514739e-01
v -5.928465e-01 7.288321e-02 4.586678e-01
v -5.936069e-01 7.616214e-02 4.666805e-01
v -5.950012e-01 8.017560e-02 4.750476e-01
v -5.955145e-01 8.536108e-02 4.898616e-01
v -5.906781e-01 8.406831e-02 5.008002e-01
v -6.452494e-01 6.512614e-02 2.998596e-01
v -6.438531e-01 6.612914e-02 3.072793e-01
v -6.414503e-01 6.574545e-02 3.135013e-01
v -6.385378e-01 6.466615e-02 3.191368e-01
v -6.356252e-01 6.358679e-02 3.247724e-01
v -6.332350e-01 6.320783e-02 3.309699e-01
v -6.313767e-01 6.353269e-02 3.377110e-01
v -6.300596e-01 6.456499e-02 3.449773e-01
v -6.287617e-01 6.560437e-02 3.522069e-01
v -6.269477e-01 6.594571e-02 3.588622e-01
v -6.246083e-01 6.558552e-02 3.649615e-01
v -6.228164e-01 6.593505e-02 3.715739e-01
v -6.210373e-01 6.628932e-02 3.781617e-01
v -6.198186e-01 6.735808e-02 3.852380e-01
v -6.186189e-01 6.843384e-02 3.922775e-01
v -6.168841e-01 6.880452e-02 3.987794e-01
v -6.151620e-01 6.917991e-02 4.052568e-01
v -6.140130e-01 7.027447e-02 4.121982e-01
v -6.123196e-01 7.066045e-02 4.186204e-01
v -6.100720e-01 7.033434e-02 4.245420e-01
v -6.078307e-01 7.001053e-02 4.304513e-01
v -6.044497e-01 6.825087e-02 4.354206e-01
v -6.016385e-01 6.720911e-02 4.408600e-01
v -5.999862e-01 6.761029e-02 4.472024e-01
v -5.989291e-01 6.873898e-02 4.539660e-01
v -5.984768e-01 7.059844e-02 4.611320e-01
v -5.998164e-01 7.464241e-02 4.695487e-01
v -6.017926e-01 7.942900e-02 4.783065e-01
v -6.522090e-01 6.460778e-02 3.047423e-01
v -6.472821e-01 6.072586e-02 3.080166e-01
v -6.448756e-01 6.034804e-02 3.142379e-01
v -6.424753e-01 5.997259e-02 3.204468e-01
v -6.400813e-01 5.959948e-02 3.266435e-01
v -6.382124e-01 5.993501e-02 3.333892e-01
v -6.363561e-01 6.027511e-02 3.401103e-01
v -6.355623e-01 6.203711e-02 3.479048e-01
v -6.342660e-01 6.309882e-02 3.551074e-01
v -6.324572e-01 6.345662e-02 3.617366e-01
v -6.306611e-01 6.381907e-02 3.683412e-01
v -6.288777e-01 6.418627e-02 3.749213e-01
v -6.265661e-01 6.384366e-02 3.809585e-01
v -6.248050e-01 6.421916e-02 3.874957e-01
v -6.236036e-01 6.531601e-02 3.945144e-01
v -6.224212e-01 6.641994e-02 4.014961e-01
v -6.212579e-01 6.753095e-02 4.084412e-01
v -6.206702e-01 6.936933e-02 4.158371e-01
v -6.184284e-01 6.905263e-02 4.217395e-01
v -6.161929e-01 6.873825e-02 4.276296e-01
v -6.139637e-01 6.842619e-02 4.335075e-01
v -6.100330e-01 6.594146e-02 4.379838e-01
v -6.072346e-01 6.490442e-02 4.433986e-01
v -6.050118e-01 6.459474e-02 4.492642e-01
v -6.039530e-01 6.574444e-02 4.560069e-01
v -6.046592e-01 6.909044e-02 4.640285e-01
v -6.483008e-01 5.495066e-02 3.149744e-01
v -6.458969e-01 5.458102e-02 3.211825e-01
v -6.445226e-01 5.563572e-02 3.285115e-01
v -6.431675e-01 5.669732e-02 3.358037e-01
v -6.418312e-01 5.776605e-02 3.430591e-01
v -6.410353e-01 5.955623e-02 3.508258e-01
v -6.402648e-01 6.135591e-02 3.585435e-01
v -6.384644e-01 6.173125e-02 3.651404e-01
v -6.366768e-01 6.211144e-02 3.717127e-01
v -6.349017e-01 6.249619e-02 3.782606e-01
v -6.326023e-01 6.216536e-02 3.842664e-01
v -6.303093e-01 6.183691e-02 3.902599e-01
v -6.285659e-01 6.223344e-02 3.967464e-01
v -6.273819e-01 6.335850e-02 4.037075e-01
v -6.273164e-01 6.594077e-02 4.116177e-01
v -6.261767e-01 6.708225e-02 4.184928e-01
v -6.244999e-01 6.750347e-02 4.248505e-01
v -6.228358e-01 6.792934e-02 4.311838e-01
v -6.194971e-01 6.617082e-02 4.360872e-01
v -6.161521e-01 6.440999e-02 4.410029e-01
v -6.128007e-01 6.264662e-02 4.459309e-01
v -6.105869e-01 6.234762e-02 4.517711e-01
v -6.095296e-01 6.351963e-02 4.584868e-01
v -6.090696e-01 6.543437e-02 4.656036e-01
v -6.109607e-01 7.030549e-02 4.743977e-01
v -6.493184e-01 4.918950e-02 3.219182e-01
v -6.484410e-01 5.097851e-02 3.298106e-01
v -6.486113e-01 5.421294e-02 3.387730e-01
v -6.483053e-01 5.674226e-02 3.471083e-01
v -6.475134e-01 5.856297e-02 3.548351e-01
v -6.462264e-01 5.967167e-02 3.619716e-01
v -6.449582e-01 6.078738e-02 3.690712e-01
v -6.426551e-01 6.046243e-02 3.750763e-01
v -6.403583e-01 6.013982e-02 3.810691e-01
v -6.375345e-01 5.909335e-02 3.865329e-01
v -6.347107e-01 5.804692e-02 3.919967e-01
v -6.335059e-01 5.918612e-02 3.989737e-01
v -6.328631e-01 6.106206e-02 4.064122e-01
v -6.327916e-01 6.367828e-02 4.142938e-01
v -6.322026e-01 6.557423e-02 4.216281e-01
v -6.310865e-01 6.674631e-02 4.284334e-01
v -6.283230e-01 6.572219e-02 4.337808e-01
v -6.255594e-01 6.469807e-02 4.391281e-01
v -6.222340e-01 6.293717e-02 4.440139e-01
v -6.189021e-01 6.117392e-02 4.489121e-01
v -6.161322e-01 6.014747e-02 4.542716e-01
v -6.139337e-01 5.986128e-02 4.600743e-01
v -6.134651e-01 6.180181e-02 4.671755e-01
v -6.124442e-01 6.300907e-02 4.737969e-01
v -6.550402e-01 5.322321e-02 3.428534e-01
v -6.539469e-01 5.764026e-02 3.588347e-01
v -6.531845e-01 5.950091e-02 3.664724e-01
v -6.514073e-01 5.991394e-02 3.729926e-01
v -6.485962e-01 5.887221e-02 3.784318e-01
v -6.457850e-01 5.783048e-02 3.838711e-01
v -6.424443e-01 5.605660e-02 3.887946e-01
v -6.396300e-01 5.501367e-02 3.942400e-01
v -6.384235e-01 5.617400e-02 4.011963e-01
v -6.383144e-01 5.881258e-02 4.091106e-01
v -6.387793e-01 6.219971e-02 4.174550e-01
v -6.387367e-01 6.486290e-02 4.252406e-01
v -6.370799e-01 6.532049e-02 4.315277e-01
v -6.337804e-01 6.356198e-02 4.363714e-01
v -6.310295e-01 6.254257e-02 4.416942e-01
v -6.277204e-01 6.078050e-02 4.465563e-01
v -6.238437e-01 5.827221e-02 4.509762e-01
v -6.205187e-01 5.650430e-02 4.558689e-01
v -6.183228e-01 5.622630e-02 4.616585e-01
v -6.178457e-01 5.819266e-02 4.687443e-01
v -6.598255e-01 5.605587e-02 3.622790e-01
v -6.572953e-01 5.837659e-02 3.763707e-01
v -6.545000e-01 5.734073e-02 3.817793e-01
v -6.511820e-01 5.556805e-02 3.866668e-01
v -6.483835e-01 5.453102e-02 3.920816e-01
v -6.455851e-01 5.349397e-02 3.974963e-01
v -6.438510e-01 5.393749e-02 4.039167e-01
v -6.437360e-01 5.661010e-02 4.118025e-01
v -6.441911e-01 6.003707e-02 4.201176e-01
v -6.441426e-01 6.273437e-02 4.278747e-01
v -6.331770e-01 5.867075e-02 4.490922e-01
v -6.282052e-01 5.465612e-02 4.525817e-01
v -6.248904e-01 5.288460e-02 4.574630e-01
v -6.232610e-01 5.336697e-02 4.636810e-01
v -6.216442e-01 5.385389e-02 4.698745e-01
v -6.638874e-01 5.497143e-02 3.722077e-01
v -6.621206e-01 5.541728e-02 3.786755e-01
v -6.593349e-01 5.438494e-02 3.840658e-01
v -6.555111e-01 5.186733e-02 3.884152e-01
v -6.527189e-01 5.083264e-02 3.938178e-01
v -6.499268e-01 4.979794e-02 3.992202e-01
v -6.481918e-01 5.025553e-02 4.056267e-01
v -6.491277e-01 5.445461e-02 4.144880e-01
v -6.495732e-01 5.792150e-02 4.227738e-01
v -6.484426e-01 5.915349e-02 4.295351e-01
