v -4.291397e-01 1.727300e-01 1.672216e-01
v -4.187589e-01 1.731083e-01 1.720799e-01
v -4.065728e-01 1.759715e-01 1.876262e-01
v -3.964084e-01 1.763668e-01 1.924845e-01
v -4.270845e-01 1.670417e-01 1.842928e-01
v -4.169837e-01 1.672303e-01 1.881718e-01
v -4.059130e-01 1.688161e-01 1.978698e-01
v -3.959658e-01 1.690168e-01 2.017491e-01
v -3.860746e-01 1.692218e-01 2.056282e-01
v -3.762391e-01 1.694313e-01 2.095075e-01
v -3.663164e-01 1.698794e-01 2.143565e-01
v -3.567358e-01 1.698633e-01 2.172658e-01
v -3.198385e-01 1.871007e-01 2.967891e-01
v -3.112594e-01 1.864266e-01 2.967891e-01
v -3.022757e-01 1.867030e-01 3.006684e-01
v -2.933477e-01 1.869837e-01 3.045475e-01
v -4.255699e-01 1.608420e-01 1.984043e-01
v -4.153723e-01 1.613024e-01 2.032440e-01
v -4.043870e-01 1.629626e-01 2.129234e-01
v -3.943639e-01 1.634368e-01 2.177631e-01
v -3.844107e-01 1.639164e-01 2.226028e-01
v -3.745273e-01 1.644015e-01 2.274425e-01
v -3.648572e-01 1.646510e-01 2.313144e-01
v -3.556530e-01 1.641801e-01 2.322822e-01
v -3.196787e-01 1.805314e-01 3.058459e-01
v -3.109311e-01 1.803487e-01 3.077818e-01
v -3.021097e-01 1.804126e-01 3.106856e-01
v -2.931407e-01 1.809695e-01 3.155253e-01
v -4.334569e-01 1.552844e-01 2.115054e-01
v -4.240427e-01 1.548038e-01 2.124714e-01
v -4.139262e-01 1.553044e-01 2.173018e-01
v -4.033635e-01 1.565474e-01 2.250305e-01
v -3.930774e-01 1.575529e-01 2.317931e-01
v -3.828891e-01 1.585662e-01 2.385558e-01
v -3.724963e-01 1.600816e-01 2.472505e-01
v -3.625173e-01 1.611112e-01 2.540131e-01
v -3.524990e-01 1.623970e-01 2.617417e-01
v -3.278696e-01 1.749721e-01 3.158425e-01
v -3.193952e-01 1.743062e-01 3.158425e-01
v -3.105932e-01 1.743919e-01 3.187408e-01
v -3.018331e-01 1.744809e-01 3.216390e-01
v -2.930195e-01 1.748248e-01 3.255034e-01
v -5.269513e-01 1.435742e-01 1.773184e-01
v -5.162110e-01 1.440597e-01 1.821395e-01
v -5.048134e-01 1.452912e-01 1.898532e-01
v -4.947043e-01 1.452945e-01 1.927459e-01
v -4.866932e-01 1.430697e-01 1.869607e-01
v -4.759408e-01 1.438201e-01 1.927459e-01
v -4.320272e-01 1.491438e-01 2.245655e-01
v -4.223162e-01 1.491784e-01 2.274582e-01
v -4.126469e-01 1.492163e-01 2.303509e-01
v -4.021567e-01 1.505191e-01 2.380648e-01
v -3.916125e-01 1.520835e-01 2.467428e-01
v -3.807182e-01 1.544182e-01 2.583136e-01
v -3.698396e-01 1.570199e-01 2.708486e-01
v -3.595765e-01 1.588723e-01 2.804909e-01
v -3.493155e-01 1.609908e-01 2.910973e-01
v -3.273981e-01 1.691064e-01 3.267739e-01
v -3.186363e-01 1.692156e-01 3.296666e-01
v -3.100262e-01 1.690708e-01 3.315950e-01
v -3.018553e-01 1.678970e-01 3.296666e-01
v -5.436783e-01 1.386774e-01 1.904285e-01
v -5.347893e-01 1.374336e-01 1.885038e-01
v -5.245880e-01 1.374500e-01 1.913910e-01
v -5.136789e-01 1.382288e-01 1.971653e-01
v -5.035824e-01 1.382534e-01 2.000523e-01
v -4.942355e-01 1.375189e-01 2.000523e-01
v -4.844307e-01 1.372939e-01 2.019771e-01
v -4.739878e-01 1.378366e-01 2.067890e-01
v -4.631848e-01 1.388963e-01 2.135256e-01
v -4.524796e-01 1.399637e-01 2.202621e-01
v -4.416709e-01 1.412957e-01 2.279611e-01
v -4.307800e-01 1.428939e-01 2.366225e-01
v -4.202018e-01 1.442439e-01 2.443214e-01
v -4.104555e-01 1.445688e-01 2.481711e-01
v -3.998997e-01 1.461932e-01 2.568323e-01
v -3.889710e-01 1.486064e-01 2.683809e-01
v -3.783690e-01 1.507726e-01 2.789669e-01
v -3.676162e-01 1.534722e-01 2.914777e-01
v -3.570449e-01 1.561861e-01 3.039886e-01
v -3.470698e-01 1.581289e-01 3.136123e-01
v -3.171611e-01 1.658672e-01 3.492202e-01
v -3.086756e-01 1.657457e-01 3.511450e-01
v -5.430348e-01 1.308881e-01 1.977349e-01
v -5.336531e-01 1.301509e-01 1.977349e-01
v -5.222120e-01 1.314874e-01 2.054190e-01
v -5.111330e-01 1.325728e-01 2.121427e-01
v -5.013691e-01 1.323645e-01 2.140638e-01
v -4.921060e-01 1.316367e-01 2.140638e-01
v -4.821545e-01 1.316930e-01 2.169452e-01
v -4.720222e-01 1.320146e-01 2.207874e-01
v -4.617303e-01 1.326030e-01 2.255900e-01
v -4.510912e-01 1.337230e-01 2.323135e-01
v -4.405497e-01 1.348507e-01 2.390371e-01
v -4.295222e-01 1.367786e-01 2.486424e-01
v -4.188219e-01 1.384526e-01 2.572870e-01
v -4.086085e-01 1.396061e-01 2.640106e-01
v -3.979719e-01 1.415646e-01 2.736158e-01
v -3.868082e-01 1.445995e-01 2.870631e-01
v -3.761594e-01 1.471159e-01 2.985892e-01
v -3.656781e-01 1.496455e-01 3.101154e-01
v -3.547815e-01 1.532601e-01 3.254837e-01
v -3.439695e-01 1.571609e-01 3.418126e-01
v -3.143710e-01 1.657330e-01 3.792726e-01
v -3.059760e-01 1.659116e-01 3.821542e-01
v -2.972077e-01 1.671787e-01 3.888778e-01
v -5.418423e-01 1.236958e-01 2.069401e-01
v -5.317147e-01 1.237586e-01 2.098160e-01
v -5.203392e-01 1.251544e-01 2.174853e-01
v -5.090754e-01 1.265590e-01 2.251546e-01
v -4.984112e-01 1.274383e-01 2.309067e-01
v -4.892528e-01 1.267186e-01 2.309067e-01
v -4.800944e-01 1.259990e-01 2.309067e-01
v -4.700439e-01 1.263540e-01 2.347412e-01
v -4.591848e-01 1.277904e-01 2.424105e-01
v -4.484377e-01 1.292356e-01 2.500799e-01
v -4.388125e-01 1.293379e-01 2.529559e-01
v -4.284490e-01 1.305269e-01 2.596664e-01
v -4.178067e-01 1.322666e-01 2.682944e-01
v -4.074713e-01 1.337440e-01 2.759636e-01
v -3.968992e-01 1.357754e-01 2.855502e-01
v -3.861323e-01 1.383638e-01 2.970543e-01
v -3.748922e-01 1.420598e-01 3.123927e-01
v -3.649479e-01 1.438543e-01 3.210208e-01
v -3.415369e-01 1.551801e-01 3.651192e-01
v -3.313713e-01 1.586744e-01 3.794990e-01
v -3.221671e-01 1.605270e-01 3.881271e-01
v -3.135619e-01 1.612818e-01 3.929204e-01
v -3.051377e-01 1.617647e-01 3.967550e-01
v -2.965608e-01 1.628080e-01 4.025070e-01
v -5.504853e-01 1.167852e-01 2.142057e-01
v -5.406424e-01 1.165977e-01 2.161193e-01
v -5.302966e-01 1.169567e-01 2.199464e-01
v -5.192312e-01 1.181380e-01 2.266441e-01
v -5.077604e-01 1.198734e-01 2.352553e-01
v -4.971490e-01 1.207975e-01 2.409962e-01
v -4.882840e-01 1.198079e-01 2.400393e-01
v -4.794051e-01 1.188173e-01 2.390825e-01
v -4.689471e-01 1.197534e-01 2.448233e-01
v -4.572734e-01 1.223518e-01 2.563050e-01
v -4.461865e-01 1.244104e-01 2.658730e-01
v -4.366575e-01 1.245406e-01 2.687434e-01
v -4.267792e-01 1.252292e-01 2.735275e-01
v -4.169707e-01 1.259234e-01 2.783115e-01
v -4.066868e-01 1.274591e-01 2.859659e-01
v -3.958159e-01 1.301207e-01 2.974477e-01
v -3.851125e-01 1.327954e-01 3.089294e-01
v -3.395005e-01 1.526494e-01 3.854738e-01
v -3.305222e-01 1.539948e-01 3.921714e-01
v -3.215159e-01 1.556309e-01 3.998259e-01
v -3.128589e-01 1.567085e-01 4.055666e-01
v -3.046213e-01 1.569401e-01 4.084370e-01
v -2.971600e-01 1.551820e-01 4.046099e-01
v -5.495102e-01 1.094863e-01 2.224075e-01
v -5.386162e-01 1.104288e-01 2.281373e-01
v -5.278061e-01 1.113779e-01 2.338670e-01
v -5.170798e-01 1.123335e-01 2.395965e-01
v -5.059331e-01 1.138556e-01 2.472361e-01
v -4.956333e-01 1.145450e-01 2.520109e-01
v -4.868316e-01 1.135537e-01 2.510561e-01
v -4.775539e-01 1.131244e-01 2.520109e-01
v -4.671695e-01 1.141069e-01 2.577407e-01
v -4.562177e-01 1.159441e-01 2.663351e-01
v -4.453914e-01 1.177912e-01 2.749298e-01
v -4.353003e-01 1.187967e-01 2.806594e-01
v -4.252930e-01 1.198088e-01 2.863891e-01
v -4.159369e-01 1.199729e-01 2.892540e-01
v -4.062583e-01 1.207112e-01 2.940288e-01
v -3.945468e-01 1.248866e-01 3.102628e-01
v -3.663524e-01 1.430541e-01 3.751994e-01
v -3.565159e-01 1.455784e-01 3.857038e-01
v -3.466856e-01 1.484030e-01 3.971633e-01
v -3.384263e-01 1.483535e-01 3.990732e-01
v -3.299282e-01 1.488847e-01 4.028928e-01
v -3.214859e-01 1.494204e-01 4.067128e-01
v -3.130995e-01 1.499603e-01 4.105324e-01
v -3.044316e-01 1.513775e-01 4.172171e-01
v -5.574554e-01 1.032761e-01 2.315403e-01
v -5.471263e-01 1.036906e-01 2.353527e-01
v -5.352121e-01 1.058196e-01 2.448835e-01
v -5.242370e-01 1.071028e-01 2.515551e-01
v -5.138786e-01 1.078215e-01 2.563206e-01
v -5.035901e-01 1.085457e-01 2.610861e-01
v -4.938626e-01 1.087009e-01 2.639454e-01
v -4.844154e-01 1.085716e-01 2.658515e-01
v -4.749963e-01 1.084446e-01 2.677578e-01
v -4.653804e-01 1.086085e-01 2.706170e-01
v -4.551535e-01 1.096440e-01 2.763356e-01
v -4.447996e-01 1.109761e-01 2.830072e-01
v -4.345435e-01 1.123159e-01 2.896790e-01
v -4.241885e-01 1.139544e-01 2.973037e-01
v -4.145142e-01 1.147268e-01 3.020692e-01
v -4.049097e-01 1.155047e-01 3.068347e-01
v -3.722390e-01 1.408310e-01 3.935661e-01
v -3.638948e-01 1.407883e-01 3.954722e-01
v -3.546496e-01 1.425141e-01 4.030971e-01
v -3.459596e-01 1.433638e-01 4.078624e-01
v -3.376212e-01 1.436282e-01 4.107218e-01
v -3.295923e-01 1.433038e-01 4.116749e-01
v -3.219582e-01 1.420909e-01 4.097686e-01
v -3.135766e-01 1.426584e-01 4.135811e-01
v -3.050250e-01 1.438255e-01 4.192995e-01
v -6.048201e-01 1.062108e-01 2.587204e-01
v -5.970858e-01 1.043499e-01 2.549156e-01
v -5.870845e-01 1.045039e-01 2.577693e-01
v -5.758893e-01 1.058173e-01 2.644280e-01
v -5.518174e-01 1.007929e-01 2.549156e-01
v -5.433258e-01 9.949903e-02 2.530131e-01
v -5.326140e-01 1.005371e-01 2.587204e-01
v -5.219861e-01 1.015817e-01 2.644280e-01
v -5.117018e-01 1.023401e-01 2.691840e-01
v -5.019936e-01 1.025171e-01 2.720379e-01
v -4.923273e-01 1.026975e-01 2.748916e-01
v -4.824637e-01 1.031756e-01 2.786964e-01
v -4.733524e-01 1.027730e-01 2.796478e-01
v -4.635796e-01 1.032582e-01 2.834526e-01
v -4.532081e-01 1.046363e-01 2.901113e-01
v -4.433567e-01 1.054286e-01 2.948675e-01
v -4.335751e-01 1.062265e-01 2.996238e-01
v -4.234689e-01 1.076255e-01 3.062824e-01
v -4.125091e-01 1.105238e-01 3.176971e-01
v -3.706456e-01 1.369972e-01 4.080648e-01
v -3.627158e-01 1.363741e-01 4.080648e-01
v -3.538538e-01 1.375575e-01 4.137722e-01
v -3.453724e-01 1.381442e-01 4.175772e-01
v -3.369468e-01 1.387353e-01 4.213820e-01
v -3.291147e-01 1.381199e-01 4.213820e-01
v -3.215375e-01 1.368979e-01 4.194795e-01
v -6.232111e-01 9.921937e-02 2.620698e-01
v -6.125055e-01 9.997848e-02 2.668167e-01
v -6.018697e-01 1.007430e-01 2.715635e-01
v -5.922739e-01 1.006292e-01 2.734622e-01
v -5.830224e-01 1.002223e-01 2.744117e-01
v -5.734755e-01 1.001122e-01 2.763104e-01
v -5.636540e-01 1.003007e-01 2.791586e-01
v -5.544653e-01 9.989878e-02 2.801080e-01
v -5.458677e-01 9.890314e-02 2.791586e-01
v -5.369745e-01 9.820435e-02 2.791586e-01
v -5.283560e-01 9.720702e-02 2.782091e-01
v -5.194559e-01 9.650768e-02 2.782091e-01
v -5.097740e-01 9.670710e-02 2.810573e-01
v -5.001339e-01 9.690986e-02 2.839055e-01
v -4.907826e-01 9.681514e-02 2.858042e-01
v -4.814589e-01 9.672265e-02 2.877029e-01
v -4.716980e-01 9.723597e-02 2.915006e-01
v -4.615415e-01 9.835826e-02 2.971968e-01
v -4.512500e-01 9.979008e-02 3.038425e-01
v -4.414798e-01 1.006227e-01 3.085894e-01
v -4.293224e-01 1.051085e-01 3.247288e-01
v -4.185890e-01 1.077858e-01 3.351721e-01
v -4.078183e-01 1.107803e-01 3.465646e-01
v -3.369726e-01 1.324191e-01 4.272621e-01
v -6.211354e-01 9.292110e-02 2.720479e-01
v -6.121725e-01 9.221682e-02 2.720479e-01
v -6.005621e-01 9.391922e-02 2.796281e-01
v -5.884156e-01 9.623317e-02 2.891034e-01
v -5.789445e-01 9.614263e-02 2.909984e-01
v -5.704311e-01 9.514680e-02 2.900508e-01
v -5.616009e-01 9.445294e-02 2.900508e-01
v -5.518824e-01 9.466983e-02 2.928934e-01
v -5.416278e-01 9.549823e-02 2.976310e-01
v -5.322894e-01 9.541812e-02 2.995261e-01
v -5.246291e-01 9.350885e-02 2.957360e-01
v -5.169130e-01 9.159524e-02 2.919460e-01
v -5.078356e-01 9.120877e-02 2.928934e-01
v -4.985179e-01 9.113028e-02 2.947884e-01
v -4.894754e-01 9.074659e-02 2.957360e-01
v -4.804468e-01 9.036402e-02 2.966836e-01
v -4.700330e-01 9.183360e-02 3.033163e-01
v -4.597169e-01 9.331083e-02 3.099488e-01
v -4.501562e-01 9.386696e-02 3.137390e-01
v -4.389534e-01 9.690874e-02 3.251093e-01
v -6.187059e-01 8.703697e-02 2.829420e-01
v -6.094673e-01 8.664468e-02 2.838878e-01
v -5.858405e-01 9.079314e-02 3.009098e-01
v -5.770731e-01 9.010422e-02 3.009098e-01
v -5.679951e-01 8.972448e-02 3.018554e-01
v -5.586275e-01 8.965567e-02 3.037468e-01
v -5.489913e-01 8.989931e-02 3.065838e-01
v -5.388179e-01 9.076797e-02 3.113122e-01
v -5.295620e-01 9.070790e-02 3.132035e-01
v -5.217120e-01 8.909023e-02 3.103665e-01
v -5.140889e-01 8.715679e-02 3.065838e-01
v -5.053633e-01 8.647116e-02 3.065838e-01
v -4.963830e-01 8.609909e-02 3.075294e-01
v -4.874167e-01 8.572819e-02 3.084752e-01
v -4.784643e-01 8.535832e-02 3.094207e-01
v -4.669551e-01 8.845732e-02 3.207689e-01
v -4.547063e-01 9.283257e-02 3.358994e-01
v -4.450982e-01 9.374565e-02 3.406278e-01
v -4.065406e-01 1.257450e-01 4.399230e-01
v -3.944252e-01 1.321325e-01 4.607279e-01
v -3.845353e-01 1.353587e-01 4.720759e-01
v -3.753676e-01 1.376408e-01 4.805868e-01
v -6.134991e-01 8.377965e-02 3.013533e-01
v -5.996333e-01 8.779587e-02 3.155105e-01
v -5.856450e-01 9.214278e-02 3.306114e-01
v -5.806548e-01 8.800649e-02 3.202296e-01
v -5.736031e-01 8.575049e-02 3.155105e-01
v -5.636822e-01 8.633243e-02 3.192857e-01
v -5.538172e-01 8.691883e-02 3.230610e-01
v -5.448992e-01 8.655843e-02 3.240047e-01
v -5.354150e-01 8.683434e-02 3.268362e-01
v -5.262558e-01 8.679541e-02 3.287238e-01
v -5.182291e-01 8.548392e-02 3.268362e-01
v -5.109819e-01 8.321259e-02 3.221172e-01
v -5.023540e-01 8.253463e-02 3.221172e-01
v -4.929605e-01 8.281767e-02 3.249487e-01
v -4.846018e-01 8.182044e-02 3.240047e-01
v -4.019689e-01 1.263848e-01 4.655767e-01
v -3.928073e-01 1.283880e-01 4.731272e-01
v -3.839496e-01 1.300747e-01 4.797340e-01
v -3.753752e-01 1.314432e-01 4.853968e-01
v -6.100069e-01 7.915144e-02 3.149917e-01
v -5.938406e-01 8.551852e-02 3.357146e-01
v -5.823038e-01 8.773642e-02 3.441924e-01
v -5.751246e-01 8.578364e-02 3.404244e-01
v -5.682081e-01 8.350440e-02 3.357146e-01
v -5.593525e-01 8.315573e-02 3.366567e-01
v -5.502062e-01 8.313134e-02 3.385405e-01
v -5.416830e-01 8.246161e-02 3.385405e-01
v -5.328692e-01 8.211623e-02 3.394826e-01
v -5.240694e-01 8.177189e-02 3.404244e-01
v -5.161134e-01 8.045243e-02 3.385405e-01
v -5.092085e-01 7.782692e-02 3.328888e-01
v -5.006434e-01 7.715390e-02 3.328888e-01
v -4.918226e-01 7.680795e-02 3.338307e-01
v -4.172342e-01 1.209374e-01 4.694727e-01
v -4.086121e-01 1.219957e-01 4.741824e-01
v -4.002667e-01 1.227285e-01 4.779501e-01
v -3.917773e-01 1.237972e-01 4.826599e-01
v -5.863275e-01 8.513311e-02 3.605489e-01
v -5.789500e-01 8.349159e-02 3.577285e-01
v -5.699003e-01 8.348835e-02 3.596087e-01
v -5.624740e-01 8.184302e-02 3.567884e-01
v -5.556299e-01 7.953562e-02 3.520879e-01
v -5.459702e-01 8.019231e-02 3.558484e-01
v -5.360679e-01 8.118387e-02 3.605489e-01
v -5.173256e-01 8.218861e-02 3.671295e-01
v -5.137101e-01 7.588779e-02 3.511479e-01
v -4.147076e-01 1.183661e-01 4.846422e-01
v -4.072525e-01 1.177803e-01 4.846422e-01
v -3.993825e-01 1.178698e-01 4.865224e-01
v -3.907389e-01 1.193142e-01 4.921630e-01
v -5.646570e-01 8.143536e-02 3.787262e-01
v -5.544815e-01 8.280004e-02 3.843558e-01
v -4.126099e-01 1.152969e-01 4.978834e-01
v -4.056683e-01 1.140300e-01 4.960068e-01
v -3.986988e-01 1.127610e-01 4.941303e-01
v -3.904958e-01 1.135592e-01 4.978834e-01
v -5.314142e-01 1.002094e-01 4.558331e-01
v -5.215226e-01 1.020044e-01 4.623877e-01
v -4.111667e-01 1.113391e-01 5.082709e-01
v -4.045045e-01 1.097132e-01 5.054616e-01
v -5.315059e-01 1.021028e-01 4.812435e-01
v -5.243017e-01 1.011625e-01 4.803091e-01
v -5.155149e-01 1.019690e-01 4.840472e-01
v -5.064775e-01 1.031301e-01 4.887199e-01
v -4.975097e-01 1.042967e-01 4.933926e-01
v -5.426783e-01 1.006333e-01 4.953692e-01
v -5.362495e-01 9.898507e-02 4.925711e-01
v -5.294507e-01 9.768887e-02 4.907058e-01
v -5.216604e-01 9.745774e-02 4.916385e-01
v -5.129414e-01 9.829670e-02 4.953692e-01
v -5.039711e-01 9.949688e-02 5.000325e-01
v -4.947702e-01 1.010601e-01 5.056287e-01
v -5.485778e-01 9.621109e-02 5.029308e-01
v -5.408429e-01 9.599105e-02 5.038615e-01
v -5.344646e-01 9.432650e-02 5.010690e-01
v -5.277156e-01 9.302061e-02 4.992074e-01
v -5.183651e-01 9.461264e-02 5.047924e-01
v -5.100425e-01 9.512205e-02 5.075849e-01
v -5.017618e-01 9.563475e-02 5.103774e-01
v -4.932222e-01 9.651489e-02 5.141006e-01
v -5.470370e-01 9.128539e-02 5.104700e-01
v -5.386570e-01 9.181059e-02 5.132569e-01
v -5.333446e-01 8.902584e-02 5.076832e-01
v -5.256440e-01 8.881528e-02 5.086121e-01
v -5.163462e-01 9.045208e-02 5.141860e-01
v -5.010846e-01 9.004200e-02 5.160439e-01
v -4.928720e-01 9.058038e-02 5.188308e-01
v -3.158580e-01 1.891175e-01 2.943530e-01
v -3.123813e-01 1.878291e-01 3.010801e-01
v -3.089046e-01 1.865407e-01 3.078072e-01
v -3.054280e-01 1.852523e-01 3.145343e-01
v -3.019513e-01 1.839639e-01 3.212614e-01
v -3.232029e-01 1.807410e-01 2.604129e-01
v -3.218183e-01 1.808559e-01 2.687958e-01
v -3.211692e-01 1.814528e-01 2.776570e-01
v -3.212648e-01 1.825350e-01 2.869782e-01
v -3.206693e-01 1.831518e-01 2.957350e-01
v -3.179217e-01 1.823430e-01 3.029528e-01
v -3.144514e-01 1.810569e-01 3.096676e-01
v -3.109811e-01 1.797709e-01 3.163824e-01
v -3.075107e-01 1.784849e-01 3.230972e-01
v -3.003477e-01 1.747836e-01 3.274510e-01
v -3.259350e-01 1.732534e-01 2.602509e-01
v -3.259517e-01 1.743426e-01 2.696846e-01
v -3.267130e-01 1.759244e-01 2.795713e-01
v -3.275121e-01 1.775202e-01 2.893843e-01
v -3.261923e-01 1.776809e-01 2.976176e-01
v -3.241695e-01 1.773645e-01 3.053182e-01
v -3.207087e-01 1.760820e-01 3.120146e-01
v -3.179762e-01 1.752860e-01 3.191946e-01
v -3.145185e-01 1.740047e-01 3.258849e-01
v -3.088565e-01 1.712566e-01 3.311610e-01
v -3.031754e-01 1.685015e-01 3.364739e-01
v -2.975259e-01 1.687906e-01 3.682304e-01
v -2.963456e-01 1.690030e-01 3.761938e-01
v -2.982124e-01 1.712111e-01 3.858345e-01
v -2.970828e-01 1.714423e-01 3.936998e-01
v -2.936822e-01 1.701821e-01 4.002797e-01
v -3.351343e-01 1.667901e-01 2.362961e-01
v -3.329709e-01 1.664362e-01 2.442528e-01
v -3.315194e-01 1.665699e-01 2.527166e-01
v -3.314922e-01 1.676791e-01 2.621953e-01
v -3.322024e-01 1.692855e-01 2.721324e-01
v -3.336596e-01 1.713926e-01 2.825093e-01
v -3.337370e-01 1.725406e-01 2.917857e-01
v -3.331309e-01 1.732114e-01 3.004995e-01
v -3.303948e-01 1.724213e-01 3.076787e-01
v -3.283867e-01 1.721249e-01 3.153348e-01
v -3.256664e-01 1.713406e-01 3.224834e-01
v -3.222245e-01 1.700651e-01 3.291430e-01
v -3.165895e-01 1.673053e-01 3.343908e-01
v -3.109354e-01 1.645385e-01 3.396754e-01
v -3.082119e-01 1.637530e-01 3.468301e-01
v -3.077168e-01 1.644650e-01 3.553293e-01
v -3.079906e-01 1.656859e-01 3.642255e-01
v -3.068023e-01 1.659171e-01 3.721804e-01
v -3.056329e-01 1.661553e-01 3.800985e-01
v -3.052360e-01 1.669037e-01 3.884076e-01
v -3.041079e-01 1.671572e-01 3.962460e-01
v -3.707064e-01 1.752999e-01 2.046160e-01
v -3.692185e-01 1.754418e-01 2.131264e-01
v -3.657196e-01 1.741452e-01 2.198965e-01
v -3.442445e-01 1.624891e-01 2.314142e-01
v -3.420735e-01 1.621468e-01 2.393690e-01
v -3.406078e-01 1.622970e-01 2.478367e-01
v -3.398569e-01 1.629432e-01 2.567986e-01
v -3.405288e-01 1.645789e-01 2.667616e-01
v -3.405368e-01 1.657375e-01 2.761320e-01
v -3.405766e-01 1.669078e-01 2.854410e-01
v -3.406480e-01 1.680898e-01 2.946889e-01
v -3.407511e-01 1.692837e-01 3.038754e-01
v -3.387417e-01 1.690012e-01 3.115175e-01
v -3.360274e-01 1.682265e-01 3.186470e-01
v -3.333192e-01 1.674540e-01 3.257641e-01
v -3.298933e-01 1.661844e-01 3.323931e-01
v -3.257400e-01 1.644142e-01 3.385523e-01
v -3.208497e-01 1.621397e-01 3.442600e-01
v -3.181479e-01 1.613696e-01 3.513649e-01
v -3.176632e-01 1.621145e-01 3.598117e-01
v -3.172037e-01 1.628686e-01 3.682096e-01
v -3.160264e-01 1.631257e-01 3.761192e-01
v -3.141217e-01 1.628821e-01 3.835590e-01
v -3.129793e-01 1.631521e-01 3.914011e-01
v -3.118559e-01 1.634291e-01 3.992065e-01
v -3.099956e-01 1.632020e-01 4.065604e-01
v -3.081478e-01 1.629794e-01 4.138897e-01
v -3.991563e-01 1.828180e-01 1.976913e-01
v -3.904324e-01 1.776782e-01 1.996177e-01
v -3.836481e-01 1.739722e-01 2.033988e-01
v -3.788319e-01 1.717107e-01 2.089794e-01
v -3.740031e-01 1.694445e-01 2.145846e-01
v -3.705074e-01 1.681491e-01 2.213484e-01
v -3.649834e-01 1.653868e-01 2.264292e-01
v -3.574026e-01 1.611473e-01 2.298824e-01
v -3.525134e-01 1.588587e-01 2.356040e-01
v -3.517254e-01 1.595202e-01 2.446058e-01
v -3.516514e-01 1.606847e-01 2.540949e-01
v -3.509171e-01 1.613660e-01 2.629922e-01
v -3.502083e-01 1.620569e-01 2.718407e-01
v -3.502231e-01 1.632542e-01 2.811581e-01
v -3.488666e-01 1.634666e-01 2.893902e-01
v -3.475290e-01 1.636860e-01 2.975857e-01
v -3.469186e-01 1.644133e-01 3.062439e-01
v -3.449113e-01 1.641462e-01 3.138661e-01
v -3.429166e-01 1.638838e-01 3.214637e-01
v -3.409348e-01 1.636261e-01 3.290368e-01
v -3.389657e-01 1.633731e-01 3.365854e-01
v -3.355619e-01 1.621118e-01 3.431715e-01
v -3.307044e-01 1.598349e-01 3.488317e-01
v -3.280244e-01 1.590801e-01 3.558868e-01
v -3.268169e-01 1.593478e-01 3.638308e-01
v -3.263646e-01 1.601336e-01 3.721824e-01
v -3.251984e-01 1.604166e-01 3.800467e-01
v -3.225658e-01 1.596794e-01 3.870098e-01
v -3.206853e-01 1.594593e-01 3.943867e-01
v -3.195666e-01 1.597598e-01 4.021589e-01
v -3.162103e-01 1.585161e-01 4.086530e-01
v -3.120986e-01 1.567539e-01 4.147393e-01
v -3.087392e-01 1.555090e-01 4.212394e-01
v -4.085963e-01 1.791750e-01 1.937114e-01
v -4.018973e-01 1.754643e-01 1.973678e-01
v -3.958231e-01 1.722309e-01 2.016763e-01
v -3.903831e-01 1.694781e-01 2.066185e-01
v -3.862499e-01 1.677007e-01 2.127547e-01
v -3.821104e-01 1.659211e-01 2.189032e-01
v -3.772953e-01 1.636454e-01 2.244976e-01
v -3.724675e-01 1.613651e-01 2.301166e-01
v -3.683027e-01 1.595761e-01 2.363142e-01
v -3.648102e-01 1.582818e-01 2.430720e-01
v -3.633632e-01 1.584825e-01 2.514550e-01
v -3.619354e-01 1.586902e-01 2.598013e-01
v -3.605266e-01 1.589051e-01 2.681108e-01
v -3.591368e-01 1.591269e-01 2.763836e-01
v -3.584604e-01 1.598587e-01 2.851368e-01
v -3.571118e-01 1.600958e-01 2.933297e-01
v -3.550813e-01 1.598346e-01 3.009810e-01
v -3.530635e-01 1.595782e-01 3.086077e-01
v -3.517655e-01 1.598340e-01 3.167026e-01
v -3.504866e-01 1.600969e-01 3.247607e-01
v -3.492268e-01 1.603670e-01 3.327820e-01
v -3.472691e-01 1.601327e-01 3.402921e-01
v -3.431645e-01 1.583660e-01 3.463732e-01
v -3.397766e-01 1.571105e-01 3.529286e-01
v -3.371148e-01 1.563698e-01 3.599398e-01
v -3.359184e-01 1.566633e-01 3.678386e-01
v -3.354734e-01 1.574809e-01 3.761441e-01
v -3.335824e-01 1.572714e-01 3.835255e-01
v -3.309650e-01 1.565470e-01 3.904509e-01
v -3.283541e-01 1.558252e-01 3.973642e-01
v -3.257495e-01 1.551056e-01 4.042650e-01
v -3.209058e-01 1.528193e-01 4.099147e-01
v -3.168012e-01 1.510526e-01 4.159958e-01
v -3.134450e-01 1.498089e-01 4.224898e-01
v -3.123625e-01 1.501446e-01 4.301676e-01
v -4.192816e-01 1.765427e-01 1.909804e-01
v -4.145724e-01 1.742918e-01 1.963864e-01
v -4.098503e-01 1.720361e-01 2.018169e-01
v -4.038099e-01 1.687861e-01 2.060917e-01
v -3.997122e-01 1.670147e-01 2.121674e-01
v -3.956081e-01 1.652410e-01 2.182555e-01
v -3.914976e-01 1.634647e-01 2.243555e-01
v -3.867152e-01 1.611868e-01 2.299026e-01
v -3.819204e-01 1.589042e-01 2.354741e-01
v -3.784564e-01 1.576204e-01 2.421766e-01
v -3.749924e-01 1.563368e-01 2.488793e-01
v -3.728846e-01 1.560614e-01 2.566637e-01
v -3.707896e-01 1.557908e-01 2.644237e-01
v -3.687074e-01 1.555250e-01 2.721592e-01
v -3.673253e-01 1.557714e-01 2.803927e-01
v -3.659623e-01 1.560249e-01 2.885895e-01
v -3.639244e-01 1.557756e-01 2.962391e-01
v -3.618992e-01 1.555308e-01 3.038642e-01
v -3.598865e-01 1.552907e-01 3.114647e-01
v -3.585901e-01 1.555689e-01 3.195327e-01
v -3.573127e-01 1.558542e-01 3.275638e-01
v -3.560542e-01 1.561464e-01 3.355581e-01
v -3.541019e-01 1.559287e-01 3.430423e-01
v -3.507298e-01 1.546791e-01 3.495670e-01
v -3.473577e-01 1.534295e-01 3.560917e-01
v -3.454306e-01 1.532211e-01 3.635267e-01
v -3.442420e-01 1.535393e-01 3.713861e-01
v -3.430723e-01 1.538644e-01 3.792088e-01
v -3.411897e-01 1.536725e-01 3.865579e-01
v -3.393197e-01 1.534853e-01 3.938825e-01
v -3.359856e-01 1.522498e-01 4.003336e-01
v -3.311685e-01 1.499589e-01 4.059481e-01
v -3.255939e-01 1.471345e-01 4.111749e-01
v -3.214961e-01 1.453629e-01 4.172505e-01
v -3.181430e-01 1.441204e-01 4.237384e-01
v -3.132815e-01 1.418130e-01 4.294387e-01
v -4.279889e-01 1.724695e-01 1.864613e-01
v -4.245787e-01 1.712057e-01 1.930596e-01
v -4.205260e-01 1.694437e-01 1.990564e-01
v -4.164666e-01 1.676793e-01 2.050655e-01
v -4.124013e-01 1.659126e-01 2.110868e-01
v -4.076770e-01 1.636416e-01 2.165372e-01
v -4.042510e-01 1.623720e-01 2.231662e-01
v -4.001666e-01 1.605983e-01 2.292244e-01
v -3.960756e-01 1.588221e-01 2.352947e-01
v -3.913136e-01 1.565372e-01 2.408188e-01
v -3.872068e-01 1.547551e-01 2.469198e-01
v -3.830938e-01 1.529708e-01 2.530331e-01
v -3.809976e-01 1.527143e-01 2.607792e-01
v -3.789141e-01 1.524624e-01 2.685008e-01
v -3.775242e-01 1.527278e-01 2.767258e-01
v -3.754691e-01 1.524865e-01 2.843922e-01
v -3.727399e-01 1.517352e-01 2.915185e-01
v -3.707072e-01 1.515022e-01 2.991419e-01
v -3.693805e-01 1.517910e-01 3.072443e-01
v -3.673763e-01 1.515685e-01 3.148126e-01
v -3.646850e-01 1.508313e-01 3.218652e-01
v -3.634058e-01 1.511376e-01 3.298755e-01
v -3.628519e-01 1.519730e-01 3.383281e-01
v -3.616141e-01 1.522946e-01 3.462587e-01
v -3.582578e-01 1.510509e-01 3.527527e-01
v -3.549016e-01 1.498071e-01 3.592468e-01
v -3.537017e-01 1.501429e-01 3.671038e-01
v -3.517989e-01 1.499580e-01 3.744759e-01
v -3.499088e-01 1.497778e-01 3.818234e-01
v -3.480312e-01 1.496023e-01 3.891463e-01
v -3.461665e-01 1.494315e-01 3.964448e-01
v -3.428451e-01 1.482007e-01 4.028714e-01
v -3.380480e-01 1.459028e-01 4.084629e-01
v -3.317566e-01 1.425307e-01 4.132562e-01
v -3.269278e-01 1.402210e-01 4.189090e-01
v -3.220864e-01 1.379066e-01 4.245864e-01
v -3.172323e-01 1.355875e-01 4.302882e-01
v -4.347800e-01 1.669131e-01 1.801063e-01
v -4.326320e-01 1.666518e-01 1.879367e-01
v -4.298609e-01 1.658923e-01 1.951358e-01
v -4.258182e-01 1.641268e-01 2.011210e-01
v -4.224112e-01 1.628642e-01 2.077132e-01
v -4.183588e-01 1.610951e-01 2.137168e-01
v -4.143002e-01 1.593237e-01 2.197329e-01
v -4.108870e-01 1.580588e-01 2.263373e-01
v -4.068187e-01 1.562838e-01 2.323716e-01
v -4.027443e-01 1.545065e-01 2.384184e-01
v -3.986636e-01 1.527269e-01 2.444772e-01
v -3.945763e-01 1.509448e-01 2.505484e-01
v -3.911503e-01 1.496752e-01 2.571773e-01
v -3.883951e-01 1.489216e-01 2.643458e-01
v -3.863200e-01 1.486874e-01 2.720351e-01
v -3.835807e-01 1.479397e-01 2.791727e-01
v -3.822080e-01 1.482331e-01 2.873402e-01
v -3.794875e-01 1.474923e-01 2.944410e-01
v -3.774600e-01 1.472758e-01 3.020383e-01
v -3.761348e-01 1.475869e-01 3.101137e-01
v -3.734430e-01 1.468567e-01 3.171595e-01
v -3.707574e-01 1.461288e-01 3.241929e-01
v -3.694766e-01 1.464564e-01 3.321825e-01
v -3.696197e-01 1.478464e-01 3.410913e-01
v -3.676778e-01 1.476616e-01 3.485231e-01
v -3.643311e-01 1.464213e-01 3.549988e-01
v -3.624082e-01 1.462435e-01 3.623938e-01
v -3.619279e-01 1.471351e-01 3.706713e-01
v -3.600367e-01 1.469690e-01 3.780049e-01
v -3.574368e-01 1.462730e-01 3.848729e-01
v -3.562923e-01 1.466510e-01 3.925987e-01
v -3.537113e-01 1.459619e-01 3.994298e-01
v -3.489439e-01 1.436604e-01 4.049800e-01
v -3.448980e-01 1.418937e-01 4.109714e-01
v -3.401084e-01 1.395840e-01 4.165645e-01
v -3.345659e-01 1.367279e-01 4.217777e-01
v -3.297477e-01 1.344076e-01 4.274260e-01
v -4.390945e-01 1.593258e-01 1.712429e-01
v -4.394199e-01 1.610942e-01 1.815877e-01
v -4.372677e-01 1.608460e-01 1.894104e-01
v -4.344959e-01 1.600934e-01 1.966024e-01
v -4.317307e-01 1.593433e-01 2.037823e-01
v -4.289717e-01 1.585955e-01 2.109498e-01
v -4.242941e-01 1.563128e-01 2.163421e-01
v -4.208935e-01 1.550526e-01 2.229220e-01
v -4.168450e-01 1.532777e-01 2.289266e-01
v -4.127901e-01 1.515004e-01 2.349434e-01
v -4.093832e-01 1.502379e-01 2.415355e-01
v -4.053187e-01 1.484570e-01 2.475707e-01
v -4.012480e-01 1.466739e-01 2.536182e-01
v -3.978347e-01 1.454090e-01 2.602227e-01
v -3.944214e-01 1.441441e-01 2.668270e-01
v -3.923484e-01 1.439251e-01 2.744964e-01
v -3.909613e-01 1.442351e-01 2.826675e-01
v -3.895934e-01 1.445520e-01 2.908018e-01
v -3.868850e-01 1.438230e-01 2.978712e-01
v -3.841832e-01 1.430964e-01 3.049284e-01
v -3.814875e-01 1.423720e-01 3.119733e-01
v -3.787983e-01 1.416502e-01 3.190059e-01
v -3.768076e-01 1.414617e-01 3.265158e-01
v -3.762207e-01 1.423428e-01 3.349680e-01
v -3.749605e-01 1.426998e-01 3.428938e-01
v -3.737192e-01 1.430637e-01 3.507829e-01
v -3.703819e-01 1.418269e-01 3.572401e-01
v -3.691692e-01 1.422015e-01 3.650739e-01
v -3.679756e-01 1.425831e-01 3.728711e-01
v -3.660863e-01 1.424322e-01 3.801846e-01
v -3.649276e-01 1.428268e-01 3.879143e-01
v -3.637878e-01 1.432283e-01 3.956071e-01
v -3.619429e-01 1.430940e-01 4.028350e-01
v -3.572020e-01 1.407878e-01 4.083499e-01
v -3.531788e-01 1.390222e-01 4.143054e-01
v -3.498827e-01 1.378007e-01 4.206829e-01
v -3.451134e-01 1.354841e-01 4.262531e-01
v -3.418110e-01 1.342603e-01 4.326429e-01
v -3.392517e-01 1.335865e-01 4.394242e-01
v -3.389373e-01 1.345686e-01 4.473489e-01
v -4.416308e-01 1.501612e-01 1.604368e-01
v -4.443651e-01 1.539935e-01 1.733573e-01
v -4.434304e-01 1.547747e-01 1.824501e-01
v -4.418958e-01 1.550517e-01 1.908825e-01
v -4.397521e-01 1.548211e-01 1.986729e-01
v -4.376209e-01 1.545951e-01 2.064388e-01
v -4.348676e-01 1.538567e-01 2.135870e-01
v -4.314829e-01 1.526024e-01 2.201362e-01
v -4.274571e-01 1.508286e-01 2.261048e-01
v -4.234249e-01 1.490525e-01 2.320857e-01
v -4.200339e-01 1.477958e-01 2.386472e-01
v -4.166427e-01 1.465391e-01 2.452087e-01
v -4.125979e-01 1.447583e-01 2.512139e-01
v -4.078897e-01 1.424497e-01 2.566815e-01
v -4.044891e-01 1.411895e-01 2.632614e-01
v -4.010885e-01 1.399293e-01 2.698413e-01
v -3.983543e-01 1.391980e-01 2.769529e-01
v -3.976352e-01 1.400591e-01 2.856286e-01
v -3.955959e-01 1.398672e-01 2.932167e-01
v -3.922175e-01 1.386152e-01 2.997537e-01
v -3.895183e-01 1.378968e-01 3.067978e-01
v -3.861430e-01 1.366461e-01 3.133287e-01
v -3.848240e-01 1.370030e-01 3.213441e-01
v -3.842126e-01 1.379039e-01 3.298114e-01
v -3.822431e-01 1.377379e-01 3.372645e-01
v -3.802863e-01 1.375766e-01 3.446931e-01
v -3.790402e-01 1.379605e-01 3.525675e-01
v -3.771118e-01 1.378097e-01 3.599409e-01
v -3.751962e-01 1.376636e-01 3.672897e-01
v -3.740008e-01 1.380662e-01 3.750660e-01
v -3.728245e-01 1.384760e-01 3.828054e-01
v -3.723811e-01 1.394393e-01 3.909478e-01
v -3.719631e-01 1.404120e-01 3.990411e-01
v -3.694094e-01 1.397475e-01 4.058030e-01
v -3.661387e-01 1.385355e-01 4.121315e-01
v -3.621416e-01 1.367724e-01 4.180449e-01
v -3.588677e-01 1.355591e-01 4.243795e-01
v -3.563267e-01 1.348994e-01 4.311169e-01
v -3.537923e-01 1.342421e-01 4.378422e-01
v -3.520034e-01 1.341429e-01 4.449458e-01
v -3.472573e-01 1.318204e-01 4.504869e-01
v -4.473214e-01 1.434953e-01 1.527209e-01
v -4.487533e-01 1.463392e-01 1.644551e-01
v -4.490055e-01 1.481676e-01 1.748457e-01
v -4.474409e-01 1.484552e-01 1.833124e-01
v -4.458951e-01 1.487498e-01 1.917424e-01
v -4.449932e-01 1.495722e-01 2.007401e-01
v -4.428609e-01 1.493604e-01 2.084921e-01
v -4.401103e-01 1.486301e-01 2.156273e-01
v -4.367319e-01 1.473781e-01 2.221642e-01
v -4.333534e-01 1.461262e-01 2.287012e-01
v -4.299750e-01 1.448742e-01 2.352382e-01
v -4.265966e-01 1.436222e-01 2.417752e-01
v -4.225714e-01 1.418415e-01 2.477507e-01
v -4.185397e-01 1.400582e-01 2.537384e-01
v -4.145018e-01 1.382727e-01 2.597385e-01
v -4.117701e-01 1.375496e-01 2.668369e-01
v -4.077259e-01 1.357617e-01 2.728492e-01
v -4.043380e-01 1.345062e-01 2.794046e-01
v -4.022818e-01 1.343225e-01 2.870094e-01
v -3.995692e-01 1.336064e-01 2.940710e-01
v -3.968630e-01 1.328928e-01 3.011206e-01
v -3.948384e-01 1.327208e-01 3.086639e-01
v -3.921481e-01 1.320130e-01 3.156828e-01
v -3.901456e-01 1.318492e-01 3.231832e-01
v -3.895258e-01 1.327761e-01 3.316352e-01
v -3.875552e-01 1.326242e-01 3.390744e-01
v -3.855971e-01 1.324768e-01 3.464891e-01
v -3.836518e-01 1.323342e-01 3.538793e-01
v -3.824168e-01 1.327440e-01 3.617084e-01
v -3.812007e-01 1.331608e-01 3.695006e-01
v -3.807075e-01 1.341346e-01 3.777071e-01
v -3.802398e-01 1.351180e-01 3.858647e-01
v -3.790871e-01 1.355583e-01 3.935344e-01
v -3.786668e-01 1.365591e-01 4.015999e-01
v -3.768387e-01 1.364600e-01 4.087631e-01
v -3.750234e-01 1.363655e-01 4.159018e-01
v -3.717749e-01 1.351617e-01 4.221874e-01
v -3.685264e-01 1.339578e-01 4.284730e-01
v -3.667365e-01 1.338729e-01 4.355627e-01
v -3.656915e-01 1.343531e-01 4.430238e-01
v -3.654012e-01 1.354021e-01 4.508379e-01
v -3.680913e-01 1.387123e-01 4.601377e-01
v -3.730577e-01 1.437334e-01 4.704720e-01
v -3.773488e-01 1.482151e-01 4.802999e-01
v -4.558386e-01 1.425759e-01 1.684656e-01
v -4.542500e-01 1.428765e-01 1.769545e-01
v -4.520659e-01 1.426599e-01 1.847907e-01
v -4.505122e-01 1.429734e-01 1.932122e-01
v -4.495984e-01 1.438203e-01 2.022004e-01
v -4.474619e-01 1.436213e-01 2.099446e-01
v -4.447108e-01 1.428983e-01 2.170731e-01
v -4.413356e-01 1.416475e-01 2.236039e-01
v -4.385939e-01 1.409279e-01 2.307139e-01
v -4.358585e-01 1.402106e-01 2.378115e-01
v -4.324896e-01 1.389621e-01 2.443301e-01
v -4.284776e-01 1.371790e-01 2.502881e-01
v -4.238129e-01 1.348575e-01 2.557035e-01
v -4.197851e-01 1.330685e-01 2.616921e-01
v -4.177087e-01 1.328919e-01 2.693199e-01
v -4.143335e-01 1.316411e-01 2.758507e-01
v -4.102992e-01 1.298496e-01 2.818514e-01
v -4.069208e-01 1.285976e-01 2.883883e-01
v -4.042077e-01 1.278887e-01 2.954432e-01
v -4.028378e-01 1.282703e-01 3.035090e-01
v -4.014870e-01 1.286589e-01 3.115380e-01
v -3.981307e-01 1.274151e-01 3.180321e-01
v -3.954524e-01 1.267190e-01 3.250193e-01
v -3.941427e-01 1.271229e-01 3.329686e-01
v -3.928522e-01 1.275338e-01 3.408812e-01
v -3.915806e-01 1.279519e-01 3.487568e-01
v -3.903280e-01 1.283769e-01 3.565957e-01
v -3.890944e-01 1.288089e-01 3.643978e-01
v -3.878798e-01 1.292480e-01 3.721631e-01
v -3.873846e-01 1.302501e-01 3.803420e-01
v -3.869144e-01 1.312615e-01 3.884717e-01
v -3.864698e-01 1.322824e-01 3.965525e-01
v -3.860505e-01 1.333127e-01 4.045842e-01
v -3.849436e-01 1.337917e-01 4.121410e-01
v -3.831398e-01 1.337161e-01 4.192414e-01
v -3.813487e-01 1.336451e-01 4.263172e-01
v -3.788479e-01 1.330148e-01 4.329611e-01
v -3.770790e-01 1.329520e-01 4.399940e-01
v -3.760514e-01 1.334605e-01 4.473975e-01
v -3.772384e-01 1.356788e-01 4.559312e-01
v -3.791985e-01 1.384800e-01 4.647743e-01
v -3.797265e-01 1.401578e-01 4.727780e-01
v -3.788035e-01 1.407049e-01 4.799791e-01
v -3.778995e-01 1.412591e-01 4.871435e-01
v -4.622820e-01 1.383436e-01 1.718405e-01
v -4.606949e-01 1.386665e-01 1.803025e-01
v -4.585160e-01 1.384664e-01 1.881126e-01
v -4.563499e-01 1.382710e-01 1.958983e-01
v -4.548135e-01 1.386126e-01 2.042620e-01
v -4.526759e-01 1.384278e-01 2.119925e-01
v -4.505509e-01 1.382476e-01 2.196984e-01
v -4.484384e-01 1.380721e-01 2.273796e-01
v -4.457090e-01 1.373643e-01 2.344581e-01
v -4.423528e-01 1.361206e-01 2.409522e-01
v -4.377240e-01 1.337979e-01 2.463141e-01
v -4.343614e-01 1.325518e-01 2.528204e-01
v -4.297137e-01 1.302221e-01 2.582192e-01
v -4.256992e-01 1.284308e-01 2.641902e-01
v -4.229759e-01 1.277252e-01 2.712564e-01
v -4.202591e-01 1.270221e-01 2.783103e-01
v -4.162381e-01 1.252283e-01 2.842935e-01
v -4.128692e-01 1.239798e-01 2.908121e-01
v -4.101618e-01 1.232803e-01 2.978477e-01
v -4.081254e-01 1.231329e-01 3.053818e-01
v -4.067699e-01 1.235416e-01 3.133961e-01
v -4.047621e-01 1.234048e-01 3.208751e-01
v -4.014185e-01 1.221658e-01 3.273446e-01
v -3.994298e-01 1.220361e-01 3.347868e-01
v -3.988149e-01 1.230229e-01 3.431649e-01
v -3.989092e-01 1.245762e-01 3.519678e-01
v -3.983481e-01 1.255829e-01 3.602415e-01
v -3.971225e-01 1.260397e-01 3.680045e-01
v -3.952224e-01 1.259429e-01 3.752749e-01
v -3.940315e-01 1.264125e-01 3.829703e-01
v -3.935593e-01 1.274522e-01 3.910725e-01
v -3.931124e-01 1.285012e-01 3.991255e-01
v -3.926908e-01 1.295596e-01 4.071294e-01
v -3.915855e-01 1.300610e-01 4.146593e-01
v -3.912115e-01 1.311371e-01 4.225713e-01
v -3.901474e-01 1.316537e-01 4.300214e-01
v -3.905395e-01 1.333173e-01 4.382480e-01
v -3.887980e-01 1.332793e-01 4.452118e-01
v -3.877942e-01 1.338182e-01 4.525455e-01
v -3.875374e-01 1.349377e-01 4.602305e-01
v -3.873059e-01 1.360666e-01 4.678665e-01
v -3.863654e-01 1.366291e-01 4.750776e-01
v -3.839686e-01 1.360445e-01 4.815122e-01
v -3.800966e-01 1.343060e-01 4.872072e-01
v -3.784502e-01 1.343032e-01 4.939870e-01
v -4.750813e-01 1.380794e-01 1.717989e-01
v -4.698973e-01 1.352256e-01 1.764623e-01
v -4.677140e-01 1.350383e-01 1.842646e-01
v -4.655435e-01 1.348558e-01 1.920424e-01
v -4.627755e-01 1.341409e-01 1.991876e-01
v -4.606271e-01 1.339666e-01 2.069225e-01
v -4.591081e-01 1.343364e-01 2.152287e-01
v -4.576082e-01 1.347134e-01 2.234983e-01
v -4.555042e-01 1.345555e-01 2.311473e-01
v -4.534129e-01 1.344023e-01 2.387718e-01
v -4.494465e-01 1.326216e-01 2.446577e-01
v -4.448411e-01 1.302931e-01 2.499906e-01
v -4.408587e-01 1.285064e-01 2.559072e-01
v -4.368699e-01 1.267172e-01 2.618359e-01
v -4.335168e-01 1.254746e-01 2.683239e-01
v -4.301637e-01 1.242321e-01 2.748118e-01
v -4.268107e-01 1.229895e-01 2.812997e-01
v -4.228062e-01 1.211946e-01 2.872593e-01
v -4.187952e-01 1.193973e-01 2.932309e-01
v -4.160937e-01 1.187071e-01 3.002473e-01
v -4.133984e-01 1.180191e-01 3.072514e-01
v -4.113737e-01 1.178908e-01 3.147472e-01
v -4.093617e-01 1.177670e-01 3.222184e-01
v -4.080329e-01 1.182073e-01 3.301567e-01
v -4.060493e-01 1.180940e-01 3.375728e-01
v -4.047554e-01 1.185473e-01 3.454437e-01
v -4.041605e-01 1.195705e-01 3.537510e-01
v -4.049573e-01 1.217313e-01 3.629436e-01
v -4.037330e-01 1.222103e-01 3.706796e-01
v -4.004592e-01 1.209971e-01 3.770142e-01
v -3.999562e-01 1.220544e-01 3.851437e-01
v -4.001744e-01 1.236898e-01 3.936667e-01
v -3.997252e-01 1.247669e-01 4.016920e-01
v -3.993014e-01 1.258536e-01 4.096681e-01
v -3.989030e-01 1.269496e-01 4.175953e-01
v -3.978214e-01 1.274815e-01 4.250553e-01
v -3.988939e-01 1.297445e-01 4.337144e-01
v -3.992896e-01 1.314457e-01 4.418941e-01
v -3.975627e-01 1.314276e-01 4.488133e-01
v -3.965699e-01 1.319925e-01 4.561017e-01
v -3.963204e-01 1.331436e-01 4.637406e-01
v -3.946412e-01 1.331431e-01 4.705679e-01
v -3.922438e-01 1.325657e-01 4.769956e-01
v -3.883850e-01 1.308248e-01 4.826730e-01
v -3.837829e-01 1.284975e-01 4.879998e-01
v -3.813887e-01 1.279211e-01 4.944213e-01
v -3.782574e-01 1.267608e-01 5.004800e-01
v -4.832153e-01 1.355805e-01 1.770772e-01
v -4.792590e-01 1.337961e-01 1.829516e-01
v -4.752962e-01 1.320095e-01 1.888384e-01
v -4.737407e-01 1.323876e-01 1.971913e-01
v -4.715976e-01 1.322297e-01 2.049000e-01
v -4.688574e-01 1.315324e-01 2.119831e-01
v -4.673494e-01 1.319281e-01 2.202440e-01
v -4.652444e-01 1.317844e-01 2.278792e-01
v -4.625327e-01 1.310976e-01 2.349069e-01
v -4.598274e-01 1.304133e-01 2.419226e-01
v -4.571284e-01 1.297312e-01 2.489259e-01
v -4.525495e-01 1.273980e-01 2.542235e-01
v -4.479580e-01 1.250602e-01 2.595459e-01
v -4.433538e-01 1.227176e-01 2.648926e-01
v -4.393750e-01 1.209250e-01 2.708099e-01
v -4.360314e-01 1.196859e-01 2.772795e-01
v -4.320433e-01 1.178899e-01 2.832153e-01
v -4.280488e-01 1.160914e-01 2.891633e-01
v -4.253499e-01 1.154094e-01 2.961665e-01
v -4.226571e-01 1.147297e-01 3.031576e-01
v -4.199709e-01 1.140524e-01 3.101363e-01
v -4.172909e-01 1.133774e-01 3.171028e-01
v -4.152810e-01 1.132690e-01 3.245541e-01
v -4.139505e-01 1.137303e-01 3.324716e-01
v -4.112991e-01 1.130660e-01 3.393830e-01
v -4.100002e-01 1.135392e-01 3.472392e-01
v -4.093967e-01 1.145882e-01 3.555310e-01
v -4.094981e-01 1.162166e-01 3.642402e-01
v -4.082658e-01 1.167144e-01 3.719676e-01
v -4.063667e-01 1.166471e-01 3.792042e-01
v -4.065473e-01 1.183048e-01 3.877600e-01
v -4.067595e-01 1.199743e-01 3.962545e-01
v -4.076988e-01 1.222314e-01 4.051234e-01
v -4.072792e-01 1.233486e-01 4.130596e-01
v -4.061832e-01 1.238969e-01 4.205234e-01
v -4.065158e-01 1.256111e-01 4.287848e-01
v -4.061723e-01 1.267565e-01 4.365739e-01
v -4.051428e-01 1.273294e-01 4.439089e-01
v -4.048467e-01 1.284924e-01 4.516059e-01
v -4.031410e-01 1.284967e-01 4.584684e-01
v -4.014479e-01 1.285055e-01 4.653064e-01
v -3.990437e-01 1.279328e-01 4.717394e-01
v -3.973729e-01 1.279500e-01 4.785345e-01
v -3.927939e-01 1.256167e-01 4.838322e-01
v -3.882023e-01 1.232789e-01 4.891545e-01
v -3.850711e-01 1.221185e-01 4.952131e-01
v -3.804606e-01 1.197736e-01 5.005722e-01
v -5.172385e-01 1.535161e-01 1.906605e-01
v -5.040268e-01 1.430880e-01 1.860827e-01
v -4.960188e-01 1.375169e-01 1.873931e-01
v -4.915204e-01 1.351991e-01 1.925514e-01
v -4.864125e-01 1.323299e-01 1.971154e-01
v -4.836845e-01 1.316444e-01 2.041670e-01
v -4.809628e-01 1.309612e-01 2.112062e-01
v -4.776414e-01 1.297303e-01 2.176328e-01
v -4.749293e-01 1.290508e-01 2.246537e-01
v -4.734481e-01 1.294781e-01 2.328387e-01
v -4.701394e-01 1.282520e-01 2.392407e-01
v -4.668307e-01 1.270259e-01 2.456428e-01
v -4.641438e-01 1.263555e-01 2.526146e-01
v -4.595882e-01 1.240165e-01 2.578832e-01
v -4.543917e-01 1.211145e-01 2.626189e-01
v -4.491763e-01 1.182055e-01 2.673915e-01
v -4.452108e-01 1.164106e-01 2.732912e-01
v -4.412390e-01 1.146133e-01 2.792033e-01
v -4.372610e-01 1.128137e-01 2.851275e-01
v -4.332765e-01 1.110117e-01 2.910641e-01
v -4.305802e-01 1.103380e-01 2.980543e-01
v -4.285406e-01 1.102329e-01 3.055468e-01
v -4.258601e-01 1.095650e-01 3.125065e-01
v -4.238426e-01 1.094682e-01 3.199560e-01
v -4.218379e-01 1.093762e-01 3.273812e-01
v -4.191828e-01 1.087176e-01 3.342916e-01
v -4.172001e-01 1.086338e-01 3.416738e-01
v -4.158997e-01 1.091282e-01 3.495093e-01
v -4.159634e-01 1.107789e-01 3.582511e-01
v -4.153829e-01 1.118654e-01 3.664662e-01
v -4.141490e-01 1.123845e-01 3.741729e-01
v -4.136161e-01 1.134887e-01 3.822959e-01
v -4.137939e-01 1.151817e-01 3.908171e-01
v -4.140034e-01 1.168864e-01 3.992769e-01
v -4.149361e-01 1.191847e-01 4.081104e-01
v -4.138226e-01 1.197483e-01 4.155839e-01
v -4.134260e-01 1.209030e-01 4.234434e-01
v -4.137560e-01 1.226524e-01 4.316702e-01
v -4.134133e-01 1.238271e-01 4.394254e-01
v -4.123885e-01 1.244236e-01 4.467273e-01
v -4.113828e-01 1.250272e-01 4.539924e-01
v -4.089685e-01 1.244579e-01 4.604369e-01
v -4.058436e-01 1.232999e-01 4.664832e-01
v -4.034389e-01 1.227341e-01 4.729093e-01
v -4.017637e-01 1.227642e-01 4.796966e-01
v -3.971954e-01 1.204205e-01 4.849898e-01
v -3.933440e-01 1.186678e-01 4.906688e-01
v -3.894864e-01 1.169128e-01 4.963601e-01
v -3.856224e-01 1.151555e-01 5.020636e-01
v -5.216204e-01 1.480732e-01 1.921205e-01
v -5.154745e-01 1.441323e-01 1.951872e-01
v -5.092969e-01 1.401796e-01 1.983153e-01
v -5.030877e-01 1.362152e-01 2.015045e-01
v -4.980323e-01 1.333438e-01 2.059913e-01
v -4.935539e-01 1.310188e-01 2.111266e-01
v -4.902611e-01 1.297986e-01 2.174980e-01
v -4.869681e-01 1.285783e-01 2.238694e-01
v -4.836753e-01 1.273580e-01 2.302408e-01
v -4.809910e-01 1.266959e-01 2.371995e-01
v -4.777014e-01 1.254768e-01 2.435647e-01
v -4.737968e-01 1.236972e-01 2.493550e-01
v -4.698857e-01 1.219151e-01 2.551575e-01
v -4.659685e-01 1.201308e-01 2.609722e-01
v -4.614202e-01 1.177800e-01 2.662424e-01
v -4.549764e-01 1.137286e-01 2.698854e-01
v -4.497627e-01 1.107985e-01 2.746788e-01
v -4.464318e-01 1.095642e-01 2.811238e-01
v -4.424638e-01 1.077610e-01 2.870366e-01
v -4.391297e-01 1.065254e-01 2.934877e-01
v -4.364392e-01 1.058611e-01 3.004588e-01
v -4.344015e-01 1.057713e-01 3.079313e-01
v -4.323767e-01 1.056863e-01 3.153794e-01
v -4.303644e-01 1.056059e-01 3.228028e-01
v -4.277088e-01 1.049545e-01 3.297064e-01
v -4.250593e-01 1.043054e-01 3.365976e-01
v -4.230789e-01 1.042368e-01 3.439599e-01
v -4.224424e-01 1.053317e-01 3.522515e-01
v -4.225000e-01 1.070164e-01 3.609648e-01
v -4.212455e-01 1.075496e-01 3.686875e-01
v -4.206850e-01 1.086725e-01 3.768318e-01
v -4.201500e-01 1.098050e-01 3.849272e-01
v -4.203218e-01 1.115321e-01 3.934199e-01
v -4.205253e-01 1.132709e-01 4.018512e-01
v -4.207604e-01 1.150214e-01 4.102212e-01
v -4.210273e-01 1.167837e-01 4.185298e-01
v -4.206317e-01 1.179678e-01 4.263554e-01
v -4.209588e-01 1.197524e-01 4.345475e-01
v -4.206170e-01 1.209565e-01 4.422688e-01
v -4.203007e-01 1.221700e-01 4.499411e-01
v -4.193028e-01 1.227982e-01 4.571670e-01
v -4.161937e-01 1.216460e-01 4.631827e-01
v -4.123715e-01 1.198969e-01 4.688135e-01
v -4.092593e-01 1.187436e-01 4.748353e-01
v -4.075862e-01 1.187890e-01 4.816027e-01
v -4.030348e-01 1.164369e-01 4.868791e-01
v -3.984709e-01 1.140803e-01 4.921800e-01
v -3.946232e-01 1.123217e-01 4.978598e-01
v -3.900371e-01 1.099568e-01 5.032036e-01
v -3.883798e-01 1.100081e-01 5.099403e-01
v -5.338068e-01 1.482564e-01 1.925195e-01
v -5.277239e-01 1.443025e-01 1.955041e-01
v -5.227685e-01 1.414464e-01 1.998217e-01
v -5.183767e-01 1.391390e-01 2.048053e-01
v -5.122146e-01 1.351557e-01 2.079433e-01
v -5.071990e-01 1.322773e-01 2.123773e-01
v -5.033488e-01 1.305106e-01 2.180702e-01
v -4.994921e-01 1.287414e-01 2.237753e-01
v -4.962278e-01 1.275317e-01 2.300915e-01
v -4.923618e-01 1.257592e-01 2.358151e-01
v -4.878845e-01 1.234201e-01 2.409643e-01
v -4.846106e-01 1.222069e-01 2.472989e-01
v -4.801142e-01 1.198607e-01 2.524849e-01
v -4.756053e-01 1.175100e-01 2.576955e-01
v -4.710836e-01 1.151544e-01 2.629305e-01
v -4.671699e-01 1.133641e-01 2.687460e-01
v -4.620022e-01 1.104293e-01 2.734742e-01
v -4.561883e-01 1.069151e-01 2.776957e-01
v -4.522398e-01 1.051119e-01 2.835786e-01
v -4.489185e-01 1.038810e-01 2.900052e-01
v -4.455971e-01 1.026502e-01 2.964317e-01
v -4.435553e-01 1.025735e-01 3.038966e-01
v -4.402402e-01 1.013450e-01 3.103109e-01
v -4.375712e-01 1.006958e-01 3.172321e-01
v -4.355579e-01 1.006296e-01 3.246417e-01
v -4.335573e-01 1.005681e-01 3.320269e-01
v -4.309137e-01 9.992829e-02 3.388988e-01
v -4.295940e-01 1.004591e-01 3.467235e-01
v -4.289553e-01 1.015822e-01 3.549874e-01
v -4.283420e-01 1.027146e-01 3.632021e-01
v -4.277539e-01 1.038563e-01 3.713678e-01
v -4.271913e-01 1.050076e-01 3.794845e-01
v -4.259794e-01 1.055783e-01 3.871005e-01
v -4.268199e-01 1.079293e-01 3.960162e-01
v -4.276983e-01 1.102945e-01 4.048584e-01
v -4.286149e-01 1.126738e-01 4.136270e-01
v -4.281948e-01 1.138778e-01 4.214677e-01
v -4.284906e-01 1.156871e-01 4.296803e-01
v -4.281244e-01 1.169111e-01 4.374169e-01
v -4.277837e-01 1.181446e-01 4.451042e-01
v -4.267682e-01 1.187881e-01 4.523401e-01
v -4.257718e-01 1.194386e-01 4.595390e-01
v -4.233817e-01 1.188929e-01 4.659206e-01
v -4.195791e-01 1.171438e-01 4.715214e-01
v -4.164827e-01 1.159963e-01 4.775126e-01
v -4.133863e-01 1.148489e-01 4.835039e-01
v -4.095709e-01 1.130950e-01 4.891293e-01
v -4.057493e-01 1.113388e-01 4.947669e-01
v -4.004706e-01 1.083628e-01 4.997098e-01
v -3.966298e-01 1.065996e-01 5.053843e-01
v -3.949778e-01 1.066673e-01 5.120948e-01
v -5.381407e-01 1.428828e-01 1.939760e-01
v -5.332250e-01 1.400195e-01 1.982405e-01
v -5.282902e-01 1.371492e-01 2.025419e-01
v -5.244944e-01 1.353954e-01 2.081375e-01
v -5.201101e-01 1.330763e-01 2.131228e-01
v -5.157131e-01 1.307525e-01 2.181325e-01
v -5.118920e-01 1.289893e-01 2.237772e-01
v -5.074729e-01 1.266573e-01 2.288299e-01
v -5.030410e-01 1.243205e-01 2.339071e-01
v -4.991945e-01 1.225479e-01 2.396008e-01
v -4.953416e-01 1.207729e-01 2.453066e-01
v -4.914825e-01 1.189957e-01 2.510249e-01
v -4.876170e-01 1.172160e-01 2.567554e-01
v -4.831345e-01 1.148605e-01 2.619308e-01
v -4.774115e-01 1.113509e-01 2.660081e-01
v -4.728973e-01 1.089837e-01 2.712449e-01
v -4.689906e-01 1.071887e-01 2.770549e-01
v -4.644541e-01 1.048132e-01 2.823345e-01
v -4.599051e-01 1.024331e-01 2.876387e-01
v -4.559730e-01 1.006287e-01 2.934980e-01
v -4.520347e-01 9.882207e-02 2.993695e-01
v -4.487260e-01 9.759595e-02 3.057715e-01
v -4.460564e-01 9.695382e-02 3.126858e-01
v -4.433933e-01 9.631417e-02 3.195878e-01
v -4.407366e-01 9.567678e-02 3.264775e-01
v -4.387347e-01 9.562933e-02 3.338487e-01
v -4.367457e-01 9.558662e-02 3.411954e-01
v -4.354243e-01 9.613851e-02 3.489991e-01
v -4.347801e-01 9.728849e-02 3.572413e-01
v -4.341614e-01 9.844798e-02 3.654345e-01
v -4.335680e-01 9.961680e-02 3.735786e-01
v -4.329999e-01 1.007951e-01 3.816738e-01
v -4.317863e-01 1.013868e-01 3.892689e-01
v -4.332881e-01 1.043737e-01 3.986062e-01
v -4.348340e-01 1.073769e-01 4.078576e-01
v -4.350637e-01 1.091979e-01 4.161582e-01
v -4.353250e-01 1.110307e-01 4.243975e-01
v -4.356180e-01 1.128752e-01 4.325755e-01
v -4.352528e-01 1.141287e-01 4.402782e-01
v -4.349129e-01 1.153915e-01 4.479317e-01
v -4.339021e-01 1.160585e-01 4.551345e-01
v -4.322109e-01 1.161261e-01 4.619047e-01
v -4.291273e-01 1.149833e-01 4.678714e-01
v -4.260436e-01 1.138406e-01 4.738380e-01
v -4.243777e-01 1.139177e-01 4.805592e-01
v -4.213004e-01 1.127772e-01 4.865137e-01
v -4.175078e-01 1.110246e-01 4.921031e-01
v -4.144273e-01 1.098830e-01 4.980637e-01
v -4.099035e-01 1.075123e-01 5.033187e-01
v -4.046424e-01 1.045210e-01 5.082517e-01
v -4.030019e-01 1.046075e-01 5.149239e-01
v -5.447302e-01 1.397773e-01 1.980161e-01
v -5.398415e-01 1.369023e-01 2.022524e-01
v -5.343616e-01 1.334538e-01 2.058915e-01
v -5.300070e-01 1.311312e-01 2.108354e-01
v -5.262181e-01 1.293727e-01 2.164256e-01
v -5.224229e-01 1.276117e-01 2.220281e-01
v -5.192061e-01 1.264197e-01 2.282523e-01
v -5.148134e-01 1.240830e-01 2.332699e-01
v -5.104080e-01 1.217415e-01 2.383120e-01
v -5.053958e-01 1.188208e-01 2.427873e-01
v -5.009619e-01 1.164688e-01 2.478847e-01
v -4.971159e-01 1.146891e-01 2.535852e-01
v -4.944713e-01 1.140635e-01 2.604435e-01
v -4.912259e-01 1.128608e-01 2.667230e-01
v -4.861502e-01 1.099165e-01 2.713210e-01
v -4.810555e-01 1.069652e-01 2.759560e-01
v -4.765582e-01 1.045897e-01 2.811758e-01
v -4.720483e-01 1.022096e-01 2.864203e-01
v -4.687713e-01 1.009952e-01 2.927611e-01
v -4.629904e-01 9.743509e-02 2.969827e-01
v -4.578133e-01 9.445330e-02 3.017771e-01
v -4.545141e-01 9.323068e-02 3.081607e-01
v -4.518503e-01 9.259794e-02 3.150557e-01
v -4.491930e-01 9.196770e-02 3.219386e-01
v -4.465419e-01 9.133966e-02 3.288090e-01
v -4.445423e-01 9.130755e-02 3.361603e-01
v -4.432034e-01 9.187472e-02 3.439738e-01
v -4.418834e-01 9.244887e-02 3.517506e-01
v -4.405826e-01 9.303012e-02 3.594905e-01
v -4.406161e-01 9.481476e-02 3.681305e-01
v -4.406813e-01 9.661114e-02 3.767093e-01
v -4.401143e-01 9.781876e-02 3.847705e-01
v -4.395724e-01 9.903576e-02 3.927827e-01
v -4.403967e-01 1.014679e-01 4.016336e-01
v -4.412590e-01 1.039141e-01 4.104110e-01
v -4.421593e-01 1.063744e-01 4.191147e-01
v -4.424179e-01 1.082423e-01 4.273194e-01
v -4.433911e-01 1.107297e-01 4.358821e-01
v -4.430300e-01 1.120136e-01 4.435448e-01
v -4.420049e-01 1.126971e-01 4.507512e-01
v -4.416913e-01 1.139986e-01 4.583218e-01
v -4.400117e-01 1.140850e-01 4.650537e-01
v -4.376459e-01 1.135628e-01 4.713723e-01
v -4.359884e-01 1.136575e-01 4.780613e-01
v -4.350489e-01 1.143726e-01 4.851021e-01
v -4.320033e-01 1.132440e-01 4.909952e-01
v -4.282460e-01 1.114972e-01 4.965241e-01
v -4.273413e-01 1.122252e-01 5.034975e-01
v -4.264557e-01 1.129604e-01 5.104341e-01
v -4.219837e-01 1.105943e-01 5.156050e-01
v -4.203961e-01 1.107148e-01 5.221590e-01
v -5.495964e-01 1.350206e-01 2.001116e-01
v -5.452904e-01 1.327015e-01 2.049774e-01
v -5.398350e-01 1.292331e-01 2.086014e-01
v -5.354973e-01 1.269022e-01 2.135286e-01
v -5.317216e-01 1.251413e-01 2.191011e-01
v -5.285175e-01 1.239539e-01 2.253009e-01
v -5.241514e-01 1.216125e-01 2.302831e-01
v -5.203566e-01 1.198446e-01 2.358926e-01
v -5.165556e-01 1.180743e-01 2.415142e-01
v -5.121577e-01 1.157211e-01 2.465579e-01
v -5.077471e-01 1.133633e-01 2.516261e-01
v -5.033239e-01 1.110007e-01 2.567188e-01
v -5.000881e-01 1.098016e-01 2.629799e-01
v -4.968523e-01 1.086025e-01 2.692409e-01
v -4.930101e-01 1.068169e-01 2.749422e-01
v -4.879423e-01 1.038538e-01 2.795489e-01
v -4.834684e-01 1.014725e-01 2.847397e-01
v -4.795977e-01 9.967643e-02 2.904964e-01
v -4.751015e-01 9.728678e-02 2.957301e-01
v -4.693482e-01 9.370800e-02 2.999305e-01
v -4.648204e-01 9.130668e-02 3.052256e-01
v -4.621655e-01 9.068452e-02 3.120952e-01
v -4.588854e-01 8.946896e-02 3.184421e-01
v -4.556052e-01 8.825339e-02 3.247890e-01
v -4.529631e-01 8.763605e-02 3.316342e-01
v -4.509686e-01 8.762025e-02 3.389592e-01
v -4.496313e-01 8.820979e-02 3.467459e-01
v -4.483129e-01 8.880633e-02 3.544957e-01
v -4.476643e-01 9.001269e-02 3.626825e-01
v -4.476951e-01 9.183259e-02 3.712878e-01
v -4.477575e-01 9.366419e-02 3.798319e-01
v -4.485118e-01 9.611392e-02 3.887700e-01
v -4.473139e-01 9.675510e-02 3.962868e-01
v -4.474682e-01 9.862081e-02 4.046531e-01
v -4.476542e-01 1.004982e-01 4.129580e-01
v -4.492177e-01 1.036095e-01 4.220632e-01
v -4.501497e-01 1.061250e-01 4.306579e-01
v -4.511195e-01 1.086546e-01 4.391791e-01
v -4.507625e-01 1.099691e-01 4.468017e-01
v -4.504309e-01 1.112930e-01 4.543752e-01
v -4.508134e-01 1.132432e-01 4.623000e-01
v -4.498436e-01 1.139689e-01 4.693752e-01
v -4.475026e-01 1.134631e-01 4.756378e-01
v -4.465645e-01 1.142005e-01 4.826517e-01
v -4.449441e-01 1.143234e-01 4.892533e-01
v -4.426315e-01 1.138281e-01 4.954607e-01
v -4.389098e-01 1.120872e-01 5.009291e-01
v -4.366036e-01 1.115943e-01 5.071242e-01
v -4.364463e-01 1.129828e-01 5.143604e-01
v -4.348796e-01 1.131256e-01 5.208577e-01
v -4.333257e-01 1.132731e-01 5.273304e-01
v -4.332317e-01 1.146851e-01 5.344441e-01
v -5.522144e-01 1.279840e-01 1.996254e-01
v -5.484710e-01 1.262279e-01 2.051436e-01
v -5.435920e-01 1.233130e-01 2.094092e-01
v -5.398295e-01 1.215497e-01 2.149643e-01
v -5.360608e-01 1.197842e-01 2.205316e-01
v -5.328598e-01 1.185979e-01 2.267252e-01
v -5.296589e-01 1.174117e-01 2.329188e-01
v -5.258774e-01 1.156414e-01 2.385105e-01
v -5.220897e-01 1.138688e-01 2.441146e-01
v -5.182956e-01 1.120939e-01 2.497310e-01
v -5.150852e-01 1.109041e-01 2.559430e-01
v -5.106883e-01 1.085368e-01 2.610004e-01
v -5.062788e-01 1.061649e-01 2.660825e-01
v -5.030557e-01 1.049705e-01 2.723190e-01
v -4.998326e-01 1.037760e-01 2.785555e-01
v -4.935802e-01 9.961426e-02 2.820285e-01
v -4.891233e-01 9.722475e-02 2.872025e-01
v -4.864901e-01 9.661789e-02 2.940224e-01
v -4.814019e-01 9.362546e-02 2.986929e-01
v -4.750577e-01 8.942968e-02 3.023437e-01
v -4.717902e-01 8.821882e-02 3.086660e-01
v -4.691475e-01 8.760838e-02 3.155042e-01
v -4.652552e-01 8.579706e-02 3.213107e-01
v -4.619877e-01 8.458621e-02 3.276331e-01
v -4.593545e-01 8.397929e-02 3.344529e-01
v -4.567277e-01 8.337485e-02 3.412606e-01
v -4.553886e-01 8.398549e-02 3.490263e-01
v -4.553564e-01 8.581827e-02 3.577135e-01
v -4.547087e-01 8.705405e-02 3.658665e-01
v -4.547367e-01 8.890913e-02 3.744371e-01
v -4.547962e-01 9.077596e-02 3.829465e-01
v -4.555441e-01 9.326683e-02 3.918492e-01
v -4.543508e-01 9.393150e-02 3.993329e-01
v -4.545024e-01 9.583240e-02 4.076645e-01
v -4.553516e-01 9.836080e-02 4.163708e-01
v -4.569081e-01 1.015203e-01 4.254338e-01
v -4.571643e-01 1.034600e-01 4.335629e-01
v -4.574521e-01 1.054114e-01 4.416308e-01
v -4.577715e-01 1.073745e-01 4.496373e-01
v -4.581227e-01 1.093494e-01 4.575826e-01
v -4.585056e-01 1.113360e-01 4.654665e-01
v -4.582319e-01 1.127104e-01 4.728958e-01
v -4.572922e-01 1.134690e-01 4.798889e-01
v -4.556769e-01 1.136083e-01 4.864642e-01
v -4.540743e-01 1.137523e-01 4.930151e-01
v -4.524843e-01 1.139011e-01 4.995414e-01
v -4.494989e-01 1.127947e-01 5.053179e-01
v -4.472207e-01 1.123194e-01 5.114510e-01
v -4.456593e-01 1.124787e-01 5.179221e-01
v -4.448241e-01 1.132760e-01 5.247128e-01
v -4.432913e-01 1.134459e-01 5.311288e-01
v -4.410511e-01 1.129847e-01 5.371882e-01
v -5.559565e-01 1.220874e-01 2.004300e-01
v -5.522169e-01 1.203254e-01 2.059491e-01
v -5.479099e-01 1.179769e-01 2.108487e-01
v -5.441544e-01 1.162090e-01 2.163985e-01
v -5.409598e-01 1.150251e-01 2.225798e-01
v -5.383356e-01 1.144288e-01 2.293743e-01
v -5.351441e-01 1.132461e-01 2.355494e-01
v -5.319527e-01 1.120634e-01 2.417246e-01
v -5.281814e-01 1.102897e-01 2.473050e-01
v -5.249868e-01 1.091058e-01 2.534862e-01
v -5.212058e-01 1.073285e-01 2.590850e-01
v -5.174186e-01 1.055488e-01 2.646960e-01
v -5.130324e-01 1.031710e-01 2.697490e-01
v -5.092295e-01 1.013854e-01 2.753907e-01
v -5.060190e-01 1.001957e-01 2.816026e-01
v -5.010021e-01 9.720794e-02 2.861589e-01
v -4.971769e-01 9.541420e-02 2.918435e-01
v -4.939537e-01 9.421977e-02 2.980801e-01
v -4.888957e-01 9.121674e-02 3.027161e-01
v -4.825891e-01 8.699861e-02 3.063341e-01
v -4.787227e-01 8.518962e-02 3.120985e-01
v -4.754711e-01 8.398462e-02 3.183901e-01
v -4.722194e-01 8.277963e-02 3.246818e-01
v -4.683402e-01 8.096588e-02 3.304706e-01
v -4.657161e-01 8.036966e-02 3.372652e-01
v -4.630981e-01 7.977563e-02 3.440474e-01
v -4.617607e-01 8.040862e-02 3.517863e-01
v -4.617224e-01 8.227550e-02 3.604450e-01
v -4.617159e-01 8.415407e-02 3.690424e-01
v -4.623875e-01 8.666021e-02 3.780444e-01
v -4.624474e-01 8.856348e-02 3.865131e-01
v -4.625391e-01 9.047845e-02 3.949203e-01
v -4.606945e-01 9.054733e-02 4.019234e-01
v -4.608401e-01 9.248228e-02 4.102263e-01
v -4.630043e-01 9.629392e-02 4.197741e-01
v -4.638883e-01 9.887879e-02 4.283654e-01
v -4.641417e-01 1.008537e-01 4.364599e-01
v -4.644266e-01 1.028403e-01 4.444931e-01
v -4.647433e-01 1.048387e-01 4.524650e-01
v -4.657699e-01 1.074763e-01 4.607802e-01
v -4.661531e-01 1.094994e-01 4.686234e-01
v -4.658835e-01 1.109043e-01 4.760127e-01
v -4.649517e-01 1.116876e-01 4.829666e-01
v -4.640389e-01 1.124779e-01 4.898837e-01
v -4.631450e-01 1.132753e-01 4.967640e-01
v -4.615729e-01 1.134451e-01 5.032398e-01
v -4.586128e-01 1.123482e-01 5.089673e-01
v -4.570598e-01 1.125250e-01 5.154060e-01
v -4.555195e-01 1.127066e-01 5.218204e-01
v -4.547016e-01 1.135322e-01 5.285536e-01
v -4.539029e-01 1.143648e-01 5.352500e-01
v -4.502583e-01 1.126379e-01 5.405850e-01
v -5.596986e-01 1.161907e-01 2.012346e-01
v -5.554086e-01 1.138341e-01 2.061175e-01
v -5.522203e-01 1.126526e-01 2.122866e-01
v -5.495924e-01 1.120622e-01 2.190803e-01
v -5.464074e-01 1.108819e-01 2.252432e-01
v -5.432223e-01 1.097015e-01 2.314062e-01
v -5.400372e-01 1.085212e-01 2.375690e-01
v -5.379981e-01 1.085325e-01 2.449323e-01
v -5.348193e-01 1.073545e-01 2.510830e-01
v -5.316405e-01 1.061765e-01 2.572336e-01
v -5.272968e-01 1.037999e-01 2.622207e-01
v -5.235259e-01 1.020190e-01 2.678079e-01
v -5.197487e-01 1.002358e-01 2.734075e-01
v -5.159653e-01 9.845029e-02 2.790194e-01
v -5.115802e-01 9.605836e-02 2.840862e-01
v -5.083793e-01 9.487217e-02 2.902798e-01
v -5.051784e-01 9.368597e-02 2.964733e-01
v -5.019774e-01 9.249975e-02 3.026669e-01
v -4.963448e-01 8.887859e-02 3.067297e-01
v -4.906870e-01 8.524807e-02 3.108416e-01
v -4.862322e-01 8.283024e-02 3.160433e-01
v -4.829995e-01 8.163227e-02 3.222982e-01
v -4.803874e-01 8.104780e-02 3.290612e-01
v -4.771580e-01 7.985101e-02 3.353100e-01
v -4.733016e-01 7.803843e-02 3.410629e-01
v -4.706990e-01 7.745747e-02 3.478075e-01
v -4.693694e-01 7.811507e-02 3.555072e-01
v -4.686951e-01 7.939903e-02 3.636476e-01
v -4.693253e-01 8.193335e-02 3.726817e-01
v -4.699936e-01 8.448177e-02 3.816421e-01
v -4.700539e-01 8.642139e-02 3.900699e-01
v -4.688478e-01 8.712481e-02 3.975304e-01
v -4.676607e-01 8.783532e-02 4.049542e-01
v -4.691143e-01 9.105817e-02 4.141039e-01
v -4.706124e-01 9.429758e-02 4.231679e-01
v -4.714929e-01 9.692458e-02 4.317174e-01
v -4.717466e-01 9.893595e-02 4.397712e-01
v -4.727001e-01 1.015901e-01 4.481798e-01
v -4.730204e-01 1.036260e-01 4.561047e-01
v -4.733723e-01 1.056737e-01 4.639683e-01
v -4.737560e-01 1.077332e-01 4.717706e-01
v -4.734905e-01 1.091687e-01 4.791200e-01
v -4.725664e-01 1.099766e-01 4.860347e-01
v -4.716614e-01 1.107916e-01 4.929126e-01
v -4.700851e-01 1.109743e-01 4.993805e-01
v -4.692149e-01 1.118022e-01 5.061910e-01
v -4.676671e-01 1.119956e-01 5.126037e-01
v -4.654322e-01 1.115508e-01 5.186371e-01
v -4.632036e-01 1.111085e-01 5.246582e-01
v -4.630998e-01 1.126039e-01 5.316947e-01
v -4.623120e-01 1.134622e-01 5.383457e-01
v -4.601182e-01 1.130327e-01 5.442993e-01
v -5.580577e-01 1.067364e-01 2.056516e-01
v -5.559699e-01 1.067442e-01 2.130928e-01
v -5.538949e-01 1.067566e-01 2.205097e-01
v -5.512728e-01 1.061757e-01 2.272842e-01
v -5.480940e-01 1.049977e-01 2.334348e-01
v -5.454814e-01 1.044201e-01 2.401909e-01
v -5.428751e-01 1.038450e-01 2.469348e-01
v -5.397026e-01 1.026694e-01 2.530732e-01
v -5.371059e-01 1.020979e-01 2.597987e-01
v -5.339367e-01 1.009234e-01 2.659310e-01
v -5.301854e-01 9.914250e-02 2.714883e-01
v -5.264278e-01 9.735925e-02 2.770580e-01
v -5.226639e-01 9.557378e-02 2.826400e-01
v -5.200766e-01 9.500566e-02 2.893470e-01
v -5.169010e-01 9.382882e-02 2.954915e-01
v -5.119320e-01 9.081534e-02 3.000035e-01
v -5.081458e-01 8.902151e-02 3.056284e-01
v -5.037493e-01 8.661086e-02 3.107338e-01
v -4.987326e-01 8.357961e-02 3.153378e-01
v -4.949180e-01 8.177525e-02 3.210178e-01
v -4.923243e-01 8.120485e-02 3.277372e-01
v -4.891202e-01 8.001747e-02 3.339369e-01
v -4.852961e-01 7.820958e-02 3.396353e-01
v -4.814657e-01 7.639944e-02 3.453460e-01
v -4.788816e-01 7.583246e-02 3.520470e-01
v -4.781924e-01 7.714000e-02 3.601842e-01
v -4.775285e-01 7.845679e-02 3.682723e-01
v -4.775259e-01 8.040937e-02 3.767820e-01
v -4.775549e-01 8.237375e-02 3.852303e-01
v -4.776157e-01 8.434981e-02 3.936172e-01
v -4.770628e-01 8.570777e-02 4.014907e-01
v -4.758867e-01 8.644406e-02 4.088691e-01
v -4.773364e-01 8.971632e-02 4.179704e-01
v -4.788305e-01 9.300501e-02 4.269857e-01
v -4.797109e-01 9.567552e-02 4.354876e-01
v -4.799682e-01 9.772448e-02 4.434944e-01
v -4.809214e-01 1.004220e-01 4.518552e-01
v -4.812453e-01 1.024955e-01 4.597332e-01
v -4.816008e-01 1.045809e-01 4.675499e-01
v -4.819879e-01 1.066779e-01 4.753053e-01
v -4.810528e-01 1.075035e-01 4.822176e-01
v -4.794563e-01 1.076933e-01 4.887084e-01
v -4.785559e-01 1.085317e-01 4.955533e-01
v -4.769880e-01 1.087321e-01 5.019889e-01
v -4.754327e-01 1.089373e-01 5.084001e-01
v -4.738901e-01 1.091470e-01 5.147867e-01
v -4.716642e-01 1.087128e-01 5.207946e-01
v -4.708430e-01 1.095806e-01 5.274862e-01
v -4.700408e-01 1.104556e-01 5.341410e-01
v -4.692578e-01 1.113375e-01 5.407590e-01
v -5.660960e-01 1.031988e-01 2.015610e-01
v -5.629078e-01 1.020173e-01 2.077300e-01
v -5.608190e-01 1.020391e-01 2.151575e-01
v -5.581899e-01 1.014629e-01 2.219374e-01
v -5.561233e-01 1.014930e-01 2.293219e-01
v -5.540694e-01 1.015277e-01 2.366819e-01
v -5.520281e-01 1.015672e-01 2.440173e-01
v -5.494339e-01 1.010038e-01 2.507297e-01
v -5.462773e-01 9.983409e-02 2.568375e-01
v -5.442646e-01 9.988414e-02 2.641178e-01
v -5.411144e-01 9.871673e-02 2.702133e-01
v -5.362293e-01 9.571252e-02 2.745866e-01
v -5.330695e-01 9.454160e-02 2.807005e-01
v -5.304944e-01 9.398523e-02 2.873761e-01
v -5.273378e-01 9.281549e-02 2.934838e-01
v -5.241812e-01 9.164572e-02 2.995915e-01
v -5.186484e-01 8.800347e-02 3.035258e-01
v -5.142844e-01 8.559035e-02 3.085836e-01
v -5.111089e-01 8.441352e-02 3.147281e-01
v -5.073297e-01 8.261512e-02 3.203477e-01
v -5.035441e-01 8.081427e-02 3.259795e-01
v -5.003622e-01 7.963513e-02 3.321363e-01
v -4.971803e-01 7.845596e-02 3.382931e-01
v -4.946146e-01 7.790318e-02 3.449503e-01
v -4.914359e-01 7.672521e-02 3.511009e-01
v -4.888797e-01 7.617585e-02 3.577397e-01
v -4.875815e-01 7.688872e-02 3.653303e-01
v -4.863023e-01 7.760854e-02 3.728841e-01
v -4.856742e-01 7.896767e-02 3.808710e-01
v -4.857069e-01 8.096961e-02 3.892722e-01
v -4.864096e-01 8.361783e-02 3.980699e-01
v -4.852255e-01 8.437293e-02 4.054398e-01
v -4.847052e-01 8.577202e-02 4.132180e-01
v -4.861542e-01 8.909476e-02 4.222646e-01
v -4.876476e-01 9.243392e-02 4.312253e-01
v -4.878767e-01 9.450868e-02 4.392465e-01
v -4.874800e-01 9.595357e-02 4.467856e-01
v -4.890907e-01 9.933620e-02 4.555194e-01
v -4.894180e-01 1.014473e-01 4.633505e-01
v -4.897770e-01 1.035703e-01 4.711203e-01
v -4.894976e-01 1.050585e-01 4.784325e-01
v -4.878968e-01 1.052613e-01 4.849156e-01
v -4.869853e-01 1.061174e-01 4.917581e-01
v -4.854130e-01 1.063307e-01 4.981860e-01
v -4.824878e-01 1.052467e-01 5.038461e-01
v -4.809346e-01 1.054670e-01 5.102372e-01
v -4.793942e-01 1.056921e-01 5.166038e-01
v -4.778663e-01 1.059218e-01 5.229457e-01
v -4.763511e-01 1.061563e-01 5.292633e-01
v -4.755473e-01 1.070523e-01 5.358973e-01
v -4.747624e-01 1.079553e-01 5.424945e-01
v -5.725439e-01 1.003165e-01 2.055706e-01
v -5.682858e-01 9.792810e-02 2.104399e-01
v -5.651070e-01 9.675013e-02 2.165906e-01
v -5.630266e-01 9.678958e-02 2.239858e-01
v -5.615113e-01 9.744372e-02 2.319726e-01
v -5.600148e-01 9.810481e-02 2.399226e-01
v -5.579788e-01 9.816078e-02 2.472319e-01
v -5.553935e-01 9.760793e-02 2.539190e-01
v -5.533797e-01 9.767206e-02 2.611854e-01
v -5.519467e-01 9.835669e-02 2.690127e-01
v -5.482473e-01 9.658058e-02 2.744859e-01
v -5.439670e-01 9.418393e-02 2.793981e-01
v -5.414072e-01 9.364052e-02 2.860362e-01
v -5.388536e-01 9.309948e-02 2.926620e-01
v -5.351384e-01 9.131745e-02 2.981658e-01
v -5.308295e-01 8.891022e-02 3.031332e-01
v -5.265081e-01 8.649839e-02 3.081251e-01
v -5.227675e-01 8.470695e-02 3.136781e-01
v -5.196172e-01 8.353953e-02 3.197736e-01
v -5.152672e-01 8.111702e-02 3.248206e-01
v -5.115075e-01 7.931857e-02 3.304103e-01
v -5.077417e-01 7.751779e-02 3.360123e-01
v -5.051881e-01 7.697668e-02 3.426380e-01
v -5.026409e-01 7.643795e-02 3.492515e-01
v -5.001001e-01 7.590162e-02 3.558527e-01
v -4.975655e-01 7.536762e-02 3.624417e-01
v -4.962815e-01 7.610742e-02 3.699808e-01
v -4.950164e-01 7.685432e-02 3.774832e-01
v -4.950272e-01 7.888439e-02 3.858867e-01
v -4.950697e-01 8.092627e-02 3.942288e-01
v -4.951440e-01 8.297990e-02 4.025097e-01
v -4.946119e-01 8.440359e-02 4.102787e-01
v -4.941052e-01 8.583674e-02 4.179986e-01
v -4.949124e-01 8.856721e-02 4.265460e-01
v -4.944628e-01 9.002146e-02 4.341555e-01
v -4.946891e-01 9.213142e-02 4.421420e-01
v -4.956009e-01 9.490066e-02 4.504871e-01
v -4.965507e-01 9.768401e-02 4.587587e-01
v -4.968784e-01 9.983154e-02 4.665489e-01
v -4.972378e-01 1.019908e-01 4.742779e-01
v -4.969625e-01 1.035097e-01 4.815502e-01
v -4.953733e-01 1.037312e-01 4.879948e-01
v -4.931241e-01 1.033029e-01 4.940319e-01
v -4.902052e-01 1.022212e-01 4.996797e-01
v -4.879654e-01 1.017965e-01 5.056984e-01
v -4.864142e-01 1.020321e-01 5.120694e-01
v -4.848758e-01 1.022724e-01 5.184160e-01
v -4.826613e-01 1.018570e-01 5.243856e-01
v -4.818368e-01 1.027671e-01 5.310356e-01
v -4.810313e-01 1.036843e-01 5.376488e-01
v -4.788487e-01 1.032806e-01 5.435571e-01
v -5.725633e-01 9.264954e-02 2.118775e-01
v -5.699300e-01 9.208621e-02 2.186497e-01
v -5.683939e-01 9.275444e-02 2.266525e-01
v -5.674254e-01 9.404546e-02 2.352338e-01
v -5.653788e-01 9.411191e-02 2.425477e-01
v -5.633448e-01 9.418313e-02 2.498370e-01
v -5.613234e-01 9.425901e-02 2.571018e-01
v -5.604374e-01 9.558057e-02 2.655237e-01
v -5.590123e-01 9.628983e-02 2.733118e-01
v -5.559032e-01 9.513768e-02 2.793276e-01
v -5.522234e-01 9.336158e-02 2.847709e-01
v -5.496851e-01 9.283344e-02 2.913591e-01
v -5.465761e-01 9.168128e-02 2.973748e-01
v -5.428868e-01 8.990162e-02 3.028365e-01
v -5.386076e-01 8.749089e-02 3.077626e-01
v -5.331424e-01 8.381570e-02 3.116297e-01
v -5.300112e-01 8.265535e-02 3.176884e-01
v -5.274730e-01 8.212717e-02 3.242765e-01
v -5.231526e-01 7.970121e-02 3.292824e-01
v -5.194189e-01 7.790505e-02 3.348299e-01
v -5.162813e-01 7.674237e-02 3.409008e-01
v -5.125381e-01 7.494273e-02 3.464668e-01
v -5.100062e-01 7.441691e-02 3.530428e-01
v -5.074806e-01 7.389350e-02 3.596063e-01
v -5.055765e-01 7.401284e-02 3.666442e-01
v -5.049219e-01 7.542007e-02 3.746184e-01
v -5.049140e-01 7.747956e-02 3.830180e-01
v -5.043132e-01 7.890686e-02 3.908880e-01
v -5.037378e-01 8.034355e-02 3.987089e-01
v -5.038186e-01 8.243586e-02 4.069367e-01
v -5.032971e-01 8.389254e-02 4.146535e-01
v -5.028009e-01 8.535853e-02 4.223211e-01
v -5.036110e-01 8.813361e-02 4.308146e-01
v -5.038155e-01 9.027178e-02 4.388032e-01
v -5.040517e-01 9.242168e-02 4.467306e-01
v -5.043196e-01 9.458336e-02 4.545966e-01
v -5.046192e-01 9.675674e-02 4.624013e-01
v -5.049504e-01 9.894189e-02 4.701446e-01
v -5.053135e-01 1.011388e-01 4.778266e-01
v -5.037200e-01 1.013733e-01 4.842636e-01
v -5.021392e-01 1.016124e-01 4.906760e-01
v -5.005711e-01 1.018563e-01 4.970639e-01
v -4.976712e-01 1.007816e-01 5.026749e-01
v -4.947713e-01 9.970701e-02 5.082859e-01
v -4.925500e-01 9.929623e-02 5.142608e-01
v -4.903351e-01 9.888789e-02 5.202235e-01
v -4.874415e-01 9.781562e-02 5.258222e-01
v -4.866122e-01 9.874574e-02 5.324575e-01
v -4.858019e-01 9.968285e-02 5.390560e-01
v -4.829273e-01 9.861758e-02 5.446180e-01
v -5.768333e-01 8.738283e-02 2.133135e-01
v -5.758150e-01 8.868447e-02 2.219591e-01
v -5.742805e-01 8.937498e-02 2.299350e-01
v -5.733098e-01 9.069417e-02 2.384886e-01
v -5.729125e-01 9.264559e-02 2.476015e-01
v -5.719957e-01 9.398475e-02 2.560509e-01
v -5.705498e-01 9.470815e-02 2.638551e-01
v -5.696806e-01 9.606493e-02 2.722124e-01
v -5.677153e-01 9.617609e-02 2.793530e-01
v -5.651986e-01 9.566322e-02 2.858913e-01
v -5.621213e-01 9.452282e-02 2.918456e-01
v -5.590439e-01 9.338242e-02 2.978001e-01
v -5.548197e-01 9.097752e-02 3.026358e-01
v -5.505829e-01 8.856802e-02 3.074960e-01
v -5.463333e-01 8.615374e-02 3.123808e-01
v -5.414883e-01 8.309908e-02 3.167492e-01
v -5.372102e-01 8.067422e-02 3.216891e-01
v -5.335087e-01 7.888279e-02 3.271823e-01
v -5.309858e-01 7.836758e-02 3.337329e-01
v -5.290648e-01 7.849515e-02 3.407876e-01
v -5.259589e-01 7.734421e-02 3.467971e-01
v -5.216491e-01 7.490763e-02 3.517985e-01
v -5.179318e-01 7.311029e-02 3.573223e-01
v -5.160330e-01 7.324611e-02 3.643341e-01
v -5.147583e-01 7.403288e-02 3.718071e-01
v -5.141172e-01 7.547430e-02 3.797230e-01
v -5.141192e-01 7.757366e-02 3.880633e-01
v -5.129112e-01 7.838518e-02 3.954076e-01
v -5.129703e-01 8.050580e-02 4.036375e-01
v -5.130610e-01 8.263804e-02 4.118060e-01
v -5.125530e-01 8.412874e-02 4.194643e-01
v -5.114368e-01 8.497425e-02 4.266307e-01
v -5.116132e-01 8.713826e-02 4.346337e-01
v -5.124612e-01 8.997095e-02 4.430061e-01
v -5.127041e-01 9.215962e-02 4.508803e-01
v -5.123324e-01 9.370081e-02 4.582749e-01
v -5.126356e-01 9.591177e-02 4.660327e-01
v -5.129704e-01 9.813452e-02 4.737290e-01
v -5.126811e-01 9.970627e-02 4.809642e-01
v -5.104402e-01 9.929550e-02 4.869690e-01
v -5.088678e-01 9.955226e-02 4.933491e-01
v -5.073081e-01 9.981375e-02 4.997048e-01
v -5.044241e-01 9.874500e-02 5.052851e-01
v -5.008684e-01 9.700755e-02 5.104962e-01
v -4.979812e-01 9.593762e-02 5.160827e-01
v -4.950940e-01 9.486766e-02 5.216691e-01
v -4.922068e-01 9.379775e-02 5.272556e-01
v -4.906882e-01 9.407448e-02 5.335315e-01
v -4.884949e-01 9.368142e-02 5.394444e-01
v -4.863079e-01 9.329068e-02 5.453449e-01
v -5.891579e-01 9.408216e-02 2.340261e-01
v -5.887451e-01 9.606412e-02 2.431290e-01
v -5.861995e-01 9.554775e-02 2.497155e-01
v -5.842045e-01 9.566240e-02 2.568974e-01
v -5.827696e-01 9.641164e-02 2.646562e-01
v -5.808031e-01 9.653688e-02 2.717830e-01
v -5.782954e-01 9.603456e-02 2.782959e-01
v -5.757941e-01 9.553460e-02 2.847966e-01
v -5.732991e-01 9.503699e-02 2.912850e-01
v -5.708105e-01 9.454173e-02 2.977612e-01
v -5.671952e-01 9.277497e-02 3.030957e-01
v -5.635734e-01 9.100585e-02 3.084425e-01
v -5.593727e-01 8.859519e-02 3.132492e-01
v -5.551590e-01 8.617974e-02 3.180804e-01
v -5.503536e-01 8.311797e-02 3.223959e-01
v -5.449469e-01 7.940642e-02 3.262143e-01
v -5.406857e-01 7.697332e-02 3.311374e-01
v -5.381781e-01 7.647104e-02 3.376504e-01
v -5.368605e-01 7.726370e-02 3.451823e-01
v -5.343719e-01 7.676849e-02 3.516585e-01
v -5.312913e-01 7.562688e-02 3.576191e-01
v -5.276094e-01 7.383545e-02 3.630824e-01
v -5.257349e-01 7.399475e-02 3.700312e-01
v -5.238729e-01 7.415873e-02 3.769556e-01
v -5.226346e-01 7.498079e-02 3.843342e-01
v -5.226434e-01 7.711900e-02 3.926215e-01
v -5.220666e-01 7.861320e-02 4.003808e-01
v -5.215152e-01 8.011678e-02 4.080911e-01
v -5.216127e-01 8.228785e-02 4.162066e-01
v -5.211152e-01 8.381140e-02 4.238126e-01
v -5.200130e-01 8.468396e-02 4.309276e-01
v -5.201962e-01 8.688674e-02 4.388775e-01
v -5.210472e-01 8.976400e-02 4.471959e-01
v -5.206574e-01 9.132750e-02 4.545935e-01
v -5.209356e-01 9.356550e-02 4.623595e-01
v -5.212454e-01 9.581528e-02 4.700642e-01
v -5.202891e-01 9.674184e-02 4.768970e-01
v -5.186998e-01 9.700680e-02 4.832939e-01
v -5.171231e-01 9.727648e-02 4.896664e-01
v -5.155591e-01 9.755089e-02 4.960143e-01
v -5.133462e-01 9.715785e-02 5.019569e-01
v -5.098101e-01 9.542042e-02 5.071382e-01
v -5.076035e-01 9.502973e-02 5.130686e-01
v -5.040611e-01 9.328995e-02 5.182621e-01
v -5.005122e-01 9.154786e-02 5.234679e-01
v -4.976345e-01 9.048143e-02 5.290360e-01
v -4.947568e-01 8.941503e-02 5.346040e-01
v -4.918792e-01 8.834863e-02 5.401721e-01
v -6.066153e-01 1.047398e-01 2.510660e-01
v -6.035951e-01 1.036205e-01 2.569100e-01
v -6.000373e-01 1.018678e-01 2.621411e-01
v -5.959326e-01 9.947824e-02 2.667777e-01
v -5.929029e-01 9.835548e-02 2.726401e-01
v -5.904199e-01 9.786958e-02 2.790971e-01
v -5.868432e-01 9.610987e-02 2.843650e-01
v -5.838134e-01 9.498713e-02 2.902274e-01
v -5.807836e-01 9.386432e-02 2.960899e-01
v -5.771941e-01 9.209992e-02 3.013823e-01
v -5.735984e-01 9.033315e-02 3.066869e-01
v -5.705622e-01 8.920802e-02 3.125617e-01
v -5.675261e-01 8.808288e-02 3.184363e-01
v -5.633453e-01 8.566511e-02 3.232201e-01
v -5.585765e-01 8.259511e-02 3.274889e-01
v -5.537886e-01 7.951815e-02 3.317946e-01
v -5.507271e-01 7.838361e-02 3.377184e-01
v -5.476655e-01 7.724908e-02 3.436421e-01
v -5.457803e-01 7.741892e-02 3.505955e-01
v -5.433165e-01 7.694011e-02 3.570157e-01
v -5.408590e-01 7.646364e-02 3.634237e-01
v -5.378102e-01 7.533381e-02 3.693229e-01
v -5.353622e-01 7.486091e-02 3.757124e-01
v -5.335245e-01 7.504831e-02 3.825738e-01
v -5.323067e-01 7.589977e-02 3.898887e-01
v -5.317181e-01 7.741863e-02 3.976387e-01
v -5.311550e-01 7.894687e-02 4.053396e-01
v -5.306172e-01 8.048454e-02 4.129915e-01
v -5.307246e-01 8.269554e-02 4.210478e-01
v -5.296177e-01 8.358807e-02 4.281481e-01
v -5.297821e-01 8.582018e-02 4.360941e-01
v -5.306076e-01 8.873155e-02 4.444138e-01
v -5.295736e-01 8.965111e-02 4.513730e-01
v -5.285586e-01 9.057766e-02 4.582955e-01
v -5.288402e-01 9.285324e-02 4.660145e-01
v -5.285117e-01 9.446845e-02 4.732617e-01
v -5.275632e-01 9.541969e-02 4.800553e-01
v -5.259854e-01 9.570344e-02 4.864139e-01
v -5.244203e-01 9.599192e-02 4.927479e-01
v -5.222131e-01 9.560826e-02 4.986714e-01
v -5.193545e-01 9.454887e-02 5.042027e-01
v -5.164958e-01 9.348954e-02 5.097340e-01
v -5.143014e-01 9.311057e-02 5.156330e-01
v -5.101111e-01 9.068922e-02 5.204350e-01
v -5.065787e-01 8.894599e-02 5.256171e-01
v -5.030400e-01 8.720033e-02 5.308114e-01
v -6.149137e-01 1.048750e-01 2.574493e-01
v -6.129829e-01 1.050425e-01 2.644747e-01
v -6.099975e-01 1.039362e-01 2.702513e-01
v -6.059383e-01 1.015489e-01 2.748159e-01
v -6.018665e-01 9.915696e-02 2.794049e-01
v -5.988683e-01 9.804592e-02 2.852060e-01
v -5.947774e-01 9.564694e-02 2.898320e-01
v -5.906739e-01 9.324324e-02 2.944823e-01
v -5.876631e-01 9.212750e-02 3.003080e-01
v -5.840964e-01 9.036430e-02 3.055644e-01
v -5.810824e-01 8.924740e-02 3.113962e-01
v -5.780684e-01 8.813047e-02 3.172280e-01
v -5.744891e-01 8.636256e-02 3.225089e-01
v -5.703348e-01 8.394002e-02 3.272575e-01
v -5.661679e-01 8.151289e-02 3.320306e-01
v -5.619883e-01 7.908099e-02 3.368282e-01
v -5.589521e-01 7.795587e-02 3.427029e-01
v -5.564972e-01 7.748768e-02 3.490978e-01
v -5.546331e-01 7.767979e-02 3.559943e-01
v -5.521940e-01 7.721741e-02 3.623584e-01
v -5.497613e-01 7.675742e-02 3.687104e-01
v -5.467410e-01 7.563816e-02 3.745544e-01
v -5.449149e-01 7.584444e-02 3.813774e-01
v -5.437018e-01 7.671932e-02 3.886592e-01
v -5.419042e-01 7.693615e-02 3.954271e-01
v -5.413324e-01 7.849029e-02 4.031126e-01
v -5.407861e-01 8.005384e-02 4.107490e-01
v -5.408780e-01 8.229535e-02 4.187952e-01
v -5.403855e-01 8.387884e-02 4.263274e-01
v -5.399184e-01 8.547163e-02 4.338105e-01
v -5.394766e-01 8.707392e-02 4.412445e-01
v -5.396858e-01 8.935894e-02 4.490638e-01
v -5.374116e-01 8.895765e-02 4.551091e-01
v -5.364075e-01 8.991002e-02 4.619863e-01
v -5.360577e-01 9.154633e-02 4.692425e-01
v -5.357331e-01 9.319207e-02 4.764496e-01
v -5.347926e-01 9.416799e-02 4.832041e-01
v -5.332263e-01 9.447053e-02 4.895242e-01
v -5.316727e-01 9.477787e-02 4.958199e-01
v -5.288299e-01 9.372441e-02 5.013205e-01
v -5.259871e-01 9.267089e-02 5.068212e-01
v -5.224870e-01 9.093229e-02 5.119488e-01
v -5.196410e-01 8.987764e-02 5.174556e-01
v -5.161313e-01 8.813546e-02 5.226016e-01
v -5.119486e-01 8.570249e-02 5.274054e-01
v -5.090931e-01 8.464432e-02 5.329306e-01
v -6.196548e-01 1.033738e-01 2.689345e-01
v -6.172185e-01 1.029197e-01 2.752856e-01
v -6.131889e-01 1.005289e-01 2.798088e-01
v -6.086103e-01 9.748595e-02 2.837575e-01
v -6.056312e-01 9.638192e-02 2.895219e-01
v -6.021095e-01 9.462810e-02 2.946994e-01
v -5.980356e-01 9.222093e-02 2.993085e-01
v -5.944980e-01 9.046116e-02 3.045166e-01
v -5.909540e-01 8.869915e-02 3.097371e-01
v -5.874037e-01 8.693470e-02 3.149698e-01
v -5.849641e-01 8.647941e-02 3.213271e-01
v -5.825308e-01 8.602639e-02 3.276720e-01
v -5.784094e-01 8.360160e-02 3.323731e-01
v -5.742753e-01 8.117208e-02 3.370987e-01
v -5.706996e-01 7.939825e-02 3.423805e-01
v -5.671176e-01 7.762209e-02 3.476745e-01
v -5.646844e-01 7.716912e-02 3.540195e-01
v -5.628381e-01 7.738246e-02 3.608654e-01
v -5.604207e-01 7.693534e-02 3.671797e-01
v -5.580095e-01 7.649063e-02 3.734818e-01
v -5.561950e-01 7.671568e-02 3.802664e-01
v -5.543931e-01 7.694541e-02 3.870265e-01
v -5.526039e-01 7.717988e-02 3.937621e-01
v -5.508274e-01 7.741900e-02 4.004731e-01
v -5.508722e-01 7.967935e-02 4.085704e-01
v -5.509486e-01 8.195144e-02 4.166066e-01
v -5.498384e-01 8.288625e-02 4.236652e-01
v -5.493595e-01 8.450380e-02 4.311390e-01
v -5.482905e-01 8.545382e-02 4.381179e-01
v -5.472404e-01 8.641097e-02 4.450601e-01
v -5.474531e-01 8.873352e-02 4.528324e-01
v -5.458224e-01 8.902672e-02 4.592613e-01
v -5.448326e-01 9.000619e-02 4.660871e-01
v -5.444931e-01 9.167539e-02 4.732910e-01
v -5.435445e-01 9.267013e-02 4.800369e-01
v -5.419771e-01 9.298673e-02 4.863432e-01
v -5.397816e-01 9.262185e-02 4.922283e-01
v -5.382364e-01 9.294679e-02 4.984917e-01
v -5.354095e-01 9.189916e-02 5.039616e-01
v -5.325825e-01 9.085157e-02 5.094316e-01
v -5.291019e-01 8.911294e-02 5.145293e-01
v -5.256150e-01 8.737200e-02 5.196394e-01
v -5.227817e-01 8.632204e-02 5.251217e-01
v -5.192853e-01 8.457760e-02 5.302501e-01
v -6.222821e-01 9.938135e-02 2.778666e-01
v -6.187989e-01 9.763458e-02 2.829774e-01
v -6.147769e-01 9.523204e-02 2.875022e-01
v -6.118136e-01 9.413391e-02 2.932359e-01
v -6.077725e-01 9.172438e-02 2.977976e-01
v -6.037187e-01 8.931010e-02 3.023837e-01
v -6.001975e-01 8.754919e-02 3.075682e-01
v -5.972184e-01 8.644520e-02 3.133324e-01
v -5.936877e-01 8.468085e-02 3.185354e-01
v -5.912601e-01 8.423721e-02 3.248611e-01
v -5.893970e-01 8.445884e-02 3.317239e-01
v -5.864242e-01 8.335719e-02 3.374759e-01
v -5.828872e-01 8.159035e-02 3.426910e-01
v -5.804787e-01 8.115388e-02 3.489800e-01
v -5.769353e-01 7.938474e-02 3.542074e-01
v -5.739594e-01 7.828191e-02 3.599655e-01
v -5.721373e-01 7.851870e-02 3.667486e-01
v -5.691678e-01 7.741824e-02 3.724944e-01
v -5.673647e-01 7.766209e-02 3.792407e-01
v -5.661609e-01 7.858398e-02 3.864564e-01
v -5.643865e-01 7.883843e-02 3.931474e-01
v -5.626246e-01 7.909754e-02 3.998139e-01
v -5.614715e-01 8.003821e-02 4.069315e-01
v -5.609365e-01 8.166399e-02 4.144818e-01
v -5.598246e-01 8.261989e-02 4.215197e-01
v -5.587317e-01 8.358295e-02 4.285208e-01
v -5.576578e-01 8.455296e-02 4.354850e-01
v -5.566028e-01 8.553004e-02 4.424125e-01
v -5.549520e-01 8.583025e-02 4.488643e-01
v -5.545501e-01 8.750533e-02 4.561571e-01
v -5.541736e-01 8.918982e-02 4.634008e-01
v -5.538224e-01 9.088373e-02 4.705954e-01
v -5.528690e-01 9.189842e-02 4.773267e-01
v -5.513037e-01 9.223031e-02 4.836130e-01
v -5.491171e-01 9.187599e-02 4.894727e-01
v -5.469368e-01 9.152401e-02 4.953202e-01
v -5.447629e-01 9.117443e-02 5.011554e-01
v -5.425952e-01 9.082714e-02 5.069783e-01
v -5.397872e-01 8.978658e-02 5.124115e-01
v -5.356796e-01 8.735233e-02 5.171019e-01
v -5.315592e-01 8.491343e-02 5.218168e-01
v -5.287385e-01 8.386815e-02 5.272746e-01
v -6.268009e-01 9.522140e-02 2.798329e-01
v -6.238535e-01 9.412915e-02 2.855359e-01
v -6.209061e-01 9.303692e-02 2.912389e-01
v -6.174266e-01 9.128419e-02 2.963506e-01
v -6.128704e-01 8.820605e-02 3.003042e-01
v -6.088336e-01 8.578355e-02 3.048735e-01
v -6.053256e-01 8.402028e-02 3.100404e-01
v -6.029008e-01 8.358495e-02 3.163530e-01
v -6.004823e-01 8.315196e-02 3.226535e-01
v -5.980700e-01 8.272130e-02 3.289418e-01
v -5.956642e-01 8.229298e-02 3.352176e-01
v -5.932646e-01 8.186702e-02 3.414813e-01
v -5.903109e-01 8.077242e-02 3.471965e-01
v -5.884846e-01 8.102216e-02 3.539718e-01
v -5.861041e-01 8.060326e-02 3.601987e-01
v -5.837299e-01 8.018665e-02 3.664133e-01
v -5.819353e-01 8.044814e-02 3.731273e-01
v -5.790006e-01 7.936060e-02 3.788057e-01
v -5.766454e-01 7.895107e-02 3.849835e-01
v -5.754621e-01 7.990234e-02 3.921355e-01
v -5.742978e-01 8.086064e-02 3.992507e-01
v -5.731525e-01 8.182598e-02 4.063291e-01
v -5.708417e-01 8.143296e-02 4.124210e-01
v -5.691326e-01 8.172610e-02 4.189694e-01
v -5.674363e-01 8.202395e-02 4.254933e-01
v -5.663544e-01 8.301280e-02 4.324491e-01
v -5.652914e-01 8.400864e-02 4.393680e-01
v -5.642476e-01 8.501159e-02 4.462502e-01
v -5.632227e-01 8.602155e-02 4.530955e-01
v -5.622169e-01 8.703862e-02 4.599041e-01
v -5.624652e-01 8.944694e-02 4.675274e-01
v -5.621245e-01 9.117372e-02 4.746698e-01
v -5.605612e-01 9.152092e-02 4.809361e-01
v -5.590107e-01 9.187284e-02 4.871778e-01
v -5.568425e-01 9.153262e-02 4.929939e-01
v -5.546807e-01 9.119473e-02 4.987976e-01
v -5.525251e-01 9.085919e-02 5.045891e-01
v -5.510158e-01 9.122638e-02 5.107512e-01
v -5.482332e-01 9.019520e-02 5.161352e-01
v -5.370509e-01 8.002892e-02 5.167019e-01
v -6.283637e-01 8.999502e-02 2.874869e-01
v -6.254226e-01 8.890512e-02 2.931775e-01
v -6.219533e-01 8.714894e-02 2.982778e-01
v -6.179461e-01 8.472291e-02 3.028059e-01
v -6.144608e-01 8.296087e-02 3.079367e-01
v -6.109693e-01 8.119645e-02 3.130798e-01
v -6.090943e-01 8.144263e-02 3.199332e-01
v -6.072321e-01 8.169359e-02 3.267621e-01
v -6.048351e-01 8.127581e-02 3.330127e-01
v -6.024446e-01 8.086045e-02 3.392510e-01
v -5.995066e-01 7.977171e-02 3.449356e-01
v -5.971256e-01 7.935983e-02 3.511555e-01
v -5.947509e-01 7.895031e-02 3.573632e-01
v -5.929456e-01 7.922236e-02 3.640817e-01
v -5.911531e-01 7.949911e-02 3.707756e-01
v -5.888037e-01 7.909902e-02 3.769343e-01
v -5.864607e-01 7.870123e-02 3.830806e-01
v -5.841240e-01 7.830581e-02 3.892147e-01
v -5.829517e-01 7.928292e-02 3.963214e-01
v -5.817984e-01 8.026704e-02 4.033912e-01
v -5.806640e-01 8.125820e-02 4.104243e-01
v -5.789603e-01 8.156783e-02 4.169465e-01
v -5.760857e-01 8.050259e-02 4.225084e-01
v -5.749957e-01 8.151021e-02 4.294557e-01
v -5.739249e-01 8.252492e-02 4.363661e-01
v -5.728730e-01 8.354662e-02 4.432397e-01
v -5.718401e-01 8.457538e-02 4.500766e-01
v -5.708262e-01 8.561123e-02 4.568766e-01
v -5.710528e-01 8.804776e-02 4.645021e-01
v -5.713110e-01 9.049603e-02 4.720662e-01
v -5.697498e-01 9.085846e-02 4.783125e-01
v -5.682013e-01 9.122566e-02 4.845343e-01
v -5.666654e-01 9.159750e-02 4.907315e-01
v -5.645157e-01 9.127137e-02 4.965037e-01
v -5.630021e-01 9.165151e-02 5.026581e-01
v -5.615011e-01 9.203626e-02 5.087879e-01
v -5.523801e-01 8.395107e-02 5.103087e-01
v -5.578980e-01 9.211258e-02 5.205979e-01
v -6.323408e-01 8.521457e-02 2.888327e-01
v -6.294029e-01 8.412584e-02 2.945172e-01
v -6.259404e-01 8.236494e-02 2.996121e-01
v -6.229993e-01 8.127504e-02 3.053028e-01
v -6.195274e-01 7.951070e-02 3.104161e-01
v -6.171172e-01 7.909524e-02 3.166842e-01
v -6.147134e-01 7.868221e-02 3.229401e-01
v -6.128564e-01 7.894953e-02 3.297429e-01
v -6.099248e-01 7.786314e-02 3.354153e-01
v -6.075400e-01 7.745722e-02 3.416344e-01
v -6.057115e-01 7.773511e-02 3.483819e-01
v -6.038957e-01 7.801776e-02 3.551049e-01
v -6.009799e-01 7.693724e-02 3.607466e-01
v -5.997425e-01 7.791195e-02 3.679551e-01
v -5.979615e-01 7.820755e-02 3.746106e-01
v -5.956274e-01 7.782026e-02 3.807317e-01
v -5.927307e-01 7.674683e-02 3.863365e-01
v -5.915504e-01 7.774270e-02 3.934346e-01
v -5.903891e-01 7.874563e-02 4.004960e-01
v -5.892467e-01 7.975564e-02 4.075205e-01
v -5.875418e-01 8.007932e-02 4.140288e-01
v -5.858496e-01 8.040779e-02 4.205127e-01
v -5.835820e-01 8.004524e-02 4.265050e-01
v -5.819120e-01 8.038190e-02 4.329459e-01
v -5.808489e-01 8.142123e-02 4.398171e-01
v -5.798048e-01 8.246767e-02 4.466516e-01
v -5.793804e-01 8.422139e-02 4.538917e-01
v -5.789813e-01 8.598458e-02 4.610829e-01
v -5.792146e-01 8.845986e-02 4.686552e-01
v -5.788695e-01 9.024302e-02 4.757421e-01
v -5.773230e-01 9.062548e-02 4.819440e-01
v -5.751727e-01 9.030640e-02 4.877093e-01
v -5.730288e-01 8.998962e-02 4.934623e-01
v -5.721368e-01 9.109241e-02 5.000025e-01
v -5.706379e-01 9.149245e-02 5.061122e-01
v -5.609725e-01 8.265523e-02 5.071617e-01
v -5.670457e-01 9.159457e-02 5.178769e-01
v -6.363104e-01 8.044586e-02 2.901768e-01
v -6.333757e-01 7.935830e-02 2.958552e-01
v -6.304409e-01 7.827074e-02 3.015337e-01
v -6.269822e-01 7.650399e-02 3.066294e-01
v -6.240443e-01 7.541530e-02 3.123139e-01
v -6.221671e-01 7.568967e-02 3.191396e-01
v -6.197692e-01 7.528604e-02 3.253763e-01
v -6.179140e-01 7.556864e-02 3.321590e-01
v -6.155319e-01 7.517088e-02 3.383651e-01
v -6.131561e-01 7.477550e-02 3.445589e-01
v -6.118790e-01 7.575720e-02 3.518202e-01
v -6.100715e-01 7.605751e-02 3.585110e-01
v -6.077241e-01 7.567263e-02 3.646495e-01
v -6.059389e-01 7.598106e-02 3.712974e-01
v -6.041663e-01 7.629426e-02 3.779207e-01
v -6.024064e-01 7.661204e-02 3.845195e-01
v -6.006592e-01 7.693465e-02 3.910937e-01
v -5.994930e-01 7.795754e-02 3.981403e-01
v -5.983457e-01 7.898748e-02 4.051502e-01
v -5.966429e-01 7.932648e-02 4.116386e-01
v -5.943749e-01 7.897104e-02 4.176239e-01
v -5.921131e-01 7.861786e-02 4.235969e-01
v -5.898577e-01 7.826704e-02 4.295577e-01
v -5.881960e-01 7.862133e-02 4.359663e-01
v -5.865470e-01 7.898026e-02 4.423505e-01
v -5.860982e-01 8.075405e-02 4.496059e-01
v -5.856747e-01 8.253720e-02 4.568122e-01
v -5.858767e-01 8.503715e-02 4.644051e-01
v -5.867136e-01 8.825741e-02 4.723662e-01
v -5.863757e-01 9.007229e-02 4.794069e-01
v -5.848440e-01 9.047466e-02 4.855642e-01
v -5.827122e-01 9.016962e-02 4.912858e-01
v -5.805867e-01 8.986707e-02 4.969952e-01
v -5.790866e-01 9.028116e-02 5.030910e-01
v -5.769770e-01 8.998444e-02 5.087697e-01
v -6.368270e-01 7.391978e-02 2.965973e-01
v -6.344095e-01 7.351614e-02 3.028639e-01
v -6.314779e-01 7.242976e-02 3.085363e-01
v -6.290698e-01 7.202969e-02 3.147845e-01
v -6.266680e-01 7.163187e-02 3.210204e-01
v -6.248024e-01 7.192510e-02 3.278076e-01
v -6.229495e-01 7.222297e-02 3.345704e-01
v -6.211092e-01 7.252552e-02 3.413086e-01
v -6.192816e-01 7.283288e-02 3.480223e-01
v -6.174667e-01 7.314481e-02 3.547114e-01
v -6.156645e-01 7.346148e-02 3.613760e-01
v -6.133261e-01 7.308723e-02 3.674893e-01
v -6.115460e-01 7.341209e-02 3.741110e-01
v -6.103338e-01 7.443969e-02 3.812227e-01
v -6.091406e-01 7.547435e-02 3.882976e-01
v -6.074049e-01 7.581572e-02 3.948334e-01
v -6.062466e-01 7.686332e-02 4.018409e-01
v -6.051073e-01 7.791786e-02 4.088116e-01
v -6.034160e-01 7.827569e-02 4.152616e-01
v -6.011631e-01 7.793309e-02 4.212092e-01
v -5.983393e-01 7.688665e-02 4.266730e-01
v -5.955155e-01 7.584020e-02 4.321369e-01
v -5.932754e-01 7.550234e-02 4.380601e-01
v -5.922153e-01 7.658633e-02 4.448774e-01
v -5.917643e-01 7.838826e-02 4.521052e-01
v -5.919318e-01 8.091172e-02 4.597247e-01
v -5.927272e-01 8.416019e-02 4.677177e-01
v -5.941604e-01 8.813715e-02 4.760658e-01
v -5.950352e-01 9.141498e-02 4.839056e-01
v -5.923128e-01 9.040613e-02 4.891732e-01
v -5.895904e-01 8.939727e-02 4.944408e-01
v -5.880923e-01 8.982666e-02 5.005167e-01
v -5.853763e-01 8.882013e-02 5.057720e-01
v -6.382376e-01 6.572680e-02 2.949656e-01
v -6.383706e-01 6.877326e-02 3.041927e-01
v -6.364753e-01 6.906998e-02 3.110212e-01
v -6.340730e-01 6.867926e-02 3.172502e-01
v -6.316770e-01 6.829091e-02 3.234670e-01
v -6.292874e-01 6.790486e-02 3.296713e-01
v -6.279626e-01 6.891250e-02 3.369769e-01
v -6.271891e-01 7.062399e-02 3.447962e-01
v -6.253700e-01 7.094895e-02 3.514776e-01
v -6.241022e-01 7.197767e-02 3.586727e-01
v -6.217696e-01 7.161282e-02 3.647668e-01
v -6.194433e-01 7.125023e-02 3.708486e-01
v -6.176717e-01 7.159277e-02 3.774381e-01
v -6.164641e-01 7.264389e-02 3.845167e-01
v -6.152755e-01 7.370205e-02 3.915586e-01
v -6.135483e-01 7.406098e-02 3.980621e-01
v -6.123946e-01 7.513207e-02 4.050365e-01
v -6.106958e-01 7.550157e-02 4.114849e-01
v -6.090098e-01 7.587575e-02 4.179087e-01
v -6.067659e-01 7.554380e-02 4.238311e-01
v -6.039548e-01 7.450209e-02 4.292704e-01
v -6.011436e-01 7.346030e-02 4.347098e-01
v -5.989124e-01 7.313300e-02 4.406076e-01
v -5.978539e-01 7.423932e-02 4.473980e-01
v -5.974006e-01 7.606941e-02 4.545980e-01
v -5.987410e-01 8.006292e-02 4.630693e-01
v -6.404246e-01 6.435175e-02 3.123406e-01
v -6.380217e-01 6.396812e-02 3.185626e-01
v -6.361443e-01 6.428593e-02 3.253405e-01
v -6.342797e-01 6.460852e-02 3.320938e-01
v -6.334787e-01 6.633881e-02 3.399345e-01
v -6.327030e-01 6.807851e-02 3.477261e-01
v -6.314209e-01 6.912370e-02 3.549249e-01
v -6.301579e-01 7.017601e-02 3.620870e-01
v -6.283755e-01 7.052912e-02 3.686809e-01
v -6.255232e-01 6.947210e-02 3.742000e-01
v -6.237600e-01 6.983225e-02 3.807571e-01
v -6.220094e-01 7.019707e-02 3.872898e-01
v -6.213732e-01 7.198846e-02 3.948115e-01
v -6.202084e-01 7.307714e-02 4.017834e-01
v -6.190625e-01 7.417283e-02 4.087187e-01
v -6.179357e-01 7.527565e-02 4.156171e-01
v -6.157008e-01 7.495423e-02 4.215141e-01
v -6.134722e-01 7.463511e-02 4.273989e-01
v -6.106801e-01 7.360041e-02 4.328013e-01
v -6.067419e-01 7.112746e-02 4.372762e-01
v -6.045197e-01 7.081071e-02 4.431487e-01
v -6.028831e-01 7.121779e-02 4.494606e-01
v -6.018418e-01 7.235228e-02 4.561934e-01
v -6.419631e-01 5.926871e-02 3.198734e-01
v -6.405968e-01 6.030452e-02 3.272109e-01
v -6.402869e-01 6.275985e-02 3.356339e-01
v -6.394869e-01 6.451953e-02 3.434407e-01
v -6.387121e-01 6.628855e-02 3.511984e-01
v -6.379628e-01 6.806706e-02 3.589070e-01
v -6.367076e-01 6.914404e-02 3.660299e-01
v -6.344024e-01 6.880379e-02 3.720549e-01
v -6.315659e-01 6.775265e-02 3.775433e-01
v -6.292702e-01 6.741596e-02 3.835499e-01
v -6.275249e-01 6.779724e-02 3.900564e-01
v -6.263393e-01 6.890002e-02 3.970444e-01
v -6.257231e-01 7.072781e-02 4.044954e-01
v -6.256857e-01 7.328412e-02 4.123912e-01
v -6.245667e-01 7.441155e-02 4.192503e-01
v -6.229069e-01 7.482455e-02 4.255913e-01
v -6.201338e-01 7.379690e-02 4.309570e-01
v -6.167945e-01 7.204537e-02 4.358535e-01
v -6.128796e-01 6.956657e-02 4.402992e-01
v -6.095246e-01 6.780913e-02 4.452264e-01
v -6.073144e-01 6.750422e-02 4.510675e-01
v -6.062683e-01 6.865863e-02 4.577856e-01
v -6.052412e-01 6.982013e-02 4.644670e-01
v -6.465696e-01 5.847936e-02 3.307776e-01
v -6.472866e-01 6.239414e-02 3.402868e-01
v -6.470119e-01 6.489879e-02 3.486017e-01
v -6.462477e-01 6.670075e-02 3.563071e-01
v -6.455088e-01 6.851210e-02 3.639634e-01
v -6.432125e-01 6.818248e-02 3.699632e-01
v -6.403919e-01 6.713723e-02 3.754208e-01
v -6.370373e-01 6.537277e-02 3.803549e-01
v -6.347506e-01 6.504666e-02 3.863363e-01
v -6.330105e-01 6.544437e-02 3.928166e-01
v -6.318264e-01 6.656945e-02 3.997776e-01
v -6.317546e-01 6.914930e-02 4.077000e-01
v -6.317144e-01 7.174088e-02 4.155611e-01
v -6.311530e-01 7.361799e-02 4.228741e-01
v -6.289487e-01 7.332240e-02 4.286959e-01
v -6.261914e-01 7.230062e-02 4.340310e-01
v -6.223093e-01 6.981942e-02 4.384292e-01
v -6.184145e-01 6.733355e-02 4.428520e-01
v -6.150758e-01 6.557496e-02 4.477555e-01
v -6.128746e-01 6.528061e-02 4.535712e-01
v -6.118300e-01 6.645732e-02 4.602624e-01
v -6.544773e-01 6.537203e-02 3.537499e-01
v -6.532061e-01 6.648657e-02 3.608557e-01
v -6.509124e-01 6.616519e-02 3.668423e-01
v -6.486251e-01 6.584606e-02 3.728167e-01
v -6.458172e-01 6.480549e-02 3.782498e-01
v -6.424790e-01 6.303992e-02 3.831602e-01
v -6.396679e-01 6.199820e-02 3.885996e-01
v -6.379298e-01 6.241114e-02 3.950599e-01
v -6.378234e-01 6.501444e-02 4.030089e-01
v -6.377488e-01 6.762954e-02 4.108966e-01
v -6.377058e-01 7.025633e-02 4.187231e-01
v -6.365961e-01 7.143075e-02 4.255162e-01
v -6.349532e-01 7.187899e-02 4.317925e-01
v -6.316562e-01 7.012866e-02 4.366232e-01
v -6.272356e-01 6.690483e-02 4.405309e-01
v -6.227958e-01 6.367392e-02 4.444754e-01
v -6.200322e-01 6.264978e-02 4.498227e-01
v -6.178368e-01 6.236478e-02 4.556193e-01
v -6.156478e-01 6.208207e-02 4.614035e-01
v -6.575433e-01 6.272362e-02 3.626604e-01
v -6.562862e-01 6.386519e-02 3.697148e-01
v -6.534878e-01 6.282816e-02 3.751296e-01
v -6.506893e-01 6.179109e-02 3.805443e-01
v -6.478909e-01 6.075405e-02 3.859591e-01
v -6.445627e-01 5.898489e-02 3.908580e-01
v -6.433595e-01 6.014641e-02 3.978081e-01
v -6.426275e-01 6.469734e-02 4.130903e-01
v -6.431177e-01 6.809379e-02 4.213857e-01
v -6.338043e-01 6.624984e-02 4.440282e-01
v -6.271623e-01 6.003782e-02 4.460956e-01
v -6.238437e-01 5.827221e-02 4.509762e-01
v -6.216477e-01 5.799425e-02 4.567657e-01
v -6.504871e-01 5.748275e-02 3.941418e-01
v -6.503466e-01 6.014605e-02 4.020767e-01
