v -4.208802e-01 1.908044e-01 2.046113e-01
v -4.134422e-01 1.878997e-01 1.948761e-01
v -4.439602e-01 1.789093e-01 1.876262e-01
v -4.353791e-01 1.772799e-01 1.837397e-01
v -4.221311e-01 1.812536e-01 2.041445e-01
v -4.127254e-01 1.807533e-01 2.051160e-01
v -4.031633e-01 1.804796e-01 2.070594e-01
v -3.923211e-01 1.820156e-01 2.167759e-01
v -3.839662e-01 1.801651e-01 2.119177e-01
v -3.740462e-01 1.805796e-01 2.167759e-01
v -3.641960e-01 1.809996e-01 2.216342e-01
v -3.261866e-01 1.990271e-01 3.071396e-01
v -3.172398e-01 1.992793e-01 3.110263e-01
v -4.412867e-01 1.738058e-01 2.065981e-01
v -4.318666e-01 1.733111e-01 2.075678e-01
v -4.219055e-01 1.735107e-01 2.114471e-01
v -4.121782e-01 1.734831e-01 2.143565e-01
v -4.021509e-01 1.739230e-01 2.192055e-01
v -3.925214e-01 1.739030e-01 2.221148e-01
v -3.826197e-01 1.743528e-01 2.269637e-01
v -3.727877e-01 1.748082e-01 2.318128e-01
v -3.263412e-01 1.917864e-01 3.132758e-01
v -3.173050e-01 1.923042e-01 3.181248e-01
v -3.085550e-01 1.923533e-01 3.210341e-01
v -4.391935e-01 1.682210e-01 2.226028e-01
v -4.304480e-01 1.670292e-01 2.206669e-01
v -4.207471e-01 1.670239e-01 2.235709e-01
v -4.112665e-01 1.667836e-01 2.255066e-01
v -4.011279e-01 1.675011e-01 2.313144e-01
v -3.904147e-01 1.691827e-01 2.409938e-01
v -3.804714e-01 1.699154e-01 2.468014e-01
v -3.707625e-01 1.704142e-01 2.516411e-01
v -3.354425e-01 1.842935e-01 3.155253e-01
v -3.264915e-01 1.845995e-01 3.193970e-01
v -3.171335e-01 1.858829e-01 3.271406e-01
v -3.083221e-01 1.861999e-01 3.310122e-01
v -4.494298e-01 1.596489e-01 2.230983e-01
v -4.392853e-01 1.601473e-01 2.279288e-01
v -4.286318e-01 1.613832e-01 2.356576e-01
v -4.188341e-01 1.616497e-01 2.395218e-01
v -4.092711e-01 1.616756e-01 2.424200e-01
v -3.985457e-01 1.634240e-01 2.520809e-01
v -3.874646e-01 1.659218e-01 2.646400e-01
v -3.775137e-01 1.669537e-01 2.714026e-01
v -3.430351e-01 1.795322e-01 3.284016e-01
v -3.341308e-01 1.798690e-01 3.322661e-01
v -3.250360e-01 1.807090e-01 3.380625e-01
v -3.166060e-01 1.803058e-01 3.390287e-01
v -3.084084e-01 1.794025e-01 3.380625e-01
v -5.402616e-01 1.502037e-01 1.975671e-01
v -5.322315e-01 1.482433e-01 1.927459e-01
v -5.243878e-01 1.460316e-01 1.869607e-01
v -5.055405e-01 1.445507e-01 1.869607e-01
v -4.961168e-01 1.438102e-01 1.869607e-01
v -4.579801e-01 1.530443e-01 2.313152e-01
v -4.495001e-01 1.515803e-01 2.284225e-01
v -4.383714e-01 1.533648e-01 2.380648e-01
v -4.271889e-01 1.554108e-01 2.486713e-01
v -4.170927e-01 1.562128e-01 2.544566e-01
v -4.076190e-01 1.562660e-01 2.573493e-01
v -3.968064e-01 1.583412e-01 2.679559e-01
v -3.854850e-01 1.614399e-01 2.824194e-01
v -3.742144e-01 1.648085e-01 2.978470e-01
v -3.627121e-01 1.689565e-01 3.161673e-01
v -3.513305e-01 1.733799e-01 3.354518e-01
v -3.420180e-01 1.745094e-01 3.422016e-01
v -3.328033e-01 1.756465e-01 3.489512e-01
v -3.241812e-01 1.757667e-01 3.518439e-01
v -3.160679e-01 1.748633e-01 3.508795e-01
v -5.494832e-01 1.426781e-01 2.029394e-01
v -5.398865e-01 1.421967e-01 2.039019e-01
v -5.310952e-01 1.409606e-01 2.019771e-01
v -5.220192e-01 1.399748e-01 2.010148e-01
v -5.121795e-01 1.397469e-01 2.029394e-01
v -5.026107e-01 1.392677e-01 2.039019e-01
v -4.937635e-01 1.380272e-01 2.019771e-01
v -4.828280e-01 1.390765e-01 2.087138e-01
v -4.695482e-01 1.429409e-01 2.260365e-01
v -4.584547e-01 1.445231e-01 2.346977e-01
v -4.483192e-01 1.450900e-01 2.395096e-01
v -4.372480e-01 1.469467e-01 2.491333e-01
v -4.265107e-01 1.485569e-01 2.577948e-01
v -4.162731e-01 1.496611e-01 2.645313e-01
v -4.063133e-01 1.505144e-01 2.703056e-01
v -3.959180e-01 1.521515e-01 2.789669e-01
v -3.834884e-01 1.571734e-01 3.001392e-01
v -3.713661e-01 1.622193e-01 3.213114e-01
v -3.607682e-01 1.652038e-01 3.347846e-01
v -3.506562e-01 1.676812e-01 3.463331e-01
v -3.408501e-01 1.699099e-01 3.569192e-01
v -3.310662e-01 1.724130e-01 3.684677e-01
v -3.219469e-01 1.738777e-01 3.761667e-01
v -5.496331e-01 1.342009e-01 2.073401e-01
v -5.392355e-01 1.345017e-01 2.111823e-01
v -5.299517e-01 1.337722e-01 2.111823e-01
v -5.206675e-01 1.330426e-01 2.111823e-01
v -5.101313e-01 1.336119e-01 2.159848e-01
v -4.991780e-01 1.347072e-01 2.227083e-01
v -4.892683e-01 1.347669e-01 2.255900e-01
v -4.784826e-01 1.358753e-01 2.323135e-01
v -4.675720e-01 1.372535e-01 2.399977e-01
v -4.572041e-01 1.381154e-01 2.457609e-01
v -4.465030e-01 1.395100e-01 2.534450e-01
v -4.359136e-01 1.409133e-01 2.611290e-01
v -4.254358e-01 1.423255e-01 2.688132e-01
v -4.148821e-01 1.440111e-01 2.774579e-01
v -4.046346e-01 1.454414e-01 2.851421e-01
v -3.946726e-01 1.466146e-01 2.918657e-01
v -3.474951e-01 1.666592e-01 3.735097e-01
v -3.377259e-01 1.692448e-01 3.850359e-01
v -3.279924e-01 1.721125e-01 3.975226e-01
v -3.216848e-01 1.679843e-01 3.850359e-01
v -5.500597e-01 1.254863e-01 2.107747e-01
v -5.393952e-01 1.260794e-01 2.155680e-01
v -5.290655e-01 1.264125e-01 2.194026e-01
v -5.193074e-01 1.262182e-01 2.213200e-01
v -5.083224e-01 1.273584e-01 2.280307e-01
v -4.971913e-01 1.287734e-01 2.357000e-01
v -4.866458e-01 1.296620e-01 2.414518e-01
v -4.759540e-01 1.308253e-01 2.481626e-01
v -4.658061e-01 1.314589e-01 2.529559e-01
v -4.552958e-01 1.326365e-01 2.596664e-01
v -4.442561e-01 1.346310e-01 2.692530e-01
v -4.337601e-01 1.360960e-01 2.769224e-01
v -4.237661e-01 1.370279e-01 2.826744e-01
v -4.134795e-01 1.385092e-01 2.903437e-01
v -4.022177e-01 1.416312e-01 3.037649e-01
v -3.440140e-01 1.665367e-01 4.025070e-01
v -3.358267e-01 1.664658e-01 4.044243e-01
v -3.272703e-01 1.672245e-01 4.092176e-01
v -3.189090e-01 1.677122e-01 4.130522e-01
v -5.496471e-01 1.175982e-01 2.170760e-01
v -5.381906e-01 1.190418e-01 2.247304e-01
v -5.268458e-01 1.204942e-01 2.323848e-01
v -5.161295e-01 1.214100e-01 2.381258e-01
v -5.057486e-01 1.220592e-01 2.429098e-01
v -4.954375e-01 1.227139e-01 2.476938e-01
v -4.851961e-01 1.233740e-01 2.524779e-01
v -4.747941e-01 1.243145e-01 2.582187e-01
v -4.646993e-01 1.249862e-01 2.630027e-01
v -4.542411e-01 1.262152e-01 2.697004e-01
v -4.432519e-01 1.282815e-01 2.792684e-01
v -4.324023e-01 1.303587e-01 2.888364e-01
v -4.222793e-01 1.316141e-01 2.955340e-01
v -4.113106e-01 1.342680e-01 3.070158e-01
v -3.992377e-01 1.388858e-01 3.251949e-01
v -3.526760e-01 1.592512e-01 4.036530e-01
v -3.438794e-01 1.603179e-01 4.093939e-01
v -3.354462e-01 1.608271e-01 4.132210e-01
v -3.273345e-01 1.607757e-01 4.151346e-01
v -3.189991e-01 1.612926e-01 4.189620e-01
v -5.593400e-01 1.096592e-01 2.204976e-01
v -5.475506e-01 1.114306e-01 2.290922e-01
v -5.353407e-01 1.137684e-01 2.395965e-01
v -5.240824e-01 1.152817e-01 2.472361e-01
v -5.131948e-01 1.165244e-01 2.539208e-01
v -5.034129e-01 1.166550e-01 2.567856e-01
v -4.936730e-01 1.167890e-01 2.596506e-01
v -4.839749e-01 1.169262e-01 2.625154e-01
v -4.736256e-01 1.179114e-01 2.682450e-01
v -4.633599e-01 1.189033e-01 2.739747e-01
v -4.533951e-01 1.196190e-01 2.787495e-01
v -4.426596e-01 1.214732e-01 2.873441e-01
v -4.310340e-01 1.247562e-01 3.007133e-01
v -4.201924e-01 1.272015e-01 3.112178e-01
v -4.089367e-01 1.305135e-01 3.245870e-01
v -3.966009e-01 1.358390e-01 3.446409e-01
v -3.717995e-01 1.482781e-01 3.904785e-01
v -3.615142e-01 1.516664e-01 4.038479e-01
v -3.528128e-01 1.524814e-01 4.086227e-01
v -3.440340e-01 1.535901e-01 4.143524e-01
v -3.356197e-01 1.541279e-01 4.181721e-01
v -3.276612e-01 1.538023e-01 4.191271e-01
v -5.560181e-01 1.046958e-01 2.363058e-01
v -5.443216e-01 1.065354e-01 2.448835e-01
v -5.332976e-01 1.078148e-01 2.515551e-01
v -5.229044e-01 1.085307e-01 2.563206e-01
v -5.128404e-01 1.089661e-01 2.601331e-01
v -5.025799e-01 1.096924e-01 2.648986e-01
v -4.926347e-01 1.101370e-01 2.687108e-01
v -4.827453e-01 1.105861e-01 2.725233e-01
v -4.722170e-01 1.119044e-01 2.791950e-01
v -4.622356e-01 1.126527e-01 2.839604e-01
v -4.521064e-01 1.136959e-01 2.896790e-01
v -4.414290e-01 1.156156e-01 2.982567e-01
v -4.292477e-01 1.198693e-01 3.144593e-01
v -4.184840e-01 1.223952e-01 3.249433e-01
v -3.772716e-01 1.464372e-01 4.097686e-01
v -3.695384e-01 1.455231e-01 4.088156e-01
v -3.608206e-01 1.463707e-01 4.135811e-01
v -3.523272e-01 1.469294e-01 4.173933e-01
v -5.614610e-01 1.009240e-01 2.530131e-01
v -5.523934e-01 1.002115e-01 2.530131e-01
v -5.419208e-01 1.009551e-01 2.577693e-01
v -5.304218e-01 1.028712e-01 2.663303e-01
v -5.209179e-01 1.027509e-01 2.682328e-01
v -5.114417e-01 1.026330e-01 2.701354e-01
v -5.012344e-01 1.033974e-01 2.748916e-01
v -4.908507e-01 1.044612e-01 2.805989e-01
v -4.807899e-01 1.052371e-01 2.853551e-01
v -4.710311e-01 1.057235e-01 2.891601e-01
v -4.613281e-01 1.062142e-01 2.929650e-01
v -4.505899e-01 1.081901e-01 3.015262e-01
v -4.393440e-01 1.110660e-01 3.129411e-01
v -4.278571e-01 1.145495e-01 3.262584e-01
v -3.754022e-01 1.430102e-01 4.251871e-01
v -3.677673e-01 1.420969e-01 4.242357e-01
v -3.596315e-01 1.420843e-01 4.261382e-01
v -6.138550e-01 9.880425e-02 2.630192e-01
v -6.061648e-01 9.691967e-02 2.592215e-01
v -5.984186e-01 9.503078e-02 2.554241e-01
v -5.884017e-01 9.520389e-02 2.582722e-01
v -5.568292e-01 9.752400e-02 2.725130e-01
v -5.478872e-01 9.682136e-02 2.725130e-01
v -5.375376e-01 9.760845e-02 2.772599e-01
v -5.272578e-01 9.840103e-02 2.820068e-01
v -5.181181e-01 9.800289e-02 2.829560e-01
v -5.084711e-01 9.820505e-02 2.858042e-01
v -4.988659e-01 9.841055e-02 2.886524e-01
v -4.893028e-01 9.861930e-02 2.915006e-01
v -4.793021e-01 9.943381e-02 2.962475e-01
v -4.693714e-01 1.002538e-01 3.009944e-01
v -4.592846e-01 1.013816e-01 3.066907e-01
v -4.486255e-01 1.034246e-01 3.152351e-01
v -4.380922e-01 1.054775e-01 3.237794e-01
v -3.670004e-01 1.370190e-01 4.339077e-01
v -3.585937e-01 1.376387e-01 4.377053e-01
v -6.207906e-01 9.322080e-02 2.729954e-01
v -6.098072e-01 9.431880e-02 2.786805e-01
v -6.005621e-01 9.391922e-02 2.796281e-01
v -5.932748e-01 9.171241e-02 2.748905e-01
v -5.836989e-01 9.161365e-02 2.767856e-01
v -5.729109e-01 9.272699e-02 2.824707e-01
v -5.631158e-01 9.293780e-02 2.853132e-01
v -5.542506e-01 9.224120e-02 2.853132e-01
v -5.445182e-01 9.245697e-02 2.881558e-01
v -5.348278e-01 9.267608e-02 2.909984e-01
v -5.257294e-01 9.228800e-02 2.919460e-01
v -5.166450e-01 9.190098e-02 2.928934e-01
v -5.067911e-01 9.243407e-02 2.966836e-01
v -4.975014e-01 9.235779e-02 2.985786e-01
v -4.877453e-01 9.289850e-02 3.023686e-01
v -4.775647e-01 9.405960e-02 3.080539e-01
v -4.672346e-01 9.553574e-02 3.146865e-01
v -4.581334e-01 9.547426e-02 3.165815e-01
v -6.197421e-01 8.611756e-02 2.801050e-01
v -6.091288e-01 8.695170e-02 2.848334e-01
v -5.982540e-01 8.809880e-02 2.905073e-01
v -5.897341e-01 8.709577e-02 2.895618e-01
v -5.808829e-01 8.640027e-02 2.895618e-01
v -5.704791e-01 8.725083e-02 2.942901e-01
v -5.601452e-01 8.810686e-02 2.990185e-01
v -5.516603e-01 8.710650e-02 2.980727e-01
v -5.431614e-01 8.610508e-02 2.971270e-01
v -5.340833e-01 8.572536e-02 2.980727e-01
v -5.241925e-01 8.628261e-02 3.018554e-01
v -5.146262e-01 8.653175e-02 3.046924e-01
v -5.048400e-01 8.709726e-02 3.084752e-01
v -4.951097e-01 8.766709e-02 3.122577e-01
v -4.859307e-01 8.761305e-02 3.141491e-01
v -4.762980e-01 8.819062e-02 3.179318e-01
v -4.625144e-01 9.444694e-02 3.387364e-01
v -6.375403e-01 7.954183e-02 2.843647e-01
v -6.254570e-01 8.165578e-02 2.928589e-01
v -6.166127e-01 8.096082e-02 2.928589e-01
v -6.064126e-01 8.152090e-02 2.966343e-01
v -5.956044e-01 8.271388e-02 3.022970e-01
v -5.865048e-01 8.233929e-02 3.032410e-01
v -5.771013e-01 8.228112e-02 3.051285e-01
v -5.671036e-01 8.285709e-02 3.089038e-01
v -5.568578e-01 8.375392e-02 3.136229e-01
v -5.478700e-01 8.338804e-02 3.145666e-01
v -5.394763e-01 8.238814e-02 3.136229e-01
v -5.299364e-01 8.265963e-02 3.164542e-01
v -5.201620e-01 8.325316e-02 3.202296e-01
v -5.115201e-01 8.257411e-02 3.202296e-01
v -5.020918e-01 8.285441e-02 3.230610e-01
v -4.924501e-01 8.345829e-02 3.268362e-01
v -4.843536e-01 8.214137e-02 3.249487e-01
v -4.723694e-01 8.596500e-02 3.381619e-01
v -4.352815e-01 1.245775e-01 4.533072e-01
v -4.287603e-01 1.223631e-01 4.485882e-01
v -4.195257e-01 1.240202e-01 4.551949e-01
v -4.082559e-01 1.289211e-01 4.712396e-01
v -3.970169e-01 1.341649e-01 4.882282e-01
v -6.338900e-01 7.477930e-02 2.980365e-01
v -6.222391e-01 7.664106e-02 3.055721e-01
v -6.131251e-01 7.627203e-02 3.065140e-01
v -6.026673e-01 7.718609e-02 3.112239e-01
v -5.909490e-01 7.938970e-02 3.197015e-01
v -5.813096e-01 7.967373e-02 3.225274e-01
v -5.729863e-01 7.867253e-02 3.215853e-01
v -5.643375e-01 7.799293e-02 3.215853e-01
v -5.547750e-01 7.828303e-02 3.244113e-01
v -5.449567e-01 7.890013e-02 3.281790e-01
v -5.357754e-01 7.887305e-02 3.300630e-01
v -5.266222e-01 7.884812e-02 3.319469e-01
v -5.177735e-01 7.849993e-02 3.328888e-01
v -5.094781e-01 7.750099e-02 3.319469e-01
v -5.006434e-01 7.715390e-02 3.328888e-01
v -4.892653e-01 8.007855e-02 3.432503e-01
v -4.792846e-01 8.137727e-02 3.489022e-01
v -4.353921e-01 1.178512e-01 4.572272e-01
v -4.252427e-01 1.208723e-01 4.675886e-01
v -4.159093e-01 1.229162e-01 4.751243e-01
v -4.054046e-01 1.269509e-01 4.883118e-01
v -3.961295e-01 1.293465e-01 4.967893e-01
v -6.172397e-01 7.340500e-02 3.229449e-01
v -6.061548e-01 7.501148e-02 3.295256e-01
v -5.948278e-01 7.695286e-02 3.370464e-01
v -5.849446e-01 7.759194e-02 3.408067e-01
v -5.757693e-01 7.757882e-02 3.426869e-01
v -5.675792e-01 7.658138e-02 3.417469e-01
v -5.612476e-01 7.360634e-02 3.351661e-01
v -5.520724e-01 7.359328e-02 3.370464e-01
v -5.414343e-01 7.523485e-02 3.436271e-01
v -5.326410e-01 7.489784e-02 3.445672e-01
v -5.244299e-01 7.389870e-02 3.436271e-01
v -5.142645e-01 7.522350e-02 3.492677e-01
v -4.310298e-01 1.175252e-01 4.790017e-01
v -4.230760e-01 1.176080e-01 4.808819e-01
v -4.140435e-01 1.193758e-01 4.874626e-01
v -4.042513e-01 1.224995e-01 4.978037e-01
v -3.960643e-01 1.232719e-01 5.015640e-01
v -6.076148e-01 7.471126e-02 3.524554e-01
v -5.974238e-01 7.571399e-02 3.571466e-01
v -5.869621e-01 7.705617e-02 3.627762e-01
v -5.785855e-01 7.639797e-02 3.627762e-01
v -5.705355e-01 7.540468e-02 3.618378e-01
v -5.627912e-01 7.407475e-02 3.599613e-01
v -5.550189e-01 7.274267e-02 3.580849e-01
v -5.459962e-01 7.275505e-02 3.599613e-01
v -5.372999e-01 7.243248e-02 3.608997e-01
v -4.507508e-01 1.164903e-01 4.931921e-01
v -4.433445e-01 1.159084e-01 4.931921e-01
v -4.282961e-01 1.150866e-01 4.941303e-01
v -4.211256e-01 1.141625e-01 4.931921e-01
v -4.128318e-01 1.149536e-01 4.969452e-01
v -4.039492e-01 1.167805e-01 5.035128e-01
v -6.098304e-01 7.366605e-02 3.724945e-01
v -6.004446e-01 7.403097e-02 3.753037e-01
v -5.904045e-01 7.507941e-02 3.799856e-01
v -5.828218e-01 7.374860e-02 3.781127e-01
v -5.745429e-01 7.309807e-02 3.781127e-01
v -5.662640e-01 7.244754e-02 3.781127e-01
v -4.484815e-01 1.131688e-01 5.054616e-01
v -4.426540e-01 1.105061e-01 4.998434e-01
v -4.193929e-01 1.105156e-01 5.045253e-01
v -4.118339e-01 1.102891e-01 5.054616e-01
v -4.032119e-01 1.118165e-01 5.110801e-01
v -6.010346e-01 7.463265e-02 3.990047e-01
v -5.932510e-01 7.364678e-02 3.980702e-01
v -5.837104e-01 7.439405e-02 4.018082e-01
v -4.183393e-01 1.059348e-01 5.130177e-01
v -4.110517e-01 1.053622e-01 5.130177e-01
v -5.206968e-01 9.852502e-02 4.944364e-01
v -5.132556e-01 9.794031e-02 4.944364e-01
v -5.720889e-01 8.875154e-02 4.805910e-01
v -5.623894e-01 9.031616e-02 4.861760e-01
v -5.541721e-01 9.044604e-02 4.880377e-01
v -5.446122e-01 9.202159e-02 4.936226e-01
v -5.351359e-01 9.360367e-02 4.992074e-01
v -5.270583e-01 9.374454e-02 5.010690e-01
v -5.186868e-01 9.425009e-02 5.038615e-01
v -5.097277e-01 9.548507e-02 5.085156e-01
v -5.664716e-01 8.768319e-02 4.983935e-01
v -5.590304e-01 8.709848e-02 4.983935e-01
v -5.515892e-01 8.651377e-02 4.983935e-01
v -5.424321e-01 8.776705e-02 5.030383e-01
v -5.330085e-01 8.939396e-02 5.086121e-01
v -5.243271e-01 9.029008e-02 5.123281e-01
v -5.160239e-01 9.082129e-02 5.151148e-01
v -5.074472e-01 9.172565e-02 5.188308e-01
v -5.560173e-01 8.365580e-02 5.096432e-01
v -5.465418e-01 8.531919e-02 5.152057e-01
v -5.388686e-01 8.511763e-02 5.161329e-01
v -5.308726e-01 8.529199e-02 5.179872e-01
v -5.225747e-01 8.584400e-02 5.207685e-01
v -5.565758e-01 7.654811e-02 5.116031e-01
v -5.460434e-01 7.939344e-02 5.199304e-01
v -5.304144e-01 7.938968e-02 5.227062e-01
v -3.317513e-01 2.064724e-01 2.893210e-01
v -3.305126e-01 2.065979e-01 2.974695e-01
v -3.363248e-01 1.995314e-01 2.814808e-01
v -3.328925e-01 1.982595e-01 2.881220e-01
v -3.323533e-01 1.988681e-01 2.968025e-01
v -3.289337e-01 1.976009e-01 3.034191e-01
v -3.255140e-01 1.963336e-01 3.100358e-01
v -3.220944e-01 1.950664e-01 3.166526e-01
v -3.186748e-01 1.937991e-01 3.232692e-01
v -3.152552e-01 1.925319e-01 3.298860e-01
v -3.359834e-01 1.892456e-01 2.699061e-01
v -3.360822e-01 1.903289e-01 2.792211e-01
v -3.369290e-01 1.918989e-01 2.889899e-01
v -3.363749e-01 1.925310e-01 2.976672e-01
v -3.336779e-01 1.917409e-01 3.047867e-01
v -3.302614e-01 1.904748e-01 3.113974e-01
v -3.268450e-01 1.892087e-01 3.180079e-01
v -3.241609e-01 1.884234e-01 3.251030e-01
v -3.207476e-01 1.871585e-01 3.317074e-01
v -3.151186e-01 1.844445e-01 3.368952e-01
v -3.035368e-01 1.778496e-01 3.383911e-01
v -3.060383e-01 1.804514e-01 3.487609e-01
v -3.407157e-01 1.821965e-01 2.619433e-01
v -3.400610e-01 1.828203e-01 2.707829e-01
v -3.401411e-01 1.839330e-01 2.800939e-01
v -3.409656e-01 1.855382e-01 2.898579e-01
v -3.403966e-01 1.861939e-01 2.985320e-01
v -3.384150e-01 1.858927e-01 3.061528e-01
v -3.364459e-01 1.855963e-01 3.137491e-01
v -3.337643e-01 1.848191e-01 3.208311e-01
v -3.318174e-01 1.845309e-01 3.283845e-01
v -3.284200e-01 1.832718e-01 3.349583e-01
v -3.228181e-01 1.805461e-01 3.401178e-01
v -3.164592e-01 1.773232e-01 3.448488e-01
v -3.100748e-01 1.740908e-01 3.496289e-01
v -3.102874e-01 1.772021e-01 3.757231e-01
v -3.136838e-01 1.804102e-01 3.861900e-01
v -3.133525e-01 1.811539e-01 3.944041e-01
v -3.122863e-01 1.814086e-01 4.021468e-01
v -3.462232e-01 1.744813e-01 2.450033e-01
v -3.441105e-01 1.741461e-01 2.528617e-01
v -3.448081e-01 1.757478e-01 2.628233e-01
v -3.455437e-01 1.773637e-01 2.727113e-01
v -3.463172e-01 1.789934e-01 2.825257e-01
v -3.464200e-01 1.801508e-01 2.917529e-01
v -3.451302e-01 1.803444e-01 2.999041e-01
v -3.445749e-01 1.810341e-01 3.085198e-01
v -3.426079e-01 1.807529e-01 3.160961e-01
v -3.406536e-01 1.804765e-01 3.236479e-01
v -3.379873e-01 1.797122e-01 3.306922e-01
v -3.353272e-01 1.789503e-01 3.377243e-01
v -3.304803e-01 1.767064e-01 3.433324e-01
v -3.256206e-01 1.744578e-01 3.489650e-01
v -3.207484e-01 1.722045e-01 3.546221e-01
v -3.198909e-01 1.736776e-01 3.713626e-01
v -3.187533e-01 1.739276e-01 3.792195e-01
v -3.183849e-01 1.746866e-01 3.874734e-01
v -3.187950e-01 1.759579e-01 3.961058e-01
v -3.703788e-01 1.786452e-01 2.334080e-01
v -3.641859e-01 1.754258e-01 2.378817e-01
v -3.579678e-01 1.721970e-01 2.424046e-01
v -3.537922e-01 1.704185e-01 2.486066e-01
v -3.523804e-01 1.705887e-01 2.569701e-01
v -3.516832e-01 1.712548e-01 2.658277e-01
v -3.531080e-01 1.734006e-01 2.762114e-01
v -3.531731e-01 1.745803e-01 2.854715e-01
v -3.525646e-01 1.752793e-01 2.941575e-01
v -3.519816e-01 1.759878e-01 3.027945e-01
v -3.514239e-01 1.767055e-01 3.113824e-01
v -3.494621e-01 1.764407e-01 3.189325e-01
v -3.475130e-01 1.761807e-01 3.264581e-01
v -3.441347e-01 1.749287e-01 3.329951e-01
v -3.414805e-01 1.741763e-01 3.400081e-01
v -3.381052e-01 1.729255e-01 3.465389e-01
v -3.347300e-01 1.716747e-01 3.530698e-01
v -3.313547e-01 1.704239e-01 3.596007e-01
v -3.301901e-01 1.706857e-01 3.674857e-01
v -3.290445e-01 1.709545e-01 3.753340e-01
v -3.271746e-01 1.707238e-01 3.827063e-01
v -3.260639e-01 1.710055e-01 3.904871e-01
v -3.257216e-01 1.718031e-01 3.986580e-01
v -3.246521e-01 1.721002e-01 4.063591e-01
v -3.236015e-01 1.724042e-01 4.140235e-01
v -3.202928e-01 1.711781e-01 4.204256e-01
v -3.942628e-01 1.817197e-01 2.127671e-01
v -3.888308e-01 1.789916e-01 2.176702e-01
v -3.847193e-01 1.772296e-01 2.237565e-01
v -3.812743e-01 1.759530e-01 2.304224e-01
v -3.751249e-01 1.727206e-01 2.348441e-01
v -3.689502e-01 1.694790e-01 2.393150e-01
v -3.647973e-01 1.677016e-01 2.454811e-01
v -3.640664e-01 1.683843e-01 2.543724e-01
v -3.626718e-01 1.685825e-01 2.626781e-01
v -3.619883e-01 1.692828e-01 2.714775e-01
v -3.606351e-01 1.694964e-01 2.797036e-01
v -3.606973e-01 1.707113e-01 2.889290e-01
v -3.600898e-01 1.714396e-01 2.975811e-01
v -3.595077e-01 1.721774e-01 3.061842e-01
v -3.582431e-01 1.724239e-01 3.142385e-01
v -3.562867e-01 1.721757e-01 3.217627e-01
v -3.543428e-01 1.719321e-01 3.292622e-01
v -3.516943e-01 1.711889e-01 3.362558e-01
v -3.490522e-01 1.704482e-01 3.432373e-01
v -3.464165e-01 1.697098e-01 3.502065e-01
v -3.430603e-01 1.684661e-01 3.567006e-01
v -3.397040e-01 1.672223e-01 3.631946e-01
v -3.392802e-01 1.680188e-01 3.714910e-01
v -3.374093e-01 1.678022e-01 3.788496e-01
v -3.355512e-01 1.675904e-01 3.861835e-01
v -3.337055e-01 1.673832e-01 3.934929e-01
v -3.326185e-01 1.676954e-01 4.012038e-01
v -3.308015e-01 1.674988e-01 4.084581e-01
v -3.289971e-01 1.673069e-01 4.156878e-01
v -3.272053e-01 1.671196e-01 4.228929e-01
v -3.239093e-01 1.658981e-01 4.292705e-01
v -4.090843e-01 1.808296e-01 2.039346e-01
v -4.056711e-01 1.795647e-01 2.105389e-01
v -4.009383e-01 1.773196e-01 2.159740e-01
v -3.961929e-01 1.750697e-01 2.214334e-01
v -3.927669e-01 1.738002e-01 2.280624e-01
v -3.880025e-01 1.715433e-01 2.335587e-01
v -3.818808e-01 1.682922e-01 2.379593e-01
v -3.770847e-01 1.660236e-01 2.435168e-01
v -3.749909e-01 1.657390e-01 2.512908e-01
v -3.742733e-01 1.664555e-01 2.601236e-01
v -3.728962e-01 1.666822e-01 2.683719e-01
v -3.708498e-01 1.664150e-01 2.760537e-01
v -3.695076e-01 1.666545e-01 2.842345e-01
v -3.681843e-01 1.669010e-01 2.923785e-01
v -3.675777e-01 1.676587e-01 3.009966e-01
v -3.662957e-01 1.679205e-01 3.090610e-01
v -3.643285e-01 1.676827e-01 3.165895e-01
v -3.623741e-01 1.674497e-01 3.240935e-01
v -3.611427e-01 1.677303e-01 3.320597e-01
v -3.592169e-01 1.675079e-01 3.395085e-01
v -3.558701e-01 1.662676e-01 3.459842e-01
v -3.532432e-01 1.655397e-01 3.529280e-01
v -3.498996e-01 1.643007e-01 3.593975e-01
v -3.480085e-01 1.640912e-01 3.667789e-01
v -3.468596e-01 1.644023e-01 3.745856e-01
v -3.457297e-01 1.647205e-01 3.823556e-01
v -3.431472e-01 1.640091e-01 3.892135e-01
v -3.413101e-01 1.638195e-01 3.964907e-01
v -3.402277e-01 1.641553e-01 4.041686e-01
v -3.369285e-01 1.629327e-01 4.105523e-01
v -3.343776e-01 1.622329e-01 4.173489e-01
v -3.303301e-01 1.604874e-01 4.233196e-01
v -3.262761e-01 1.587395e-01 4.293025e-01
v -3.267635e-01 1.601482e-01 4.376654e-01
v -4.308609e-01 1.853855e-01 2.019323e-01
v -4.242693e-01 1.816785e-01 2.054210e-01
v -4.176458e-01 1.779596e-01 2.089710e-01
v -4.129492e-01 1.757133e-01 2.143523e-01
v -4.088957e-01 1.739582e-01 2.203422e-01
v -4.035177e-01 1.712066e-01 2.251888e-01
v -4.001076e-01 1.699429e-01 2.317871e-01
v -3.960321e-01 1.681797e-01 2.378199e-01
v -3.906128e-01 1.654129e-01 2.427461e-01
v -3.871900e-01 1.641444e-01 2.493690e-01
v -3.851170e-01 1.638820e-01 2.570860e-01
v -3.830569e-01 1.636243e-01 2.647785e-01
v -3.816907e-01 1.638767e-01 2.729814e-01
v -3.789748e-01 1.631231e-01 2.800901e-01
v -3.776403e-01 1.633872e-01 2.882316e-01
v -3.756340e-01 1.631494e-01 2.958199e-01
v -3.743344e-01 1.634265e-01 3.038940e-01
v -3.730538e-01 1.637105e-01 3.119313e-01
v -3.710919e-01 1.634893e-01 3.194337e-01
v -3.684391e-01 1.627591e-01 3.264196e-01
v -3.672060e-01 1.630608e-01 3.343650e-01
v -3.652822e-01 1.628536e-01 3.417938e-01
v -3.633711e-01 1.626512e-01 3.491982e-01
v -3.607563e-01 1.619350e-01 3.561105e-01
v -3.574285e-01 1.607018e-01 3.625494e-01
v -3.562685e-01 1.610306e-01 3.703537e-01
v -3.544016e-01 1.608445e-01 3.776722e-01
v -3.525474e-01 1.606631e-01 3.849661e-01
v -3.499741e-01 1.599624e-01 3.917988e-01
v -3.488772e-01 1.603146e-01 3.994804e-01
v -3.470611e-01 1.601474e-01 4.067008e-01
v -3.430331e-01 1.584017e-01 4.126415e-01
v -3.382539e-01 1.561249e-01 4.181824e-01
v -3.342101e-01 1.543735e-01 4.241539e-01
v -3.294087e-01 1.520884e-01 4.297377e-01
v -3.253490e-01 1.503311e-01 4.357398e-01
v -4.381712e-01 1.804050e-01 1.962817e-01
v -4.341722e-01 1.786629e-01 2.021743e-01
v -4.288815e-01 1.759219e-01 2.068760e-01
v -4.248635e-01 1.741728e-01 2.128054e-01
v -4.208391e-01 1.724212e-01 2.187469e-01
v -4.161562e-01 1.701656e-01 2.241177e-01
v -4.114607e-01 1.679053e-01 2.295131e-01
v -4.080695e-01 1.666486e-01 2.360746e-01
v -4.033549e-01 1.643812e-01 2.415067e-01
v -3.986277e-01 1.621091e-01 2.469632e-01
v -3.958919e-01 1.613554e-01 2.541016e-01
v -3.931626e-01 1.606041e-01 2.612279e-01
v -3.911140e-01 1.603652e-01 2.688821e-01
v -3.890780e-01 1.601310e-01 2.765116e-01
v -3.863741e-01 1.593891e-01 2.835888e-01
v -3.843604e-01 1.591631e-01 2.911755e-01
v -3.816723e-01 1.584271e-01 2.982221e-01
v -3.803709e-01 1.587252e-01 3.062752e-01
v -3.790886e-01 1.590305e-01 3.142917e-01
v -3.764322e-01 1.583062e-01 3.212769e-01
v -3.744818e-01 1.581037e-01 3.287410e-01
v -3.725442e-01 1.579059e-01 3.361805e-01
v -3.720314e-01 1.587565e-01 3.445533e-01
v -3.708348e-01 1.590934e-01 3.524042e-01
v -3.682321e-01 1.583890e-01 3.592851e-01
v -3.649202e-01 1.571617e-01 3.656933e-01
v -3.637649e-01 1.575140e-01 3.734645e-01
v -3.619063e-01 1.573455e-01 3.807507e-01
v -3.600606e-01 1.571817e-01 3.880123e-01
v -3.574993e-01 1.564928e-01 3.948136e-01
v -3.556756e-01 1.563372e-01 4.020323e-01
v -3.538648e-01 1.561864e-01 4.092266e-01
v -3.498531e-01 1.544397e-01 4.151436e-01
v -3.458351e-01 1.526905e-01 4.210730e-01
v -3.410667e-01 1.504032e-01 4.266094e-01
v -3.362855e-01 1.481111e-01 4.321702e-01
v -3.292402e-01 1.441996e-01 4.365765e-01
v -4.442224e-01 1.744231e-01 1.893929e-01
v -4.414894e-01 1.736776e-01 1.965182e-01
v -4.381268e-01 1.724315e-01 2.030246e-01
v -4.334861e-01 1.701770e-01 2.083294e-01
v -4.301172e-01 1.689286e-01 2.148481e-01
v -4.261031e-01 1.671737e-01 2.207782e-01
v -4.220824e-01 1.654163e-01 2.267206e-01
v -4.187072e-01 1.641655e-01 2.332515e-01
v -4.153319e-01 1.629147e-01 2.397823e-01
v -4.112986e-01 1.611526e-01 2.457492e-01
v -4.059367e-01 1.583634e-01 2.506128e-01
v -4.025487e-01 1.571079e-01 2.571682e-01
v -3.998282e-01 1.563671e-01 2.642690e-01
v -3.971142e-01 1.556288e-01 2.713578e-01
v -3.950804e-01 1.554099e-01 2.789674e-01
v -3.923821e-01 1.546774e-01 2.860254e-01
v -3.903704e-01 1.544666e-01 2.935920e-01
v -3.883713e-01 1.542605e-01 3.011341e-01
v -3.863851e-01 1.540593e-01 3.086517e-01
v -3.844115e-01 1.538627e-01 3.161449e-01
v -3.817576e-01 1.531466e-01 3.231170e-01
v -3.798061e-01 1.529582e-01 3.305672e-01
v -3.785665e-01 1.533010e-01 3.384770e-01
v -3.787508e-01 1.547062e-01 3.473062e-01
v -3.768500e-01 1.545366e-01 3.546583e-01
v -3.742533e-01 1.538418e-01 3.615200e-01
v -3.716629e-01 1.531492e-01 3.683695e-01
v -3.712239e-01 1.540561e-01 3.765673e-01
v -3.693738e-01 1.539052e-01 3.838212e-01
v -3.675365e-01 1.537592e-01 3.910507e-01
v -3.657119e-01 1.536178e-01 3.982556e-01
v -3.617165e-01 1.518697e-01 4.041488e-01
v -3.591768e-01 1.511960e-01 4.109003e-01
v -3.573775e-01 1.510640e-01 4.180561e-01
v -3.548536e-01 1.503961e-01 4.247767e-01
v -3.493743e-01 1.475634e-01 4.298673e-01
v -3.438760e-01 1.447237e-01 4.349945e-01
v -3.383588e-01 1.418769e-01 4.401587e-01
v -3.328223e-01 1.390230e-01 4.453595e-01
v -4.490560e-01 1.674116e-01 1.812337e-01
v -4.481807e-01 1.681859e-01 1.902440e-01
v -4.460728e-01 1.679539e-01 1.979807e-01
v -4.427133e-01 1.667090e-01 2.044809e-01
v -4.387187e-01 1.649540e-01 2.103812e-01
v -4.353561e-01 1.637079e-01 2.168875e-01
v -4.313520e-01 1.619495e-01 2.228062e-01
v -4.286309e-01 1.612157e-01 2.299001e-01
v -4.252684e-01 1.599696e-01 2.364065e-01
v -4.212548e-01 1.582076e-01 2.423436e-01
v -4.172346e-01 1.564431e-01 2.482929e-01
v -4.132084e-01 1.546765e-01 2.542545e-01
v -4.085149e-01 1.523878e-01 2.596774e-01
v -4.051364e-01 1.511359e-01 2.662144e-01
v -4.030921e-01 1.509276e-01 2.738287e-01
v -4.010602e-01 1.507239e-01 2.814183e-01
v -3.997145e-01 1.510492e-01 2.895097e-01
v -3.970346e-01 1.503306e-01 2.965238e-01
v -3.950409e-01 1.501412e-01 3.040399e-01
v -3.923769e-01 1.494285e-01 3.110235e-01
v -3.897194e-01 1.487184e-01 3.179948e-01
v -3.870681e-01 1.480105e-01 3.249538e-01
v -3.858078e-01 1.483674e-01 3.328796e-01
v -3.852622e-01 1.492638e-01 3.412521e-01
v -3.840431e-01 1.496359e-01 3.490982e-01
v -3.821413e-01 1.494805e-01 3.564365e-01
v -3.795470e-01 1.487937e-01 3.632850e-01
v -3.776673e-01 1.486464e-01 3.705803e-01
v -3.772231e-01 1.495804e-01 3.787566e-01
v -3.753750e-01 1.494448e-01 3.859905e-01
v -3.742574e-01 1.498546e-01 3.936405e-01
v -3.731588e-01 1.502714e-01 4.012535e-01
v -3.699071e-01 1.490664e-01 4.075452e-01
v -3.666554e-01 1.478614e-01 4.138369e-01
v -3.641341e-01 1.472017e-01 4.205444e-01
v -3.616192e-01 1.465444e-01 4.272399e-01
v -3.569005e-01 1.442464e-01 4.327119e-01
v -3.506893e-01 1.408461e-01 4.374134e-01
v -3.466821e-01 1.390865e-01 4.433382e-01
v -3.411759e-01 1.362221e-01 4.485048e-01
v -4.530292e-01 1.611508e-01 1.820881e-01
v -4.521391e-01 1.619485e-01 1.910951e-01
v -4.500237e-01 1.617284e-01 1.988303e-01
v -4.479210e-01 1.615129e-01 2.065409e-01
v -4.445679e-01 1.602704e-01 2.130288e-01
v -4.405802e-01 1.585108e-01 2.189239e-01
v -4.372240e-01 1.572670e-01 2.254179e-01
v -4.338678e-01 1.560232e-01 2.319120e-01
v -4.305115e-01 1.547795e-01 2.384061e-01
v -4.265078e-01 1.530138e-01 2.443315e-01
v -4.237990e-01 1.522920e-01 2.513941e-01
v -4.204428e-01 1.510482e-01 2.578881e-01
v -4.157727e-01 1.487538e-01 2.632821e-01
v -4.117500e-01 1.469812e-01 2.692445e-01
v -4.090475e-01 1.462615e-01 2.762947e-01
v -4.063513e-01 1.455443e-01 2.833326e-01
v -4.050007e-01 1.458895e-01 2.914094e-01
v -4.029962e-01 1.457105e-01 2.989299e-01
v -4.003287e-01 1.450038e-01 3.059127e-01
v -3.976673e-01 1.442995e-01 3.128832e-01
v -3.950124e-01 1.435975e-01 3.198415e-01
v -3.930491e-01 1.434338e-01 3.272823e-01
v -3.917873e-01 1.438118e-01 3.351874e-01
v -3.905443e-01 1.441969e-01 3.430556e-01
v -3.893205e-01 1.445891e-01 3.508871e-01
v -3.874174e-01 1.444477e-01 3.582114e-01
v -3.855272e-01 1.443110e-01 3.655112e-01
v -3.836495e-01 1.441789e-01 3.727864e-01
v -3.831999e-01 1.451399e-01 3.809411e-01
v -3.813539e-01 1.450197e-01 3.881550e-01
v -3.809484e-01 1.459969e-01 3.962237e-01
v -3.805685e-01 1.469838e-01 4.042434e-01
v -3.780530e-01 1.463334e-01 4.109319e-01
v -3.748203e-01 1.451355e-01 4.171867e-01
v -3.708611e-01 1.433864e-01 4.230265e-01
v -3.676252e-01 1.421873e-01 4.292875e-01
v -3.643895e-01 1.409881e-01 4.355485e-01
v -3.596814e-01 1.386796e-01 4.410161e-01
v -3.556999e-01 1.369223e-01 4.468988e-01
v -3.539396e-01 1.368337e-01 4.539471e-01
v -3.529375e-01 1.373081e-01 4.613494e-01
v -4.548731e-01 1.514986e-01 1.707448e-01
v -4.570024e-01 1.548900e-01 1.829425e-01
v -4.554790e-01 1.551929e-01 1.913295e-01
v -4.539745e-01 1.555028e-01 1.996797e-01
v -4.531137e-01 1.563405e-01 2.085978e-01
v -4.503947e-01 1.556220e-01 2.156717e-01
v -4.457893e-01 1.533371e-01 2.209570e-01
v -4.424394e-01 1.520957e-01 2.274387e-01
v -4.403640e-01 1.519049e-01 2.350803e-01
v -4.370205e-01 1.506658e-01 2.415498e-01
v -4.323897e-01 1.483715e-01 2.468841e-01
v -4.303333e-01 1.481877e-01 2.544888e-01
v -4.269898e-01 1.469486e-01 2.609583e-01
v -4.223399e-01 1.446472e-01 2.663294e-01
v -4.189901e-01 1.434058e-01 2.728112e-01
v -4.149806e-01 1.416308e-01 2.787559e-01
v -4.116275e-01 1.403882e-01 2.852439e-01
v -4.096062e-01 1.402175e-01 2.927812e-01
v -4.075976e-01 1.400514e-01 3.002941e-01
v -4.049292e-01 1.393518e-01 3.072699e-01
v -4.029428e-01 1.391940e-01 3.147398e-01
v -4.002903e-01 1.385002e-01 3.216850e-01
v -3.983261e-01 1.383505e-01 3.291119e-01
v -3.970593e-01 1.387485e-01 3.370023e-01
v -3.958116e-01 1.391537e-01 3.448559e-01
v -3.938916e-01 1.390204e-01 3.521970e-01
v -3.926788e-01 1.394385e-01 3.599832e-01
v -3.914849e-01 1.398635e-01 3.677325e-01
v -3.896093e-01 1.397467e-01 3.749877e-01
v -3.891542e-01 1.407347e-01 3.831207e-01
v -3.880174e-01 1.411808e-01 3.907596e-01
v -3.868996e-01 1.416341e-01 3.983618e-01
v -3.858007e-01 1.420943e-01 4.059272e-01
v -3.847210e-01 1.425616e-01 4.134557e-01
v -3.815010e-01 1.413684e-01 4.196861e-01
v -3.782811e-01 1.401751e-01 4.259164e-01
v -3.750611e-01 1.389819e-01 4.321468e-01
v -3.732996e-01 1.389074e-01 4.391813e-01
v -3.708184e-01 1.382771e-01 4.457954e-01
v -3.668723e-01 1.365256e-01 4.516175e-01
v -3.658750e-01 1.370235e-01 4.589866e-01
v -3.656385e-01 1.380925e-01 4.666966e-01
v -4.637458e-01 1.493595e-01 1.766317e-01
v -4.615871e-01 1.491523e-01 1.844189e-01
v -4.594409e-01 1.489498e-01 1.921815e-01
v -4.579253e-01 1.492773e-01 2.005293e-01
v -4.576705e-01 1.506649e-01 2.100478e-01
v -4.555752e-01 1.504813e-01 2.177122e-01
v -4.516107e-01 1.487158e-01 2.235781e-01
v -4.482704e-01 1.474779e-01 2.300415e-01
v -4.455635e-01 1.467712e-01 2.370840e-01
v -4.422263e-01 1.455345e-01 2.435413e-01
v -4.388891e-01 1.442977e-01 2.499985e-01
v -4.355518e-01 1.430610e-01 2.564558e-01
v -4.322146e-01 1.418243e-01 2.629130e-01
v -4.282280e-01 1.400506e-01 2.688219e-01
v -4.248876e-01 1.388127e-01 2.752853e-01
v -4.208913e-01 1.370353e-01 2.812124e-01
v -4.175477e-01 1.357963e-01 2.876820e-01
v -4.148664e-01 1.350991e-01 2.946754e-01
v -4.121912e-01 1.344041e-01 3.016565e-01
v -4.101910e-01 1.342557e-01 3.091372e-01
v -4.082033e-01 1.341119e-01 3.165932e-01
v -4.055535e-01 1.334263e-01 3.235252e-01
v -4.035882e-01 1.332908e-01 3.309384e-01
v -4.023165e-01 1.337088e-01 3.388141e-01
v -4.010639e-01 1.341338e-01 3.466530e-01
v -3.998304e-01 1.345660e-01 3.544551e-01
v -3.986158e-01 1.350051e-01 3.622204e-01
v -3.967264e-01 1.348977e-01 3.694863e-01
v -3.955468e-01 1.353498e-01 3.771843e-01
v -3.950862e-01 1.363647e-01 3.852956e-01
v -3.946511e-01 1.373891e-01 3.933579e-01
v -3.935348e-01 1.378646e-01 4.009332e-01
v -3.924374e-01 1.383472e-01 4.084715e-01
v -3.906463e-01 1.382763e-01 4.155474e-01
v -3.888679e-01 1.382100e-01 4.225987e-01
v -3.863830e-01 1.375856e-01 4.292119e-01
v -3.839043e-01 1.369635e-01 4.358129e-01
v -3.821576e-01 1.369090e-01 4.428029e-01
v -3.796948e-01 1.362927e-01 4.493732e-01
v -3.787021e-01 1.368141e-01 4.567093e-01
v -3.806684e-01 1.396176e-01 4.655400e-01
v -3.863702e-01 1.452874e-01 4.761687e-01
v -3.876998e-01 1.475586e-01 4.844264e-01
v -4.683272e-01 1.436205e-01 1.781141e-01
v -4.667718e-01 1.439551e-01 1.865148e-01
v -4.652355e-01 1.442967e-01 1.948786e-01
v -4.631042e-01 1.441142e-01 2.025968e-01
v -4.616027e-01 1.444688e-01 2.108932e-01
v -4.601203e-01 1.448305e-01 2.191528e-01
v -4.574098e-01 1.441297e-01 2.261946e-01
v -4.547056e-01 1.434312e-01 2.332239e-01
v -4.513778e-01 1.421980e-01 2.396628e-01
v -4.480501e-01 1.409648e-01 2.461017e-01
v -4.447224e-01 1.397316e-01 2.525405e-01
v -4.413946e-01 1.384984e-01 2.589794e-01
v -4.374245e-01 1.367235e-01 2.648645e-01
v -4.340936e-01 1.354892e-01 2.713096e-01
v -4.314115e-01 1.347989e-01 2.782960e-01
v -4.261276e-01 1.319298e-01 2.831287e-01
v -4.227904e-01 1.306931e-01 2.895860e-01
v -4.207700e-01 1.305517e-01 2.970895e-01
v -4.181006e-01 1.298661e-01 3.040514e-01
v -4.161024e-01 1.297329e-01 3.115120e-01
v -4.134490e-01 1.290533e-01 3.184434e-01
v -4.114729e-01 1.289283e-01 3.258609e-01
v -4.095095e-01 1.288081e-01 3.332540e-01
v -4.075589e-01 1.286926e-01 3.406227e-01
v -4.063014e-01 1.291375e-01 3.484469e-01
v -4.057468e-01 1.301467e-01 3.567084e-01
v -4.052174e-01 1.311651e-01 3.649208e-01
v -4.033333e-01 1.310743e-01 3.721606e-01
v -4.021550e-01 1.315485e-01 3.798315e-01
v -4.016924e-01 1.325918e-01 3.879152e-01
v -4.005553e-01 1.330814e-01 3.955064e-01
v -4.001400e-01 1.341421e-01 4.034981e-01
v -3.997503e-01 1.352124e-01 4.114407e-01
v -3.972584e-01 1.345926e-01 4.180593e-01
v -3.954852e-01 1.345428e-01 4.250844e-01
v -3.958709e-01 1.362040e-01 4.333233e-01
v -3.941326e-01 1.361672e-01 4.402810e-01
v -3.916851e-01 1.355638e-01 4.468137e-01
v -3.906939e-01 1.361075e-01 4.541228e-01
v -3.919061e-01 1.383786e-01 4.625597e-01
v -3.938876e-01 1.412386e-01 4.713052e-01
v -3.944445e-01 1.429633e-01 4.792129e-01
v -3.928203e-01 1.429687e-01 4.859499e-01
v -3.897271e-01 1.418224e-01 4.919349e-01
v -4.780694e-01 1.407413e-01 1.749623e-01
v -4.741028e-01 1.389604e-01 1.808482e-01
v -4.719418e-01 1.387814e-01 1.886076e-01
v -4.710078e-01 1.396790e-01 1.975712e-01
v -4.688785e-01 1.395117e-01 2.052692e-01
v -4.667618e-01 1.393492e-01 2.129428e-01
v -4.646580e-01 1.391914e-01 2.205919e-01
v -4.631865e-01 1.395787e-01 2.288062e-01
v -4.617340e-01 1.399733e-01 2.369837e-01
v -4.596745e-01 1.398319e-01 2.445469e-01
v -4.551103e-01 1.375186e-01 2.498001e-01
v -4.505335e-01 1.352008e-01 2.550778e-01
v -4.472153e-01 1.339711e-01 2.614983e-01
v -4.426194e-01 1.316461e-01 2.668128e-01
v -4.399368e-01 1.309629e-01 2.737923e-01
v -4.372607e-01 1.302821e-01 2.807597e-01
v -4.319973e-01 1.273989e-01 2.855763e-01
v -4.280182e-01 1.256134e-01 2.914869e-01
v -4.259966e-01 1.254861e-01 2.989764e-01
v -4.233299e-01 1.248087e-01 3.059253e-01
v -4.206696e-01 1.241338e-01 3.128620e-01
v -4.180156e-01 1.234612e-01 3.197863e-01
v -4.167025e-01 1.239073e-01 3.276940e-01
v -4.147381e-01 1.238013e-01 3.350733e-01
v -4.134599e-01 1.242603e-01 3.429134e-01
v -4.122008e-01 1.247264e-01 3.507170e-01
v -4.109607e-01 1.251996e-01 3.584835e-01
v -4.111059e-01 1.268081e-01 3.671476e-01
v -4.105967e-01 1.278630e-01 3.752894e-01
v -4.080440e-01 1.272279e-01 3.820175e-01
v -4.068832e-01 1.277305e-01 3.896309e-01
v -4.071331e-01 1.293777e-01 3.980926e-01
v -4.067157e-01 1.304667e-01 4.060566e-01
v -4.063235e-01 1.315650e-01 4.139714e-01
v -4.045460e-01 1.315281e-01 4.209889e-01
v -4.034898e-01 1.320695e-01 4.283999e-01
v -4.031642e-01 1.331925e-01 4.361860e-01
v -4.021491e-01 1.337491e-01 4.435173e-01
v -4.018711e-01 1.348897e-01 4.512113e-01
v -4.016185e-01 1.360397e-01 4.588564e-01
v -4.021156e-01 1.377785e-01 4.668398e-01
v -4.019168e-01 1.389485e-01 4.743806e-01
v -4.010126e-01 1.395462e-01 4.814973e-01
v -3.979258e-01 1.384023e-01 4.874701e-01
v -3.933648e-01 1.360903e-01 4.927171e-01
v -4.865748e-01 1.368254e-01 1.705770e-01
v -4.849971e-01 1.371953e-01 1.789729e-01
v -4.810501e-01 1.354144e-01 1.848289e-01
v -4.788976e-01 1.352531e-01 1.925561e-01
v -4.773610e-01 1.356382e-01 2.008722e-01
v -4.758435e-01 1.360303e-01 2.091516e-01
v -4.737353e-01 1.358854e-01 2.167928e-01
v -4.716398e-01 1.357452e-01 2.244097e-01
v -4.695569e-01 1.356097e-01 2.320020e-01
v -4.687252e-01 1.365741e-01 2.407353e-01
v -4.660516e-01 1.359016e-01 2.476896e-01
v -4.615076e-01 1.335813e-01 2.529199e-01
v -4.575797e-01 1.318075e-01 2.587391e-01
v -4.536454e-01 1.300313e-01 2.645706e-01
v -4.484345e-01 1.271458e-01 2.693100e-01
v -4.444812e-01 1.253626e-01 2.751783e-01
v -4.411630e-01 1.241330e-01 2.815988e-01
v -4.372001e-01 1.223462e-01 2.874854e-01
v -4.332310e-01 1.205572e-01 2.933844e-01
v -4.305574e-01 1.198845e-01 3.003386e-01
v -4.285443e-01 1.197749e-01 3.077960e-01
v -4.258864e-01 1.191081e-01 3.147196e-01
v -4.238955e-01 1.190066e-01 3.221340e-01
v -4.219173e-01 1.189099e-01 3.295240e-01
v -4.206184e-01 1.193831e-01 3.373800e-01
v -4.186687e-01 1.192969e-01 3.447148e-01
v -4.167316e-01 1.192154e-01 3.520250e-01
v -4.161597e-01 1.202762e-01 3.602555e-01
v -4.162927e-01 1.219162e-01 3.689033e-01
v -4.157749e-01 1.229971e-01 3.770297e-01
v -4.132249e-01 1.223702e-01 3.837448e-01
v -4.134371e-01 1.240397e-01 3.922392e-01
v -4.136811e-01 1.257210e-01 4.006725e-01
v -4.132613e-01 1.268381e-01 4.086087e-01
v -4.128670e-01 1.279647e-01 4.164958e-01
v -4.124981e-01 1.291007e-01 4.243340e-01
v -4.114496e-01 1.296666e-01 4.317057e-01
v -4.104202e-01 1.302396e-01 4.390406e-01
v -4.101209e-01 1.314014e-01 4.467439e-01
v -4.098471e-01 1.325726e-01 4.543980e-01
v -4.095985e-01 1.337532e-01 4.620030e-01
v -4.086546e-01 1.343580e-01 4.691724e-01
v -4.070060e-01 1.343833e-01 4.759246e-01
v -4.053699e-01 1.344134e-01 4.826522e-01
v -4.015560e-01 1.326819e-01 4.882507e-01
v -3.970025e-01 1.303581e-01 4.934993e-01
v -3.939093e-01 1.292118e-01 4.994844e-01
v -4.969827e-01 1.365725e-01 1.784361e-01
v -4.936582e-01 1.353405e-01 1.848688e-01
v -4.921137e-01 1.357443e-01 1.931763e-01
v -4.893950e-01 1.350623e-01 2.002095e-01
v -4.860832e-01 1.338350e-01 2.066177e-01
v -4.839771e-01 1.337053e-01 2.142390e-01
v -4.824895e-01 1.341304e-01 2.224362e-01
v -4.791935e-01 1.329089e-01 2.288138e-01
v -4.765099e-01 1.322399e-01 2.357795e-01
v -4.744481e-01 1.321267e-01 2.433150e-01
v -4.711616e-01 1.309088e-01 2.496742e-01
v -4.672532e-01 1.291349e-01 2.554635e-01
v -4.633385e-01 1.273589e-01 2.612651e-01
v -4.594173e-01 1.255803e-01 2.670790e-01
v -4.548587e-01 1.232401e-01 2.723538e-01
v -4.496526e-01 1.203345e-01 2.771079e-01
v -4.450654e-01 1.179838e-01 2.824379e-01
v -4.423880e-01 1.173171e-01 2.893913e-01
v -4.397170e-01 1.166526e-01 2.963325e-01
v -4.364051e-01 1.154253e-01 3.027406e-01
v -4.337437e-01 1.147645e-01 3.096635e-01
v -4.317421e-01 1.146736e-01 3.170825e-01
v -4.297531e-01 1.145873e-01 3.244768e-01
v -4.277769e-01 1.145058e-01 3.318467e-01
v -4.258135e-01 1.144291e-01 3.391921e-01
v -4.238626e-01 1.143570e-01 3.465130e-01
v -4.225937e-01 1.148631e-01 3.542871e-01
v -4.213439e-01 1.153762e-01 3.620243e-01
v -4.221404e-01 1.176238e-01 3.711214e-01
v -4.209381e-01 1.181546e-01 3.787667e-01
v -4.190729e-01 1.181142e-01 3.859220e-01
v -4.199612e-01 1.203960e-01 3.948412e-01
v -4.195108e-01 1.215307e-01 4.028049e-01
v -4.204688e-01 1.238383e-01 4.115892e-01
v -4.200754e-01 1.249943e-01 4.194425e-01
v -4.190095e-01 1.255755e-01 4.268242e-01
v -4.186637e-01 1.267491e-01 4.345854e-01
v -4.183432e-01 1.279320e-01 4.422976e-01
v -4.180480e-01 1.291243e-01 4.499609e-01
v -4.170676e-01 1.297373e-01 4.571769e-01
v -4.161063e-01 1.303573e-01 4.643562e-01
v -4.130130e-01 1.292110e-01 4.703412e-01
v -4.113601e-01 1.292493e-01 4.770857e-01
v -4.089965e-01 1.286988e-01 4.834320e-01
v -4.051863e-01 1.269614e-01 4.890313e-01
v -4.006403e-01 1.246259e-01 4.942815e-01
v -3.982799e-01 1.240766e-01 5.006218e-01
v -3.981337e-01 1.253241e-01 5.079967e-01
v -5.073086e-01 1.364486e-01 1.862773e-01
v -5.046054e-01 1.357796e-01 1.932730e-01
v -5.030877e-01 1.362152e-01 2.015045e-01
v -4.992178e-01 1.344484e-01 2.072272e-01
v -4.959377e-01 1.332328e-01 2.135740e-01
v -4.932566e-01 1.325721e-01 2.205268e-01
v -4.911842e-01 1.324693e-01 2.280667e-01
v -4.867026e-01 1.301433e-01 2.332082e-01
v -4.828169e-01 1.283706e-01 2.389617e-01
v -4.801486e-01 1.277145e-01 2.458897e-01
v -4.762566e-01 1.259394e-01 2.516553e-01
v -4.723584e-01 1.241622e-01 2.574333e-01
v -4.684537e-01 1.223825e-01 2.632235e-01
v -4.645426e-01 1.206004e-01 2.690259e-01
v -4.606254e-01 1.188162e-01 2.748406e-01
v -4.554401e-01 1.158965e-01 2.795787e-01
v -4.502356e-01 1.129698e-01 2.843536e-01
v -4.475610e-01 1.123114e-01 2.912940e-01
v -4.455330e-01 1.122252e-01 2.987481e-01
v -4.428741e-01 1.115725e-01 3.056578e-01
v -4.395749e-01 1.103499e-01 3.120415e-01
v -4.375753e-01 1.102743e-01 3.194405e-01
v -4.355885e-01 1.102034e-01 3.268149e-01
v -4.329581e-01 1.095613e-01 3.336694e-01
v -4.309934e-01 1.094986e-01 3.410009e-01
v -4.290414e-01 1.094405e-01 3.483078e-01
v -4.284335e-01 1.105460e-01 3.565443e-01
v -4.285198e-01 1.122413e-01 3.652025e-01
v -4.279656e-01 1.133667e-01 3.733347e-01
v -4.260865e-01 1.133357e-01 3.805006e-01
v -4.255769e-01 1.144775e-01 3.885469e-01
v -4.257740e-01 1.162140e-01 3.969905e-01
v -4.266875e-01 1.185485e-01 4.058128e-01
v -4.269512e-01 1.203097e-01 4.141277e-01
v -4.258646e-01 1.209051e-01 4.215254e-01
v -4.254911e-01 1.220974e-01 4.293080e-01
v -4.258405e-01 1.238902e-01 4.374571e-01
v -4.255209e-01 1.251025e-01 4.451355e-01
v -4.245229e-01 1.257307e-01 4.523615e-01
v -4.235441e-01 1.263660e-01 4.595506e-01
v -4.211640e-01 1.258167e-01 4.659206e-01
v -4.180772e-01 1.246728e-01 4.718935e-01
v -4.157067e-01 1.241270e-01 4.782451e-01
v -4.133426e-01 1.235836e-01 4.845846e-01
v -4.095394e-01 1.218415e-01 4.901785e-01
v -4.050039e-01 1.194954e-01 4.954243e-01
v -4.026429e-01 1.189532e-01 5.017575e-01
v -4.024850e-01 1.202254e-01 5.091231e-01
v -5.271475e-01 1.437490e-01 1.948624e-01
v -5.192912e-01 1.381182e-01 1.960079e-01
v -5.166286e-01 1.374714e-01 2.029168e-01
v -5.128005e-01 1.357129e-01 2.085668e-01
v -5.089661e-01 1.339519e-01 2.142289e-01
v -5.045331e-01 1.316293e-01 2.192922e-01
v -5.012783e-01 1.304231e-01 2.255901e-01
v -4.986221e-01 1.297788e-01 2.324869e-01
v -4.941670e-01 1.274480e-01 2.375931e-01
v -4.896991e-01 1.251123e-01 2.427239e-01
v -4.864348e-01 1.239026e-01 2.490401e-01
v -4.825593e-01 1.221266e-01 2.547821e-01
v -4.780629e-01 1.197804e-01 2.599682e-01
v -4.741715e-01 1.179984e-01 2.657406e-01
v -4.696530e-01 1.156441e-01 2.709696e-01
v -4.657458e-01 1.138562e-01 2.767729e-01
v -4.618321e-01 1.120659e-01 2.825883e-01
v -4.579122e-01 1.102734e-01 2.884162e-01
v -4.546193e-01 1.090531e-01 2.947876e-01
v -4.513265e-01 1.078329e-01 3.011590e-01
v -4.486734e-01 1.071895e-01 3.080494e-01
v -4.460266e-01 1.065487e-01 3.149277e-01
v -4.440322e-01 1.064895e-01 3.223005e-01
v -4.414014e-01 1.058545e-01 3.291481e-01
v -4.387768e-01 1.052218e-01 3.359835e-01
v -4.361586e-01 1.045914e-01 3.428064e-01
v -4.342054e-01 1.045475e-01 3.500995e-01
v -4.349129e-01 1.068493e-01 3.592729e-01
v -4.349931e-01 1.085787e-01 3.679025e-01
v -4.331002e-01 1.085571e-01 3.750791e-01
v -4.318914e-01 1.091289e-01 3.826890e-01
v -4.313764e-01 1.102978e-01 3.907137e-01
v -4.322422e-01 1.126582e-01 3.995804e-01
v -4.324651e-01 1.144405e-01 4.079341e-01
v -4.320356e-01 1.156411e-01 4.157933e-01
v -4.323186e-01 1.174456e-01 4.240305e-01
v -4.333239e-01 1.198578e-01 4.326273e-01
v -4.329800e-01 1.210900e-01 4.403209e-01
v -4.326613e-01 1.223317e-01 4.479654e-01
v -4.309680e-01 1.223841e-01 4.547556e-01
v -4.292875e-01 1.224412e-01 4.615214e-01
v -4.269133e-01 1.219013e-01 4.678722e-01
v -4.238360e-01 1.207609e-01 4.738267e-01
v -4.214713e-01 1.202245e-01 4.801591e-01
v -4.191130e-01 1.196905e-01 4.864794e-01
v -4.153230e-01 1.179461e-01 4.920557e-01
v -4.100822e-01 1.149841e-01 4.969249e-01
v -4.062732e-01 1.132327e-01 5.025381e-01
v -4.046434e-01 1.133085e-01 5.092057e-01
v -4.015629e-01 1.121670e-01 5.151663e-01
v -5.409881e-01 1.456739e-01 1.972114e-01
v -5.355156e-01 1.422572e-01 2.008044e-01
v -5.300177e-01 1.388310e-01 2.044464e-01
v -5.268103e-01 1.376424e-01 2.106522e-01
v -5.218566e-01 1.347651e-01 2.149904e-01
v -5.168839e-01 1.318807e-01 2.193654e-01
v -5.124805e-01 1.295545e-01 2.243874e-01
v -5.086562e-01 1.277902e-01 2.300382e-01
v -5.048256e-01 1.260234e-01 2.357012e-01
v -5.009886e-01 1.242543e-01 2.413764e-01
v -4.965440e-01 1.219128e-01 2.464782e-01
v -4.932956e-01 1.207090e-01 2.527637e-01
v -4.888320e-01 1.183606e-01 2.579023e-01
v -4.843559e-01 1.160075e-01 2.630655e-01
v -4.810947e-01 1.147990e-01 2.693756e-01
v -4.765995e-01 1.124388e-01 2.745755e-01
v -4.714714e-01 1.094968e-01 2.792508e-01
v -4.681944e-01 1.082824e-01 2.855916e-01
v -4.655439e-01 1.076474e-01 2.924691e-01
v -4.622701e-01 1.064342e-01 2.988037e-01
v -4.589962e-01 1.052210e-01 3.051383e-01
v -4.550864e-01 1.034249e-01 3.109545e-01
v -4.524486e-01 1.027945e-01 3.178075e-01
v -4.504595e-01 1.027518e-01 3.251543e-01
v -4.478374e-01 1.021273e-01 3.319764e-01
v -4.445731e-01 1.009176e-01 3.382926e-01
v -4.419607e-01 1.002967e-01 3.450966e-01
v -4.400096e-01 1.002680e-01 3.523696e-01
v -4.400459e-01 1.020174e-01 3.610443e-01
v -4.401140e-01 1.037785e-01 3.696577e-01
v -4.388845e-01 1.043645e-01 3.772836e-01
v -4.376740e-01 1.049575e-01 3.848726e-01
v -4.371535e-01 1.061533e-01 3.928757e-01
v -4.386806e-01 1.091496e-01 4.021640e-01
v -4.388975e-01 1.109659e-01 4.104891e-01
v -4.398266e-01 1.133933e-01 4.191854e-01
v -4.401101e-01 1.152343e-01 4.273818e-01
v -4.404252e-01 1.170870e-01 4.355168e-01
v -4.393923e-01 1.177458e-01 4.427625e-01
v -4.383783e-01 1.184116e-01 4.499714e-01
v -4.373834e-01 1.190845e-01 4.571434e-01
v -4.350086e-01 1.185516e-01 4.634873e-01
v -4.326402e-01 1.180211e-01 4.698190e-01
v -4.302782e-01 1.174930e-01 4.761384e-01
v -4.279225e-01 1.169672e-01 4.824456e-01
v -4.255730e-01 1.164437e-01 4.887405e-01
v -4.217994e-01 1.146981e-01 4.942931e-01
v -4.151457e-01 1.104965e-01 4.984225e-01
v -4.091819e-01 1.068977e-01 5.029660e-01
v -4.060919e-01 1.057526e-01 5.089449e-01
v -4.037298e-01 1.052244e-01 5.152644e-01
v -5.464274e-01 1.414696e-01 1.999549e-01
v -5.415483e-01 1.385981e-01 2.041728e-01
v -5.372221e-01 1.362861e-01 2.090616e-01
v -5.334586e-01 1.345369e-01 2.146028e-01
v -5.285319e-01 1.316479e-01 2.189127e-01
v -5.235861e-01 1.287517e-01 2.232594e-01
v -5.192061e-01 1.264197e-01 2.282523e-01
v -5.159893e-01 1.252276e-01 2.344765e-01
v -5.121814e-01 1.234620e-01 2.401036e-01
v -5.077729e-01 1.211195e-01 2.451518e-01
v -5.039491e-01 1.193480e-01 2.508095e-01
v -5.001190e-01 1.175742e-01 2.564793e-01
v -4.956788e-01 1.152199e-01 2.615888e-01
v -4.912259e-01 1.128608e-01 2.667230e-01
v -4.879807e-01 1.116582e-01 2.730024e-01
v -4.828953e-01 1.087103e-01 2.776188e-01
v -4.777911e-01 1.057555e-01 2.822721e-01
v -4.745268e-01 1.045458e-01 2.885884e-01
v -4.712625e-01 1.033361e-01 2.949046e-01
v -4.673723e-01 1.015401e-01 3.006911e-01
v -4.647338e-01 1.009167e-01 3.075370e-01
v -4.614695e-01 9.970705e-02 3.138532e-01
v -4.582051e-01 9.849732e-02 3.201694e-01
v -4.562182e-01 9.846992e-02 3.274962e-01
v -4.529602e-01 9.726260e-02 3.338001e-01
v -4.497022e-01 9.605523e-02 3.401041e-01
v -4.477405e-01 9.603715e-02 3.473817e-01
v -4.464428e-01 9.661958e-02 3.551155e-01
v -4.458186e-01 9.780602e-02 3.632872e-01
v -4.445622e-01 9.840371e-02 3.709412e-01
v -4.446463e-01 1.002071e-01 3.794832e-01
v -4.447622e-01 1.020223e-01 3.879638e-01
v -4.449098e-01 1.038492e-01 3.963831e-01
v -4.450891e-01 1.056879e-01 4.047410e-01
v -4.446265e-01 1.069342e-01 4.125999e-01
v -4.462195e-01 1.100056e-01 4.217046e-01
v -4.471768e-01 1.124870e-01 4.302980e-01
v -4.468062e-01 1.137675e-01 4.379790e-01
v -4.457748e-01 1.144485e-01 4.451977e-01
v -4.454516e-01 1.157466e-01 4.527868e-01
v -4.444614e-01 1.164429e-01 4.599258e-01
v -4.420987e-01 1.159218e-01 4.662383e-01
v -4.404413e-01 1.160165e-01 4.729272e-01
v -4.380946e-01 1.155013e-01 4.792090e-01
v -4.350489e-01 1.143726e-01 4.851021e-01
v -4.320033e-01 1.132440e-01 4.909952e-01
v -4.268230e-01 1.102609e-01 4.957957e-01
v -4.216237e-01 1.072708e-01 5.006330e-01
v -4.171232e-01 1.048942e-01 5.058590e-01
v -4.126101e-01 1.025128e-01 5.111095e-01
v -4.102570e-01 1.019953e-01 5.174036e-01
v -5.518445e-01 1.373005e-01 2.026937e-01
v -5.464207e-01 1.338438e-01 2.062562e-01
v -5.421084e-01 1.315223e-01 2.111343e-01
v -5.383550e-01 1.297697e-01 2.166640e-01
v -5.340205e-01 1.274400e-01 2.215850e-01
v -5.285175e-01 1.239539e-01 2.253009e-01
v -5.247324e-01 1.221895e-01 2.308918e-01
v -5.221092e-01 1.215792e-01 2.377003e-01
v -5.189051e-01 1.203918e-01 2.439000e-01
v -5.151105e-01 1.186239e-01 2.495093e-01
v -5.107157e-01 1.162718e-01 2.545469e-01
v -5.063084e-01 1.139152e-01 2.596089e-01
v -5.018883e-01 1.115538e-01 2.646955e-01
v -4.980587e-01 1.097729e-01 2.703724e-01
v -4.942228e-01 1.079897e-01 2.760615e-01
v -4.885519e-01 1.044415e-01 2.801025e-01
v -4.834684e-01 1.014725e-01 2.847397e-01
v -4.802135e-01 1.002663e-01 2.910376e-01
v -4.769587e-01 9.906015e-02 2.973354e-01
v -4.730817e-01 9.726175e-02 3.031043e-01
v -4.691983e-01 9.546092e-02 3.088854e-01
v -4.659371e-01 9.425241e-02 3.151955e-01
v -4.633077e-01 9.363972e-02 3.220161e-01
v -4.606845e-01 9.302926e-02 3.288245e-01
v -4.574297e-01 9.182309e-02 3.351223e-01
v -4.554574e-01 9.181558e-02 3.424045e-01
v -4.541423e-01 9.241331e-02 3.501481e-01
v -4.528461e-01 9.301805e-02 3.578550e-01
v -4.515689e-01 9.362986e-02 3.655251e-01
v -4.503108e-01 9.424875e-02 3.731584e-01
v -4.517000e-01 9.729543e-02 3.826010e-01
v -4.531337e-01 1.003586e-01 3.919577e-01
v -4.519580e-01 1.010080e-01 3.994315e-01
v -4.514678e-01 1.022731e-01 4.073117e-01
v -4.510031e-01 1.035477e-01 4.151428e-01
v -4.525825e-01 1.066649e-01 4.242174e-01
v -4.535303e-01 1.091863e-01 4.327815e-01
v -4.531574e-01 1.104949e-01 4.404348e-01
v -4.528099e-01 1.118128e-01 4.480390e-01
v -4.524877e-01 1.131402e-01 4.555942e-01
v -4.521909e-01 1.144771e-01 4.631003e-01
v -4.505356e-01 1.145871e-01 4.697693e-01
v -4.488928e-01 1.147016e-01 4.764136e-01
v -4.465645e-01 1.142005e-01 4.826517e-01
v -4.435411e-01 1.130801e-01 4.885019e-01
v -4.405176e-01 1.119596e-01 4.943520e-01
v -4.353707e-01 1.089672e-01 4.991121e-01
v -4.294938e-01 1.053426e-01 5.035516e-01
v -4.278764e-01 1.054666e-01 5.101469e-01
v -4.255544e-01 1.049678e-01 5.163727e-01
v -4.239593e-01 1.051001e-01 5.229252e-01
v -5.555642e-01 1.314391e-01 2.034935e-01
v -5.512784e-01 1.291130e-01 2.083364e-01
v -5.475444e-01 1.273603e-01 2.138362e-01
v -5.432364e-01 1.250259e-01 2.187220e-01
v -5.389157e-01 1.226869e-01 2.236324e-01
v -5.334340e-01 1.191796e-01 2.273392e-01
v -5.313909e-01 1.191604e-01 2.347424e-01
v -5.281994e-01 1.179777e-01 2.409175e-01
v -5.250080e-01 1.167950e-01 2.470928e-01
v -5.224034e-01 1.161988e-01 2.538573e-01
v -5.174451e-01 1.132545e-01 2.582764e-01
v -5.124678e-01 1.103031e-01 2.627321e-01
v -5.086643e-01 1.085247e-01 2.683669e-01
v -5.048542e-01 1.067438e-01 2.740139e-01
v -5.004353e-01 1.043683e-01 2.791143e-01
v -4.953978e-01 1.013947e-01 2.836866e-01
v -4.909503e-01 9.900865e-02 2.888422e-01
v -4.864901e-01 9.661789e-02 2.940224e-01
v -4.826327e-01 9.481946e-02 2.997614e-01
v -4.787687e-01 9.301857e-02 3.055126e-01
v -4.748986e-01 9.121547e-02 3.112762e-01
v -4.716469e-01 9.001047e-02 3.175678e-01
v -4.683953e-01 8.880548e-02 3.238595e-01
v -4.657748e-01 8.820326e-02 3.306549e-01
v -4.637951e-01 8.820757e-02 3.379354e-01
v -4.618280e-01 8.821651e-02 3.451914e-01
v -4.598736e-01 8.823014e-02 3.524230e-01
v -4.585757e-01 8.885602e-02 3.601090e-01
v -4.579439e-01 9.009768e-02 3.682313e-01
v -4.579877e-01 9.195866e-02 3.767714e-01
v -4.587165e-01 9.444249e-02 3.857108e-01
v -4.588268e-01 9.632809e-02 3.941220e-01
v -4.583091e-01 9.761204e-02 4.020236e-01
v -4.578168e-01 9.890542e-02 4.098760e-01
v -4.580158e-01 1.008239e-01 4.181155e-01
v -4.595851e-01 1.039881e-01 4.271539e-01
v -4.605262e-01 1.065506e-01 4.356825e-01
v -4.601543e-01 1.078886e-01 4.433020e-01
v -4.598078e-01 1.092359e-01 4.508723e-01
v -4.601685e-01 1.112144e-01 4.587991e-01
v -4.598758e-01 1.125817e-01 4.662652e-01
v -4.582319e-01 1.127104e-01 4.728958e-01
v -4.559094e-01 1.122187e-01 4.791146e-01
v -4.542878e-01 1.123556e-01 4.857022e-01
v -4.519811e-01 1.118698e-01 4.918905e-01
v -4.503816e-01 1.120150e-01 4.984352e-01
v -4.466825e-01 1.102752e-01 5.038675e-01
v -4.436844e-01 1.091641e-01 5.096686e-01
v -4.421072e-01 1.093176e-01 5.161704e-01
v -4.405426e-01 1.094757e-01 5.226476e-01
v -4.404243e-01 1.109076e-01 5.297765e-01
v -4.410511e-01 1.129847e-01 5.371882e-01
v -5.555633e-01 1.238227e-01 2.097755e-01
v -5.512753e-01 1.214813e-01 2.146384e-01
v -5.481029e-01 1.203056e-01 2.207768e-01
v -5.437960e-01 1.179572e-01 2.256765e-01
v -5.400468e-01 1.161916e-01 2.312139e-01
v -5.374385e-01 1.156012e-01 2.379777e-01
v -5.342597e-01 1.144233e-01 2.441285e-01
v -5.310809e-01 1.132453e-01 2.502791e-01
v -5.273191e-01 1.114749e-01 2.558410e-01
v -5.235509e-01 1.097024e-01 2.614153e-01
v -5.191869e-01 1.073327e-01 2.664252e-01
v -5.154029e-01 1.055543e-01 2.720302e-01
v -5.110167e-01 1.031764e-01 2.770832e-01
v -5.072168e-01 1.013920e-01 2.827187e-01
v -5.034106e-01 9.960527e-02 2.883665e-01
v -4.989927e-01 9.721575e-02 2.934808e-01
v -4.939537e-01 9.421977e-02 2.980801e-01
v -4.895073e-01 9.181961e-02 3.032495e-01
v -4.856630e-01 9.001878e-02 3.089709e-01
v -4.830484e-01 8.942609e-02 3.157471e-01
v -4.791978e-01 8.762289e-02 3.214807e-01
v -4.753409e-01 8.581742e-02 3.272266e-01
v -4.721050e-01 8.461828e-02 3.334877e-01
v -4.701305e-01 8.463895e-02 3.407421e-01
v -4.675349e-01 8.405331e-02 3.474815e-01
v -4.649455e-01 8.346992e-02 3.542085e-01
v -4.642830e-01 8.472925e-02 3.623582e-01
v -4.649324e-01 8.722710e-02 3.714033e-01
v -4.656198e-01 8.973910e-02 3.803746e-01
v -4.650460e-01 9.103127e-02 3.883527e-01
v -4.644976e-01 9.233286e-02 3.962816e-01
v -4.639745e-01 9.364382e-02 4.041615e-01
v -4.634768e-01 9.496415e-02 4.119923e-01
v -4.649913e-01 9.815888e-02 4.210803e-01
v -4.665503e-01 1.013700e-01 4.300823e-01
v -4.668163e-01 1.033496e-01 4.381524e-01
v -4.664421e-01 1.047158e-01 4.457440e-01
v -4.667684e-01 1.067177e-01 4.536976e-01
v -4.671262e-01 1.087314e-01 4.615897e-01
v -4.668345e-01 1.101281e-01 4.690219e-01
v -4.658835e-01 1.109043e-01 4.760127e-01
v -4.649517e-01 1.116876e-01 4.829666e-01
v -4.633480e-01 1.118457e-01 4.895035e-01
v -4.624509e-01 1.126418e-01 4.963900e-01
v -4.601785e-01 1.121759e-01 5.025039e-01
v -4.586128e-01 1.123482e-01 5.089673e-01
v -4.570598e-01 1.125250e-01 5.154060e-01
v -4.548128e-01 1.120685e-01 5.214709e-01
v -4.518622e-01 1.109751e-01 5.271800e-01
v -4.503377e-01 1.111626e-01 5.335637e-01
v -4.481096e-01 1.107131e-01 5.395916e-01
v -5.630037e-01 1.197164e-01 2.050932e-01
v -5.581787e-01 1.167779e-01 2.093023e-01
v -5.550063e-01 1.156022e-01 2.154407e-01
v -5.512734e-01 1.138355e-01 2.209543e-01
v -5.480979e-01 1.126587e-01 2.270988e-01
v -5.449223e-01 1.114818e-01 2.332434e-01
v -5.423165e-01 1.108997e-01 2.399941e-01
v -5.391441e-01 1.097241e-01 2.461326e-01
v -5.365480e-01 1.091455e-01 2.528650e-01
v -5.327993e-01 1.073728e-01 2.584093e-01
v -5.284618e-01 1.049985e-01 2.633842e-01
v -5.252830e-01 1.038206e-01 2.695348e-01
v -5.221043e-01 1.026426e-01 2.756855e-01
v -5.177414e-01 1.002589e-01 2.807094e-01
v -5.139610e-01 9.847448e-02 2.863151e-01
v -5.107728e-01 9.729294e-02 2.924841e-01
v -5.063815e-01 9.489874e-02 2.975633e-01
v -5.007679e-01 9.128456e-02 3.015892e-01
v -4.963448e-01 8.887859e-02 3.067297e-01
v -4.925201e-01 8.707773e-02 3.124211e-01
v -4.905319e-01 8.710789e-02 3.196863e-01
v -4.873214e-01 8.591818e-02 3.258983e-01
v -4.816286e-01 8.227467e-02 3.300776e-01
v -4.777818e-01 8.046567e-02 3.358121e-01
v -4.751824e-01 7.988580e-02 3.425506e-01
v -4.732193e-01 7.992524e-02 3.497666e-01
v -4.719023e-01 8.058759e-02 3.574417e-01
v -4.712408e-01 8.187627e-02 3.655576e-01
v -4.725232e-01 8.503571e-02 3.750386e-01
v -4.725646e-01 8.696835e-02 3.835031e-01
v -4.719916e-01 8.828987e-02 3.914472e-01
v -4.707951e-01 8.899686e-02 3.988894e-01
v -4.702697e-01 9.033599e-02 4.067415e-01
v -4.704252e-01 9.231089e-02 4.149853e-01
v -4.719295e-01 9.555259e-02 4.240370e-01
v -4.728165e-01 9.818199e-02 4.325743e-01
v -4.730765e-01 1.001957e-01 4.406158e-01
v -4.740364e-01 1.028522e-01 4.490121e-01
v -4.736917e-01 1.042583e-01 4.565148e-01
v -4.740468e-01 1.063072e-01 4.643722e-01
v -4.744335e-01 1.083678e-01 4.721684e-01
v -4.741713e-01 1.098045e-01 4.795116e-01
v -4.739344e-01 1.112505e-01 4.868058e-01
v -4.723485e-01 1.114297e-01 4.932920e-01
v -4.714657e-01 1.122529e-01 5.001270e-01
v -4.706018e-01 1.130831e-01 5.069253e-01
v -4.683638e-01 1.126372e-01 5.129648e-01
v -4.654322e-01 1.115508e-01 5.186371e-01
v -4.632036e-01 1.111085e-01 5.246582e-01
v -4.616875e-01 1.113135e-01 5.310095e-01
v -4.601840e-01 1.115233e-01 5.373364e-01
v -4.586933e-01 1.117377e-01 5.436387e-01
v -5.661763e-01 1.132614e-01 2.052507e-01
v -5.619096e-01 1.108989e-01 2.101045e-01
v -5.587372e-01 1.097232e-01 2.162429e-01
v -5.555648e-01 1.085476e-01 2.223813e-01
v -5.523923e-01 1.073720e-01 2.285197e-01
v -5.497829e-01 1.067957e-01 2.352697e-01
v -5.471798e-01 1.062217e-01 2.420074e-01
v -5.440138e-01 1.050484e-01 2.481335e-01
v -5.414201e-01 1.044780e-01 2.548529e-01
v -5.376815e-01 1.027018e-01 2.603857e-01
v -5.339367e-01 1.009234e-01 2.659310e-01
v -5.307675e-01 9.974890e-02 2.720631e-01
v -5.275981e-01 9.857446e-02 2.781954e-01
v -5.238405e-01 9.679121e-02 2.837651e-01
v -5.206681e-01 9.561560e-02 2.899035e-01
v -5.169010e-01 9.382882e-02 2.954915e-01
v -5.125298e-01 9.142756e-02 3.005477e-01
v -5.075449e-01 8.840812e-02 3.050905e-01
v -5.037493e-01 8.661086e-02 3.107338e-01
v -4.999473e-01 8.481117e-02 3.163892e-01
v -4.973600e-01 8.424316e-02 3.230964e-01
v -4.941655e-01 8.305928e-02 3.292776e-01
v -4.897372e-01 8.063682e-02 3.344442e-01
v -4.846762e-01 7.758915e-02 3.391341e-01
v -4.814657e-01 7.639944e-02 3.453460e-01
v -4.801343e-01 7.707821e-02 3.530250e-01
v -4.794514e-01 7.838795e-02 3.611498e-01
v -4.787939e-01 7.970713e-02 3.692257e-01
v -4.787976e-01 8.166208e-02 3.777231e-01
v -4.788330e-01 8.362877e-02 3.861591e-01
v -4.789001e-01 8.560717e-02 3.945338e-01
v -4.777082e-01 8.633766e-02 4.019429e-01
v -4.771838e-01 8.770616e-02 4.097611e-01
v -4.779881e-01 9.034852e-02 4.184102e-01
v -4.794854e-01 9.363838e-02 4.274195e-01
v -4.803690e-01 9.631013e-02 4.359153e-01
v -4.806294e-01 9.836017e-02 4.439159e-01
v -4.822503e-01 1.016958e-01 4.526860e-01
v -4.819129e-01 1.031337e-01 4.601425e-01
v -4.822715e-01 1.052201e-01 4.679530e-01
v -4.826619e-01 1.073183e-01 4.757023e-01
v -4.817297e-01 1.081451e-01 4.826085e-01
v -4.808167e-01 1.089789e-01 4.894779e-01
v -4.799227e-01 1.098197e-01 4.963105e-01
v -4.790476e-01 1.106676e-01 5.031063e-01
v -4.775019e-01 1.108762e-01 5.094991e-01
v -4.745830e-01 1.097945e-01 5.151469e-01
v -4.723602e-01 1.093615e-01 5.211487e-01
v -4.708430e-01 1.095806e-01 5.274862e-01
v -4.700408e-01 1.104556e-01 5.341410e-01
v -4.692578e-01 1.113375e-01 5.407590e-01
v -4.684936e-01 1.122264e-01 5.473401e-01
v -5.698998e-01 1.073942e-01 2.060514e-01
v -5.656406e-01 1.050199e-01 2.109068e-01
v -5.624681e-01 1.038442e-01 2.170452e-01
v -5.598486e-01 1.032715e-01 2.238067e-01
v -5.577915e-01 1.033051e-01 2.311727e-01
v -5.557470e-01 1.033433e-01 2.385143e-01
v -5.531529e-01 1.027800e-01 2.452267e-01
v -5.505651e-01 1.022190e-01 2.519270e-01
v -5.474148e-01 1.010516e-01 2.580224e-01
v -5.442646e-01 9.988414e-02 2.641178e-01
v -5.411144e-01 9.871673e-02 2.702133e-01
v -5.373859e-01 9.693705e-02 2.757347e-01
v -5.342324e-01 9.576845e-02 2.818363e-01
v -5.304944e-01 9.398523e-02 2.873761e-01
v -5.267501e-01 9.219973e-02 2.929282e-01
v -5.235903e-01 9.102877e-02 2.990420e-01
v -5.192424e-01 8.862159e-02 3.040691e-01
v -5.142844e-01 8.559035e-02 3.085836e-01
v -5.111089e-01 8.441352e-02 3.147281e-01
v -5.079333e-01 8.323671e-02 3.208726e-01
v -5.041509e-01 8.143713e-02 3.264984e-01
v -5.003622e-01 7.963513e-02 3.321363e-01
v -4.971803e-01 7.845596e-02 3.382931e-01
v -4.933820e-01 7.665049e-02 3.439494e-01
v -4.901970e-01 7.547017e-02 3.501123e-01
v -4.882571e-01 7.554719e-02 3.572516e-01
v -4.875815e-01 7.688872e-02 3.653303e-01
v -4.863023e-01 7.760854e-02 3.728841e-01
v -4.863064e-01 7.959990e-02 3.813407e-01
v -4.863422e-01 8.160300e-02 3.897360e-01
v -4.864096e-01 8.361783e-02 3.980699e-01
v -4.858672e-01 8.500870e-02 4.058911e-01
v -4.853500e-01 8.640894e-02 4.136633e-01
v -4.861542e-01 8.909476e-02 4.222646e-01
v -4.876476e-01 9.243392e-02 4.312253e-01
v -4.878767e-01 9.450868e-02 4.392465e-01
v -4.881375e-01 9.659516e-02 4.472063e-01
v -4.890907e-01 9.933620e-02 4.555194e-01
v -4.894180e-01 1.014473e-01 4.633505e-01
v -4.897770e-01 1.035703e-01 4.711203e-01
v -4.894976e-01 1.050585e-01 4.784325e-01
v -4.885702e-01 1.059088e-01 4.853057e-01
v -4.876618e-01 1.067661e-01 4.921421e-01
v -4.860927e-01 1.069805e-01 4.985638e-01
v -4.845364e-01 1.071998e-01 5.049610e-01
v -4.823067e-01 1.067714e-01 5.109682e-01
v -4.807725e-01 1.069988e-01 5.173225e-01
v -4.792510e-01 1.072309e-01 5.236523e-01
v -4.777421e-01 1.074677e-01 5.299575e-01
v -4.776434e-01 1.090229e-01 5.369202e-01
v -4.768680e-01 1.099296e-01 5.434991e-01
v -4.739967e-01 1.088655e-01 5.490549e-01
v -5.736233e-01 1.015269e-01 2.068520e-01
v -5.699144e-01 9.974727e-02 2.123436e-01
v -5.672911e-01 9.918035e-02 2.191042e-01
v -5.652233e-01 9.922453e-02 2.264749e-01
v -5.631683e-01 9.927342e-02 2.338210e-01
v -5.605703e-01 9.871592e-02 2.405327e-01
v -5.585375e-01 9.877301e-02 2.478358e-01
v -5.559554e-01 9.822137e-02 2.545166e-01
v -5.533797e-01 9.767206e-02 2.611854e-01
v -5.519467e-01 9.835669e-02 2.690127e-01
v -5.488187e-01 9.719750e-02 2.750653e-01
v -5.439670e-01 9.418393e-02 2.793981e-01
v -5.402518e-01 9.240191e-02 2.849020e-01
v -5.371110e-01 9.123799e-02 2.909791e-01
v -5.339703e-01 9.007415e-02 2.970561e-01
v -5.308295e-01 8.891022e-02 3.031332e-01
v -5.259177e-01 8.587438e-02 3.075826e-01
v -5.215804e-01 8.345657e-02 3.126052e-01
v -5.184238e-01 8.228680e-02 3.187129e-01
v -5.152672e-01 8.111702e-02 3.248206e-01
v -5.115075e-01 7.931857e-02 3.304103e-01
v -5.077417e-01 7.751779e-02 3.360123e-01
v -5.045787e-01 7.634568e-02 3.421323e-01
v -5.020283e-01 7.580576e-02 3.487519e-01
v -4.988686e-01 7.463482e-02 3.548657e-01
v -4.969467e-01 7.473302e-02 3.619543e-01
v -4.950374e-01 7.483598e-02 3.690183e-01
v -4.950164e-01 7.685432e-02 3.774832e-01
v -4.950272e-01 7.888439e-02 3.858867e-01
v -4.944382e-01 8.028699e-02 3.937660e-01
v -4.945092e-01 8.233946e-02 4.020530e-01
v -4.939741e-01 8.376204e-02 4.098281e-01
v -4.941052e-01 8.583674e-02 4.179986e-01
v -4.942681e-01 8.792320e-02 4.261077e-01
v -4.938155e-01 8.937633e-02 4.337234e-01
v -4.946891e-01 9.213142e-02 4.421420e-01
v -4.949471e-01 9.425317e-02 4.500673e-01
v -4.958937e-01 9.703529e-02 4.583449e-01
v -4.962183e-01 9.918170e-02 4.661413e-01
v -4.972378e-01 1.019908e-01 4.742779e-01
v -4.969625e-01 1.035097e-01 4.815502e-01
v -4.953733e-01 1.037312e-01 4.879948e-01
v -4.937968e-01 1.039575e-01 4.944151e-01
v -4.915571e-01 1.035327e-01 5.004337e-01
v -4.900027e-01 1.037671e-01 5.068109e-01
v -4.884611e-01 1.040063e-01 5.131636e-01
v -4.869321e-01 1.042501e-01 5.194917e-01
v -4.847272e-01 1.038382e-01 5.254430e-01
v -4.846040e-01 1.054134e-01 5.324209e-01
v -4.858961e-01 1.083236e-01 5.400301e-01
v -4.837356e-01 1.079282e-01 5.458955e-01
v -5.768108e-01 9.504860e-02 2.070128e-01
v -5.736416e-01 9.387415e-02 2.131451e-01
v -5.720990e-01 9.453995e-02 2.211601e-01
v -5.700302e-01 9.459821e-02 2.285168e-01
v -5.679741e-01 9.466124e-02 2.358491e-01
v -5.653788e-01 9.411191e-02 2.425477e-01
v -5.633448e-01 9.418313e-02 2.498370e-01
v -5.607653e-01 9.363973e-02 2.565049e-01
v -5.587535e-01 9.371911e-02 2.637513e-01
v -5.573189e-01 9.442493e-02 2.715578e-01
v -5.559032e-01 9.513768e-02 2.793276e-01
v -5.510818e-01 9.211357e-02 2.836260e-01
v -5.473892e-01 9.033272e-02 2.890939e-01
v -5.442675e-01 8.917585e-02 2.951342e-01
v -5.411458e-01 8.801902e-02 3.011744e-01
v -5.380241e-01 8.686218e-02 3.072147e-01
v -5.331424e-01 8.381570e-02 3.116297e-01
v -5.282417e-01 8.076218e-02 3.160815e-01
v -5.245080e-01 7.896605e-02 3.216291e-01
v -5.207680e-01 7.716762e-02 3.271889e-01
v -5.182202e-01 7.663590e-02 3.337955e-01
v -5.156788e-01 7.610664e-02 3.403897e-01
v -5.119324e-01 7.430577e-02 3.459619e-01
v -5.081797e-01 7.250265e-02 3.515463e-01
v -5.056446e-01 7.197564e-02 3.581282e-01
v -5.043462e-01 7.273196e-02 3.656712e-01
v -5.036852e-01 7.413689e-02 3.736576e-01
v -5.036710e-01 7.619402e-02 3.820694e-01
v -5.030638e-01 7.761892e-02 3.899517e-01
v -5.024820e-01 7.905321e-02 3.977849e-01
v -5.025567e-01 8.114323e-02 4.060249e-01
v -5.020287e-01 8.259750e-02 4.137539e-01
v -5.015261e-01 8.406118e-02 4.214338e-01
v -5.016894e-01 8.618407e-02 4.295021e-01
v -5.025281e-01 8.896972e-02 4.379405e-01
v -5.027580e-01 9.111734e-02 4.458801e-01
v -5.023695e-01 9.262324e-02 4.533393e-01
v -5.026596e-01 9.479317e-02 4.611624e-01
v -5.036377e-01 9.763045e-02 4.693309e-01
v -5.039944e-01 9.982501e-02 4.770252e-01
v -5.030573e-01 1.007152e-01 4.838691e-01
v -5.014733e-01 1.009531e-01 4.902876e-01
v -4.999020e-01 1.011958e-01 4.966816e-01
v -4.983434e-01 1.014432e-01 5.030511e-01
v -4.961221e-01 1.010325e-01 5.090260e-01
v -4.945857e-01 1.012880e-01 5.153526e-01
v -4.923802e-01 1.008833e-01 5.212969e-01
v -4.908660e-01 1.011470e-01 5.275805e-01
v -4.907406e-01 1.027505e-01 5.345307e-01
v -4.913317e-01 1.050319e-01 5.417712e-01
v -5.768333e-01 8.738283e-02 2.133135e-01
v -5.752765e-01 8.806517e-02 2.213323e-01
v -5.748223e-01 8.999547e-02 2.305557e-01
v -5.727649e-01 9.007249e-02 2.378739e-01
v -5.712683e-01 9.077710e-02 2.457763e-01
v -5.697909e-01 9.148874e-02 2.536417e-01
v -5.677779e-01 9.158223e-02 2.608744e-01
v -5.663352e-01 9.230682e-02 2.686724e-01
v -5.637900e-01 9.178336e-02 2.752658e-01
v -5.618152e-01 9.189097e-02 2.824248e-01
v -5.592859e-01 9.137339e-02 2.889876e-01
v -5.556224e-01 8.959610e-02 2.944072e-01
v -5.513793e-01 8.718417e-02 2.992797e-01
v -5.488531e-01 8.666776e-02 3.058364e-01
v -5.457536e-01 8.551914e-02 3.118338e-01
v -5.409054e-01 8.246328e-02 3.162082e-01
v -5.360381e-01 7.940040e-02 3.206195e-01
v -5.323302e-01 7.760658e-02 3.261249e-01
v -5.286161e-01 7.581048e-02 3.316426e-01
v -5.254912e-01 7.465245e-02 3.376891e-01
v -5.229651e-01 7.413607e-02 3.442457e-01
v -5.192414e-01 7.233640e-02 3.497819e-01
v -5.167216e-01 7.182238e-02 3.563263e-01
v -5.148164e-01 7.195580e-02 3.633503e-01
v -5.129240e-01 7.209396e-02 3.703498e-01
v -5.122734e-01 7.353182e-02 3.782841e-01
v -5.116481e-01 7.497902e-02 3.861693e-01
v -5.110483e-01 7.643563e-02 3.940054e-01
v -5.110978e-01 7.855267e-02 4.022538e-01
v -5.105518e-01 8.002924e-02 4.099856e-01
v -5.100313e-01 8.151524e-02 4.176685e-01
v -5.095359e-01 8.301066e-02 4.253023e-01
v -5.097028e-01 8.517115e-02 4.333236e-01
v -5.105412e-01 8.800025e-02 4.417143e-01
v -5.107746e-01 9.018538e-02 4.496070e-01
v -5.103934e-01 9.172306e-02 4.570200e-01
v -5.106871e-01 9.393052e-02 4.647961e-01
v -5.116651e-01 9.681131e-02 4.729170e-01
v -5.113694e-01 9.838067e-02 4.801644e-01
v -5.097812e-01 9.863162e-02 4.865752e-01
v -5.082056e-01 9.888715e-02 4.929615e-01
v -5.073081e-01 9.981375e-02 4.997048e-01
v -5.044241e-01 9.874500e-02 5.052851e-01
v -5.022116e-01 9.834485e-02 5.112347e-01
v -5.006805e-01 9.861687e-02 5.175352e-01
v -4.984840e-01 9.822266e-02 5.234541e-01
v -4.956127e-01 9.715863e-02 5.290099e-01
v -4.954786e-01 9.878782e-02 5.359446e-01
v -4.946825e-01 9.975198e-02 5.424917e-01
v -5.806007e-01 8.407927e-02 2.240101e-01
v -5.801373e-01 8.604247e-02 2.332111e-01
v -5.791644e-01 8.738983e-02 2.417370e-01
v -5.787611e-01 8.937534e-02 2.508213e-01
v -5.772946e-01 9.011285e-02 2.586415e-01
v -5.758471e-01 9.085741e-02 2.664249e-01
v -5.738647e-01 9.097673e-02 2.735822e-01
v -5.713381e-01 9.046739e-02 2.801320e-01
v -5.693779e-01 9.059499e-02 2.872465e-01
v -5.668671e-01 9.009149e-02 2.937655e-01
v -5.637960e-01 8.895340e-02 2.997077e-01
v -5.595857e-01 8.653916e-02 3.045327e-01
v -5.565083e-01 8.539877e-02 3.104871e-01
v -5.534310e-01 8.425836e-02 3.164415e-01
v -5.480369e-01 8.055151e-02 3.202354e-01
v -5.443645e-01 7.876357e-02 3.256803e-01
v -5.412713e-01 7.761728e-02 3.316654e-01
v -5.381781e-01 7.647104e-02 3.376504e-01
v -5.344930e-01 7.467845e-02 3.431198e-01
v -5.308016e-01 7.288349e-02 3.486016e-01
v -5.277020e-01 7.173488e-02 3.545989e-01
v -5.258053e-01 7.188594e-02 3.615908e-01
v -5.239212e-01 7.204168e-02 3.685580e-01
v -5.220498e-01 7.220217e-02 3.755007e-01
v -5.208019e-01 7.302068e-02 3.828977e-01
v -5.195731e-01 7.384628e-02 3.902580e-01
v -5.189805e-01 7.533457e-02 3.980480e-01
v -5.190337e-01 7.748922e-02 4.062494e-01
v -5.184949e-01 7.899751e-02 4.139351e-01
v -5.179815e-01 8.051520e-02 4.215718e-01
v -5.174935e-01 8.204231e-02 4.291595e-01
v -5.176639e-01 8.424037e-02 4.371339e-01
v -5.185023e-01 8.711301e-02 4.454769e-01
v -5.180998e-01 8.867175e-02 4.528989e-01
v -5.183653e-01 9.090505e-02 4.606895e-01
v -5.193082e-01 9.381643e-02 4.688300e-01
v -5.189913e-01 9.540698e-02 4.760865e-01
v -5.173956e-01 9.566957e-02 4.824957e-01
v -5.158126e-01 9.593687e-02 4.888804e-01
v -5.149007e-01 9.687990e-02 4.956275e-01
v -5.140078e-01 9.782995e-02 5.023377e-01
v -5.104748e-01 9.609378e-02 5.075128e-01
v -5.076035e-01 9.502973e-02 5.130686e-01
v -5.060743e-01 9.531699e-02 5.193490e-01
v -5.032093e-01 9.425530e-02 5.248926e-01
v -5.003443e-01 9.319357e-02 5.304361e-01
v -4.988405e-01 9.349026e-02 5.366676e-01
v -4.980332e-01 9.447203e-02 5.432121e-01
v -5.917447e-01 8.707026e-02 2.335604e-01
v -5.902383e-01 8.781480e-02 2.414334e-01
v -5.892886e-01 8.919980e-02 2.498824e-01
v -5.883642e-01 9.059418e-02 2.582824e-01
v -5.863775e-01 9.072647e-02 2.654320e-01
v -5.838567e-01 9.022648e-02 2.719626e-01
v -5.813421e-01 8.972894e-02 2.784809e-01
v -5.799404e-01 9.051218e-02 2.861514e-01
v -5.774449e-01 9.002159e-02 2.926330e-01
v -5.743961e-01 8.889178e-02 2.985322e-01
v -5.713473e-01 8.776194e-02 3.044314e-01
v -5.677324e-01 8.598813e-02 3.097729e-01
v -5.635422e-01 8.356686e-02 3.145750e-01
v -5.599116e-01 8.178722e-02 3.199471e-01
v -5.556991e-01 7.935766e-02 3.247922e-01
v -5.514741e-01 7.692347e-02 3.296618e-01
v -5.483999e-01 7.578422e-02 3.356101e-01
v -5.453257e-01 7.464502e-02 3.415584e-01
v -5.422515e-01 7.350576e-02 3.475066e-01
v -5.397686e-01 7.301988e-02 3.539636e-01
v -5.366976e-01 7.188181e-02 3.599057e-01
v -5.342243e-01 7.139947e-02 3.663443e-01
v -5.323580e-01 7.157644e-02 3.732609e-01
v -5.311085e-01 7.241605e-02 3.806371e-01
v -5.292709e-01 7.260358e-02 3.874986e-01
v -5.286665e-01 7.411658e-02 3.952793e-01
v -5.274740e-01 7.497733e-02 4.025451e-01
v -5.269172e-01 7.650797e-02 4.102337e-01
v -5.263857e-01 7.804797e-02 4.178734e-01
v -5.265026e-01 8.026248e-02 4.259113e-01
v -5.260251e-01 8.182247e-02 4.334467e-01
v -5.268315e-01 8.472679e-02 4.418032e-01
v -5.270435e-01 8.697654e-02 4.496571e-01
v -5.260158e-01 8.789843e-02 4.566041e-01
v -5.262849e-01 9.016929e-02 4.643477e-01
v -5.272276e-01 9.312411e-02 4.724406e-01
v -5.262728e-01 9.407298e-02 4.792464e-01
v -5.246887e-01 9.435442e-02 4.856173e-01
v -5.224657e-01 9.396493e-02 4.915714e-01
v -5.209038e-01 9.425453e-02 4.978993e-01
v -5.193545e-01 9.454887e-02 5.042027e-01
v -5.164958e-01 9.348954e-02 5.097340e-01
v -5.136371e-01 9.243017e-02 5.152653e-01
v -5.114459e-01 9.205236e-02 5.211581e-01
v -5.079198e-01 9.031144e-02 5.263278e-01
v -5.050612e-01 8.925207e-02 5.318591e-01
v -5.028794e-01 8.887779e-02 5.377335e-01
v -5.020640e-01 8.987834e-02 5.442696e-01
v -6.059484e-01 9.404729e-02 2.468346e-01
v -6.029027e-01 9.291863e-02 2.527277e-01
v -6.009245e-01 9.306848e-02 2.598450e-01
v -5.984220e-01 9.258264e-02 2.663319e-01
v -5.953859e-01 9.145750e-02 2.722066e-01
v -5.923497e-01 9.033237e-02 2.780813e-01
v -5.898600e-01 8.985122e-02 2.845436e-01
v -5.873766e-01 8.937239e-02 2.909936e-01
v -5.848995e-01 8.889591e-02 2.974314e-01
v -5.807611e-01 8.647934e-02 3.021493e-01
v -5.777281e-01 8.535538e-02 3.080178e-01
v -5.741329e-01 8.358152e-02 3.133294e-01
v -5.699659e-01 8.115440e-02 3.181025e-01
v -5.669234e-01 8.002687e-02 3.239894e-01
v -5.633092e-01 7.824610e-02 3.293378e-01
v -5.591138e-01 7.580826e-02 3.341661e-01
v -5.560618e-01 7.467726e-02 3.400714e-01
v -5.524285e-01 7.288940e-02 3.454567e-01
v -5.499577e-01 7.241526e-02 3.518822e-01
v -5.480810e-01 7.260280e-02 3.588033e-01
v -5.450353e-01 7.147417e-02 3.646964e-01
v -5.419896e-01 7.034549e-02 3.705895e-01
v -5.401381e-01 7.054231e-02 3.774615e-01
v -5.388996e-01 7.140782e-02 3.847925e-01
v -5.376801e-01 7.228038e-02 3.920865e-01
v -5.364796e-01 7.315996e-02 3.993438e-01
v -5.365176e-01 7.538154e-02 4.074943e-01
v -5.359744e-01 7.694621e-02 4.151245e-01
v -5.360727e-01 7.919012e-02 4.231585e-01
v -5.355834e-01 8.077477e-02 4.306845e-01
v -5.351195e-01 8.236879e-02 4.381615e-01
v -5.353065e-01 8.464560e-02 4.460238e-01
v -5.348964e-01 8.625960e-02 4.533965e-01
v -5.338797e-01 8.720732e-02 4.602981e-01
v -5.341523e-01 8.951579e-02 4.679947e-01
v -5.338183e-01 9.115799e-02 4.752203e-01
v -5.328682e-01 9.213036e-02 4.819932e-01
v -5.312924e-01 9.242939e-02 4.883317e-01
v -5.297293e-01 9.273315e-02 4.946458e-01
v -5.275280e-01 9.235887e-02 5.005500e-01
v -5.246788e-01 9.130302e-02 5.060629e-01
v -5.218297e-01 9.024717e-02 5.115758e-01
v -5.196410e-01 8.987764e-02 5.174556e-01
v -5.167950e-01 8.882295e-02 5.229623e-01
v -5.132822e-01 8.707965e-02 5.281145e-01
v -5.090931e-01 8.464432e-02 5.329306e-01
v -5.069107e-01 8.427705e-02 5.387979e-01
v -6.189558e-01 9.997355e-02 2.588295e-01
v -6.149136e-01 9.757808e-02 2.633774e-01
v -6.113887e-01 9.582302e-02 2.685609e-01
v -6.078574e-01 9.406571e-02 2.737568e-01
v -6.048561e-01 9.295348e-02 2.795641e-01
v -6.018549e-01 9.184126e-02 2.853713e-01
v -5.983109e-01 9.007915e-02 2.905917e-01
v -5.953065e-01 8.896579e-02 2.964051e-01
v -5.917529e-01 8.720019e-02 3.016440e-01
v -5.876410e-01 8.477892e-02 3.063266e-01
v -5.840717e-01 8.300750e-02 3.115962e-01
v -5.810546e-01 8.188939e-02 3.174341e-01
v -5.774758e-01 8.011439e-02 3.227219e-01
v -5.738906e-01 7.833699e-02 3.280220e-01
v -5.708672e-01 7.721657e-02 3.338722e-01
v -5.678437e-01 7.609614e-02 3.397223e-01
v -5.642458e-01 7.431413e-02 3.450471e-01
v -5.600642e-01 7.186702e-02 3.498647e-01
v -5.564505e-01 7.007912e-02 3.552201e-01
v -5.545821e-01 7.028423e-02 3.621089e-01
v -5.527264e-01 7.049398e-02 3.689732e-01
v -5.502931e-01 7.004101e-02 3.753182e-01
v -5.484594e-01 7.025904e-02 3.821396e-01
v -5.472351e-01 7.115154e-02 3.894190e-01
v -5.460298e-01 7.205116e-02 3.966617e-01
v -5.454463e-01 7.362990e-02 4.043378e-01
v -5.454942e-01 7.589141e-02 4.124291e-01
v -5.455739e-01 7.816465e-02 4.204590e-01
v -5.450728e-01 7.977401e-02 4.279757e-01
v -5.439816e-01 8.071586e-02 4.349977e-01
v -5.429094e-01 8.166472e-02 4.419827e-01
v -5.424780e-01 8.329985e-02 4.493644e-01
v -5.420720e-01 8.494445e-02 4.566972e-01
v -5.416914e-01 8.659834e-02 4.639808e-01
v -5.413361e-01 8.826169e-02 4.712155e-01
v -5.403717e-01 8.925053e-02 4.779921e-01
v -5.394263e-01 9.024638e-02 4.847318e-01
v -5.372180e-01 8.987685e-02 4.906415e-01
v -5.356601e-01 9.019705e-02 4.969294e-01
v -5.334677e-01 8.983331e-02 5.028083e-01
v -5.306312e-01 8.878217e-02 5.082967e-01
v -5.271412e-01 8.704008e-02 5.134128e-01
v -5.249583e-01 8.667988e-02 5.192733e-01
v -5.221218e-01 8.562876e-02 5.247618e-01
v -5.179591e-01 8.318869e-02 5.295425e-01
v -5.137838e-01 8.074381e-02 5.343479e-01
v -5.109346e-01 7.968798e-02 5.398608e-01
v -6.292295e-01 1.028679e-01 2.676816e-01
v -6.247128e-01 9.982613e-02 2.715347e-01
v -6.196509e-01 9.612626e-02 2.748139e-01
v -6.156225e-01 9.372138e-02 2.793510e-01
v -6.126465e-01 9.261858e-02 2.851091e-01
v -6.091348e-01 9.086118e-02 2.902753e-01
v -6.056167e-01 8.910151e-02 2.954536e-01
v -6.015503e-01 8.668257e-02 3.000642e-01
v -5.980164e-01 8.491696e-02 3.052732e-01
v -5.939277e-01 8.248978e-02 3.099268e-01
v -5.903781e-01 8.071835e-02 3.151665e-01
v -5.879315e-01 8.026766e-02 3.215291e-01
v -5.849334e-01 7.915663e-02 3.273301e-01
v -5.819353e-01 7.804558e-02 3.331313e-01
v -5.783729e-01 7.626950e-02 3.383954e-01
v -5.753716e-01 7.515729e-02 3.442027e-01
v -5.723703e-01 7.404506e-02 3.500099e-01
v -5.687953e-01 7.226415e-02 3.552985e-01
v -5.652138e-01 7.048095e-02 3.605996e-01
v -5.633665e-01 7.070842e-02 3.674316e-01
v -5.609485e-01 7.026828e-02 3.737390e-01
v -5.591233e-01 7.050394e-02 3.805281e-01
v -5.584901e-01 7.209329e-02 3.882685e-01
v -5.572894e-01 7.301636e-02 3.954782e-01
v -5.561077e-01 7.394654e-02 4.026509e-01
v -5.555442e-01 7.556167e-02 4.102564e-01
v -5.550061e-01 7.718624e-02 4.178128e-01
v -5.538878e-01 7.813985e-02 4.248630e-01
v -5.533972e-01 7.978209e-02 4.323274e-01
v -5.517083e-01 8.006817e-02 4.388528e-01
v -5.506470e-01 8.104290e-02 4.457926e-01
v -5.496048e-01 8.202470e-02 4.526955e-01
v -5.498243e-01 8.438610e-02 4.604149e-01
v -5.500755e-01 8.675917e-02 4.680729e-01
v -5.491029e-01 8.776679e-02 4.748409e-01
v -5.475187e-01 8.809166e-02 4.811640e-01
v -5.465811e-01 8.911221e-02 4.878646e-01
v -5.437509e-01 8.806342e-02 4.933407e-01
v -5.415611e-01 8.770795e-02 4.992066e-01
v -5.393776e-01 8.735475e-02 5.050601e-01
v -5.359072e-01 8.561270e-02 5.101465e-01
v -5.330801e-01 8.456510e-02 5.156165e-01
v -5.302532e-01 8.351746e-02 5.210864e-01
v -5.267700e-01 8.177063e-02 5.261972e-01
v -5.232805e-01 8.002146e-02 5.313204e-01
v -5.184596e-01 7.686698e-02 5.357621e-01
v -5.142853e-01 7.440803e-02 5.405812e-01
v -6.302677e-01 9.696940e-02 2.747459e-01
v -6.257558e-01 9.390760e-02 2.786135e-01
v -6.217507e-01 9.149690e-02 2.831216e-01
v -6.177329e-01 8.908143e-02 2.876541e-01
v -6.142344e-01 8.732172e-02 2.928026e-01
v -6.112648e-01 8.622126e-02 2.985485e-01
v -6.072186e-01 8.379524e-02 3.031363e-01
v -6.037010e-01 8.202846e-02 3.083215e-01
v -6.001772e-01 8.025938e-02 3.135190e-01
v -5.971949e-01 7.915422e-02 3.192895e-01
v -5.942126e-01 7.804906e-02 3.250600e-01
v -5.923389e-01 7.828115e-02 3.319272e-01
v -5.893629e-01 7.717832e-02 3.376854e-01
v -5.858265e-01 7.540450e-02 3.429073e-01
v -5.822836e-01 7.362839e-02 3.481417e-01
v -5.798682e-01 7.319650e-02 3.544360e-01
v -5.774592e-01 7.276705e-02 3.607181e-01
v -5.756297e-01 7.301559e-02 3.674995e-01
v -5.732366e-01 7.259197e-02 3.737509e-01
v -5.702701e-01 7.149271e-02 3.794907e-01
v -5.690519e-01 7.243103e-02 3.867102e-01
v -5.678527e-01 7.337642e-02 3.938928e-01
v -5.672617e-01 7.501038e-02 4.015195e-01
v -5.655114e-01 7.528833e-02 4.081477e-01
v -5.637739e-01 7.557093e-02 4.147512e-01
v -5.632462e-01 7.722838e-02 4.222554e-01
v -5.621421e-01 7.820904e-02 4.292541e-01
v -5.610569e-01 7.919665e-02 4.362160e-01
v -5.599909e-01 8.019136e-02 4.431410e-01
v -5.583326e-01 8.050335e-02 4.495913e-01
v -5.579158e-01 8.220192e-02 4.568808e-01
v -5.575243e-01 8.390988e-02 4.641213e-01
v -5.571583e-01 8.562725e-02 4.713127e-01
v -5.561936e-01 8.665959e-02 4.780416e-01
v -5.546209e-01 8.700324e-02 4.843263e-01
v -5.530608e-01 8.735162e-02 4.905864e-01
v -5.502466e-01 8.630867e-02 4.960319e-01
v -5.480689e-01 8.596499e-02 5.018663e-01
v -5.452577e-01 8.492321e-02 5.073056e-01
v -5.411607e-01 8.247842e-02 5.119915e-01
v -5.389893e-01 8.213700e-02 5.178136e-01
v -5.361750e-01 8.109406e-02 5.232591e-01
v -5.327082e-01 7.934613e-02 5.283462e-01
v -5.285795e-01 7.688955e-02 5.330934e-01
v -5.231205e-01 7.301352e-02 5.371730e-01
v -6.347615e-01 9.283641e-02 2.767205e-01
v -6.313048e-01 9.108489e-02 2.817962e-01
v -6.273198e-01 8.866715e-02 2.862813e-01
v -6.238472e-01 8.690976e-02 2.913876e-01
v -6.198401e-01 8.448377e-02 2.959157e-01
v -6.158202e-01 8.205305e-02 3.004683e-01
v -6.123223e-01 8.028629e-02 3.056236e-01
v -6.088180e-01 7.851716e-02 3.107913e-01
v -6.058484e-01 7.741673e-02 3.165372e-01
v -6.034230e-01 7.698839e-02 3.228430e-01
v -6.015512e-01 7.723581e-02 3.296903e-01
v -5.996921e-01 7.748785e-02 3.365130e-01
v -5.967384e-01 7.639327e-02 3.422282e-01
v -5.932278e-01 7.462183e-02 3.474082e-01
v -5.902709e-01 7.352606e-02 3.531296e-01
v -5.873140e-01 7.243028e-02 3.588510e-01
v -5.854897e-01 7.269526e-02 3.656062e-01
v -5.836781e-01 7.296497e-02 3.723370e-01
v -5.813065e-01 7.255659e-02 3.785384e-01
v -5.795172e-01 7.283454e-02 3.852263e-01
v -5.783195e-01 7.380223e-02 3.923821e-01
v -5.765587e-01 7.409072e-02 3.990146e-01
v -5.748105e-01 7.438388e-02 4.056228e-01
v -5.730750e-01 7.468178e-02 4.122063e-01
v -5.719438e-01 7.567412e-02 4.192333e-01
v -5.702369e-01 7.598255e-02 4.257616e-01
v -5.697387e-01 7.767999e-02 4.331768e-01
v -5.692658e-01 7.938680e-02 4.405428e-01
v -5.676095e-01 7.971401e-02 4.469731e-01
v -5.665734e-01 8.074164e-02 4.538160e-01
v -5.661671e-01 8.247309e-02 4.610532e-01
v -5.657861e-01 8.421397e-02 4.682415e-01
v -5.641964e-01 8.456589e-02 4.745430e-01
v -5.626194e-01 8.492252e-02 4.808200e-01
v -5.616784e-01 8.598531e-02 4.874789e-01
v -5.595033e-01 8.564983e-02 4.933003e-01
v -5.579643e-01 8.602050e-02 4.995036e-01
v -5.564380e-01 8.639585e-02 5.056825e-01
v -5.530161e-01 8.465730e-02 5.106907e-01
v -5.489488e-01 8.220901e-02 5.153353e-01
v -5.455111e-01 8.046457e-02 5.203742e-01
v -5.414214e-01 7.800796e-02 5.250616e-01
v -5.379679e-01 7.625766e-02 5.301312e-01
v -5.351599e-01 7.521710e-02 5.355644e-01
v -6.347636e-01 8.563465e-02 2.825399e-01
v -6.318225e-01 8.454476e-02 2.882306e-01
v -6.288815e-01 8.345485e-02 2.939213e-01
v -6.254159e-01 8.169284e-02 2.990223e-01
v -6.214161e-01 7.925504e-02 3.035520e-01
v -6.174037e-01 7.681260e-02 3.081062e-01
v -6.144468e-01 7.571681e-02 3.138276e-01
v -6.120271e-01 7.529788e-02 3.201141e-01
v -6.096138e-01 7.488133e-02 3.263885e-01
v -6.077504e-01 7.514637e-02 3.332035e-01
v -6.058997e-01 7.541603e-02 3.399939e-01
v -6.029618e-01 7.432731e-02 3.456786e-01
v -6.005770e-01 7.392132e-02 3.518977e-01
v -5.981986e-01 7.351767e-02 3.581046e-01
v -5.958264e-01 7.311639e-02 3.642992e-01
v -5.928980e-01 7.203122e-02 3.699654e-01
v -5.905354e-01 7.163343e-02 3.761416e-01
v -5.893170e-01 7.261524e-02 3.833133e-01
v -5.881177e-01 7.360401e-02 3.904481e-01
v -5.863620e-01 7.390900e-02 3.970547e-01
v -5.840406e-01 7.352645e-02 4.031512e-01
v -5.823071e-01 7.383963e-02 4.097148e-01
v -5.805864e-01 7.415747e-02 4.162537e-01
v -5.788783e-01 7.447997e-02 4.227683e-01
v -5.771829e-01 7.480730e-02 4.292583e-01
v -5.766888e-01 7.653520e-02 4.366334e-01
v -5.768174e-01 7.897180e-02 4.444082e-01
v -5.757766e-01 8.001929e-02 4.512365e-01
v -5.741509e-01 8.037241e-02 4.575915e-01
v -5.737518e-01 8.213556e-02 4.647826e-01
v -5.727679e-01 8.320422e-02 4.715005e-01
v -5.711898e-01 8.357498e-02 4.777637e-01
v -5.696243e-01 8.395035e-02 4.840022e-01
v -5.680715e-01 8.433046e-02 4.902162e-01
v -5.665314e-01 8.471522e-02 4.964057e-01
v -5.656300e-01 8.581453e-02 5.029642e-01
v -5.634892e-01 8.549895e-02 5.087112e-01
v -5.607224e-01 8.447364e-02 5.140647e-01
v -5.566846e-01 8.202177e-02 5.186679e-01
v -5.519956e-01 7.885080e-02 5.229267e-01
v -5.460037e-01 7.424151e-02 5.264966e-01
v -6.387338e-01 8.085891e-02 2.838909e-01
v -6.357959e-01 7.977017e-02 2.895756e-01
v -6.328580e-01 7.868146e-02 2.952602e-01
v -6.293992e-01 7.691467e-02 3.003558e-01
v -6.259342e-01 7.514559e-02 3.054638e-01
v -6.229899e-01 7.405454e-02 3.111606e-01
v -6.200457e-01 7.296345e-02 3.168575e-01
v -6.181685e-01 7.323783e-02 3.236831e-01
v -6.157673e-01 7.283300e-02 3.299260e-01
v -6.133724e-01 7.243053e-02 3.361566e-01
v -6.115269e-01 7.271669e-02 3.429209e-01
v -6.096942e-01 7.300751e-02 3.496607e-01
v -6.073247e-01 7.261448e-02 3.558423e-01
v -6.049615e-01 7.222377e-02 3.620115e-01
v -6.026046e-01 7.183534e-02 3.681686e-01
v -6.008130e-01 7.214147e-02 3.748286e-01
v -5.984720e-01 7.175900e-02 3.809550e-01
v -5.967026e-01 7.207330e-02 3.875721e-01
v -5.955143e-01 7.308798e-02 3.946617e-01
v -5.943449e-01 7.410966e-02 4.017145e-01
v -5.926198e-01 7.444043e-02 4.082458e-01
v -5.903295e-01 7.407676e-02 4.142741e-01
v -5.880456e-01 7.371535e-02 4.202900e-01
v -5.863523e-01 7.405792e-02 4.267600e-01
v -5.858464e-01 7.581054e-02 4.341258e-01
v -5.841847e-01 7.616479e-02 4.405344e-01
v -5.837232e-01 7.793384e-02 4.478143e-01
v -5.826902e-01 7.900603e-02 4.546034e-01
v -5.816760e-01 8.008531e-02 4.613557e-01
v -5.806811e-01 8.117169e-02 4.680713e-01
v -5.797051e-01 8.226500e-02 4.747500e-01
v -5.781384e-01 8.265451e-02 4.809747e-01
v -5.771973e-01 8.376085e-02 4.875860e-01
v -5.756592e-01 8.416086e-02 4.937554e-01
v -5.741338e-01 8.456563e-02 4.999004e-01
v -5.726211e-01 8.497511e-02 5.060209e-01
v -5.711211e-01 8.538923e-02 5.121168e-01
v -5.683765e-01 8.437215e-02 5.174273e-01
v -6.397618e-01 7.500734e-02 2.909189e-01
v -6.368270e-01 7.391978e-02 2.965973e-01
v -6.338924e-01 7.283224e-02 3.022758e-01
v -6.304373e-01 7.105962e-02 3.073723e-01
v -6.280229e-01 7.065715e-02 3.136327e-01
v -6.256148e-01 7.025700e-02 3.198809e-01
v -6.232130e-01 6.985926e-02 3.261169e-01
v -6.213506e-01 7.015363e-02 3.328980e-01
v -6.195008e-01 7.045272e-02 3.396546e-01
v -6.176637e-01 7.075643e-02 3.463866e-01
v -6.158393e-01 7.106489e-02 3.530942e-01
v -6.134819e-01 7.068360e-02 3.592443e-01
v -6.111308e-01 7.030456e-02 3.653821e-01
v -6.093381e-01 7.062480e-02 3.720284e-01
v -6.070029e-01 7.025167e-02 3.781354e-01
v -6.052323e-01 7.058009e-02 3.847387e-01
v -6.034745e-01 7.091322e-02 3.913175e-01
v -6.017293e-01 7.125103e-02 3.978717e-01
v -6.005646e-01 7.229623e-02 4.048915e-01
v -5.994189e-01 7.334851e-02 4.118744e-01
v -5.977181e-01 7.370282e-02 4.183428e-01
v -5.954527e-01 7.335556e-02 4.243150e-01
v -5.937740e-01 7.371801e-02 4.307405e-01
v -5.921081e-01 7.408520e-02 4.371415e-01
v -5.904548e-01 7.445706e-02 4.435178e-01
v -5.894042e-01 7.554460e-02 4.503168e-01
v -5.889658e-01 7.735123e-02 4.575199e-01
v -5.879564e-01 7.845395e-02 4.642391e-01
v -5.881651e-01 8.099268e-02 4.717789e-01
v -5.872001e-01 8.211190e-02 4.784123e-01
v -5.862541e-01 8.323816e-02 4.850090e-01
v -5.853271e-01 8.437143e-02 4.915688e-01
v -5.831948e-01 8.407351e-02 4.972834e-01
v -5.810688e-01 8.377795e-02 5.029859e-01
v -5.795676e-01 8.420614e-02 5.090679e-01
v -5.774573e-01 8.391647e-02 5.147396e-01
v -6.432132e-01 6.956877e-02 2.916610e-01
v -6.402784e-01 6.848123e-02 2.973394e-01
v -6.378572e-01 6.808344e-02 3.036053e-01
v -6.354422e-01 6.768806e-02 3.098589e-01
v -6.335532e-01 6.798712e-02 3.166751e-01
v -6.311541e-01 6.759759e-02 3.228980e-01
v -6.282352e-01 6.651590e-02 3.285458e-01
v -6.263748e-01 6.682553e-02 3.353069e-01
v -6.250595e-01 6.783666e-02 3.425940e-01
v -6.232276e-01 6.815686e-02 3.493000e-01
v -6.214084e-01 6.848178e-02 3.559814e-01
v -6.190600e-01 6.811104e-02 3.621061e-01
v -6.167179e-01 6.774262e-02 3.682186e-01
v -6.149303e-01 6.807922e-02 3.748387e-01
v -6.131555e-01 6.842063e-02 3.814343e-01
v -6.119480e-01 6.947168e-02 3.885129e-01
v -6.107594e-01 7.052987e-02 3.955548e-01
v -6.090290e-01 7.088764e-02 4.020645e-01
v -6.073113e-01 7.125011e-02 4.085497e-01
v -6.056061e-01 7.161727e-02 4.150103e-01
v -6.033432e-01 7.127826e-02 4.209695e-01
v -6.010867e-01 7.094158e-02 4.269164e-01
v -5.988365e-01 7.060720e-02 4.328510e-01
v -5.965926e-01 7.027521e-02 4.387734e-01
v -5.961044e-01 7.209242e-02 4.460407e-01
v -5.956417e-01 7.391905e-02 4.532591e-01
v -5.952043e-01 7.575506e-02 4.604283e-01
v -5.953848e-01 7.831965e-02 4.679825e-01
v -5.961928e-01 8.161620e-02 4.759033e-01
v -5.958409e-01 8.348393e-02 4.829070e-01
v -5.943101e-01 8.391572e-02 4.890304e-01
v -5.921867e-01 8.362839e-02 4.947198e-01
v -5.900697e-01 8.334336e-02 5.003968e-01
v -5.873473e-01 8.233447e-02 5.056644e-01
v -6.437299e-01 6.304272e-02 2.980816e-01
v -6.423241e-01 6.404210e-02 3.055197e-01
v -6.404246e-01 6.435175e-02 3.123406e-01
v -6.380217e-01 6.396812e-02 3.185626e-01
v -6.356252e-01 6.358679e-02 3.247724e-01
v -6.327127e-01 6.250748e-02 3.304079e-01
v -6.313767e-01 6.353269e-02 3.377110e-01
v -6.300596e-01 6.456499e-02 3.449773e-01
v -6.287617e-01 6.560437e-02 3.522069e-01
v -6.269477e-01 6.594571e-02 3.588622e-01
v -6.246083e-01 6.558552e-02 3.649615e-01
v -6.222751e-01 6.522771e-02 3.710487e-01
v -6.210373e-01 6.628932e-02 3.781617e-01
v -6.192709e-01 6.664833e-02 3.847251e-01
v -6.186189e-01 6.843384e-02 3.922775e-01
v -6.174382e-01 6.951661e-02 3.992801e-01
v -6.157193e-01 6.989324e-02 4.057514e-01
v -6.140130e-01 7.027447e-02 4.121982e-01
v -6.117560e-01 6.994484e-02 4.181382e-01
v -6.089385e-01 6.890074e-02 4.235898e-01
v -6.066909e-01 6.857461e-02 4.295112e-01
v -6.038766e-01 6.753166e-02 4.349567e-01
v -6.022147e-01 6.792937e-02 4.413177e-01
v -6.011450e-01 6.905335e-02 4.481057e-01
v -6.012593e-01 7.162962e-02 4.557479e-01
v -6.014054e-01 7.421770e-02 4.633288e-01
v -6.027609e-01 7.826748e-02 4.717148e-01
v -6.035688e-01 8.160758e-02 4.795878e-01
v -6.026290e-01 8.277963e-02 4.861243e-01
v -6.011098e-01 8.323022e-02 4.922094e-01
v -5.984000e-01 8.222604e-02 4.974524e-01
v -5.962950e-01 8.195274e-02 5.030980e-01
v -5.917647e-01 7.875356e-02 5.071457e-01
v -6.462703e-01 5.932276e-02 3.068451e-01
v -6.438573e-01 5.894264e-02 3.130787e-01
v -6.424753e-01 5.997259e-02 3.204468e-01
v -6.400813e-01 5.959948e-02 3.266435e-01
v -6.376938e-01 5.922871e-02 3.328279e-01
v -6.363561e-01 6.027511e-02 3.401103e-01
v -6.355623e-01 6.203711e-02 3.479048e-01
v -6.342660e-01 6.309882e-02 3.551074e-01
v -6.324572e-01 6.345662e-02 3.617366e-01
v -6.301266e-01 6.310697e-02 3.678106e-01
v -6.283401e-01 6.347304e-02 3.743969e-01
v -6.265661e-01 6.384366e-02 3.809585e-01
v -6.248050e-01 6.421916e-02 3.874957e-01
v -6.236036e-01 6.531601e-02 3.945144e-01
v -6.224212e-01 6.641994e-02 4.014961e-01
v -6.212579e-01 6.753095e-02 4.084412e-01
v -6.201135e-01 6.864897e-02 4.153495e-01
v -6.178686e-01 6.833109e-02 4.212580e-01
v -6.156299e-01 6.801555e-02 4.271543e-01
v -6.128315e-01 6.697853e-02 4.325690e-01
v -6.094637e-01 6.521644e-02 4.375208e-01
v -6.078071e-01 6.563061e-02 4.438556e-01
v -6.061631e-01 6.604946e-02 4.501658e-01
v -6.068472e-01 6.938724e-02 4.582303e-01
v -6.081512e-01 7.346872e-02 4.666597e-01
v -6.097159e-01 8.021699e-02 4.824084e-01
v -6.081892e-01 8.067927e-02 4.884918e-01
v -6.027825e-01 7.867566e-02 4.989534e-01
v -6.000791e-01 7.767383e-02 5.041842e-01
v -6.502090e-01 5.461514e-02 3.081690e-01
v -6.477955e-01 5.424207e-02 3.143956e-01
v -6.464054e-01 5.529078e-02 3.217552e-01
v -6.450343e-01 5.634659e-02 3.290781e-01
v -6.431675e-01 5.669732e-02 3.358037e-01
v -6.418312e-01 5.776605e-02 3.430591e-01
v -6.415565e-01 6.027071e-02 3.513740e-01
v -6.402648e-01 6.135591e-02 3.585435e-01
v -6.384644e-01 6.173125e-02 3.651404e-01
v -6.356153e-01 6.067543e-02 3.706532e-01
v -6.338339e-01 6.105793e-02 3.772134e-01
v -6.320652e-01 6.144502e-02 3.837490e-01
v -6.303093e-01 6.183691e-02 3.902599e-01
v -6.285659e-01 6.223344e-02 3.967464e-01
v -6.279285e-01 6.408240e-02 4.042066e-01
v -6.273164e-01 6.594077e-02 4.116177e-01
v -6.261767e-01 6.708225e-02 4.184928e-01
v -6.239439e-01 6.677606e-02 4.243698e-01
v -6.211581e-01 6.574369e-02 4.297601e-01
v -6.178099e-01 6.398166e-02 4.346819e-01
v -6.144553e-01 6.221724e-02 4.396161e-01
v -6.128007e-01 6.264662e-02 4.459309e-01
v -6.117308e-01 6.381404e-02 4.526711e-01
v -6.124051e-01 6.719173e-02 4.607063e-01
v -6.073348e-01 6.322761e-02 4.642904e-01
v -6.503281e-01 5.062074e-02 3.230620e-01
v -6.494570e-01 5.241214e-02 3.309420e-01
v -6.491225e-01 5.493087e-02 3.393325e-01
v -6.483053e-01 5.674226e-02 3.471083e-01
v -6.475134e-01 5.856297e-02 3.548351e-01
v -6.462264e-01 5.967167e-02 3.619716e-01
v -6.439105e-01 5.934206e-02 3.680011e-01
v -6.410740e-01 5.829090e-02 3.734894e-01
v -6.392979e-01 5.868981e-02 3.800234e-01
v -6.370012e-01 5.836718e-02 3.860162e-01
v -6.352472e-01 5.877432e-02 3.925072e-01
v -6.345853e-01 6.064318e-02 3.999825e-01
v -6.339488e-01 6.252154e-02 4.074088e-01
v -6.333376e-01 6.440923e-02 4.147860e-01
v -6.316533e-01 6.484215e-02 4.211421e-01
v -6.294295e-01 6.454659e-02 4.269938e-01
v -6.266564e-01 6.351894e-02 4.323595e-01
v -6.227659e-01 6.102008e-02 4.367900e-01
v -6.199864e-01 5.999006e-02 4.421680e-01
v -6.177720e-01 5.969801e-02 4.480014e-01
v -6.167005e-01 6.088658e-02 4.547208e-01
v -6.167906e-01 6.356270e-02 4.622897e-01
v -6.180615e-01 6.773350e-02 4.706711e-01
v -6.547443e-01 4.668395e-02 3.249382e-01
v -6.543690e-01 4.922389e-02 3.333677e-01
v -6.550402e-01 5.322321e-02 3.428534e-01
v -6.547346e-01 5.578900e-02 3.511481e-01
v -6.534331e-01 5.691403e-02 3.582883e-01
v -6.521506e-01 5.804617e-02 3.653916e-01
v -6.498469e-01 5.772831e-02 3.713897e-01
v -6.470263e-01 5.668302e-02 3.768474e-01
v -6.442057e-01 5.563776e-02 3.823051e-01
v -6.419146e-01 5.532455e-02 3.882787e-01
v -6.406955e-01 5.648017e-02 3.952594e-01
v -6.400315e-01 5.837733e-02 4.027071e-01
v -6.399318e-01 6.101939e-02 4.106030e-01
v -6.398639e-01 6.367323e-02 4.184377e-01
v -6.381912e-01 6.412495e-02 4.247554e-01
v -6.354340e-01 6.310316e-02 4.300905e-01
v -6.321249e-01 6.134109e-02 4.349526e-01
v -6.282546e-01 5.883522e-02 4.393601e-01
v -6.254878e-01 5.780992e-02 4.447136e-01
v -6.232823e-01 5.752843e-02 4.505216e-01
v -6.210832e-01 5.724928e-02 4.563173e-01
v -6.601054e-01 5.344436e-02 3.540743e-01
v -6.593155e-01 5.532382e-02 3.617333e-01
v -6.580376e-01 5.647949e-02 3.688037e-01
v -6.562625e-01 5.690775e-02 3.753038e-01
v -6.529413e-01 5.513391e-02 3.801973e-01
v -6.496138e-01 5.335773e-02 3.851031e-01
v -6.478576e-01 5.379307e-02 3.915665e-01
v -6.461142e-01 5.423308e-02 3.980052e-01
v -6.454478e-01 5.615836e-02 4.054251e-01
v -6.458776e-01 5.957597e-02 4.137892e-01
v -6.463454e-01 6.300766e-02 4.220797e-01
v -6.446844e-01 6.347826e-02 4.283591e-01
v -6.419461e-01 6.246349e-02 4.336573e-01
v -6.381117e-01 5.995642e-02 4.380113e-01
v -6.342647e-01 5.744471e-02 4.423898e-01
v -6.304049e-01 5.492818e-02 4.467928e-01
v -6.276476e-01 5.390641e-02 4.521280e-01
v -6.260120e-01 5.438637e-02 4.583582e-01
v -6.628684e-01 5.349327e-02 3.711301e-01
v -6.610953e-01 5.393672e-02 3.776102e-01
v -6.583031e-01 5.290204e-02 3.830127e-01
v -6.512544e-01 5.744399e-02 4.164715e-01
v -6.511777e-01 6.016706e-02 4.242429e-01
v -6.489547e-01 6.264512e-02 4.376920e-01
v -6.451500e-01 6.013455e-02 4.420047e-01
v -6.402374e-01 5.611283e-02 4.454115e-01
v -6.358503e-01 5.283610e-02 4.493264e-01
v -6.314441e-01 4.955236e-02 4.532782e-01
v -6.298041e-01 5.004521e-02 4.595006e-01
