v -4.395955e-01 1.838199e-01 2.090027e-01
v -4.304023e-01 1.830975e-01 2.090027e-01
v -4.215778e-01 1.819265e-01 2.070594e-01
v -4.127254e-01 1.807533e-01 2.051160e-01
v -3.931385e-01 1.808859e-01 2.119177e-01
v -3.732985e-01 1.817149e-01 2.216342e-01
v -3.634832e-01 1.821376e-01 2.264925e-01
v -4.404910e-01 1.747255e-01 2.104772e-01
v -4.303310e-01 1.751550e-01 2.153262e-01
v -4.206108e-01 1.751279e-01 2.182356e-01
v -4.118222e-01 1.739462e-01 2.162961e-01
v -4.023219e-01 1.736909e-01 2.182356e-01
v -3.923573e-01 1.741357e-01 2.230845e-01
v -3.826197e-01 1.743528e-01 2.269637e-01
v -3.730878e-01 1.743406e-01 2.298731e-01
v -3.637409e-01 1.740973e-01 2.318128e-01
v -3.537416e-01 1.750306e-01 2.386014e-01
v -3.193778e-01 1.880468e-01 3.006684e-01
v -3.098531e-01 1.895085e-01 3.093965e-01
v -3.009601e-01 1.897920e-01 3.132758e-01
v -4.503883e-01 1.665773e-01 2.129234e-01
v -4.401908e-01 1.670377e-01 2.177631e-01
v -4.296782e-01 1.679780e-01 2.245387e-01
v -4.196342e-01 1.684505e-01 2.293784e-01
v -4.109095e-01 1.672603e-01 2.274425e-01
v -4.012994e-01 1.672622e-01 2.303464e-01
v -3.910729e-01 1.682250e-01 2.371219e-01
v -3.811017e-01 1.689556e-01 2.429297e-01
v -3.715155e-01 1.692117e-01 2.468014e-01
v -3.618414e-01 1.697132e-01 2.516411e-01
v -3.518274e-01 1.709451e-01 2.593846e-01
v -3.382948e-01 1.789660e-01 2.942305e-01
v -3.285769e-01 1.804736e-01 3.029421e-01
v -3.187532e-01 1.824774e-01 3.135893e-01
v -3.099527e-01 1.825429e-01 3.164931e-01
v -3.016011e-01 1.816343e-01 3.155253e-01
v -5.395534e-01 1.592162e-01 1.950819e-01
v -5.315207e-01 1.572894e-01 1.902514e-01
v -5.115128e-01 1.570129e-01 1.950819e-01
v -5.048265e-01 1.536372e-01 1.844550e-01
v -4.965773e-01 1.516935e-01 1.796246e-01
v -4.882583e-01 1.497442e-01 1.747942e-01
v -4.776602e-01 1.502070e-01 1.796246e-01
v -4.617833e-01 1.567329e-01 2.086072e-01
v -4.502576e-01 1.586775e-01 2.192341e-01
v -4.394854e-01 1.599039e-01 2.269627e-01
v -4.286318e-01 1.613832e-01 2.356576e-01
v -4.188341e-01 1.616497e-01 2.395218e-01
v -4.096292e-01 1.611856e-01 2.404880e-01
v -3.997502e-01 1.617049e-01 2.453184e-01
v -3.896107e-01 1.627219e-01 2.520809e-01
v -3.792528e-01 1.642401e-01 2.607758e-01
v -3.690205e-01 1.657681e-01 2.694704e-01
v -3.584814e-01 1.680494e-01 2.810636e-01
v -3.464641e-01 1.733238e-01 3.042495e-01
v -3.356929e-01 1.768824e-01 3.206729e-01
v -3.272536e-01 1.762192e-01 3.206729e-01
v -3.182331e-01 1.768060e-01 3.255034e-01
v -3.093916e-01 1.771478e-01 3.293678e-01
v -3.014241e-01 1.754852e-01 3.255034e-01
v -5.391804e-01 1.511823e-01 2.014241e-01
v -5.306514e-01 1.497145e-01 1.985314e-01
v -5.213115e-01 1.489806e-01 1.985314e-01
v -5.117222e-01 1.484930e-01 1.994956e-01
v -5.021470e-01 1.480064e-01 2.004598e-01
v -4.923502e-01 1.477684e-01 2.023882e-01
v -4.837236e-01 1.462929e-01 1.994956e-01
v -4.737263e-01 1.463050e-01 2.023882e-01
v -4.614116e-01 1.490598e-01 2.158875e-01
v -4.495001e-01 1.515803e-01 2.284225e-01
v -4.379705e-01 1.538650e-01 2.399932e-01
v -4.269954e-01 1.556615e-01 2.496354e-01
v -4.170927e-01 1.562128e-01 2.544566e-01
v -4.076190e-01 1.562660e-01 2.573493e-01
v -3.976694e-01 1.570796e-01 2.631348e-01
v -3.874723e-01 1.584054e-01 2.708486e-01
v -3.770697e-01 1.602469e-01 2.804909e-01
v -3.665033e-01 1.626072e-01 2.920617e-01
v -3.552365e-01 1.665079e-01 3.094178e-01
v -3.443587e-01 1.701732e-01 3.258096e-01
v -3.347639e-01 1.718123e-01 3.344877e-01
v -3.262846e-01 1.714119e-01 3.354518e-01
v -3.174689e-01 1.717827e-01 3.393089e-01
v -3.087090e-01 1.721579e-01 3.431657e-01
v -3.008274e-01 1.704751e-01 3.393089e-01
v -5.568154e-01 1.451629e-01 2.096760e-01
v -5.469828e-01 1.449356e-01 2.116009e-01
v -5.377196e-01 1.442077e-01 2.116009e-01
v -5.287205e-01 1.432279e-01 2.106384e-01
v -5.191934e-01 1.427520e-01 2.116009e-01
v -5.091806e-01 1.427832e-01 2.144879e-01
v -4.992098e-01 1.428177e-01 2.173750e-01
v -4.904604e-01 1.415848e-01 2.154502e-01
v -4.819121e-01 1.400952e-01 2.125631e-01
v -4.715461e-01 1.406439e-01 2.173750e-01
v -4.599598e-01 1.427328e-01 2.279611e-01
v -4.483192e-01 1.450900e-01 2.395096e-01
v -4.370470e-01 1.472036e-01 2.500958e-01
v -4.263166e-01 1.488143e-01 2.587570e-01
v -4.158989e-01 1.501770e-01 2.664560e-01
v -4.059530e-01 1.510314e-01 2.722304e-01
v -3.959180e-01 1.521515e-01 2.789669e-01
v -3.858143e-01 1.535389e-01 2.866659e-01
v -3.753450e-01 1.557155e-01 2.972521e-01
v -3.645727e-01 1.586862e-01 3.107252e-01
v -3.537054e-01 1.621949e-01 3.261232e-01
v -3.433380e-01 1.651975e-01 3.395965e-01
v -3.334284e-01 1.676907e-01 3.511450e-01
v -3.241835e-01 1.691456e-01 3.588440e-01
v -3.156365e-01 1.692920e-01 3.617311e-01
v -3.079035e-01 1.675937e-01 3.578815e-01
v -5.578037e-01 1.359607e-01 2.111823e-01
v -5.468495e-01 1.367765e-01 2.169452e-01
v -5.367933e-01 1.368246e-01 2.198268e-01
v -5.273076e-01 1.363587e-01 2.207874e-01
v -5.170637e-01 1.366715e-01 2.246294e-01
v -5.066252e-01 1.372484e-01 2.294320e-01
v -4.972304e-01 1.367896e-01 2.303925e-01
v -4.887954e-01 1.352885e-01 2.275109e-01
v -4.796301e-01 1.345683e-01 2.275109e-01
v -4.689071e-01 1.356818e-01 2.342346e-01
v -4.576352e-01 1.375904e-01 2.438398e-01
v -4.465030e-01 1.395100e-01 2.534450e-01
v -4.357120e-01 1.411769e-01 2.620895e-01
v -4.252412e-01 1.425897e-01 2.697738e-01
v -4.148821e-01 1.440111e-01 2.774579e-01
v -4.046346e-01 1.454414e-01 2.851421e-01
v -3.943253e-01 1.471461e-01 2.937866e-01
v -3.841416e-01 1.488609e-01 3.024314e-01
v -3.732851e-01 1.519198e-01 3.158785e-01
v -3.624713e-01 1.552616e-01 3.302863e-01
v -3.518669e-01 1.586198e-01 3.446940e-01
v -3.417495e-01 1.614574e-01 3.571808e-01
v -3.315500e-01 1.648474e-01 3.715885e-01
v -3.220591e-01 1.671754e-01 3.821542e-01
v -3.130752e-01 1.687049e-01 3.898385e-01
v -5.587930e-01 1.267450e-01 2.126920e-01
v -5.467131e-01 1.286578e-01 2.222786e-01
v -5.355885e-01 1.297871e-01 2.289893e-01
v -5.256214e-01 1.298625e-01 2.318652e-01
v -5.149224e-01 1.307391e-01 2.376172e-01
v -5.053109e-01 1.305562e-01 2.395345e-01
v -4.959714e-01 1.301086e-01 2.404933e-01
v -4.859348e-01 1.304647e-01 2.443278e-01
v -4.759540e-01 1.308253e-01 2.481626e-01
v -4.655831e-01 1.317276e-01 2.539144e-01
v -4.550797e-01 1.329057e-01 2.606252e-01
v -4.444651e-01 1.343613e-01 2.682944e-01
v -4.341642e-01 1.355553e-01 2.750051e-01
v -4.239612e-01 1.367570e-01 2.817156e-01
v -4.138558e-01 1.379664e-01 2.884262e-01
v -4.033047e-01 1.399993e-01 2.980128e-01
v -3.930673e-01 1.417708e-01 3.066409e-01
v -3.826212e-01 1.440982e-01 3.171862e-01
v -3.710470e-01 1.486266e-01 3.354006e-01
v -3.600445e-01 1.526275e-01 3.516979e-01
v -3.494255e-01 1.563724e-01 3.670364e-01
v -3.397264e-01 1.587585e-01 3.775818e-01
v -3.305776e-01 1.603292e-01 3.852511e-01
v -3.217912e-01 1.613560e-01 3.910030e-01
v -3.130885e-01 1.623895e-01 3.967550e-01
v -5.586377e-01 1.185976e-01 2.180328e-01
v -5.457353e-01 1.213925e-01 2.304714e-01
v -5.341041e-01 1.231154e-01 2.390825e-01
v -5.241912e-01 1.232154e-01 2.419529e-01
v -5.143202e-01 1.233187e-01 2.448233e-01
v -5.047426e-01 1.231520e-01 2.467369e-01
v -4.947039e-01 1.235352e-01 2.505643e-01
v -4.844835e-01 1.241970e-01 2.553483e-01
v -4.745635e-01 1.245893e-01 2.591754e-01
v -4.642522e-01 1.255370e-01 2.649163e-01
v -4.538080e-01 1.267671e-01 2.716139e-01
v -4.432519e-01 1.282815e-01 2.792684e-01
v -4.328076e-01 1.298046e-01 2.869229e-01
v -4.228663e-01 1.307813e-01 2.926637e-01
v -4.128199e-01 1.320428e-01 2.993613e-01
v -4.026897e-01 1.335906e-01 3.070158e-01
v -3.919724e-01 1.362641e-01 3.184974e-01
v -3.799130e-01 1.414691e-01 3.385903e-01
v -3.678254e-01 1.472577e-01 3.605969e-01
v -3.577502e-01 1.499817e-01 3.720785e-01
v -3.476957e-01 1.530004e-01 3.845170e-01
v -3.383821e-01 1.549053e-01 3.931281e-01
v -3.298581e-01 1.554075e-01 3.969555e-01
v -3.215159e-01 1.556309e-01 3.998259e-01
v -3.129778e-01 1.564249e-01 4.046099e-01
v -5.561840e-01 1.127084e-01 2.310021e-01
v -5.436314e-01 1.153191e-01 2.424614e-01
v -5.328841e-01 1.162731e-01 2.481912e-01
v -5.238164e-01 1.155606e-01 2.481912e-01
v -5.142308e-01 1.154069e-01 2.501011e-01
v -5.039169e-01 1.160952e-01 2.548758e-01
v -4.934280e-01 1.170695e-01 2.606055e-01
v -4.832607e-01 1.177693e-01 2.653803e-01
v -4.736256e-01 1.179114e-01 2.682450e-01
v -4.635840e-01 1.186212e-01 2.730199e-01
v -4.531780e-01 1.199017e-01 2.797045e-01
v -4.426596e-01 1.214732e-01 2.873441e-01
v -4.320498e-01 1.233372e-01 2.959385e-01
v -4.215656e-01 1.252112e-01 3.045332e-01
v -4.117746e-01 1.262403e-01 3.102628e-01
v -4.017029e-01 1.278469e-01 3.179024e-01
v -3.898155e-01 1.326081e-01 3.360465e-01
v -3.761741e-01 1.408284e-01 3.656499e-01
v -3.653848e-01 1.447765e-01 3.809290e-01
v -3.562073e-01 1.461537e-01 3.876138e-01
v -3.466856e-01 1.484030e-01 3.971633e-01
v -3.378650e-01 1.495083e-01 4.028928e-01
v -3.295281e-01 1.497525e-01 4.057577e-01
v -3.213595e-01 1.497101e-01 4.076676e-01
v -3.127413e-01 1.508315e-01 4.133974e-01
v -3.044316e-01 1.513775e-01 4.172171e-01
v -5.648961e-01 1.056999e-01 2.372588e-01
v -5.534311e-01 1.072512e-01 2.448835e-01
v -5.415169e-01 1.093802e-01 2.544144e-01
v -5.319301e-01 1.092400e-01 2.563206e-01
v -5.226379e-01 1.088164e-01 2.572738e-01
v -5.125810e-01 1.092522e-01 2.610861e-01
v -5.020748e-01 1.102657e-01 2.668046e-01
v -4.911613e-01 1.118604e-01 2.744295e-01
v -4.817910e-01 1.117371e-01 2.763356e-01
v -4.726802e-01 1.113278e-01 2.772888e-01
v -4.626848e-01 1.120750e-01 2.820542e-01
v -4.523240e-01 1.134065e-01 2.887258e-01
v -4.418503e-01 1.150357e-01 2.963506e-01
v -4.310808e-01 1.172547e-01 3.058816e-01
v -4.198610e-01 1.203578e-01 3.182718e-01
v -3.725765e-01 1.402445e-01 3.916600e-01
v -3.635712e-01 1.413759e-01 3.973784e-01
v -3.546496e-01 1.425141e-01 4.030971e-01
v -3.461074e-01 1.430689e-01 4.069093e-01
v -3.376212e-01 1.436282e-01 4.107218e-01
v -3.293246e-01 1.438958e-01 4.135811e-01
v -3.211968e-01 1.438702e-01 4.154873e-01
v -3.129770e-01 1.441439e-01 4.183466e-01
v -3.050250e-01 1.438255e-01 4.192995e-01
v -5.826856e-01 9.945887e-02 2.435008e-01
v -5.614610e-01 1.009240e-01 2.530131e-01
v -5.500895e-01 1.025369e-01 2.606230e-01
v -5.388298e-01 1.041584e-01 2.682328e-01
v -5.298738e-01 1.034547e-01 2.682328e-01
v -5.201168e-01 1.036279e-01 2.710865e-01
v -5.098815e-01 1.043901e-01 2.758427e-01
v -4.999690e-01 1.048644e-01 2.796478e-01
v -4.898663e-01 1.056370e-01 2.844040e-01
v -4.803116e-01 1.058261e-01 2.872577e-01
v -4.710311e-01 1.057235e-01 2.891601e-01
v -4.613281e-01 1.062142e-01 2.929650e-01
v -4.510263e-01 1.075978e-01 2.996238e-01
v -4.404000e-01 1.095825e-01 3.081849e-01
v -4.290824e-01 1.127660e-01 3.205510e-01
v -3.762837e-01 1.415130e-01 4.204309e-01
v -3.701377e-01 1.378971e-01 4.109185e-01
v -3.619041e-01 1.378768e-01 4.128210e-01
v -3.538538e-01 1.375575e-01 4.137722e-01
v -3.456691e-01 1.375409e-01 4.156747e-01
v -3.373710e-01 1.378288e-01 4.185284e-01
v -3.289803e-01 1.384226e-01 4.223333e-01
v -3.210278e-01 1.381111e-01 4.232846e-01
v -3.129687e-01 1.381044e-01 4.251871e-01
v -5.935674e-01 9.945058e-02 2.696648e-01
v -5.858703e-01 9.756547e-02 2.658672e-01
v -5.756416e-01 9.804203e-02 2.696648e-01
v -5.642590e-01 9.970813e-02 2.772599e-01
v -5.565338e-01 9.782081e-02 2.734622e-01
v -5.470217e-01 9.771352e-02 2.753610e-01
v -5.364116e-01 9.880020e-02 2.810573e-01
v -5.272578e-01 9.840103e-02 2.820068e-01
v -5.178505e-01 9.830197e-02 2.839055e-01
v -5.079499e-01 9.880423e-02 2.877029e-01
v -4.986123e-01 9.871068e-02 2.896018e-01
v -4.895494e-01 9.831858e-02 2.905511e-01
v -4.795418e-01 9.913254e-02 2.952980e-01
v -4.691387e-01 1.005556e-01 3.019438e-01
v -4.586076e-01 1.022886e-01 3.095387e-01
v -4.484069e-01 1.037275e-01 3.161845e-01
v -4.380922e-01 1.054775e-01 3.237794e-01
v -3.767008e-01 1.342605e-01 4.234644e-01
v -3.681893e-01 1.348720e-01 4.272621e-01
v -3.610366e-01 1.330296e-01 4.234644e-01
v -3.532044e-01 1.324142e-01 4.234644e-01
v -3.453723e-01 1.317988e-01 4.234644e-01
v -3.369726e-01 1.324191e-01 4.272621e-01
v -3.286286e-01 1.330436e-01 4.310595e-01
v -3.204685e-01 1.333627e-01 4.339077e-01
v -3.122293e-01 1.339955e-01 4.377053e-01
v -6.358317e-01 9.701739e-02 2.805756e-01
v -6.265798e-01 9.661729e-02 2.815232e-01
v -6.163071e-01 9.711740e-02 2.853132e-01
v -6.057524e-01 9.792223e-02 2.900508e-01
v -5.982458e-01 9.602508e-02 2.862608e-01
v -5.903593e-01 9.442483e-02 2.834181e-01
v -5.811632e-01 9.402911e-02 2.843658e-01
v -5.713610e-01 9.423939e-02 2.872083e-01
v -5.609948e-01 9.505904e-02 2.919460e-01
v -5.521784e-01 9.436628e-02 2.919460e-01
v -5.442291e-01 9.276113e-02 2.891034e-01
v -5.345458e-01 9.298076e-02 2.919460e-01
v -5.246291e-01 9.350885e-02 2.957360e-01
v -5.155726e-01 9.312409e-02 2.966836e-01
v -5.065300e-01 9.274035e-02 2.976310e-01
v -4.972472e-01 9.266462e-02 2.995261e-01
v -4.882396e-01 9.228368e-02 3.004736e-01
v -4.782852e-01 9.313567e-02 3.052112e-01
v -4.677011e-01 9.491874e-02 3.127915e-01
v -4.570023e-01 9.701959e-02 3.213191e-01
v -4.468677e-01 9.851113e-02 3.279519e-01
v -4.374677e-01 9.907983e-02 3.317419e-01
v -3.355696e-01 1.293130e-01 4.426023e-01
v -3.282695e-01 1.277589e-01 4.397599e-01
v -6.354279e-01 8.935176e-02 2.857790e-01
v -6.254916e-01 8.957187e-02 2.886161e-01
v -6.145608e-01 9.071462e-02 2.942901e-01
v -6.047293e-01 9.094289e-02 2.971270e-01
v -5.962653e-01 8.994424e-02 2.961815e-01
v -5.877873e-01 8.894443e-02 2.952357e-01
v -5.786606e-01 8.856092e-02 2.961815e-01
v -5.683055e-01 8.941530e-02 3.009098e-01
v -5.571099e-01 9.120446e-02 3.084752e-01
v -5.481017e-01 9.083020e-02 3.094207e-01
v -5.402657e-01 8.921368e-02 3.065838e-01
v -5.315401e-01 8.852805e-02 3.065838e-01
v -5.219877e-01 8.877825e-02 3.094207e-01
v -5.132831e-01 8.809427e-02 3.094207e-01
v -5.040551e-01 8.803642e-02 3.113122e-01
v -4.953643e-01 8.735353e-02 3.113122e-01
v -4.861783e-01 8.729895e-02 3.132035e-01
v -4.765387e-01 8.787589e-02 3.169861e-01
v -4.669551e-01 8.845732e-02 3.207689e-01
v -4.569737e-01 8.967463e-02 3.264428e-01
v -4.470761e-01 9.089861e-02 3.321169e-01
v -4.038652e-01 1.298717e-01 4.522167e-01
v -3.936299e-01 1.334044e-01 4.645104e-01
v -3.839598e-01 1.363143e-01 4.749129e-01
v -6.346610e-01 8.203866e-02 2.919152e-01
v -6.229865e-01 8.384434e-02 2.994656e-01
v -6.121153e-01 8.503241e-02 3.051285e-01
v -6.013282e-01 8.622713e-02 3.107915e-01
v -5.912885e-01 8.679973e-02 3.145666e-01
v -5.829298e-01 8.580258e-02 3.136229e-01
v -5.748752e-01 8.448888e-02 3.117352e-01
v -5.646154e-01 8.538459e-02 3.164542e-01
v -5.538172e-01 8.691883e-02 3.230610e-01
v -5.448992e-01 8.655843e-02 3.240047e-01
v -5.365753e-01 8.556402e-02 3.230610e-01
v -5.279545e-01 8.488662e-02 3.230610e-01
v -5.193335e-01 8.420922e-02 3.230610e-01
v -5.115201e-01 8.257411e-02 3.202296e-01
v -5.020918e-01 8.285441e-02 3.230610e-01
v -4.929605e-01 8.281767e-02 3.249487e-01
v -4.841054e-01 8.246221e-02 3.258924e-01
v -4.752642e-01 8.210788e-02 3.268362e-01
v -4.116688e-01 1.237432e-01 4.561386e-01
v -4.025878e-01 1.254123e-01 4.627454e-01
v -3.936047e-01 1.270891e-01 4.693521e-01
v -3.837573e-01 1.303999e-01 4.806777e-01
v -3.753752e-01 1.314432e-01 4.853968e-01
v -6.335295e-01 7.509814e-02 2.989784e-01
v -6.211787e-01 7.759920e-02 3.083980e-01
v -6.089675e-01 8.011124e-02 3.178176e-01
v -5.968959e-01 8.263424e-02 3.272371e-01
v -5.862939e-01 8.388405e-02 3.328888e-01
v -5.783799e-01 8.256789e-02 3.310049e-01
v -5.707566e-01 8.092741e-02 3.281790e-01
v -5.612218e-01 8.121966e-02 3.310049e-01
v -5.514245e-01 8.183848e-02 3.347728e-01
v -5.422782e-01 8.181409e-02 3.366567e-01
v -5.331598e-01 8.179188e-02 3.385405e-01
v -5.246367e-01 8.112216e-02 3.385405e-01
v -5.172201e-01 7.915080e-02 3.347728e-01
v -5.097478e-01 7.717499e-02 3.310049e-01
v -5.009060e-01 7.682743e-02 3.319469e-01
v -4.913111e-01 7.746208e-02 3.357146e-01
v -4.817721e-01 7.810118e-02 3.394826e-01
v -4.174550e-01 1.206075e-01 4.685306e-01
v -4.098952e-01 1.200135e-01 4.685306e-01
v -4.015079e-01 1.207431e-01 4.722985e-01
v -3.925768e-01 1.224714e-01 4.788922e-01
v -3.831647e-01 1.252034e-01 4.883118e-01
v -3.753796e-01 1.252860e-01 4.901956e-01
v -6.158238e-01 7.470946e-02 3.267053e-01
v -6.033789e-01 7.762478e-02 3.370464e-01
v -5.914277e-01 8.022496e-02 3.464474e-01
v -5.812812e-01 8.119732e-02 3.511479e-01
v -5.728348e-01 8.053363e-02 3.511479e-01
v -5.647076e-01 7.954105e-02 3.502077e-01
v -5.562541e-01 7.887680e-02 3.502077e-01
v -5.474957e-01 7.854256e-02 3.511479e-01
v -5.390493e-01 7.787887e-02 3.511479e-01
v -5.300206e-01 7.787723e-02 3.530280e-01
v -5.213040e-01 7.754628e-02 3.539682e-01
v -5.139873e-01 7.555561e-02 3.502077e-01
v -5.071552e-01 7.289526e-02 3.445672e-01
v -4.322063e-01 1.158480e-01 4.743012e-01
v -4.242177e-01 1.159281e-01 4.761814e-01
v -4.160356e-01 1.163470e-01 4.790017e-01
v -4.081099e-01 1.164320e-01 4.808819e-01
v -4.000047e-01 1.168569e-01 4.837022e-01
v -3.913401e-01 1.182996e-01 4.893427e-01
v -3.819856e-01 1.211038e-01 4.987437e-01
v -5.936010e-01 7.938134e-02 3.674674e-01
v -5.849189e-01 7.905982e-02 3.684056e-01
v -5.765842e-01 7.840490e-02 3.684056e-01
v -5.679228e-01 7.808498e-02 3.693438e-01
v -5.586363e-01 7.843741e-02 3.721586e-01
v -5.500170e-01 7.812083e-02 3.730969e-01
v -5.429398e-01 7.612189e-02 3.693438e-01
v -5.358066e-01 7.411862e-02 3.655909e-01
v -5.271593e-01 7.379982e-02 3.665290e-01
v -5.182413e-01 7.382050e-02 3.684056e-01
v -5.071293e-01 7.655436e-02 3.777881e-01
v -4.294753e-01 1.133758e-01 4.894392e-01
v -4.220410e-01 1.127916e-01 4.894392e-01
v -4.143849e-01 1.125508e-01 4.903775e-01
v -4.069577e-01 1.119672e-01 4.903775e-01
v -3.991147e-01 1.120723e-01 4.922540e-01
v -5.855317e-01 7.984109e-02 3.930949e-01
v -5.763414e-01 8.022139e-02 3.959042e-01
v -5.691974e-01 7.855759e-02 3.930949e-01
v -5.292591e-01 7.431695e-02 3.902858e-01
v -5.213632e-01 7.332908e-02 3.893495e-01
v -4.196223e-01 1.101662e-01 5.035890e-01
v -4.127236e-01 1.088892e-01 5.017162e-01
v -4.057970e-01 1.076100e-01 4.998434e-01
v -3.982172e-01 1.073818e-01 5.007797e-01
v -3.904499e-01 1.075064e-01 5.026524e-01
v -5.788303e-01 7.925005e-02 4.148918e-01
v -5.697849e-01 7.966202e-02 4.176954e-01
v -5.098512e-01 9.927847e-02 4.784399e-01
v -5.005069e-01 1.007897e-01 4.840472e-01
v -4.918319e-01 1.016050e-01 4.877852e-01
v -4.846416e-01 1.006658e-01 4.868508e-01
v -4.117205e-01 1.042920e-01 5.102142e-01
v -4.046279e-01 1.033604e-01 5.092795e-01
v -3.971034e-01 1.031434e-01 5.102142e-01
v -3.897948e-01 1.025692e-01 5.102142e-01
v -5.449634e-01 8.976335e-02 4.683215e-01
v -5.347014e-01 9.200514e-02 4.757829e-01
v -5.141982e-01 9.687139e-02 4.916385e-01
v -5.070434e-01 9.592817e-02 4.907058e-01
v -4.977727e-01 9.748580e-02 4.963019e-01
v -4.888791e-01 9.869205e-02 5.009653e-01
v -4.817731e-01 9.775263e-02 5.000325e-01
v -5.748313e-01 9.400832e-02 4.926918e-01
v -5.680894e-01 9.270298e-02 4.908301e-01
v -5.627461e-01 8.995636e-02 4.852451e-01
v -5.555707e-01 8.900479e-02 4.843144e-01
v -5.463255e-01 9.021728e-02 4.889685e-01
v -5.391641e-01 8.926675e-02 4.880377e-01
v -5.313313e-01 8.903908e-02 4.889685e-01
v -5.212606e-01 9.135001e-02 4.964149e-01
v -5.122457e-01 9.258061e-02 5.010690e-01
v -5.042239e-01 9.272590e-02 5.029308e-01
v -4.956284e-01 9.360162e-02 5.066540e-01
v -4.865012e-01 9.521118e-02 5.122390e-01
v -4.748765e-01 1.001146e-01 5.262013e-01
v -5.750261e-01 8.717174e-02 4.956067e-01
v -5.675639e-01 8.658539e-02 4.956067e-01
v -5.597446e-01 8.636550e-02 4.965355e-01
v -5.515892e-01 8.651377e-02 4.983935e-01
v -5.427753e-01 8.739950e-02 5.021094e-01
v -5.343533e-01 8.792142e-02 5.048963e-01
v -5.259732e-01 8.844662e-02 5.076832e-01
v -5.173129e-01 8.934437e-02 5.113991e-01
v -5.099694e-01 8.876735e-02 5.113991e-01
v -5.020094e-01 8.893094e-02 5.132569e-01
v -4.922694e-01 9.132214e-02 5.206887e-01
v -5.472432e-01 8.457169e-02 5.133516e-01
v -5.392123e-01 8.474327e-02 5.152057e-01
v -5.322195e-01 8.379249e-02 5.142787e-01
v -5.242235e-01 8.396686e-02 5.161329e-01
v -5.156099e-01 8.489533e-02 5.198413e-01
v -5.083153e-01 8.432214e-02 5.198413e-01
v -4.997854e-01 8.525728e-02 5.235498e-01
v -4.904058e-01 8.732959e-02 5.300396e-01
v -5.218057e-01 8.034562e-02 5.264071e-01
v -5.145461e-01 7.977518e-02 5.264071e-01
v -5.085515e-01 7.767177e-02 5.227062e-01
v -4.990986e-01 7.978573e-02 5.291829e-01
v -4.900456e-01 8.152302e-02 5.347345e-01
v -3.229509e-01 1.927565e-01 2.901750e-01
v -3.202165e-01 1.919452e-01 2.973750e-01
v -3.174885e-01 1.911364e-01 3.045629e-01
v -3.140340e-01 1.898563e-01 3.112471e-01
v -3.105795e-01 1.885761e-01 3.179312e-01
v -2.960385e-01 1.801559e-01 3.174282e-01
v -2.984746e-01 1.826755e-01 3.279884e-01
v -3.288832e-01 1.845208e-01 2.646321e-01
v -3.303767e-01 1.865398e-01 2.750510e-01
v -3.290491e-01 1.866758e-01 2.833235e-01
v -3.277405e-01 1.868189e-01 2.915591e-01
v -3.271738e-01 1.874464e-01 3.002609e-01
v -3.251804e-01 1.871264e-01 3.079202e-01
v -3.210126e-01 1.853725e-01 3.140830e-01
v -3.175709e-01 1.840971e-01 3.207427e-01
v -3.133938e-01 1.823398e-01 3.269240e-01
v -3.010861e-01 1.752666e-01 3.279232e-01
v -3.343876e-01 1.779020e-01 2.571488e-01
v -3.337044e-01 1.785153e-01 2.660436e-01
v -3.344654e-01 1.800969e-01 2.759302e-01
v -3.345520e-01 1.812121e-01 2.852289e-01
v -3.339543e-01 1.818570e-01 2.939582e-01
v -3.333820e-01 1.825113e-01 3.026383e-01
v -3.313909e-01 1.822067e-01 3.102776e-01
v -3.286870e-01 1.814213e-01 3.174025e-01
v -3.252610e-01 1.801517e-01 3.240314e-01
v -3.203717e-01 1.779066e-01 3.297053e-01
v -3.147350e-01 1.751679e-01 3.349323e-01
v -3.083413e-01 1.719321e-01 3.397308e-01
v -2.996987e-01 1.672131e-01 3.432009e-01
v -3.014323e-01 1.693718e-01 3.530991e-01
v -2.957353e-01 1.666108e-01 3.584426e-01
v -2.997779e-01 1.702749e-01 3.695526e-01
v -3.016225e-01 1.724748e-01 3.792361e-01
v -3.004834e-01 1.727025e-01 3.871198e-01
v -2.993634e-01 1.729373e-01 3.949669e-01
v -2.967356e-01 1.721801e-01 4.019446e-01
v -3.434511e-01 1.725586e-01 2.428265e-01
v -3.413256e-01 1.722187e-01 2.507095e-01
v -3.399124e-01 1.723665e-01 2.590998e-01
v -3.406256e-01 1.739740e-01 2.690306e-01
v -3.406713e-01 1.751103e-01 2.783684e-01
v -3.400399e-01 1.757717e-01 2.871312e-01
v -3.401457e-01 1.769303e-01 2.963523e-01
v -3.388529e-01 1.771228e-01 3.045096e-01
v -3.368605e-01 1.768322e-01 3.121350e-01
v -3.348808e-01 1.765462e-01 3.197359e-01
v -3.314644e-01 1.752802e-01 3.263464e-01
v -3.273201e-01 1.735205e-01 3.324802e-01
v -3.224382e-01 1.712636e-01 3.381556e-01
v -3.168094e-01 1.685062e-01 3.433912e-01
v -3.118991e-01 1.662388e-01 3.491219e-01
v -3.106790e-01 1.664582e-01 3.571381e-01
v -3.109656e-01 1.676837e-01 3.660097e-01
v -3.090430e-01 1.674190e-01 3.735002e-01
v -3.086334e-01 1.681627e-01 3.818338e-01
v -3.082490e-01 1.689157e-01 3.901182e-01
v -3.063772e-01 1.686697e-01 3.975105e-01
v -3.037584e-01 1.679232e-01 4.044630e-01
v -3.552230e-01 1.702554e-01 2.402065e-01
v -3.517242e-01 1.689588e-01 2.469764e-01
v -3.496104e-01 1.686377e-01 2.548211e-01
v -3.482048e-01 1.688102e-01 2.631720e-01
v -3.475172e-01 1.694799e-01 2.720115e-01
v -3.468549e-01 1.701589e-01 2.808017e-01
v -3.462181e-01 1.708473e-01 2.895429e-01
v -3.463148e-01 1.720388e-01 2.987417e-01
v -3.450203e-01 1.722524e-01 3.068782e-01
v -3.430300e-01 1.719771e-01 3.144836e-01
v -3.410524e-01 1.717065e-01 3.220644e-01
v -3.383665e-01 1.709423e-01 3.291386e-01
v -3.356868e-01 1.701803e-01 3.362005e-01
v -3.315589e-01 1.684195e-01 3.423107e-01
v -3.266940e-01 1.661544e-01 3.479694e-01
v -3.232839e-01 1.648907e-01 3.545676e-01
v -3.220844e-01 1.651395e-01 3.625202e-01
v -3.201639e-01 1.648901e-01 3.699906e-01
v -3.182561e-01 1.646453e-01 3.774366e-01
v -3.163609e-01 1.644053e-01 3.848580e-01
v -3.159774e-01 1.651876e-01 3.931086e-01
v -3.141140e-01 1.649593e-01 4.004686e-01
v -3.107514e-01 1.637132e-01 4.069750e-01
v -3.942628e-01 1.817197e-01 2.127671e-01
v -3.888308e-01 1.789916e-01 2.176702e-01
v -3.840496e-01 1.767431e-01 2.231833e-01
v -3.806014e-01 1.754653e-01 2.298553e-01
v -3.751249e-01 1.727206e-01 2.348441e-01
v -3.682708e-01 1.689888e-01 2.387601e-01
v -3.634325e-01 1.667191e-01 2.443837e-01
v -3.620095e-01 1.669069e-01 2.527446e-01
v -3.606055e-01 1.671018e-01 2.610688e-01
v -3.585286e-01 1.668088e-01 2.688259e-01
v -3.571595e-01 1.670165e-01 2.770826e-01
v -3.558092e-01 1.672313e-01 2.853025e-01
v -3.544781e-01 1.674531e-01 2.934856e-01
v -3.531660e-01 1.676820e-01 3.016320e-01
v -3.518730e-01 1.679180e-01 3.097416e-01
v -3.505989e-01 1.681609e-01 3.178144e-01
v -3.479156e-01 1.674049e-01 3.248755e-01
v -3.452387e-01 1.666513e-01 3.319245e-01
v -3.425681e-01 1.658999e-01 3.389611e-01
v -3.391801e-01 1.646444e-01 3.455165e-01
v -3.343385e-01 1.623735e-01 3.511461e-01
v -3.324043e-01 1.621334e-01 3.586272e-01
v -3.312157e-01 1.624081e-01 3.665343e-01
v -3.293099e-01 1.621786e-01 3.739604e-01
v -3.259379e-01 1.609290e-01 3.804851e-01
v -3.240511e-01 1.607066e-01 3.878742e-01
v -3.229228e-01 1.610036e-01 3.956648e-01
v -3.203155e-01 1.602757e-01 4.025788e-01
v -3.177146e-01 1.595503e-01 4.094806e-01
v -4.156179e-01 1.857071e-01 2.099044e-01
v -4.082970e-01 1.815203e-01 2.129023e-01
v -4.022577e-01 1.782998e-01 2.171434e-01
v -3.968558e-01 1.755611e-01 2.220121e-01
v -3.921010e-01 1.733078e-01 2.274900e-01
v -3.873334e-01 1.710497e-01 2.329924e-01
v -3.832256e-01 1.692818e-01 2.390796e-01
v -3.777603e-01 1.665196e-01 2.440710e-01
v -3.736334e-01 1.647446e-01 2.501949e-01
v -3.722277e-01 1.649606e-01 2.584983e-01
v -3.708410e-01 1.651836e-01 2.667649e-01
v -3.687852e-01 1.649130e-01 2.744651e-01
v -3.660506e-01 1.641453e-01 2.816175e-01
v -3.640169e-01 1.638829e-01 2.892749e-01
v -3.626937e-01 1.641294e-01 2.974189e-01
v -3.613894e-01 1.643829e-01 3.055260e-01
v -3.594001e-01 1.641370e-01 3.130975e-01
v -3.567162e-01 1.633880e-01 3.201517e-01
v -3.540386e-01 1.626414e-01 3.271936e-01
v -3.520810e-01 1.624072e-01 3.347038e-01
v -3.501362e-01 1.621777e-01 3.421896e-01
v -3.467641e-01 1.609281e-01 3.487143e-01
v -3.426689e-01 1.591649e-01 3.547769e-01
v -3.392936e-01 1.579141e-01 3.613077e-01
v -3.381066e-01 1.582111e-01 3.691880e-01
v -3.362059e-01 1.579980e-01 3.765877e-01
v -3.335824e-01 1.572714e-01 3.835255e-01
v -3.317040e-01 1.570666e-01 3.908824e-01
v -3.298382e-01 1.568664e-01 3.982147e-01
v -3.272400e-01 1.561492e-01 4.051034e-01
v -3.231510e-01 1.543882e-01 4.111537e-01
v -3.175527e-01 1.515767e-01 4.164026e-01
v -3.126900e-01 1.492835e-01 4.220890e-01
v -4.295744e-01 1.844031e-01 2.007156e-01
v -4.255621e-01 1.826633e-01 2.066255e-01
v -4.215437e-01 1.809213e-01 2.125481e-01
v -4.155603e-01 1.776924e-01 2.167124e-01
v -4.102076e-01 1.749502e-01 2.215100e-01
v -4.041768e-01 1.717038e-01 2.257666e-01
v -4.007699e-01 1.704413e-01 2.323587e-01
v -3.966974e-01 1.686792e-01 2.383853e-01
v -3.926188e-01 1.669148e-01 2.444242e-01
v -3.878618e-01 1.646463e-01 2.499222e-01
v -3.837672e-01 1.628760e-01 2.559918e-01
v -3.810226e-01 1.621118e-01 2.631556e-01
v -3.782842e-01 1.613498e-01 2.703072e-01
v -3.762367e-01 1.610969e-01 2.779751e-01
v -3.742020e-01 1.608486e-01 2.856187e-01
v -3.721798e-01 1.606050e-01 2.932376e-01
v -3.701704e-01 1.603661e-01 3.008320e-01
v -3.674765e-01 1.596207e-01 3.078978e-01
v -3.654892e-01 1.593900e-01 3.154492e-01
v -3.628110e-01 1.586504e-01 3.224842e-01
v -3.601394e-01 1.579132e-01 3.295071e-01
v -3.596035e-01 1.587261e-01 3.379565e-01
v -3.583799e-01 1.590313e-01 3.458834e-01
v -3.550268e-01 1.577887e-01 3.523713e-01
v -3.509545e-01 1.560268e-01 3.583980e-01
v -3.475983e-01 1.547830e-01 3.648921e-01
v -3.456933e-01 1.545829e-01 3.722841e-01
v -3.438011e-01 1.543874e-01 3.796517e-01
v -3.411897e-01 1.536725e-01 3.865579e-01
v -3.400549e-01 1.540106e-01 3.943132e-01
v -3.382007e-01 1.538293e-01 4.016071e-01
v -3.341346e-01 1.520695e-01 4.076214e-01
v -3.285727e-01 1.492498e-01 4.128236e-01
v -3.222440e-01 1.458930e-01 4.176566e-01
v -3.173921e-01 1.435892e-01 4.233385e-01
v -4.388077e-01 1.809010e-01 1.968955e-01
v -4.348117e-01 1.791600e-01 2.027818e-01
v -4.308096e-01 1.774168e-01 2.086805e-01
v -4.261552e-01 1.751717e-01 2.139961e-01
v -4.214883e-01 1.729220e-01 2.193362e-01
v -4.168084e-01 1.706675e-01 2.247009e-01
v -4.121161e-01 1.684083e-01 2.300900e-01
v -4.087282e-01 1.671528e-01 2.366453e-01
v -4.053402e-01 1.658973e-01 2.432008e-01
v -4.006224e-01 1.636287e-01 2.486389e-01
v -3.965600e-01 1.618632e-01 2.546542e-01
v -3.924913e-01 1.600952e-01 2.606816e-01
v -3.884163e-01 1.583250e-01 2.667213e-01
v -3.863677e-01 1.580861e-01 2.743755e-01
v -3.836510e-01 1.573394e-01 2.814770e-01
v -3.809407e-01 1.565952e-01 2.885666e-01
v -3.789237e-01 1.563680e-01 2.961593e-01
v -3.762293e-01 1.556297e-01 3.032181e-01
v -3.728477e-01 1.543765e-01 3.097613e-01
v -3.701627e-01 1.536416e-01 3.168015e-01
v -3.674841e-01 1.529091e-01 3.238297e-01
v -3.662176e-01 1.532202e-01 3.318156e-01
v -3.656763e-01 1.540601e-01 3.402434e-01
v -3.644511e-01 1.543865e-01 3.481496e-01
v -3.611075e-01 1.531475e-01 3.546191e-01
v -3.584797e-01 1.524338e-01 3.615491e-01
v -3.565769e-01 1.522489e-01 3.689211e-01
v -3.539648e-01 1.515411e-01 3.758205e-01
v -3.520841e-01 1.513644e-01 3.831497e-01
v -3.502162e-01 1.511924e-01 3.904542e-01
v -3.483609e-01 1.510251e-01 3.977342e-01
v -3.465183e-01 1.508626e-01 4.049898e-01
v -3.409994e-01 1.480370e-01 4.101331e-01
v -3.354614e-01 1.452043e-01 4.153132e-01
v -3.299044e-01 1.423646e-01 4.205302e-01
v -3.228338e-01 1.384438e-01 4.249856e-01
v -3.172323e-01 1.355875e-01 4.302882e-01
v -4.473700e-01 1.769265e-01 1.924884e-01
v -4.440201e-01 1.756850e-01 1.989702e-01
v -4.400342e-01 1.739405e-01 2.048451e-01
v -4.366812e-01 1.726980e-01 2.113329e-01
v -4.326860e-01 1.709501e-01 2.172264e-01
v -4.273937e-01 1.681867e-01 2.219551e-01
v -4.220824e-01 1.654163e-01 2.267206e-01
v -4.180554e-01 1.636565e-01 2.326752e-01
v -4.146770e-01 1.624046e-01 2.392122e-01
v -4.119567e-01 1.616639e-01 2.463132e-01
v -4.079201e-01 1.599006e-01 2.522861e-01
v -4.032129e-01 1.576215e-01 2.577198e-01
v -3.991608e-01 1.558524e-01 2.637236e-01
v -3.957728e-01 1.545969e-01 2.702790e-01
v -3.937326e-01 1.543756e-01 2.779009e-01
v -3.903510e-01 1.531225e-01 2.844439e-01
v -3.869694e-01 1.518693e-01 2.909871e-01
v -3.842711e-01 1.511367e-01 2.980450e-01
v -3.822659e-01 1.509285e-01 3.055995e-01
v -3.795834e-01 1.502018e-01 3.126268e-01
v -3.755218e-01 1.484292e-01 3.186489e-01
v -3.728456e-01 1.477048e-01 3.256639e-01
v -3.722736e-01 1.485625e-01 3.341193e-01
v -3.717268e-01 1.494294e-01 3.425255e-01
v -3.697944e-01 1.492481e-01 3.499389e-01
v -3.664572e-01 1.480114e-01 3.563962e-01
v -3.645439e-01 1.478371e-01 3.637728e-01
v -3.633581e-01 1.481998e-01 3.715783e-01
v -3.607550e-01 1.475026e-01 3.784524e-01
v -3.596010e-01 1.478771e-01 3.861967e-01
v -3.577415e-01 1.477228e-01 3.934690e-01
v -3.566223e-01 1.481103e-01 4.011459e-01
v -3.547914e-01 1.479665e-01 4.083630e-01
v -3.493025e-01 1.451302e-01 4.134719e-01
v -3.430575e-01 1.417465e-01 4.182070e-01
v -3.367871e-01 1.383531e-01 4.229911e-01
v -3.312350e-01 1.354936e-01 4.282228e-01
v -3.241703e-01 1.315386e-01 4.327066e-01
v -3.275729e-01 1.352060e-01 4.426571e-01
v -4.513096e-01 1.707186e-01 1.933355e-01
v -4.485887e-01 1.699848e-01 2.004295e-01
v -4.452419e-01 1.687446e-01 2.069051e-01
v -4.418952e-01 1.675044e-01 2.133807e-01
v -4.379099e-01 1.657529e-01 2.192627e-01
v -4.332769e-01 1.634867e-01 2.245691e-01
v -4.286309e-01 1.612157e-01 2.299001e-01
v -4.246205e-01 1.594549e-01 2.358312e-01
v -4.219058e-01 1.587235e-01 2.429128e-01
v -4.185432e-01 1.574774e-01 2.494191e-01
v -4.145232e-01 1.557131e-01 2.553685e-01
v -4.085149e-01 1.523878e-01 2.596774e-01
v -4.044727e-01 1.506153e-01 2.656698e-01
v -4.017581e-01 1.498839e-01 2.727514e-01
v -3.990498e-01 1.491550e-01 2.798209e-01
v -3.963479e-01 1.484284e-01 2.868781e-01
v -3.936522e-01 1.477040e-01 2.939229e-01
v -3.902832e-01 1.464555e-01 3.004415e-01
v -3.882800e-01 1.462624e-01 3.079759e-01
v -3.862894e-01 1.460741e-01 3.154859e-01
v -3.829333e-01 1.448304e-01 3.219799e-01
v -3.809616e-01 1.446490e-01 3.294530e-01
v -3.790026e-01 1.444723e-01 3.369015e-01
v -3.770564e-01 1.443004e-01 3.443256e-01
v -3.751229e-01 1.441332e-01 3.517252e-01
v -3.724969e-01 1.434347e-01 3.586351e-01
v -3.705856e-01 1.432756e-01 3.659917e-01
v -3.693982e-01 1.436595e-01 3.737765e-01
v -3.668009e-01 1.429717e-01 3.806313e-01
v -3.663629e-01 1.439079e-01 3.887952e-01
v -3.652295e-01 1.443119e-01 3.964759e-01
v -3.626670e-01 1.436369e-01 4.032632e-01
v -3.608380e-01 1.435084e-01 4.104603e-01
v -3.568305e-01 1.417487e-01 4.163851e-01
v -3.513498e-01 1.388937e-01 4.215025e-01
v -3.458501e-01 1.360317e-01 4.266568e-01
v -3.418110e-01 1.342603e-01 4.326429e-01
v -3.392517e-01 1.335865e-01 4.394242e-01
v -3.389373e-01 1.345686e-01 4.473489e-01
v -4.530292e-01 1.611508e-01 1.820881e-01
v -4.540052e-01 1.634858e-01 1.929476e-01
v -4.525246e-01 1.637828e-01 2.012758e-01
v -4.498061e-01 1.630573e-01 2.083567e-01
v -4.458311e-01 1.613023e-01 2.142271e-01
v -4.431190e-01 1.605791e-01 2.212957e-01
v -4.397754e-01 1.593401e-01 2.277652e-01
v -4.357909e-01 1.575816e-01 2.336540e-01
v -4.311556e-01 1.553001e-01 2.389805e-01
v -4.278026e-01 1.540575e-01 2.454684e-01
v -4.257507e-01 1.538609e-01 2.530810e-01
v -4.210964e-01 1.515723e-01 2.584442e-01
v -4.151158e-01 1.482285e-01 2.627321e-01
v -4.117500e-01 1.469812e-01 2.692445e-01
v -4.083843e-01 1.457339e-01 2.757570e-01
v -4.050185e-01 1.444866e-01 2.822694e-01
v -4.029919e-01 1.442994e-01 2.898328e-01
v -4.003053e-01 1.435857e-01 2.968524e-01
v -3.969491e-01 1.423419e-01 3.033465e-01
v -3.942718e-01 1.416317e-01 3.103476e-01
v -3.922834e-01 1.414586e-01 3.178375e-01
v -3.896219e-01 1.407542e-01 3.248080e-01
v -3.876556e-01 1.405893e-01 3.322550e-01
v -3.850102e-01 1.398909e-01 3.391949e-01
v -3.830660e-01 1.397342e-01 3.465988e-01
v -3.811344e-01 1.395822e-01 3.539784e-01
v -3.785144e-01 1.388932e-01 3.608693e-01
v -3.773095e-01 1.392924e-01 3.686639e-01
v -3.761237e-01 1.396986e-01 3.764217e-01
v -3.742460e-01 1.395667e-01 3.836970e-01
v -3.738089e-01 1.405322e-01 3.918271e-01
v -3.726801e-01 1.409596e-01 3.994745e-01
v -3.694094e-01 1.397475e-01 4.058030e-01
v -3.668623e-01 1.390856e-01 4.125528e-01
v -3.635949e-01 1.378747e-01 4.188752e-01
v -3.595974e-01 1.361114e-01 4.247885e-01
v -3.555939e-01 1.343459e-01 4.307141e-01
v -3.515839e-01 1.325780e-01 4.366520e-01
v -3.497854e-01 1.324753e-01 4.437739e-01
v -4.582328e-01 1.559243e-01 1.841882e-01
v -4.573339e-01 1.567478e-01 1.931796e-01
v -4.564605e-01 1.575808e-01 2.021221e-01
v -4.543631e-01 1.573818e-01 2.098067e-01
v -4.510227e-01 1.561439e-01 2.162700e-01
v -4.476823e-01 1.549060e-01 2.227334e-01
v -4.449760e-01 1.541923e-01 2.297828e-01
v -4.416387e-01 1.529556e-01 2.362401e-01
v -4.376611e-01 1.511924e-01 2.421236e-01
v -4.343207e-01 1.499545e-01 2.485869e-01
v -4.316270e-01 1.492454e-01 2.556118e-01
v -4.269898e-01 1.469486e-01 2.609583e-01
v -4.216867e-01 1.441160e-01 2.657801e-01
v -4.189901e-01 1.434058e-01 2.728112e-01
v -4.156401e-01 1.421644e-01 2.792929e-01
v -4.116275e-01 1.403882e-01 2.852439e-01
v -4.089404e-01 1.396816e-01 2.922566e-01
v -4.062595e-01 1.389773e-01 2.992569e-01
v -4.029127e-01 1.377371e-01 3.057326e-01
v -3.995660e-01 1.364968e-01 3.122082e-01
v -3.968977e-01 1.357972e-01 3.191841e-01
v -3.942360e-01 1.350999e-01 3.261476e-01
v -3.922653e-01 1.349479e-01 3.335869e-01
v -3.909953e-01 1.353448e-01 3.414834e-01
v -3.890532e-01 1.352034e-01 3.488675e-01
v -3.871236e-01 1.350666e-01 3.562270e-01
v -3.845094e-01 1.343870e-01 3.630985e-01
v -3.833029e-01 1.348073e-01 3.708724e-01
v -3.828192e-01 1.357847e-01 3.790606e-01
v -3.816539e-01 1.362203e-01 3.867547e-01
v -3.797972e-01 1.361105e-01 3.939731e-01
v -3.786668e-01 1.365591e-01 4.015999e-01
v -3.768387e-01 1.364600e-01 4.087631e-01
v -3.750234e-01 1.363655e-01 4.159018e-01
v -3.724979e-01 1.357188e-01 4.226018e-01
v -3.678004e-01 1.333997e-01 4.280648e-01
v -3.645487e-01 1.321947e-01 4.343565e-01
v -3.620294e-01 1.315502e-01 4.410441e-01
v -3.602522e-01 1.314699e-01 4.481092e-01
v -3.607038e-01 1.330831e-01 4.563010e-01
v -4.661788e-01 1.514467e-01 1.791443e-01
v -4.640327e-01 1.512442e-01 1.869069e-01
v -4.625139e-01 1.515706e-01 1.952609e-01
v -4.603964e-01 1.513787e-01 2.029684e-01
v -4.589123e-01 1.517180e-01 2.112550e-01
v -4.568234e-01 1.515367e-01 2.189072e-01
v -4.528652e-01 1.497735e-01 2.247609e-01
v -4.495312e-01 1.485379e-01 2.312119e-01
v -4.461971e-01 1.473024e-01 2.376631e-01
v -4.428631e-01 1.460669e-01 2.441143e-01
v -4.401690e-01 1.453649e-01 2.511322e-01
v -4.361950e-01 1.435958e-01 2.570165e-01
v -4.322146e-01 1.418243e-01 2.629130e-01
v -4.275784e-01 1.395135e-01 2.682734e-01
v -4.248876e-01 1.388127e-01 2.752853e-01
v -4.208913e-01 1.370353e-01 2.812124e-01
v -4.168888e-01 1.352557e-01 2.871519e-01
v -4.135421e-01 1.340155e-01 2.936276e-01
v -4.115260e-01 1.338612e-01 3.011388e-01
v -4.081856e-01 1.326233e-01 3.076022e-01
v -4.041734e-01 1.308400e-01 3.135600e-01
v -4.015048e-01 1.301475e-01 3.205290e-01
v -3.988423e-01 1.294572e-01 3.274856e-01
v -3.968674e-01 1.293182e-01 3.349171e-01
v -3.969581e-01 1.308338e-01 3.437671e-01
v -3.950180e-01 1.307077e-01 3.511311e-01
v -3.937813e-01 1.311386e-01 3.589394e-01
v -3.911758e-01 1.304695e-01 3.657855e-01
v -3.899709e-01 1.309122e-01 3.735326e-01
v -3.887848e-01 1.313619e-01 3.812427e-01
v -3.876178e-01 1.318187e-01 3.889160e-01
v -3.864698e-01 1.322824e-01 3.965525e-01
v -3.853407e-01 1.327532e-01 4.041522e-01
v -3.842308e-01 1.332311e-01 4.117152e-01
v -3.838559e-01 1.342778e-01 4.196610e-01
v -3.813487e-01 1.336451e-01 4.263172e-01
v -3.781256e-01 1.324507e-01 4.325537e-01
v -3.749025e-01 1.312563e-01 4.387902e-01
v -3.731367e-01 1.311947e-01 4.458169e-01
v -3.721154e-01 1.317055e-01 4.532082e-01
v -3.740533e-01 1.344985e-01 4.620942e-01
v -3.752973e-01 1.367379e-01 4.705175e-01
v -4.725589e-01 1.473143e-01 1.825057e-01
v -4.710258e-01 1.476572e-01 1.908635e-01
v -4.689008e-01 1.474770e-01 1.985693e-01
v -4.655604e-01 1.462391e-01 2.050327e-01
v -4.634544e-01 1.460660e-01 2.127018e-01
v -4.613610e-01 1.458975e-01 2.203462e-01
v -4.580332e-01 1.446643e-01 2.267851e-01
v -4.553323e-01 1.439671e-01 2.338084e-01
v -4.526376e-01 1.432721e-01 2.408194e-01
v -4.486832e-01 1.415031e-01 2.466739e-01
v -4.447224e-01 1.397316e-01 2.525405e-01
v -4.407554e-01 1.379579e-01 2.584196e-01
v -4.380669e-01 1.372652e-01 2.654182e-01
v -4.340936e-01 1.354892e-01 2.713096e-01
v -4.294649e-01 1.331665e-01 2.766715e-01
v -4.254757e-01 1.313845e-01 2.825933e-01
v -4.214799e-01 1.296001e-01 2.885275e-01
v -4.187949e-01 1.289088e-01 2.955201e-01
v -4.161159e-01 1.282196e-01 3.025005e-01
v -4.121141e-01 1.264330e-01 3.084469e-01
v -4.094415e-01 1.257463e-01 3.154150e-01
v -4.067754e-01 1.250619e-01 3.223709e-01
v -4.041156e-01 1.243800e-01 3.293144e-01
v -4.028169e-01 1.248096e-01 3.372183e-01
v -4.022179e-01 1.258023e-01 3.455658e-01
v -4.009605e-01 1.262473e-01 3.533900e-01
v -4.004090e-01 1.272576e-01 3.616454e-01
v -3.978126e-01 1.265991e-01 3.684663e-01
v -3.959158e-01 1.265035e-01 3.757306e-01
v -3.947281e-01 1.269743e-01 3.834199e-01
v -3.942589e-01 1.280151e-01 3.915158e-01
v -3.938152e-01 1.290653e-01 3.995627e-01
v -3.926908e-01 1.295596e-01 4.071294e-01
v -3.915855e-01 1.300610e-01 4.146593e-01
v -3.912115e-01 1.311371e-01 4.225713e-01
v -3.901474e-01 1.316537e-01 4.300214e-01
v -3.891023e-01 1.321774e-01 4.374348e-01
v -3.866326e-01 1.315658e-01 4.440104e-01
v -3.848943e-01 1.315289e-01 4.509681e-01
v -3.846249e-01 1.326438e-01 4.586778e-01
v -3.843808e-01 1.337679e-01 4.663382e-01
v -3.826931e-01 1.337499e-01 4.731979e-01
v -3.810181e-01 1.337365e-01 4.800329e-01
v -3.786150e-01 1.331496e-01 4.864798e-01
v -4.801108e-01 1.442960e-01 1.871138e-01
v -4.779815e-01 1.441288e-01 1.948119e-01
v -4.758649e-01 1.439663e-01 2.024855e-01
v -4.725404e-01 1.427342e-01 2.089183e-01
v -4.686022e-01 1.409639e-01 2.147489e-01
v -4.658913e-01 1.402702e-01 2.217837e-01
v -4.644261e-01 1.406600e-01 2.299858e-01
v -4.623570e-01 1.405151e-01 2.375673e-01
v -4.603007e-01 1.403749e-01 2.451244e-01
v -4.563689e-01 1.386069e-01 2.509428e-01
v -4.517984e-01 1.362913e-01 2.562082e-01
v -4.472153e-01 1.339711e-01 2.614983e-01
v -4.445359e-01 1.332891e-01 2.684717e-01
v -4.399368e-01 1.309629e-01 2.737923e-01
v -4.340348e-01 1.275321e-01 2.780562e-01
v -4.307008e-01 1.262966e-01 2.845072e-01
v -4.280182e-01 1.256134e-01 2.914869e-01
v -4.233779e-01 1.232720e-01 2.968871e-01
v -4.200406e-01 1.220353e-01 3.033444e-01
v -4.167034e-01 1.207985e-01 3.098017e-01
v -4.140305e-01 1.201189e-01 3.167628e-01
v -4.126984e-01 1.205581e-01 3.247074e-01
v -4.107149e-01 1.204448e-01 3.321234e-01
v -4.087440e-01 1.203363e-01 3.395148e-01
v -4.074628e-01 1.207942e-01 3.473613e-01
v -4.062005e-01 1.212592e-01 3.551708e-01
v -4.063236e-01 1.228594e-01 3.638778e-01
v -4.037330e-01 1.222103e-01 3.706796e-01
v -4.011486e-01 1.215635e-01 3.774690e-01
v -4.006489e-01 1.226220e-01 3.855924e-01
v -4.001744e-01 1.236898e-01 3.936667e-01
v -4.004242e-01 1.253369e-01 4.021285e-01
v -3.993014e-01 1.258536e-01 4.096681e-01
v -3.981977e-01 1.263773e-01 4.171711e-01
v -3.978214e-01 1.274815e-01 4.250553e-01
v -3.974705e-01 1.285952e-01 4.328905e-01
v -3.971449e-01 1.297182e-01 4.406766e-01
v -3.961267e-01 1.302736e-01 4.480141e-01
v -3.944062e-01 1.302578e-01 4.549210e-01
v -3.934229e-01 1.308262e-01 4.621910e-01
v -3.924584e-01 1.314015e-01 4.694241e-01
v -3.893209e-01 1.302388e-01 4.754951e-01
v -3.861833e-01 1.290761e-01 4.815660e-01
v -3.830457e-01 1.279134e-01 4.876369e-01
v -3.799082e-01 1.267507e-01 4.937078e-01
v -3.775141e-01 1.261744e-01 5.001294e-01
v -4.915301e-01 1.431161e-01 1.859237e-01
v -4.900062e-01 1.435059e-01 1.942153e-01
v -4.867007e-01 1.422809e-01 2.006112e-01
v -4.846020e-01 1.421396e-01 2.082342e-01
v -4.813028e-01 1.409170e-01 2.146179e-01
v -4.761744e-01 1.380620e-01 2.191979e-01
v -4.734785e-01 1.373811e-01 2.261950e-01
v -4.714052e-01 1.372491e-01 2.337689e-01
v -4.693445e-01 1.371218e-01 2.413182e-01
v -4.672966e-01 1.369993e-01 2.488430e-01
v -4.640100e-01 1.357813e-01 2.552022e-01
v -4.600947e-01 1.340121e-01 2.609968e-01
v -4.555411e-01 1.316883e-01 2.662455e-01
v -4.509750e-01 1.293599e-01 2.715187e-01
v -4.451195e-01 1.259173e-01 2.757244e-01
v -4.392386e-01 1.224653e-01 2.799790e-01
v -4.365556e-01 1.217892e-01 2.869517e-01
v -4.345266e-01 1.216737e-01 2.944397e-01
v -4.292554e-01 1.187658e-01 2.992956e-01
v -4.252737e-01 1.169721e-01 3.052191e-01
v -4.219428e-01 1.157377e-01 3.116642e-01
v -4.199328e-01 1.156291e-01 3.191153e-01
v -4.185992e-01 1.160894e-01 3.270390e-01
v -4.172845e-01 1.165567e-01 3.349258e-01
v -4.139789e-01 1.153317e-01 3.413218e-01
v -4.120197e-01 1.152421e-01 3.486750e-01
v -4.107493e-01 1.157258e-01 3.564759e-01
v -4.108571e-01 1.173566e-01 3.651728e-01
v -4.089485e-01 1.172857e-01 3.724278e-01
v -4.063667e-01 1.166471e-01 3.792042e-01
v -4.065473e-01 1.183048e-01 3.877600e-01
v -4.067595e-01 1.199743e-01 3.962545e-01
v -4.070035e-01 1.216555e-01 4.046877e-01
v -4.058822e-01 1.221945e-01 4.122005e-01
v -4.054816e-01 1.233188e-01 4.201000e-01
v -4.051062e-01 1.244523e-01 4.279503e-01
v -4.047563e-01 1.255954e-01 4.357517e-01
v -4.037204e-01 1.261660e-01 4.430989e-01
v -4.027037e-01 1.267438e-01 4.504094e-01
v -4.009885e-01 1.267444e-01 4.572902e-01
v -4.000066e-01 1.273351e-01 4.645333e-01
v -3.983199e-01 1.273464e-01 4.713589e-01
v -3.944648e-01 1.255996e-01 4.770372e-01
v -3.898732e-01 1.232617e-01 4.823594e-01
v -3.882023e-01 1.232789e-01 4.891545e-01
v -3.858076e-01 1.227096e-01 4.955690e-01
v -3.826796e-01 1.215504e-01 5.016216e-01
v -5.048714e-01 1.456789e-01 1.968594e-01
v -5.022005e-01 1.450146e-01 2.038007e-01
v -4.977464e-01 1.427131e-01 2.088732e-01
v -4.938791e-01 1.409545e-01 2.145827e-01
v -4.900056e-01 1.391937e-01 2.203047e-01
v -4.855196e-01 1.368804e-01 2.254384e-01
v -4.816304e-01 1.351137e-01 2.311910e-01
v -4.783470e-01 1.338970e-01 2.375440e-01
v -4.756791e-01 1.332337e-01 2.444790e-01
v -4.736364e-01 1.331276e-01 2.519777e-01
v -4.703626e-01 1.319144e-01 2.583124e-01
v -4.652136e-01 1.290300e-01 2.629560e-01
v -4.613021e-01 1.272551e-01 2.687516e-01
v -4.573842e-01 1.254777e-01 2.745592e-01
v -4.515563e-01 1.220163e-01 2.787436e-01
v -4.457031e-01 1.185455e-01 2.829770e-01
v -4.417472e-01 1.167541e-01 2.888584e-01
v -4.397170e-01 1.166526e-01 2.963325e-01
v -4.357580e-01 1.148601e-01 3.022200e-01
v -4.311421e-01 1.124986e-01 3.076051e-01
v -4.284743e-01 1.118355e-01 3.145402e-01
v -4.264695e-01 1.117434e-01 3.219652e-01
v -4.251374e-01 1.122260e-01 3.298620e-01
v -4.224981e-01 1.115734e-01 3.367419e-01
v -4.198651e-01 1.109230e-01 3.436094e-01
v -4.172385e-01 1.102751e-01 3.504648e-01
v -4.166359e-01 1.113535e-01 3.587227e-01
v -4.160588e-01 1.124413e-01 3.669318e-01
v -4.148280e-01 1.129615e-01 3.746323e-01
v -4.136161e-01 1.134887e-01 3.822959e-01
v -4.131087e-01 1.146023e-01 3.903700e-01
v -4.133150e-01 1.163059e-01 3.988359e-01
v -4.135529e-01 1.180212e-01 4.072407e-01
v -4.117384e-01 1.179996e-01 4.142978e-01
v -4.120302e-01 1.197349e-01 4.225982e-01
v -4.123538e-01 1.214819e-01 4.308373e-01
v -4.113005e-01 1.220679e-01 4.381944e-01
v -4.095588e-01 1.220733e-01 4.451105e-01
v -4.092510e-01 1.232609e-01 4.527982e-01
v -4.082547e-01 1.238680e-01 4.600449e-01
v -4.051267e-01 1.227088e-01 4.660974e-01
v -4.027188e-01 1.221419e-01 4.725296e-01
v -3.988706e-01 1.203904e-01 4.782025e-01
v -3.950160e-01 1.186366e-01 4.838876e-01
v -3.918848e-01 1.174762e-01 4.899463e-01
v -3.887536e-01 1.163158e-01 4.960049e-01
v -3.856224e-01 1.151555e-01 5.020636e-01
v -3.817521e-01 1.133958e-01 5.077794e-01
v -5.248070e-01 1.529136e-01 2.053700e-01
v -5.175072e-01 1.478796e-01 2.071392e-01
v -5.119319e-01 1.444829e-01 2.108668e-01
v -5.075169e-01 1.421814e-01 2.158796e-01
v -5.024932e-01 1.393217e-01 2.203049e-01
v -4.974505e-01 1.364549e-01 2.247670e-01
v -4.935934e-01 1.346929e-01 2.304653e-01
v -4.897300e-01 1.329285e-01 2.361758e-01
v -4.852515e-01 1.306035e-01 2.413111e-01
v -4.819841e-01 1.293927e-01 2.476334e-01
v -4.793314e-01 1.287423e-01 2.545308e-01
v -4.754490e-01 1.269709e-01 2.602782e-01
v -4.703176e-01 1.240713e-01 2.649120e-01
v -4.664160e-01 1.222927e-01 2.706960e-01
v -4.625083e-01 1.205120e-01 2.764923e-01
v -4.579633e-01 1.181622e-01 2.817564e-01
v -4.521377e-01 1.146727e-01 2.859685e-01
v -4.469238e-01 1.117425e-01 2.907617e-01
v -4.436119e-01 1.105152e-01 2.971700e-01
v -4.409436e-01 1.098591e-01 3.040981e-01
v -4.369882e-01 1.080606e-01 3.099864e-01
v -4.343262e-01 1.074068e-01 3.169023e-01
v -4.316704e-01 1.067553e-01 3.238058e-01
v -4.303334e-01 1.072578e-01 3.316878e-01
v -4.270374e-01 1.060364e-01 3.380654e-01
v -4.244039e-01 1.053932e-01 3.449261e-01
v -4.231081e-01 1.059111e-01 3.527284e-01
v -4.225000e-01 1.070164e-01 3.609648e-01
v -4.219175e-01 1.081313e-01 3.691522e-01
v -4.206850e-01 1.086725e-01 3.768318e-01
v -4.201500e-01 1.098050e-01 3.849272e-01
v -4.196403e-01 1.109468e-01 3.929735e-01
v -4.198406e-01 1.126845e-01 4.014110e-01
v -4.186969e-01 1.132587e-01 4.089190e-01
v -4.175721e-01 1.138399e-01 4.163902e-01
v -4.185492e-01 1.161980e-01 4.250900e-01
v -4.188667e-01 1.179791e-01 4.333005e-01
v -4.178149e-01 1.185874e-01 4.406307e-01
v -4.167822e-01 1.192027e-01 4.479241e-01
v -4.157684e-01 1.198250e-01 4.551807e-01
v -4.133536e-01 1.192628e-01 4.616182e-01
v -4.102319e-01 1.181060e-01 4.676584e-01
v -4.078265e-01 1.175473e-01 4.740776e-01
v -4.047080e-01 1.163916e-01 4.801117e-01
v -4.008667e-01 1.146354e-01 4.857792e-01
v -3.962931e-01 1.122752e-01 4.910986e-01
v -3.924360e-01 1.105132e-01 4.967968e-01
v -3.885726e-01 1.087488e-01 5.025073e-01
v -3.847028e-01 1.069820e-01 5.082300e-01
v -3.815653e-01 1.058193e-01 5.143009e-01
v -5.380987e-01 1.542661e-01 2.070558e-01
v -5.332004e-01 1.514310e-01 2.112628e-01
v -5.277002e-01 1.480330e-01 2.148771e-01
v -5.210030e-01 1.435116e-01 2.172938e-01
v -5.154457e-01 1.400924e-01 2.210184e-01
v -5.104555e-01 1.372233e-01 2.254032e-01
v -5.060415e-01 1.349078e-01 2.304298e-01
v -5.016149e-01 1.325875e-01 2.354809e-01
v -4.977774e-01 1.308254e-01 2.411492e-01
v -4.933286e-01 1.284970e-01 2.462433e-01
v -4.888672e-01 1.261638e-01 2.513619e-01
v -4.843931e-01 1.238259e-01 2.565050e-01
v -4.805206e-01 1.220509e-01 2.622408e-01
v -4.772594e-01 1.208424e-01 2.685508e-01
v -4.727568e-01 1.184940e-01 2.737492e-01
v -4.676175e-01 1.155697e-01 2.784222e-01
v -4.637133e-01 1.137829e-01 2.842192e-01
v -4.591727e-01 1.114204e-01 2.894912e-01
v -4.539859e-01 1.084784e-01 2.942561e-01
v -4.494167e-01 1.061053e-01 2.995833e-01
v -4.467541e-01 1.054586e-01 3.064922e-01
v -4.434549e-01 1.042359e-01 3.128758e-01
v -4.395096e-01 1.024340e-01 3.187527e-01
v -4.368565e-01 1.017907e-01 3.256431e-01
v -4.348622e-01 1.017315e-01 3.330160e-01
v -4.322249e-01 1.010941e-01 3.398757e-01
v -4.302528e-01 1.010432e-01 3.472057e-01
v -4.296172e-01 1.021673e-01 3.554634e-01
v -4.290071e-01 1.033010e-01 3.636721e-01
v -4.277539e-01 1.038563e-01 3.713678e-01
v -4.265198e-01 1.044188e-01 3.790267e-01
v -4.259794e-01 1.055783e-01 3.871005e-01
v -4.261421e-01 1.073383e-01 3.955707e-01
v -4.263365e-01 1.091100e-01 4.039797e-01
v -4.251942e-01 1.097065e-01 4.114607e-01
v -4.254456e-01 1.114993e-01 4.197593e-01
v -4.257287e-01 1.133039e-01 4.279964e-01
v -4.253499e-01 1.145232e-01 4.357574e-01
v -4.249964e-01 1.157519e-01 4.434693e-01
v -4.246682e-01 1.169901e-01 4.511323e-01
v -4.229592e-01 1.170366e-01 4.579532e-01
v -4.198501e-01 1.158844e-01 4.639689e-01
v -4.167411e-01 1.147323e-01 4.699847e-01
v -4.143448e-01 1.141842e-01 4.763785e-01
v -4.112389e-01 1.130333e-01 4.823881e-01
v -4.074140e-01 1.112759e-01 4.880319e-01
v -4.028606e-01 1.089086e-01 4.933283e-01
v -3.982945e-01 1.065367e-01 4.986492e-01
v -3.937158e-01 1.041600e-01 5.039946e-01
v -3.891244e-01 1.017787e-01 5.093647e-01
v -3.874597e-01 1.018416e-01 5.160997e-01
v -5.449745e-01 1.495815e-01 2.017410e-01
v -5.435327e-01 1.500888e-01 2.097777e-01
v -5.392308e-01 1.478002e-01 2.146035e-01
v -5.331792e-01 1.438217e-01 2.175678e-01
v -5.282604e-01 1.409572e-01 2.218385e-01
v -5.233224e-01 1.380858e-01 2.261460e-01
v -5.189540e-01 1.357726e-01 2.311006e-01
v -5.145728e-01 1.334546e-01 2.360797e-01
v -5.095842e-01 1.305644e-01 2.404854e-01
v -5.045767e-01 1.276671e-01 2.449278e-01
v -5.007523e-01 1.259027e-01 2.505786e-01
v -4.963173e-01 1.235648e-01 2.556619e-01
v -4.918696e-01 1.212222e-01 2.607698e-01
v -4.867985e-01 1.183014e-01 2.653348e-01
v -4.823223e-01 1.159482e-01 2.704979e-01
v -4.772164e-01 1.130145e-01 2.751305e-01
v -4.733320e-01 1.112279e-01 2.808977e-01
v -4.700645e-01 1.100170e-01 2.872201e-01
v -4.655439e-01 1.076474e-01 2.924691e-01
v -4.616404e-01 1.058536e-01 2.982731e-01
v -4.577304e-01 1.040575e-01 3.040894e-01
v -4.544503e-01 1.028419e-01 3.104362e-01
v -4.498917e-01 1.004583e-01 3.157588e-01
v -4.453204e-01 9.806986e-02 3.211059e-01
v -4.426731e-01 9.743595e-02 3.279771e-01
v -4.406809e-01 9.739210e-02 3.353300e-01
v -4.393532e-01 9.794167e-02 3.431459e-01
v -4.367343e-01 9.731832e-02 3.499620e-01
v -4.354384e-01 9.787966e-02 3.577168e-01
v -4.348228e-01 9.904020e-02 3.659037e-01
v -4.342325e-01 1.002103e-01 3.740417e-01
v -4.323322e-01 1.002004e-01 3.812168e-01
v -4.311154e-01 1.007911e-01 3.888181e-01
v -4.319399e-01 1.031798e-01 3.977168e-01
v -4.328024e-01 1.055824e-01 4.065418e-01
v -4.337029e-01 1.079993e-01 4.152934e-01
v -4.339579e-01 1.098298e-01 4.235449e-01
v -4.328710e-01 1.104685e-01 4.308948e-01
v -4.324931e-01 1.117172e-01 4.386219e-01
v -4.321406e-01 1.129754e-01 4.463000e-01
v -4.311170e-01 1.136376e-01 4.535273e-01
v -4.294133e-01 1.137006e-01 4.603221e-01
v -4.270195e-01 1.131607e-01 4.667028e-01
v -4.239263e-01 1.120144e-01 4.726879e-01
v -4.222509e-01 1.120880e-01 4.794275e-01
v -4.191641e-01 1.109440e-01 4.854003e-01
v -4.132162e-01 1.073511e-01 4.899131e-01
v -4.093981e-01 1.055890e-01 4.955516e-01
v -4.048523e-01 1.032100e-01 5.008496e-01
v -3.995689e-01 1.002106e-01 5.058255e-01
v -3.957224e-01 9.843793e-02 5.115192e-01
v -3.955251e-01 9.975361e-02 5.188968e-01
v -5.503878e-01 1.454183e-01 2.044790e-01
v -5.483754e-01 1.453814e-01 2.118546e-01
v -5.440873e-01 1.430835e-01 2.166699e-01
v -5.386360e-01 1.396456e-01 2.202538e-01
v -5.343163e-01 1.373358e-01 2.251302e-01
v -5.311470e-01 1.361614e-01 2.312625e-01
v -5.268082e-01 1.338446e-01 2.361757e-01
v -5.218688e-01 1.309509e-01 2.405102e-01
v -5.163191e-01 1.274765e-01 2.442842e-01
v -5.107443e-01 1.239928e-01 2.481072e-01
v -5.069363e-01 1.222272e-01 2.537343e-01
v -5.025215e-01 1.198823e-01 2.587946e-01
v -4.986978e-01 1.181108e-01 2.644523e-01
v -4.942607e-01 1.157577e-01 2.695558e-01
v -4.892009e-01 1.128193e-01 2.741232e-01
v -4.835087e-01 1.092921e-01 2.781732e-01
v -4.796405e-01 1.075042e-01 2.839166e-01
v -4.757661e-01 1.057140e-01 2.896725e-01
v -4.712625e-01 1.033361e-01 2.949046e-01
v -4.679981e-01 1.021264e-01 3.012208e-01
v -4.647338e-01 1.009167e-01 3.075370e-01
v -4.602048e-01 9.852952e-02 3.128182e-01
v -4.550277e-01 9.554764e-02 3.176126e-01
v -4.517476e-01 9.433208e-02 3.239595e-01
v -4.491092e-01 9.370887e-02 3.308055e-01
v -4.477672e-01 9.427487e-02 3.386252e-01
v -4.451478e-01 9.365856e-02 3.454343e-01
v -4.425349e-01 9.304473e-02 3.522313e-01
v -4.412372e-01 9.362713e-02 3.599652e-01
v -4.406161e-01 9.481476e-02 3.681305e-01
v -4.406813e-01 9.661114e-02 3.767093e-01
v -4.401143e-01 9.781876e-02 3.847705e-01
v -4.389053e-01 9.843410e-02 3.923327e-01
v -4.390561e-01 1.002622e-01 4.007458e-01
v -4.392386e-01 1.021020e-01 4.090977e-01
v -4.401293e-01 1.045587e-01 4.178198e-01
v -4.403784e-01 1.064233e-01 4.260428e-01
v -4.399761e-01 1.076919e-01 4.337851e-01
v -4.395991e-01 1.089700e-01 4.414784e-01
v -4.392475e-01 1.102574e-01 4.491227e-01
v -4.382286e-01 1.109432e-01 4.563169e-01
v -4.365332e-01 1.110238e-01 4.630794e-01
v -4.341515e-01 1.104957e-01 4.694286e-01
v -4.317763e-01 1.099699e-01 4.757657e-01
v -4.301125e-01 1.100622e-01 4.824669e-01
v -4.277530e-01 1.095422e-01 4.887732e-01
v -4.218421e-01 1.059341e-01 4.932463e-01
v -4.180501e-01 1.041743e-01 4.988427e-01
v -4.135338e-01 1.017918e-01 5.040993e-01
v -4.097260e-01 1.000263e-01 5.097263e-01
v -4.059117e-01 9.825834e-02 5.153656e-01
v -5.569028e-01 1.424302e-01 2.085029e-01
v -5.537684e-01 1.412687e-01 2.145677e-01
v -5.489288e-01 1.383902e-01 2.187329e-01
v -5.440703e-01 1.355046e-01 2.229348e-01
v -5.403422e-01 1.337613e-01 2.284154e-01
v -5.371856e-01 1.325916e-01 2.345231e-01
v -5.317049e-01 1.291138e-01 2.381961e-01
v -5.267830e-01 1.262047e-01 2.425208e-01
v -5.230168e-01 1.244473e-01 2.480749e-01
v -5.180632e-01 1.215266e-01 2.524608e-01
v -5.130907e-01 1.185988e-01 2.568835e-01
v -5.080990e-01 1.156639e-01 2.613430e-01
v -5.042885e-01 1.138901e-01 2.669831e-01
v -5.004716e-01 1.121139e-01 2.726354e-01
v -4.960421e-01 1.097490e-01 2.777404e-01
v -4.903807e-01 1.062042e-01 2.817629e-01
v -4.865321e-01 1.044163e-01 2.874766e-01
v -4.826773e-01 1.026261e-01 2.932025e-01
v -4.769587e-01 9.906015e-02 2.973354e-01
v -4.730817e-01 9.726175e-02 3.031043e-01
v -4.691983e-01 9.546092e-02 3.088854e-01
v -4.646800e-01 9.306317e-02 3.141621e-01
v -4.595172e-01 9.006484e-02 3.189527e-01
v -4.568751e-01 8.944744e-02 3.257979e-01
v -4.548775e-01 8.943053e-02 3.331291e-01
v -4.528925e-01 8.941833e-02 3.404359e-01
v -4.515646e-01 9.001131e-02 3.482040e-01
v -4.489605e-01 8.940791e-02 3.549755e-01
v -4.476643e-01 9.001269e-02 3.626825e-01
v -4.463871e-01 9.062452e-02 3.703525e-01
v -4.477575e-01 9.366419e-02 3.798319e-01
v -4.478515e-01 9.550754e-02 3.883147e-01
v -4.459870e-01 9.554004e-02 3.953883e-01
v -4.454683e-01 9.679456e-02 4.033237e-01
v -4.456448e-01 9.866846e-02 4.116470e-01
v -4.465259e-01 1.011652e-01 4.203398e-01
v -4.467690e-01 1.030637e-01 4.285343e-01
v -4.470437e-01 1.049740e-01 4.366675e-01
v -4.466678e-01 1.062815e-01 4.443270e-01
v -4.463171e-01 1.075983e-01 4.519373e-01
v -4.459917e-01 1.089245e-01 4.594986e-01
v -4.443079e-01 1.090239e-01 4.662227e-01
v -4.426366e-01 1.091280e-01 4.729223e-01
v -4.402798e-01 1.086162e-01 4.792156e-01
v -4.386308e-01 1.087286e-01 4.858723e-01
v -4.355851e-01 1.075999e-01 4.917654e-01
v -4.318316e-01 1.058472e-01 4.972951e-01
v -4.280718e-01 1.040922e-01 5.028370e-01
v -4.264481e-01 1.042139e-01 5.094447e-01
v -4.248371e-01 1.043403e-01 5.160277e-01
v -4.246797e-01 1.057287e-01 5.232640e-01
v -4.251679e-01 1.091649e-01 5.379160e-01
v -5.585775e-01 1.366142e-01 2.166374e-01
v -5.537555e-01 1.337204e-01 2.207927e-01
v -5.494823e-01 1.313989e-01 2.256111e-01
v -5.457675e-01 1.296534e-01 2.310741e-01
v -5.426204e-01 1.284871e-01 2.371635e-01
v -5.371640e-01 1.249893e-01 2.408212e-01
v -5.316823e-01 1.214821e-01 2.445281e-01
v -5.285099e-01 1.203065e-01 2.506665e-01
v -5.247506e-01 1.185444e-01 2.562153e-01
v -5.203951e-01 1.161924e-01 2.611931e-01
v -5.148406e-01 1.126583e-01 2.650410e-01
v -5.092606e-01 1.091146e-01 2.689379e-01
v -5.054538e-01 1.073349e-01 2.745789e-01
v -5.016406e-01 1.055529e-01 2.802320e-01
v -4.966095e-01 1.025816e-01 2.847920e-01
v -4.927773e-01 1.007926e-01 2.904819e-01
v -4.889388e-01 9.900113e-02 2.961841e-01
v -4.838633e-01 9.601338e-02 3.008300e-01
v -4.787687e-01 9.301857e-02 3.055126e-01
v -4.742768e-01 9.061608e-02 3.107541e-01
v -4.703973e-01 8.880947e-02 3.165360e-01
v -4.665112e-01 8.700043e-02 3.223303e-01
v -4.638812e-01 8.639476e-02 3.291440e-01
v -4.612575e-01 8.579140e-02 3.359453e-01
v -4.592778e-01 8.579559e-02 3.432259e-01
v -4.573108e-01 8.580462e-02 3.504820e-01
v -4.560002e-01 8.642576e-02 3.581926e-01
v -4.540617e-01 8.644534e-02 3.653935e-01
v -4.534362e-01 8.768932e-02 3.735034e-01
v -4.541429e-01 9.016497e-02 3.824859e-01
v -4.535744e-01 9.143005e-02 3.904854e-01
v -4.523717e-01 9.209119e-02 3.979875e-01
v -4.518508e-01 9.337398e-02 4.058952e-01
v -4.520213e-01 9.528191e-02 4.141899e-01
v -4.535620e-01 9.843552e-02 4.232834e-01
v -4.538023e-01 1.003693e-01 4.314433e-01
v -4.533986e-01 1.016955e-01 4.391241e-01
v -4.530204e-01 1.030311e-01 4.467557e-01
v -4.540313e-01 1.056195e-01 4.551494e-01
v -4.543952e-01 1.075991e-01 4.630702e-01
v -4.534143e-01 1.083424e-01 4.701430e-01
v -4.517609e-01 1.084676e-01 4.767919e-01
v -4.508149e-01 1.092239e-01 4.837973e-01
v -4.484923e-01 1.087322e-01 4.900162e-01
v -4.447742e-01 1.069854e-01 4.954854e-01
v -4.417539e-01 1.058661e-01 5.013294e-01
v -4.401482e-01 1.060089e-01 5.078864e-01
v -4.385550e-01 1.061565e-01 5.144188e-01
v -4.362610e-01 1.056753e-01 5.205825e-01
v -4.346901e-01 1.058310e-01 5.270720e-01
v -4.331319e-01 1.059915e-01 5.335370e-01
v -4.308632e-01 1.055198e-01 5.396516e-01
v -5.628139e-01 1.314003e-01 2.180661e-01
v -5.580063e-01 1.284901e-01 2.222178e-01
v -5.531796e-01 1.255728e-01 2.264061e-01
v -5.494686e-01 1.238214e-01 2.318700e-01
v -5.457510e-01 1.220675e-01 2.373461e-01
v -5.414536e-01 1.197226e-01 2.422273e-01
v -5.377202e-01 1.179629e-01 2.477341e-01
v -5.339806e-01 1.162008e-01 2.532532e-01
v -5.296515e-01 1.138441e-01 2.581958e-01
v -5.253097e-01 1.114827e-01 2.631629e-01
v -5.209553e-01 1.091166e-01 2.681545e-01
v -5.165881e-01 1.067458e-01 2.731707e-01
v -5.128040e-01 1.049674e-01 2.787757e-01
v -5.084147e-01 1.025883e-01 2.838348e-01
v -5.034106e-01 9.960527e-02 2.883665e-01
v -4.983874e-01 9.661518e-02 2.929350e-01
v -4.933453e-01 9.361813e-02 2.975404e-01
v -4.901190e-01 9.242250e-02 3.037831e-01
v -4.862779e-01 9.062285e-02 3.094983e-01
v -4.811945e-01 8.761044e-02 3.141834e-01
v -4.779556e-01 8.641014e-02 3.204504e-01
v -4.747166e-01 8.520981e-02 3.267177e-01
v -4.721050e-01 8.461828e-02 3.334877e-01
v -4.688693e-01 8.341915e-02 3.397487e-01
v -4.656334e-01 8.222004e-02 3.460098e-01
v -4.630346e-01 8.163312e-02 3.527551e-01
v -4.610823e-01 8.166209e-02 3.599667e-01
v -4.610726e-01 8.353950e-02 3.685702e-01
v -4.604480e-01 8.481287e-02 3.766463e-01
v -4.611481e-01 8.732957e-02 3.855932e-01
v -4.599279e-01 8.800600e-02 3.931052e-01
v -4.587265e-01 8.868939e-02 4.005804e-01
v -4.582035e-01 9.000038e-02 4.084603e-01
v -4.590303e-01 9.256400e-02 4.171618e-01
v -4.605608e-01 9.576463e-02 4.262191e-01
v -4.607983e-01 9.773366e-02 4.343444e-01
v -4.597238e-01 9.846406e-02 4.415742e-01
v -4.600183e-01 1.004542e-01 4.495890e-01
v -4.610227e-01 1.030837e-01 4.579473e-01
v -4.613837e-01 1.050985e-01 4.658333e-01
v -4.604074e-01 1.058653e-01 4.728730e-01
v -4.601379e-01 1.072702e-01 4.802623e-01
v -4.592028e-01 1.080523e-01 4.872224e-01
v -4.568987e-01 1.075747e-01 4.933976e-01
v -4.539038e-01 1.064648e-01 4.991926e-01
v -4.509088e-01 1.053550e-01 5.049875e-01
v -4.493210e-01 1.055190e-01 5.114938e-01
v -4.477457e-01 1.056876e-01 5.179756e-01
v -4.454734e-01 1.052217e-01 5.240894e-01
v -4.439203e-01 1.053986e-01 5.305283e-01
v -4.416637e-01 1.049385e-01 5.366115e-01
v -4.394135e-01 1.044809e-01 5.426823e-01
v -5.707156e-01 1.279426e-01 2.140961e-01
v -5.664890e-01 1.256094e-01 2.188564e-01
v -5.616925e-01 1.226816e-01 2.230104e-01
v -5.568770e-01 1.197466e-01 2.272011e-01
v -5.531696e-01 1.179893e-01 2.326658e-01
v -5.494559e-01 1.162296e-01 2.381427e-01
v -5.463056e-01 1.150622e-01 2.442382e-01
v -5.437284e-01 1.144906e-01 2.509337e-01
v -5.400051e-01 1.127274e-01 2.564291e-01
v -5.356962e-01 1.103636e-01 2.613488e-01
v -5.307919e-01 1.073959e-01 2.657112e-01
v -5.270402e-01 1.056221e-01 2.712617e-01
v -5.238709e-01 1.044476e-01 2.773940e-01
v -5.201096e-01 1.026703e-01 2.829629e-01
v -5.157468e-01 1.002866e-01 2.879868e-01
v -5.113712e-01 9.789821e-02 2.930353e-01
v -5.045767e-01 9.307952e-02 2.959284e-01
v -4.989537e-01 8.946188e-02 2.999727e-01
v -4.969527e-01 8.948732e-02 3.072624e-01
v -4.943533e-01 8.890745e-02 3.140009e-01
v -4.893033e-01 8.588565e-02 3.186454e-01
v -4.854692e-01 8.408134e-02 3.243553e-01
v -4.816286e-01 8.227467e-02 3.300776e-01
v -4.777818e-01 8.046567e-02 3.358121e-01
v -4.745555e-01 7.927008e-02 3.420547e-01
v -4.719592e-01 7.869137e-02 3.487871e-01
v -4.693694e-01 7.811507e-02 3.555072e-01
v -4.674222e-01 7.816042e-02 3.626926e-01
v -4.674065e-01 8.007193e-02 3.712676e-01
v -4.680653e-01 8.261682e-02 3.802464e-01
v -4.681162e-01 8.455296e-02 3.886926e-01
v -4.662514e-01 8.462882e-02 3.957186e-01
v -4.650517e-01 8.533461e-02 4.031668e-01
v -4.651817e-01 8.730011e-02 4.114596e-01
v -4.666607e-01 9.053238e-02 4.205603e-01
v -4.675223e-01 9.315246e-02 4.291468e-01
v -4.677570e-01 9.515672e-02 4.372373e-01
v -4.680233e-01 9.717271e-02 4.452665e-01
v -4.683214e-01 9.920045e-02 4.532343e-01
v -4.679767e-01 1.006066e-01 4.607370e-01
v -4.683350e-01 1.026567e-01 4.685883e-01
v -4.680442e-01 1.040827e-01 4.759867e-01
v -4.670948e-01 1.048812e-01 4.829505e-01
v -4.668515e-01 1.063249e-01 4.902569e-01
v -4.652530e-01 1.064995e-01 4.967678e-01
v -4.629737e-01 1.060383e-01 5.028869e-01
v -4.593075e-01 1.042962e-01 5.082719e-01
v -4.584341e-01 1.051229e-01 5.150885e-01
v -4.561738e-01 1.046688e-01 5.211709e-01
v -4.546260e-01 1.048621e-01 5.275835e-01
v -4.530909e-01 1.050601e-01 5.339717e-01
v -4.515684e-01 1.052628e-01 5.403354e-01
v -5.738360e-01 1.215699e-01 2.142425e-01
v -5.696137e-01 1.192238e-01 2.190104e-01
v -5.653788e-01 1.168730e-01 2.238030e-01
v -5.605744e-01 1.139205e-01 2.279962e-01
v -5.574305e-01 1.127554e-01 2.340793e-01
v -5.542866e-01 1.115903e-01 2.401625e-01
v -5.505766e-01 1.098248e-01 2.456403e-01
v -5.479988e-01 1.092602e-01 2.523289e-01
v -5.448549e-01 1.080951e-01 2.584121e-01
v -5.411354e-01 1.063261e-01 2.639082e-01
v -5.374095e-01 1.045546e-01 2.694167e-01
v -5.330953e-01 1.021744e-01 2.743624e-01
v -5.299387e-01 1.010047e-01 2.804701e-01
v -5.267821e-01 9.983488e-02 2.865779e-01
v -5.224426e-01 9.744535e-02 2.915727e-01
v -5.180904e-01 9.505106e-02 2.965922e-01
v -5.125298e-01 9.142756e-02 3.005477e-01
v -5.069439e-01 8.779471e-02 3.045524e-01
v -5.043534e-01 8.722541e-02 3.112656e-01
v -5.029840e-01 8.789006e-02 3.190181e-01
v -4.985810e-01 8.547698e-02 3.241355e-01
v -4.941655e-01 8.305928e-02 3.292776e-01
v -4.885034e-01 7.939814e-02 3.334294e-01
v -4.840561e-01 7.696864e-02 3.386329e-01
v -4.814657e-01 7.639944e-02 3.453460e-01
v -4.795079e-01 7.645530e-02 3.525360e-01
v -4.775628e-01 7.651596e-02 3.597013e-01
v -4.756305e-01 7.658128e-02 3.668422e-01
v -4.756183e-01 7.853030e-02 3.753702e-01
v -4.756378e-01 8.049115e-02 3.838369e-01
v -4.750469e-01 8.183505e-02 3.917840e-01
v -4.731905e-01 8.192850e-02 3.987776e-01
v -4.719954e-01 8.265780e-02 4.061928e-01
v -4.727745e-01 8.529074e-02 4.148910e-01
v -4.742464e-01 8.857122e-02 4.239493e-01
v -4.744466e-01 9.059899e-02 4.320664e-01
v -4.753396e-01 9.327419e-02 4.405438e-01
v -4.762708e-01 9.596354e-02 4.489476e-01
v -4.765725e-01 9.802888e-02 4.568685e-01
v -4.762350e-01 9.946670e-02 4.643249e-01
v -4.759230e-01 1.009139e-01 4.717324e-01
v -4.749592e-01 1.017289e-01 4.786999e-01
v -4.746947e-01 1.031938e-01 4.860154e-01
v -4.737721e-01 1.040240e-01 4.929032e-01
v -4.721820e-01 1.042162e-01 4.993818e-01
v -4.692251e-01 1.031204e-01 5.051032e-01
v -4.669611e-01 1.026721e-01 5.111847e-01
v -4.660956e-01 1.035235e-01 5.179622e-01
v -4.638505e-01 1.030823e-01 5.240069e-01
v -4.623143e-01 1.032944e-01 5.303812e-01
v -4.607907e-01 1.035112e-01 5.367311e-01
v -4.599886e-01 1.043861e-01 5.433859e-01
v -4.584936e-01 1.046135e-01 5.496805e-01
v -5.737036e-01 1.115895e-01 2.105416e-01
v -5.716528e-01 1.116255e-01 2.178955e-01
v -5.690650e-01 1.110645e-01 2.245956e-01
v -5.653776e-01 1.093001e-01 2.300373e-01
v -5.622401e-01 1.081374e-01 2.361083e-01
v -5.591025e-01 1.069746e-01 2.421792e-01
v -5.554025e-01 1.052056e-01 2.476454e-01
v -5.522618e-01 1.040416e-01 2.537224e-01
v -5.491211e-01 1.028778e-01 2.597995e-01
v -5.465523e-01 1.023237e-01 2.664629e-01
v -5.439898e-01 1.017722e-01 2.731140e-01
v -5.402771e-01 9.999831e-02 2.786047e-01
v -5.365581e-01 9.822219e-02 2.841078e-01
v -5.334174e-01 9.705828e-02 2.901849e-01
v -5.296889e-01 9.527860e-02 2.957063e-01
v -5.259541e-01 9.349663e-02 3.012400e-01
v -5.204306e-01 8.985786e-02 3.051558e-01
v -5.148817e-01 8.620967e-02 3.091209e-01
v -5.117093e-01 8.503403e-02 3.152593e-01
v -5.097441e-01 8.510174e-02 3.224475e-01
v -5.065780e-01 8.392843e-02 3.285737e-01
v -5.028020e-01 8.213116e-02 3.341870e-01
v -4.977934e-01 7.908117e-02 3.387996e-01
v -4.933820e-01 7.665049e-02 3.439494e-01
v -4.901970e-01 7.547017e-02 3.501123e-01
v -4.882571e-01 7.554719e-02 3.572516e-01
v -4.863299e-01 7.562893e-02 3.643662e-01
v -4.844154e-01 7.571543e-02 3.714564e-01
v -4.837778e-01 7.707100e-02 3.794617e-01
v -4.831657e-01 7.843603e-02 3.874177e-01
v -4.832173e-01 8.044497e-02 3.957824e-01
v -4.820173e-01 8.119418e-02 4.031828e-01
v -4.808364e-01 8.195050e-02 4.105466e-01
v -4.809704e-01 8.399002e-02 4.187518e-01
v -4.824384e-01 8.731978e-02 4.277615e-01
v -4.819878e-01 8.874466e-02 4.354049e-01
v -4.822201e-01 9.082060e-02 4.434199e-01
v -4.838054e-01 9.419388e-02 4.522028e-01
v -4.841074e-01 9.629563e-02 4.600829e-01
v -4.844411e-01 9.840912e-02 4.679017e-01
v -4.834661e-01 9.924170e-02 4.748669e-01
v -4.825102e-01 1.000814e-01 4.817952e-01
v -4.822498e-01 1.015767e-01 4.890706e-01
v -4.799757e-01 1.011320e-01 4.951637e-01
v -4.770251e-01 1.000385e-01 5.008728e-01
v -4.747606e-01 9.959730e-02 5.069475e-01
v -4.731914e-01 9.981177e-02 5.133692e-01
v -4.716351e-01 1.000309e-01 5.197665e-01
v -4.693960e-01 9.959911e-02 5.257921e-01
v -4.685604e-01 1.004834e-01 5.324874e-01
v -4.677439e-01 1.013748e-01 5.391459e-01
v -4.669465e-01 1.022731e-01 5.457676e-01
v -4.640434e-01 1.011973e-01 5.513847e-01
v -5.758856e-01 1.064175e-01 2.193235e-01
v -5.732971e-01 1.058635e-01 2.260167e-01
v -5.696167e-01 1.040944e-01 2.314531e-01
v -5.664823e-01 1.029329e-01 2.375179e-01
v -5.633479e-01 1.017713e-01 2.435826e-01
v -5.607722e-01 1.012220e-01 2.502513e-01
v -5.582028e-01 1.006751e-01 2.569077e-01
v -5.550748e-01 9.951589e-02 2.629603e-01
v -5.536514e-01 1.002041e-01 2.707691e-01
v -5.511041e-01 9.966531e-02 2.773827e-01
v -5.474142e-01 9.789275e-02 2.828374e-01
v -5.442957e-01 9.673709e-02 2.888716e-01
v -5.405963e-01 9.496087e-02 2.943448e-01
v -5.368905e-01 9.318237e-02 2.998302e-01
v -5.331784e-01 9.140155e-02 3.053279e-01
v -5.288696e-01 8.899436e-02 3.102954e-01
v -5.239545e-01 8.595728e-02 3.147509e-01
v -5.196172e-01 8.353953e-02 3.197736e-01
v -5.158671e-01 8.174456e-02 3.253448e-01
v -5.127137e-01 8.057596e-02 3.314464e-01
v -5.095603e-01 7.940739e-02 3.375480e-01
v -5.064069e-01 7.823879e-02 3.436496e-01
v -5.026409e-01 7.643795e-02 3.492515e-01
v -4.994843e-01 7.526820e-02 3.553592e-01
v -4.963277e-01 7.409844e-02 3.614669e-01
v -4.944153e-01 7.420022e-02 3.685371e-01
v -4.931408e-01 7.494351e-02 3.760578e-01
v -4.925136e-01 7.633201e-02 3.840108e-01
v -4.912804e-01 7.709067e-02 3.914518e-01
v -4.913354e-01 7.913721e-02 3.997695e-01
v -4.907845e-01 8.055391e-02 4.075753e-01
v -4.896177e-01 8.133714e-02 4.148875e-01
v -4.897585e-01 8.341543e-02 4.230396e-01
v -4.899308e-01 8.550547e-02 4.311304e-01
v -4.901350e-01 8.760725e-02 4.391598e-01
v -4.903708e-01 8.972077e-02 4.471279e-01
v -4.912952e-01 9.249461e-02 4.554484e-01
v -4.915976e-01 9.463280e-02 4.632878e-01
v -4.919317e-01 9.678272e-02 4.710658e-01
v -4.916310e-01 9.829216e-02 4.783871e-01
v -4.906861e-01 9.915768e-02 4.852701e-01
v -4.884146e-01 9.872109e-02 4.913500e-01
v -4.861495e-01 9.828695e-02 4.974178e-01
v -4.838907e-01 9.785510e-02 5.034732e-01
v -4.809560e-01 9.676755e-02 5.091517e-01
v -4.787067e-01 9.633925e-02 5.151888e-01
v -4.771523e-01 9.657366e-02 5.215660e-01
v -4.756107e-01 9.681282e-02 5.279187e-01
v -4.740818e-01 9.705670e-02 5.342469e-01
v -4.732636e-01 9.796914e-02 5.408846e-01
v -4.717631e-01 9.822354e-02 5.471576e-01
v -5.795717e-01 1.006090e-01 2.201161e-01
v -5.769795e-01 1.000608e-01 2.268085e-01
v -5.738483e-01 9.890047e-02 2.328672e-01
v -5.707171e-01 9.774011e-02 2.389258e-01
v -5.681376e-01 9.719670e-02 2.455936e-01
v -5.666745e-01 9.789193e-02 2.534554e-01
v -5.646722e-01 9.797486e-02 2.606835e-01
v -5.621213e-01 9.744202e-02 2.672962e-01
v -5.601412e-01 9.753316e-02 2.744812e-01
v -5.576060e-01 9.700618e-02 2.810633e-01
v -5.539358e-01 9.523357e-02 2.864881e-01
v -5.508330e-01 9.408376e-02 2.924916e-01
v -5.471532e-01 9.230764e-02 2.979349e-01
v -5.440474e-01 9.115668e-02 3.039446e-01
v -5.409415e-01 9.000572e-02 3.099542e-01
v -5.372490e-01 8.822481e-02 3.154219e-01
v -5.323705e-01 8.517953e-02 3.198309e-01
v -5.280659e-01 8.275939e-02 3.248061e-01
v -5.231526e-01 7.970121e-02 3.292824e-01
v -5.188195e-01 7.727051e-02 3.343127e-01
v -5.162813e-01 7.674237e-02 3.409008e-01
v -5.131437e-01 7.557964e-02 3.469718e-01
v -5.087885e-01 7.314070e-02 3.520451e-01
v -5.062566e-01 7.261494e-02 3.586209e-01
v -5.043462e-01 7.273196e-02 3.656712e-01
v -5.030669e-01 7.349525e-02 3.731772e-01
v -5.018065e-01 7.426560e-02 3.806465e-01
v -5.011898e-01 7.568699e-02 3.885471e-01
v -4.999707e-01 7.647263e-02 3.959368e-01
v -5.000325e-01 7.855795e-02 4.042013e-01
v -4.988578e-01 7.936006e-02 4.115051e-01
v -4.983393e-01 8.081785e-02 4.192156e-01
v -4.984868e-01 8.293489e-02 4.273146e-01
v -4.980223e-01 8.441261e-02 4.349209e-01
v -4.982300e-01 8.655196e-02 4.429034e-01
v -4.984693e-01 8.870305e-02 4.508246e-01
v -4.987404e-01 9.086587e-02 4.586845e-01
v -4.990431e-01 9.304043e-02 4.664830e-01
v -4.993776e-01 9.522678e-02 4.742202e-01
v -4.984183e-01 9.610875e-02 4.811070e-01
v -4.974780e-01 9.699774e-02 4.879569e-01
v -4.958877e-01 9.723335e-02 4.943877e-01
v -4.929657e-01 9.615050e-02 5.000416e-01
v -4.907190e-01 9.573038e-02 5.060656e-01
v -4.878001e-01 9.464873e-02 5.117134e-01
v -4.848812e-01 9.356704e-02 5.173612e-01
v -4.826473e-01 9.315166e-02 5.233607e-01
v -4.811076e-01 9.340603e-02 5.296934e-01
v -4.788895e-01 9.299651e-02 5.356621e-01
v -4.773721e-01 9.325921e-02 5.419520e-01
v -4.765650e-01 9.419749e-02 5.485444e-01
v -5.806620e-01 9.425822e-02 2.276003e-01
v -5.786142e-01 9.433876e-02 2.349003e-01
v -5.760343e-01 9.380241e-02 2.415612e-01
v -5.740086e-01 9.389121e-02 2.488183e-01
v -5.725470e-01 9.460880e-02 2.566531e-01
v -5.716587e-01 9.595850e-02 2.650474e-01
v -5.691231e-01 9.543862e-02 2.716225e-01
v -5.671545e-01 9.554854e-02 2.787691e-01
v -5.646347e-01 9.503451e-02 2.853136e-01
v -5.615542e-01 9.389292e-02 2.912741e-01
v -5.584737e-01 9.275134e-02 2.972346e-01
v -5.542463e-01 9.034530e-02 3.020765e-01
v -5.511595e-01 8.920139e-02 3.080493e-01
v -5.480726e-01 8.805746e-02 3.140221e-01
v -5.449857e-01 8.691355e-02 3.199949e-01
v -5.395546e-01 8.322192e-02 3.238285e-01
v -5.340980e-01 7.952091e-02 3.277110e-01
v -5.315782e-01 7.900684e-02 3.342554e-01
v -5.290648e-01 7.849515e-02 3.407876e-01
v -5.259589e-01 7.734421e-02 3.467971e-01
v -5.222511e-01 7.555040e-02 3.523026e-01
v -5.179318e-01 7.311029e-02 3.573223e-01
v -5.142082e-01 7.131070e-02 3.628584e-01
v -5.129240e-01 7.209396e-02 3.703498e-01
v -5.122734e-01 7.353182e-02 3.782841e-01
v -5.110303e-01 7.433035e-02 3.856958e-01
v -5.098063e-01 7.513597e-02 3.930707e-01
v -5.098496e-01 7.725065e-02 4.013313e-01
v -5.086700e-01 7.807267e-02 4.086203e-01
v -5.068789e-01 7.824844e-02 4.154237e-01
v -5.063678e-01 7.973795e-02 4.230881e-01
v -5.065188e-01 8.189255e-02 4.311402e-01
v -5.067015e-01 8.405892e-02 4.391309e-01
v -5.062727e-01 8.557895e-02 4.466359e-01
v -5.058694e-01 8.710839e-02 4.540918e-01
v -5.067903e-01 8.996805e-02 4.623230e-01
v -5.077492e-01 9.284179e-02 4.704807e-01
v -5.067788e-01 9.374136e-02 4.773651e-01
v -5.051683e-01 9.398403e-02 4.838188e-01
v -5.035706e-01 9.423143e-02 4.902480e-01
v -5.019855e-01 9.448345e-02 4.966527e-01
v -4.990761e-01 9.340528e-02 5.022821e-01
v -4.968384e-01 9.299575e-02 5.082807e-01
v -4.939322e-01 9.191878e-02 5.139040e-01
v -4.903480e-01 9.017081e-02 5.191703e-01
v -4.874386e-01 8.909267e-02 5.247997e-01
v -4.852136e-01 8.868782e-02 5.307738e-01
v -4.829949e-01 8.828537e-02 5.367357e-01
v -4.807825e-01 8.788530e-02 5.426853e-01
v -4.792703e-01 8.816434e-02 5.489489e-01
v -5.864838e-01 9.095630e-02 2.308962e-01
v -5.849792e-01 9.167964e-02 2.387899e-01
v -5.824114e-01 9.115503e-02 2.454193e-01
v -5.814828e-01 9.251887e-02 2.538594e-01
v -5.805796e-01 9.389212e-02 2.622503e-01
v -5.797018e-01 9.527478e-02 2.705923e-01
v -5.777416e-01 9.540236e-02 2.777067e-01
v -5.746802e-01 9.426781e-02 2.836304e-01
v -5.727390e-01 9.440241e-02 2.907081e-01
v -5.708105e-01 9.454173e-02 2.977612e-01
v -5.671952e-01 9.277497e-02 3.030957e-01
v -5.635734e-01 9.100585e-02 3.084425e-01
v -5.599454e-01 8.923444e-02 3.138016e-01
v -5.563111e-01 8.746065e-02 3.191730e-01
v -5.526704e-01 8.568443e-02 3.245565e-01
v -5.466939e-01 8.133475e-02 3.278164e-01
v -5.401002e-01 7.632937e-02 3.306096e-01
v -5.387668e-01 7.711621e-02 3.381722e-01
v -5.368605e-01 7.726370e-02 3.451823e-01
v -5.331818e-01 7.547347e-02 3.506395e-01
v -5.294967e-01 7.368094e-02 3.561091e-01
v -5.270080e-01 7.318562e-02 3.625852e-01
v -5.239212e-01 7.204168e-02 3.685580e-01
v -5.220498e-01 7.220217e-02 3.755007e-01
v -5.208019e-01 7.302068e-02 3.828977e-01
v -5.195731e-01 7.384628e-02 3.902580e-01
v -5.189805e-01 7.533457e-02 3.980480e-01
v -5.184132e-01 7.683234e-02 4.057889e-01
v -5.166242e-01 7.702336e-02 4.125722e-01
v -5.154746e-01 7.787825e-02 4.197791e-01
v -5.143440e-01 7.874019e-02 4.269493e-01
v -5.144985e-01 8.093243e-02 4.349544e-01
v -5.146848e-01 8.313637e-02 4.428982e-01
v -5.142633e-01 8.468812e-02 4.503571e-01
v -5.145098e-01 8.691439e-02 4.581845e-01
v -5.147879e-01 8.915239e-02 4.659504e-01
v -5.150978e-01 9.140214e-02 4.736551e-01
v -5.134831e-01 9.165777e-02 4.801011e-01
v -5.118810e-01 9.191801e-02 4.865226e-01
v -5.109501e-01 9.285399e-02 4.933064e-01
v -5.080534e-01 9.178053e-02 4.989113e-01
v -5.044920e-01 9.003381e-02 5.041416e-01
v -5.022600e-01 8.963360e-02 5.101210e-01
v -4.986922e-01 8.788453e-02 5.153636e-01
v -4.951181e-01 8.613301e-02 5.206184e-01
v -4.922150e-01 8.505719e-02 5.262355e-01
v -4.893120e-01 8.398140e-02 5.318527e-01
v -4.864090e-01 8.290559e-02 5.374698e-01
v -4.835059e-01 8.182977e-02 5.430869e-01
v -4.819831e-01 8.211939e-02 5.493552e-01
v -5.929097e-01 9.097594e-02 2.445287e-01
v -5.925132e-01 9.300022e-02 2.535600e-01
v -5.926890e-01 9.567076e-02 2.631369e-01
v -5.907277e-01 9.581243e-02 2.702374e-01
v -5.887791e-01 9.595880e-02 2.773135e-01
v -5.868432e-01 9.610987e-02 2.843650e-01
v -5.843667e-01 9.562635e-02 2.908097e-01
v -5.818965e-01 9.514521e-02 2.972421e-01
v -5.788730e-01 9.402477e-02 3.030922e-01
v -5.752867e-01 9.226152e-02 3.083785e-01
v -5.716942e-01 9.049597e-02 3.136772e-01
v -5.675261e-01 8.808288e-02 3.184363e-01
v -5.639176e-01 8.631142e-02 3.237655e-01
v -5.603029e-01 8.453762e-02 3.291070e-01
v -5.549458e-01 8.081548e-02 3.328611e-01
v -5.495635e-01 7.708390e-02 3.366643e-01
v -5.464956e-01 7.594702e-02 3.426003e-01
v -5.434277e-01 7.481016e-02 3.485363e-01
v -5.385860e-01 7.171313e-02 3.529462e-01
v -5.361031e-01 7.122731e-02 3.594032e-01
v -5.354196e-01 7.271097e-02 3.673372e-01
v -5.341605e-01 7.354708e-02 3.747318e-01
v -5.317125e-01 7.307412e-02 3.811213e-01
v -5.292709e-01 7.260358e-02 3.874986e-01
v -5.280562e-01 7.345612e-02 3.948074e-01
v -5.274740e-01 7.497733e-02 4.025451e-01
v -5.263005e-01 7.584525e-02 4.097741e-01
v -5.251461e-01 7.672013e-02 4.169664e-01
v -5.246337e-01 7.826715e-02 4.245692e-01
v -5.241465e-01 7.982360e-02 4.321230e-01
v -5.236848e-01 8.138948e-02 4.396277e-01
v -5.232484e-01 8.296474e-02 4.470833e-01
v -5.222017e-01 8.387960e-02 4.540671e-01
v -5.230906e-01 8.681439e-02 4.622642e-01
v -5.233755e-01 8.909115e-02 4.699771e-01
v -5.224017e-01 9.003307e-02 4.768198e-01
v -5.207985e-01 9.030739e-02 4.832274e-01
v -5.198596e-01 9.126215e-02 4.900028e-01
v -5.182849e-01 9.154709e-02 4.963552e-01
v -5.154073e-01 9.048070e-02 5.019232e-01
v -5.125296e-01 8.941427e-02 5.074913e-01
v -5.089877e-01 8.766750e-02 5.126917e-01
v -5.047721e-01 8.523676e-02 5.175429e-01
v -5.005438e-01 8.280139e-02 5.224186e-01
v -4.969766e-01 8.104520e-02 5.276681e-01
v -4.934030e-01 7.928673e-02 5.329299e-01
v -4.898231e-01 7.752579e-02 5.382039e-01
v -4.869200e-01 7.644999e-02 5.438211e-01
v -4.819579e-01 7.330839e-02 5.484640e-01
v -6.050249e-01 9.547101e-02 2.552008e-01
v -6.051942e-01 9.818272e-02 2.647421e-01
v -6.032540e-01 9.834667e-02 2.717859e-01
v -6.002464e-01 9.723211e-02 2.776054e-01
v -5.983251e-01 9.740316e-02 2.846123e-01
v -5.958702e-01 9.693490e-02 2.910072e-01
v -5.934216e-01 9.646901e-02 2.973897e-01
v -5.898740e-01 9.471282e-02 3.026094e-01
v -5.863200e-01 9.295431e-02 3.078413e-01
v -5.822006e-01 9.054474e-02 3.125224e-01
v -5.786307e-01 8.878027e-02 3.177849e-01
v -5.750545e-01 8.701356e-02 3.230598e-01
v -5.714720e-01 8.524447e-02 3.283469e-01
v -5.673114e-01 8.281958e-02 3.331076e-01
v -5.631381e-01 8.039009e-02 3.378930e-01
v -5.589521e-01 7.795587e-02 3.427029e-01
v -5.547535e-01 7.551693e-02 3.475373e-01
v -5.511266e-01 7.373147e-02 3.529103e-01
v -5.474933e-01 7.194351e-02 3.582954e-01
v -5.450353e-01 7.147417e-02 3.646964e-01
v -5.443654e-01 7.299181e-02 3.725720e-01
v -5.431236e-01 7.385608e-02 3.799089e-01
v -5.407004e-01 7.339965e-02 3.862425e-01
v -5.382836e-01 7.294551e-02 3.925638e-01
v -5.370862e-01 7.382627e-02 3.998149e-01
v -5.359079e-01 7.471406e-02 4.070293e-01
v -5.353615e-01 7.627760e-02 4.146657e-01
v -5.348406e-01 7.785053e-02 4.222531e-01
v -5.337256e-01 7.876179e-02 4.293448e-01
v -5.332521e-01 8.035232e-02 4.368402e-01
v -5.328040e-01 8.195223e-02 4.442866e-01
v -5.311237e-01 8.221252e-02 4.508275e-01
v -5.307200e-01 8.382888e-02 4.581880e-01
v -5.309767e-01 8.613151e-02 4.659153e-01
v -5.306268e-01 8.776780e-02 4.731715e-01
v -5.290194e-01 8.805513e-02 4.795713e-01
v -5.280693e-01 8.902751e-02 4.863442e-01
v -5.264903e-01 8.932537e-02 4.926889e-01
v -5.249241e-01 8.962795e-02 4.990090e-01
v -5.227164e-01 8.925130e-02 5.049256e-01
v -5.192004e-01 8.750687e-02 5.100839e-01
v -5.156781e-01 8.576009e-02 5.152545e-01
v -5.114858e-01 8.332355e-02 5.200766e-01
v -5.072808e-01 8.088223e-02 5.249233e-01
v -5.037331e-01 7.912605e-02 5.301429e-01
v -4.995060e-01 7.667657e-02 5.350324e-01
v -4.945898e-01 7.353027e-02 5.396104e-01
v -4.916931e-01 7.245681e-02 5.452153e-01
v -6.161584e-01 1.016294e-01 2.740629e-01
v -6.137220e-01 1.011752e-01 2.804141e-01
v -6.091467e-01 9.813344e-02 2.843566e-01
v -6.061707e-01 9.703062e-02 2.901148e-01
v -6.037374e-01 9.657767e-02 2.964599e-01
v -6.007647e-01 9.547605e-02 3.022119e-01
v -5.966939e-01 9.306994e-02 3.068148e-01
v -5.920584e-01 9.000592e-02 3.108739e-01
v -5.879590e-01 8.758928e-02 3.155320e-01
v -5.849641e-01 8.647941e-02 3.213271e-01
v -5.825308e-01 8.602639e-02 3.276720e-01
v -5.784094e-01 8.360160e-02 3.323731e-01
v -5.742753e-01 8.117208e-02 3.370987e-01
v -5.706996e-01 7.939825e-02 3.423805e-01
v -5.676919e-01 7.828368e-02 3.482000e-01
v -5.641068e-01 7.650634e-02 3.535001e-01
v -5.599347e-01 7.406275e-02 3.582993e-01
v -5.563337e-01 7.227955e-02 3.636301e-01
v -5.533134e-01 7.116031e-02 3.694742e-01
v -5.520637e-01 7.204340e-02 3.768027e-01
v -5.508330e-01 7.293361e-02 3.840944e-01
v -5.484282e-01 7.249117e-02 3.903842e-01
v -5.466295e-01 7.272209e-02 3.971381e-01
v -5.466521e-01 7.497422e-02 4.052785e-01
v -5.461003e-01 7.656473e-02 4.128933e-01
v -5.449647e-01 7.749015e-02 4.200010e-01
v -5.438481e-01 7.842267e-02 4.270719e-01
v -5.421349e-01 7.868525e-02 4.336603e-01
v -5.410533e-01 7.963066e-02 4.406638e-01
v -5.406124e-01 8.126228e-02 4.480640e-01
v -5.395718e-01 8.222290e-02 4.549877e-01
v -5.391785e-01 8.387215e-02 4.622959e-01
v -5.388106e-01 8.553075e-02 4.695551e-01
v -5.378334e-01 8.651495e-02 4.763562e-01
v -5.355998e-01 8.613592e-02 4.823148e-01
v -5.346544e-01 8.713179e-02 4.890546e-01
v -5.330838e-01 8.744731e-02 4.953671e-01
v -5.308787e-01 8.707887e-02 5.012705e-01
v -5.286800e-01 8.671285e-02 5.071618e-01
v -5.258340e-01 8.565817e-02 5.126685e-01
v -5.223313e-01 8.391135e-02 5.178092e-01
v -5.181623e-01 8.146896e-02 5.226023e-01
v -5.139806e-01 7.902178e-02 5.274198e-01
v -5.104525e-01 7.726561e-02 5.326097e-01
v -5.062486e-01 7.481028e-02 5.374702e-01
v -5.013595e-01 7.165214e-02 5.420198e-01
v -6.249134e-01 1.026365e-01 2.809192e-01
v -6.214460e-01 1.008955e-01 2.859994e-01
v -6.169072e-01 9.784553e-02 2.898953e-01
v -6.134209e-01 9.609755e-02 2.950123e-01
v -6.099282e-01 9.434726e-02 3.001416e-01
v -6.058871e-01 9.193767e-02 3.047032e-01
v -6.018333e-01 8.952339e-02 3.092894e-01
v -5.977668e-01 8.710447e-02 3.139001e-01
v -5.942393e-01 8.534121e-02 3.190968e-01
v -5.912601e-01 8.423721e-02 3.248611e-01
v -5.888390e-01 8.379600e-02 3.311746e-01
v -5.858631e-01 8.269316e-02 3.369328e-01
v -5.817586e-01 8.026016e-02 3.416171e-01
v -5.787763e-01 7.915498e-02 3.473876e-01
v -5.757940e-01 7.804982e-02 3.531580e-01
v -5.733856e-01 7.761324e-02 3.594470e-01
v -5.698295e-01 7.583948e-02 3.646989e-01
v -5.662671e-01 7.406334e-02 3.699630e-01
v -5.638650e-01 7.362916e-02 3.762398e-01
v -5.614691e-01 7.319729e-02 3.825042e-01
v -5.596693e-01 7.344239e-02 3.892443e-01
v -5.578822e-01 7.369208e-02 3.959599e-01
v -5.561077e-01 7.394654e-02 4.026509e-01
v -5.555442e-01 7.556167e-02 4.102564e-01
v -5.556084e-01 7.786543e-02 4.182762e-01
v -5.544933e-01 7.882026e-02 4.253201e-01
v -5.527886e-01 7.910055e-02 4.318763e-01
v -5.510964e-01 7.938544e-02 4.384079e-01
v -5.494171e-01 7.967511e-02 4.449149e-01
v -5.483685e-01 8.065454e-02 4.518301e-01
v -5.479603e-01 8.232728e-02 4.591351e-01
v -5.475774e-01 8.400940e-02 4.663911e-01
v -5.465923e-01 8.501232e-02 4.731837e-01
v -5.456261e-01 8.602230e-02 4.799395e-01
v -5.440450e-01 8.634840e-02 4.862565e-01
v -5.418394e-01 8.598702e-02 4.921530e-01
v -5.402804e-01 8.632127e-02 4.984270e-01
v -5.380906e-01 8.596582e-02 5.042929e-01
v -5.352605e-01 8.491703e-02 5.097689e-01
v -5.317804e-01 8.317139e-02 5.148737e-01
v -5.289472e-01 8.212142e-02 5.203560e-01
v -5.254576e-01 8.037230e-02 5.254790e-01
v -5.206431e-01 7.722008e-02 5.299085e-01
v -5.164719e-01 7.476239e-02 5.347215e-01
v -5.056313e-01 6.527299e-02 5.361520e-01
v -5.080919e-01 6.983288e-02 5.444213e-01
v -6.288910e-01 9.784897e-02 2.822718e-01
v -6.259563e-01 9.676144e-02 2.879504e-01
v -6.224927e-01 9.501463e-02 2.930313e-01
v -6.190227e-01 9.326548e-02 2.981246e-01
v -6.155465e-01 9.151401e-02 3.032302e-01
v -6.109871e-01 8.843463e-02 3.071898e-01
v -6.064088e-01 8.534820e-02 3.111863e-01
v -6.034455e-01 8.425008e-02 3.169199e-01
v -6.010301e-01 8.381827e-02 3.232142e-01
v -5.980700e-01 8.272130e-02 3.289418e-01
v -5.951100e-01 8.162438e-02 3.346692e-01
v -5.927073e-01 8.119721e-02 3.409390e-01
v -5.903109e-01 8.077242e-02 3.471965e-01
v -5.867934e-01 7.900567e-02 3.523818e-01
v -5.838365e-01 7.790989e-02 3.581032e-01
v -5.808796e-01 7.681414e-02 3.638246e-01
v -5.790691e-01 7.706970e-02 3.705692e-01
v -5.766950e-01 7.665317e-02 3.767838e-01
v -5.731680e-01 7.488285e-02 3.819875e-01
v -5.708001e-01 7.446866e-02 3.881898e-01
v -5.690245e-01 7.473717e-02 3.948669e-01
v -5.678508e-01 7.569193e-02 4.020005e-01
v -5.655114e-01 7.528833e-02 4.081477e-01
v -5.643693e-01 7.625482e-02 4.152200e-01
v -5.638447e-01 7.791348e-02 4.227179e-01
v -5.621421e-01 7.820904e-02 4.292541e-01
v -5.610569e-01 7.919665e-02 4.362160e-01
v -5.587747e-01 7.881416e-02 4.422527e-01
v -5.571100e-01 7.912377e-02 4.487152e-01
v -5.560725e-01 8.012910e-02 4.555851e-01
v -5.556716e-01 8.183352e-02 4.628440e-01
v -5.552959e-01 8.354740e-02 4.700538e-01
v -5.543218e-01 8.457611e-02 4.768011e-01
v -5.527396e-01 8.491630e-02 4.831042e-01
v -5.511700e-01 8.526114e-02 4.893827e-01
v -5.496131e-01 8.561068e-02 4.956368e-01
v -5.474322e-01 8.526575e-02 5.014773e-01
v -5.452577e-01 8.492321e-02 5.073056e-01
v -5.424466e-01 8.388148e-02 5.127449e-01
v -5.389893e-01 8.213700e-02 5.178136e-01
v -5.355257e-01 8.039020e-02 5.228946e-01
v -5.320558e-01 7.864107e-02 5.279878e-01
v -5.266126e-01 7.477091e-02 5.320369e-01
v -5.152148e-01 6.452478e-02 5.330205e-01
v -5.189601e-01 7.054531e-02 5.419816e-01
v -6.314955e-01 9.397869e-02 2.911036e-01
v -6.280483e-01 9.223070e-02 2.961609e-01
v -6.235382e-01 8.914781e-02 3.000494e-01
v -6.200719e-01 8.739276e-02 3.051435e-01
v -6.160649e-01 8.496681e-02 3.096715e-01
v -6.120449e-01 8.253606e-02 3.142241e-01
v -6.090943e-01 8.144263e-02 3.199332e-01
v -6.072321e-01 8.169359e-02 3.267621e-01
v -6.042878e-01 8.060250e-02 3.324590e-01
v -6.013436e-01 7.951146e-02 3.381558e-01
v -5.989530e-01 7.909601e-02 3.443941e-01
v -5.965688e-01 7.868299e-02 3.506202e-01
v -5.936308e-01 7.759424e-02 3.563048e-01
v -5.912561e-01 7.718473e-02 3.625125e-01
v -5.888877e-01 7.677754e-02 3.687079e-01
v -5.865257e-01 7.637276e-02 3.748911e-01
v -5.835973e-01 7.528759e-02 3.805573e-01
v -5.812447e-01 7.488625e-02 3.867219e-01
v -5.788985e-01 7.448730e-02 3.928745e-01
v -5.777231e-01 7.546323e-02 3.999872e-01
v -5.759812e-01 7.575872e-02 4.065830e-01
v -5.742521e-01 7.605904e-02 4.131544e-01
v -5.731273e-01 7.705370e-02 4.201691e-01
v -5.714267e-01 7.736452e-02 4.266852e-01
v -5.697387e-01 7.767999e-02 4.331768e-01
v -5.680634e-01 7.800023e-02 4.396438e-01
v -5.657964e-01 7.763058e-02 4.456430e-01
v -5.647508e-01 7.865465e-02 4.525044e-01
v -5.643350e-01 8.038262e-02 4.597600e-01
v -5.633306e-01 8.142196e-02 4.665416e-01
v -5.623453e-01 8.246837e-02 4.732865e-01
v -5.607587e-01 8.282141e-02 4.795818e-01
v -5.598082e-01 8.388077e-02 4.862593e-01
v -5.582502e-01 8.424438e-02 4.924994e-01
v -5.579643e-01 8.602050e-02 4.995036e-01
v -5.564380e-01 8.639585e-02 5.056825e-01
v -5.536522e-01 8.536351e-02 5.110728e-01
v -5.515057e-01 8.503860e-02 5.168389e-01
v -5.480807e-01 8.329880e-02 5.218532e-01
v -5.440037e-01 8.084698e-02 5.265162e-01
v -5.366705e-01 7.483581e-02 5.294162e-01
v -5.325523e-01 7.236871e-02 5.341589e-01
v -5.310418e-01 7.274997e-02 5.403070e-01
v -6.375232e-01 9.191268e-02 2.948525e-01
v -6.335742e-01 8.949379e-02 2.992841e-01
v -6.290879e-01 8.639792e-02 3.031504e-01
v -6.251103e-01 8.396842e-02 3.076373e-01
v -6.211201e-01 8.153418e-02 3.121485e-01
v -6.176513e-01 7.977095e-02 3.172556e-01
v -6.147134e-01 7.868221e-02 3.229401e-01
v -6.123159e-01 7.827151e-02 3.291838e-01
v -6.093812e-01 7.718396e-02 3.348623e-01
v -6.069932e-01 7.677678e-02 3.410876e-01
v -6.046116e-01 7.637202e-02 3.473006e-01
v -6.027894e-01 7.665226e-02 3.540358e-01
v -6.004236e-01 7.625332e-02 3.602182e-01
v -5.986236e-01 7.654182e-02 3.669106e-01
v -5.962737e-01 7.614870e-02 3.730622e-01
v -5.933643e-01 7.507054e-02 3.786916e-01
v -5.904549e-01 7.399240e-02 3.843210e-01
v -5.886898e-01 7.429383e-02 3.909459e-01
v -5.869373e-01 7.459989e-02 3.975463e-01
v -5.846191e-01 7.421859e-02 4.036366e-01
v -5.834705e-01 7.522623e-02 4.106734e-01
v -5.823408e-01 7.624088e-02 4.176734e-01
v -5.806421e-01 7.656695e-02 4.241695e-01
v -5.783651e-01 7.620093e-02 4.301802e-01
v -5.772831e-01 7.723321e-02 4.370882e-01
v -5.756225e-01 7.757334e-02 4.435107e-01
v -5.727733e-01 7.651752e-02 4.490236e-01
v -5.717357e-01 7.756628e-02 4.558458e-01
v -5.713239e-01 7.932479e-02 4.630614e-01
v -5.709375e-01 8.109261e-02 4.702280e-01
v -5.699631e-01 8.216482e-02 4.769276e-01
v -5.683913e-01 8.253793e-02 4.831784e-01
v -5.668322e-01 8.291566e-02 4.894047e-01
v -5.659086e-01 8.400668e-02 4.960061e-01
v -5.656300e-01 8.581453e-02 5.029642e-01
v -5.634892e-01 8.549895e-02 5.087112e-01
v -5.613547e-01 8.518574e-02 5.144459e-01
v -5.592266e-01 8.487486e-02 5.201683e-01
v -5.583823e-01 8.599526e-02 5.266164e-01
v -6.375172e-01 8.477324e-02 3.006157e-01
v -6.335661e-01 8.233900e-02 3.050673e-01
v -6.296023e-01 7.990007e-02 3.095433e-01
v -6.256259e-01 7.745644e-02 3.140439e-01
v -6.226975e-01 7.637125e-02 3.197102e-01
v -6.203026e-01 7.596875e-02 3.259407e-01
v -6.179140e-01 7.556864e-02 3.321590e-01
v -6.144521e-01 7.380070e-02 3.372609e-01
v -6.126130e-01 7.408919e-02 3.440129e-01
v -6.107866e-01 7.438241e-02 3.507405e-01
v -6.089728e-01 7.468026e-02 3.574434e-01
v -6.060665e-01 7.360325e-02 3.630667e-01
v -6.048275e-01 7.459915e-02 3.702545e-01
v -6.036075e-01 7.560212e-02 3.774053e-01
v -6.001582e-01 7.383885e-02 3.824826e-01
v -5.983983e-01 7.415676e-02 3.890814e-01
v -5.966510e-01 7.447925e-02 3.956556e-01
v -5.949164e-01 7.480654e-02 4.022053e-01
v -5.931945e-01 7.513847e-02 4.087305e-01
v -5.914854e-01 7.547509e-02 4.152311e-01
v -5.897888e-01 7.581647e-02 4.217072e-01
v -5.881050e-01 7.616248e-02 4.281588e-01
v -5.864338e-01 7.651320e-02 4.345860e-01
v -5.841847e-01 7.616479e-02 4.405344e-01
v -5.819419e-01 7.581867e-02 4.464707e-01
v -5.791087e-01 7.476868e-02 4.519529e-01
v -5.780755e-01 7.584093e-02 4.587420e-01
v -5.782680e-01 7.833737e-02 4.663533e-01
v -5.778858e-01 8.013582e-02 4.734799e-01
v -5.775288e-01 8.194361e-02 4.805575e-01
v -5.765845e-01 8.304870e-02 4.871748e-01
v -5.756592e-01 8.416086e-02 4.937554e-01
v -5.741338e-01 8.456563e-02 4.999004e-01
v -5.719989e-01 8.425949e-02 5.056282e-01
v -5.692448e-01 8.323886e-02 5.109571e-01
v -5.595760e-01 7.432060e-02 5.121013e-01
v -6.409387e-01 7.938169e-02 3.013514e-01
v -6.375122e-01 7.761963e-02 3.063927e-01
v -6.340793e-01 7.585525e-02 3.114463e-01
v -6.306402e-01 7.408843e-02 3.165120e-01
v -6.277213e-01 7.300676e-02 3.221599e-01
v -6.253323e-01 7.261375e-02 3.283712e-01
v -6.229495e-01 7.222297e-02 3.345704e-01
v -6.205730e-01 7.183458e-02 3.407573e-01
v -6.182030e-01 7.144856e-02 3.469318e-01
v -6.158393e-01 7.106489e-02 3.530942e-01
v -6.140275e-01 7.137802e-02 3.597772e-01
v -6.116796e-01 7.100024e-02 3.659089e-01
v -6.104421e-01 7.201845e-02 3.730697e-01
v -6.092236e-01 7.304369e-02 3.801936e-01
v -6.069073e-01 7.267769e-02 3.862639e-01
v -6.051589e-01 7.301430e-02 3.928244e-01
v -6.034233e-01 7.335562e-02 3.993602e-01
v -6.017002e-01 7.370165e-02 4.058715e-01
v -5.999900e-01 7.405242e-02 4.123583e-01
v -5.982923e-01 7.440787e-02 4.188206e-01
v -5.966073e-01 7.476797e-02 4.252582e-01
v -5.943545e-01 7.442542e-02 4.312059e-01
v -5.921081e-01 7.408520e-02 4.371415e-01
v -5.892811e-01 7.303760e-02 4.426114e-01
v -5.870441e-01 7.270087e-02 4.485284e-01
v -5.842203e-01 7.165443e-02 4.539922e-01
v -5.837819e-01 7.346111e-02 4.611954e-01
v -5.845679e-01 7.670602e-02 4.692068e-01
v -5.853920e-01 7.996502e-02 4.771446e-01
v -5.862541e-01 8.323816e-02 4.850090e-01
v -5.859362e-01 8.508940e-02 4.919790e-01
v -5.838070e-01 8.479268e-02 4.976876e-01
v -5.810688e-01 8.377795e-02 5.029859e-01
v -5.783305e-01 8.276321e-02 5.082841e-01
v -5.743488e-01 8.030310e-02 5.128109e-01
v -6.404242e-01 7.153242e-02 3.065419e-01
v -6.375084e-01 7.045190e-02 3.121836e-01
v -6.345927e-01 6.937140e-02 3.178253e-01
v -6.321999e-01 6.898420e-02 3.240359e-01
v -6.292874e-01 6.790486e-02 3.296713e-01
v -6.274333e-01 6.821681e-02 3.364202e-01
v -6.255919e-01 6.853357e-02 3.431446e-01
v -6.237632e-01 6.885492e-02 3.498443e-01
v -6.219471e-01 6.918096e-02 3.565197e-01
v -6.196019e-01 6.881140e-02 3.626383e-01
v -6.172629e-01 6.844416e-02 3.687446e-01
v -6.154786e-01 6.878193e-02 3.753586e-01
v -6.142584e-01 6.982837e-02 3.824617e-01
v -6.125026e-01 7.017676e-02 3.890205e-01
v -6.107594e-01 7.052987e-02 3.955548e-01
v -6.084680e-01 7.018021e-02 4.015691e-01
v -6.073113e-01 7.125011e-02 4.085497e-01
v -6.056061e-01 7.161727e-02 4.150103e-01
v -6.039137e-01 7.198920e-02 4.214464e-01
v -6.016603e-01 7.165366e-02 4.273871e-01
v -5.994132e-01 7.132049e-02 4.333157e-01
v -5.965926e-01 7.027521e-02 4.387734e-01
v -5.937720e-01 6.922994e-02 4.442311e-01
v -5.915376e-01 6.890145e-02 4.501351e-01
v -5.893097e-01 6.857528e-02 4.560268e-01
v -5.894585e-01 7.112818e-02 4.636423e-01
v -5.902348e-01 7.441299e-02 4.716244e-01
v -5.922472e-01 7.915496e-02 4.803765e-01
v -5.955145e-01 8.536108e-02 4.898616e-01
v -5.927920e-01 8.435222e-02 4.951292e-01
v -5.900697e-01 8.334336e-02 5.003968e-01
v -5.873473e-01 8.233447e-02 5.056644e-01
v -5.846249e-01 8.132564e-02 5.109320e-01
v -6.409374e-01 6.504863e-02 3.129210e-01
v -6.385378e-01 6.466615e-02 3.191368e-01
v -6.361443e-01 6.428593e-02 3.253405e-01
v -6.337573e-01 6.390814e-02 3.315318e-01
v -6.313767e-01 6.353269e-02 3.377110e-01
v -6.305883e-01 6.526768e-02 3.455271e-01
v -6.292935e-01 6.630822e-02 3.527504e-01
v -6.269477e-01 6.594571e-02 3.588622e-01
v -6.251464e-01 6.629177e-02 3.654929e-01
v -6.233578e-01 6.664250e-02 3.720991e-01
v -6.215818e-01 6.699789e-02 3.786809e-01
v -6.192709e-01 6.664833e-02 3.847251e-01
v -6.175171e-01 6.701193e-02 3.912638e-01
v -6.163301e-01 6.809243e-02 3.982787e-01
v -6.146049e-01 6.846665e-02 4.047624e-01
v -6.134526e-01 6.956003e-02 4.117098e-01
v -6.123196e-01 7.066045e-02 4.186204e-01
v -6.095052e-01 6.961750e-02 4.240659e-01
v -6.078307e-01 7.001053e-02 4.304513e-01
v -6.050227e-01 6.896997e-02 4.358845e-01
v -6.022147e-01 6.792937e-02 4.413177e-01
v -5.994068e-01 6.688879e-02 4.467508e-01
v -5.971814e-01 6.657091e-02 4.526295e-01
v -5.949624e-01 6.625537e-02 4.584959e-01
v -5.951053e-01 6.884219e-02 4.660829e-01
v -5.958719e-01 7.216708e-02 4.740357e-01
v -5.990575e-01 7.841544e-02 4.835986e-01
v -6.424753e-01 5.997259e-02 3.204468e-01
v -6.400813e-01 5.959948e-02 3.266435e-01
v -6.376938e-01 5.922871e-02 3.328279e-01
v -6.363561e-01 6.027511e-02 3.401103e-01
v -6.355623e-01 6.203711e-02 3.479048e-01
v -6.342660e-01 6.309882e-02 3.551074e-01
v -6.324572e-01 6.345662e-02 3.617366e-01
v -6.317300e-01 6.524330e-02 3.694022e-01
v -6.299530e-01 6.561284e-02 3.759701e-01
v -6.271069e-01 6.455818e-02 3.814769e-01
v -6.242610e-01 6.350350e-02 3.869836e-01
v -6.230564e-01 6.459919e-02 3.940083e-01
v -6.218709e-01 6.570203e-02 4.009963e-01
v -6.207044e-01 6.681180e-02 4.079475e-01
v -6.201135e-01 6.864897e-02 4.153495e-01
v -6.184284e-01 6.905263e-02 4.217395e-01
v -6.167559e-01 6.946089e-02 4.281050e-01
v -6.145299e-01 6.915002e-02 4.339767e-01
v -6.111716e-01 6.739149e-02 4.389099e-01
v -6.078071e-01 6.563061e-02 4.438556e-01
v -6.050118e-01 6.459474e-02 4.492642e-01
v -6.027953e-01 6.428735e-02 4.551175e-01
v -6.011672e-01 6.471207e-02 4.613971e-01
v -6.001369e-01 6.587241e-02 4.680846e-01
v -6.440109e-01 5.492471e-02 3.279450e-01
v -6.426526e-01 5.598526e-02 3.352432e-01
v -6.418312e-01 5.776605e-02 3.430591e-01
v -6.410353e-01 5.955623e-02 3.508258e-01
v -6.402648e-01 6.135591e-02 3.585435e-01
v -6.389920e-01 6.244811e-02 3.656762e-01
v -6.377382e-01 6.354731e-02 3.727721e-01
v -6.359695e-01 6.393448e-02 3.793077e-01
v -6.331394e-01 6.288569e-02 3.847838e-01
v -6.303093e-01 6.183691e-02 3.902599e-01
v -6.280225e-01 6.151080e-02 3.962413e-01
v -6.262887e-01 6.191088e-02 4.027093e-01
v -6.256671e-01 6.376566e-02 4.101388e-01
v -6.256238e-01 6.635605e-02 4.180060e-01
v -6.244999e-01 6.750347e-02 4.248505e-01
v -6.233951e-01 6.865791e-02 4.316583e-01
v -6.206220e-01 6.763026e-02 4.370239e-01
v -6.172833e-01 6.587169e-02 4.419274e-01
v -6.139382e-01 6.411078e-02 4.468431e-01
v -6.105869e-01 6.234762e-02 4.517711e-01
v -6.083793e-01 6.205081e-02 4.575991e-01
v -6.061782e-01 6.175640e-02 4.634148e-01
v -6.045648e-01 6.220116e-02 4.696499e-01
v -6.481001e-01 5.349493e-02 3.382133e-01
v -6.472766e-01 5.530394e-02 3.460014e-01
v -6.475134e-01 5.856297e-02 3.548351e-01
v -6.467470e-01 6.039319e-02 3.625127e-01
v -6.454821e-01 6.151006e-02 3.696063e-01
v -6.442361e-01 6.263395e-02 3.766630e-01
v -6.414187e-01 6.158985e-02 3.821146e-01
v -6.375345e-01 5.909335e-02 3.865329e-01
v -6.347107e-01 5.804692e-02 3.919967e-01
v -6.324266e-01 5.772904e-02 3.979649e-01
v -6.312345e-01 5.887296e-02 4.049174e-01
v -6.311535e-01 6.148568e-02 4.128174e-01
v -6.311041e-01 6.411006e-02 4.206561e-01
v -6.305343e-01 6.601311e-02 4.279536e-01
v -6.294341e-01 6.719099e-02 4.347282e-01
v -6.266769e-01 6.616923e-02 4.400633e-01
v -6.233577e-01 6.441068e-02 4.449369e-01
v -6.194672e-01 6.191190e-02 4.493674e-01
v -6.167005e-01 6.088658e-02 4.547208e-01
v -6.139337e-01 5.986128e-02 4.600743e-01
v -6.105924e-01 5.809448e-02 4.649908e-01
v -6.084002e-01 5.781067e-02 4.707812e-01
v -6.531845e-01 5.950091e-02 3.664724e-01
v -6.514073e-01 5.991394e-02 3.729926e-01
v -6.501660e-01 6.106135e-02 3.800162e-01
v -6.468380e-01 5.929219e-02 3.849151e-01
v -6.424443e-01 5.605660e-02 3.887946e-01
v -6.390972e-01 5.428046e-02 3.937302e-01
v -6.373517e-01 5.470523e-02 4.001891e-01
v -6.366971e-01 5.660584e-02 4.076182e-01
v -6.371524e-01 5.998935e-02 4.159810e-01
v -6.371002e-01 6.264905e-02 4.237850e-01
v -6.365313e-01 6.458145e-02 4.310486e-01
v -6.348840e-01 6.504254e-02 4.373172e-01
v -6.326944e-01 6.476692e-02 4.430945e-01
v -6.293948e-01 6.300837e-02 4.479383e-01
v -6.244050e-01 5.901603e-02 4.514307e-01
v -6.210832e-01 5.724928e-02 4.563173e-01
v -6.177551e-01 5.548016e-02 4.612162e-01
v -6.144208e-01 5.370869e-02 4.661274e-01
v -6.133759e-01 5.492890e-02 4.727709e-01
v -6.483835e-01 5.453102e-02 3.920816e-01
v -6.455851e-01 5.349397e-02 3.974963e-01
v -6.433189e-01 5.319720e-02 4.034139e-01
v -6.415943e-01 5.364424e-02 4.098158e-01
v -6.420368e-01 5.706659e-02 4.181555e-01
v -6.248904e-01 5.288460e-02 4.574630e-01
v -6.215692e-01 5.111084e-02 4.623566e-01
v -6.182416e-01 4.933468e-02 4.672624e-01
v -6.488762e-01 4.830800e-02 3.982040e-01
v -6.481918e-01 5.025553e-02 4.056267e-01
v -6.464693e-01 5.071791e-02 4.120087e-01
v -6.463641e-01 5.343050e-02 4.198354e-01
