v -4.346134e-01 1.781749e-01 1.876262e-01
v -4.278486e-01 1.743002e-01 1.740232e-01
v -4.178716e-01 1.742326e-01 1.769382e-01
v -4.048680e-01 1.782255e-01 1.973428e-01
v -3.947735e-01 1.786263e-01 2.022010e-01
v -4.440716e-01 1.705866e-01 1.930208e-01
v -4.339780e-01 1.707758e-01 1.969001e-01
v -4.237551e-01 1.712004e-01 2.017491e-01
v -4.144920e-01 1.704725e-01 2.017491e-01
v -4.047160e-01 1.704410e-01 2.046584e-01
v -3.943256e-01 1.713436e-01 2.114471e-01
v -3.845042e-01 1.715541e-01 2.153262e-01
v -3.751887e-01 1.710677e-01 2.162961e-01
v -4.443793e-01 1.620676e-01 1.974364e-01
v -4.329502e-01 1.639453e-01 2.080837e-01
v -4.226020e-01 1.646463e-01 2.138915e-01
v -4.134087e-01 1.639239e-01 2.138915e-01
v -4.037008e-01 1.639181e-01 2.167953e-01
v -3.930475e-01 1.653521e-01 2.255066e-01
v -3.823623e-01 1.670359e-01 2.351861e-01
v -3.722684e-01 1.680091e-01 2.419617e-01
v -3.477285e-01 1.781933e-01 2.884230e-01
v -3.367389e-01 1.818719e-01 3.058459e-01
v -3.271048e-01 1.833860e-01 3.145574e-01
v -3.178276e-01 1.844234e-01 3.213328e-01
v -4.326849e-01 1.562602e-01 2.153697e-01
v -4.216244e-01 1.579823e-01 2.250305e-01
v -4.112406e-01 1.589801e-01 2.317931e-01
v -4.011267e-01 1.597401e-01 2.375896e-01
v -3.906011e-01 1.612451e-01 2.462845e-01
v -3.797271e-01 1.635000e-01 2.578775e-01
v -3.682649e-01 1.670043e-01 2.743009e-01
v -3.566076e-01 1.712706e-01 2.936226e-01
v -3.461897e-01 1.738205e-01 3.061817e-01
v -3.356929e-01 1.768824e-01 3.206729e-01
v -3.260216e-01 1.787136e-01 3.303339e-01
v -3.177682e-01 1.778060e-01 3.293678e-01
v -4.788197e-01 1.405898e-01 1.802109e-01
v -4.667735e-01 1.428339e-01 1.917818e-01
v -4.548949e-01 1.450912e-01 2.033524e-01
v -4.431837e-01 1.473616e-01 2.149232e-01
v -4.312531e-01 1.501466e-01 2.284225e-01
v -4.193313e-01 1.531981e-01 2.428860e-01
v -4.088759e-01 1.545036e-01 2.505998e-01
v -3.983598e-01 1.560702e-01 2.592777e-01
v -3.879691e-01 1.576468e-01 2.679559e-01
v -3.769111e-01 1.605003e-01 2.814550e-01
v -3.648352e-01 1.654009e-01 3.026682e-01
v -3.539345e-01 1.687985e-01 3.180957e-01
v -3.442211e-01 1.704283e-01 3.267739e-01
v -3.335875e-01 1.741128e-01 3.431657e-01
v -3.249236e-01 1.742297e-01 3.460584e-01
v -5.329423e-01 1.391971e-01 1.952404e-01
v -5.235605e-01 1.384599e-01 1.952404e-01
v -5.146785e-01 1.372167e-01 1.933157e-01
v -5.052829e-01 1.364784e-01 1.933157e-01
v -4.961230e-01 1.354860e-01 1.923533e-01
v -4.862624e-01 1.352565e-01 1.942782e-01
v -4.757637e-01 1.357949e-01 1.990900e-01
v -4.644748e-01 1.373617e-01 2.077513e-01
v -4.531037e-01 1.391948e-01 2.173750e-01
v -4.412688e-01 1.418094e-01 2.298858e-01
v -4.290335e-01 1.452106e-01 2.452839e-01
v -4.172085e-01 1.483713e-01 2.597194e-01
v -4.068535e-01 1.497389e-01 2.674185e-01
v -3.959180e-01 1.521515e-01 2.789669e-01
v -3.858143e-01 1.535389e-01 2.866659e-01
v -3.750267e-01 1.562358e-01 2.991768e-01
v -3.625944e-01 1.620754e-01 3.232360e-01
v -3.521082e-01 1.650687e-01 3.367094e-01
v -3.411265e-01 1.693862e-01 3.549944e-01
v -3.308037e-01 1.729377e-01 3.703925e-01
v -5.554786e-01 1.287922e-01 1.871693e-01
v -5.438490e-01 1.301138e-01 1.948533e-01
v -5.331244e-01 1.306683e-01 1.996560e-01
v -5.227268e-01 1.309690e-01 2.034981e-01
v -5.121348e-01 1.315338e-01 2.083006e-01
v -5.028298e-01 1.308027e-01 2.083006e-01
v -4.935248e-01 1.300715e-01 2.083006e-01
v -4.833019e-01 1.303860e-01 2.121427e-01
v -4.724672e-01 1.314907e-01 2.188664e-01
v -4.610837e-01 1.333905e-01 2.284716e-01
v -4.496313e-01 1.355643e-01 2.390371e-01
v -4.389371e-01 1.369595e-01 2.467213e-01
v -4.277709e-01 1.391558e-01 2.572870e-01
v -4.163829e-01 1.418936e-01 2.697738e-01
v -4.048153e-01 1.451761e-01 2.841814e-01
v -3.941517e-01 1.474120e-01 2.947473e-01
v -3.486610e-01 1.645154e-01 3.658255e-01
v -3.381422e-01 1.684391e-01 3.821542e-01
v -3.283877e-01 1.713053e-01 3.946410e-01
v -5.550797e-01 1.207291e-01 1.935188e-01
v -5.432018e-01 1.223717e-01 2.021468e-01
v -5.325094e-01 1.229625e-01 2.069401e-01
v -5.213709e-01 1.240907e-01 2.136508e-01
v -5.105811e-01 1.249601e-01 2.194026e-01
v -5.010950e-01 1.245009e-01 2.203613e-01
v -4.913858e-01 1.243104e-01 2.222786e-01
v -4.810145e-01 1.249264e-01 2.270719e-01
v -4.704899e-01 1.258167e-01 2.328239e-01
v -4.589688e-01 1.280597e-01 2.433693e-01
v -4.476013e-01 1.303146e-01 2.539144e-01
v -4.369937e-01 1.317708e-01 2.615837e-01
v -4.264978e-01 1.332357e-01 2.692530e-01
v -4.147965e-01 1.366093e-01 2.836329e-01
v -4.033047e-01 1.399993e-01 2.980128e-01
v -3.934157e-01 1.412257e-01 3.047236e-01
v -3.542215e-01 1.630457e-01 3.881271e-01
v -3.454766e-01 1.637896e-01 3.929204e-01
v -3.366623e-01 1.648142e-01 3.986722e-01
v -3.275348e-01 1.666729e-01 4.073003e-01
v -5.538383e-01 1.135329e-01 2.027239e-01
v -5.420046e-01 1.152399e-01 2.113353e-01
v -5.308275e-01 1.164124e-01 2.180328e-01
v -5.202651e-01 1.170473e-01 2.228168e-01
v -5.102754e-01 1.171413e-01 2.256873e-01
v -5.005722e-01 1.169648e-01 2.276008e-01
v -4.901842e-01 1.176134e-01 2.323848e-01
v -4.791745e-01 1.190921e-01 2.400393e-01
v -4.687235e-01 1.200288e-01 2.457802e-01
v -4.574899e-01 1.220759e-01 2.553483e-01
v -4.461865e-01 1.244104e-01 2.658730e-01
v -4.350365e-01 1.267570e-01 2.763979e-01
v -4.242358e-01 1.288381e-01 2.859659e-01
v -4.133859e-01 1.312083e-01 2.964909e-01
v -4.032348e-01 1.327545e-01 3.041454e-01
v -3.625208e-01 1.565091e-01 3.921714e-01
v -3.539061e-01 1.570041e-01 3.959985e-01
v -3.450536e-01 1.580664e-01 4.017395e-01
v -3.364248e-01 1.588532e-01 4.065235e-01
v -3.276001e-01 1.602106e-01 4.132210e-01
v -5.525895e-01 1.064310e-01 2.119031e-01
v -5.402540e-01 1.087589e-01 2.224075e-01
v -5.288701e-01 1.102624e-01 2.300471e-01
v -5.191518e-01 1.100983e-01 2.319570e-01
v -5.089574e-01 1.104963e-01 2.357769e-01
v -4.988189e-01 1.108986e-01 2.395965e-01
v -4.884981e-01 1.115863e-01 2.443713e-01
v -4.777850e-01 1.128428e-01 2.510561e-01
v -4.667214e-01 1.146712e-01 2.596506e-01
v -4.555663e-01 1.167921e-01 2.692000e-01
v -4.441306e-01 1.194905e-01 2.806594e-01
v -4.330655e-01 1.219183e-01 2.911638e-01
v -4.225465e-01 1.237895e-01 2.997585e-01
v -4.098826e-01 1.290891e-01 3.198123e-01
v -3.706217e-01 1.502838e-01 3.971633e-01
v -3.621593e-01 1.505181e-01 4.000280e-01
v -3.534300e-01 1.513309e-01 4.048027e-01
v -3.447706e-01 1.521492e-01 4.095776e-01
v -3.364617e-01 1.523956e-01 4.124423e-01
v -3.279279e-01 1.532237e-01 4.172171e-01
v -5.620546e-01 9.873320e-02 2.162908e-01
v -5.504919e-01 1.002768e-01 2.239156e-01
v -5.374000e-01 1.035393e-01 2.372588e-01
v -5.263690e-01 1.048182e-01 2.439304e-01
v -5.172525e-01 1.041019e-01 2.439304e-01
v -5.068732e-01 1.048189e-01 2.486959e-01
v -4.960727e-01 1.061159e-01 2.553676e-01
v -4.863241e-01 1.062695e-01 2.582269e-01
v -4.756911e-01 1.075796e-01 2.648986e-01
v -4.644819e-01 1.097640e-01 2.744295e-01
v -4.529769e-01 1.125382e-01 2.858665e-01
v -4.422716e-01 1.144557e-01 2.944445e-01
v -4.316919e-01 1.163831e-01 3.030222e-01
v -4.214346e-01 1.180293e-01 3.106470e-01
v -4.078738e-01 1.249333e-01 3.354275e-01
v -3.688633e-01 1.466961e-01 4.126279e-01
v -3.611441e-01 1.457831e-01 4.116749e-01
v -3.526369e-01 1.463407e-01 4.154873e-01
v -3.444812e-01 1.463128e-01 4.173933e-01
v -3.364943e-01 1.459918e-01 4.183466e-01
v -3.282535e-01 1.462638e-01 4.212058e-01
v -5.601688e-01 9.236356e-02 2.273296e-01
v -5.481028e-01 9.454837e-02 2.368420e-01
v -5.353541e-01 9.761944e-02 2.492081e-01
v -5.249235e-01 9.836630e-02 2.539643e-01
v -5.150826e-01 9.853290e-02 2.568180e-01
v -5.047774e-01 9.928963e-02 2.615742e-01
v -4.942961e-01 1.003458e-01 2.672817e-01
v -4.838984e-01 1.014085e-01 2.729890e-01
v -4.735846e-01 1.024779e-01 2.786964e-01
v -4.629041e-01 1.041450e-01 2.863064e-01
v -4.521172e-01 1.061170e-01 2.948675e-01
v -4.384993e-01 1.122527e-01 3.167459e-01
v -3.670900e-01 1.432969e-01 4.280408e-01
v -3.635275e-01 1.348714e-01 4.033086e-01
v -3.519896e-01 1.411705e-01 4.251871e-01
v -3.441854e-01 1.405573e-01 4.251871e-01
v -3.369468e-01 1.387353e-01 4.213820e-01
v -3.291147e-01 1.381199e-01 4.213820e-01
v -5.659895e-01 8.832175e-02 2.430821e-01
v -5.562540e-01 8.819687e-02 2.449808e-01
v -5.440128e-01 9.075574e-02 2.554241e-01
v -5.321996e-01 9.302816e-02 2.649179e-01
v -5.223991e-01 9.321826e-02 2.677661e-01
v -5.129010e-01 9.311207e-02 2.696648e-01
v -5.029236e-01 9.360829e-02 2.734622e-01
v -4.922623e-01 9.501106e-02 2.801080e-01
v -4.816986e-01 9.642146e-02 2.867537e-01
v -4.716980e-01 9.723597e-02 2.915006e-01
v -4.608644e-01 9.926526e-02 3.000449e-01
v -4.082392e-01 1.482610e-01 4.576422e-01
v -4.014774e-01 1.464495e-01 4.538447e-01
v -6.124753e-01 8.308916e-02 2.455172e-01
v -6.000775e-01 8.538335e-02 2.549925e-01
v -5.871855e-01 8.829235e-02 2.663627e-01
v -5.763207e-01 8.939971e-02 2.720479e-01
v -5.670549e-01 8.899842e-02 2.729954e-01
v -5.595789e-01 8.677680e-02 2.682577e-01
v -5.491428e-01 8.759095e-02 2.729954e-01
v -5.376483e-01 8.962933e-02 2.815232e-01
v -5.282051e-01 8.954095e-02 2.834181e-01
v -5.195940e-01 8.853751e-02 2.824707e-01
v -5.107078e-01 8.783926e-02 2.824707e-01
v -5.008051e-01 8.836849e-02 2.862608e-01
v -4.897226e-01 9.043917e-02 2.947884e-01
v -4.802066e-01 9.067195e-02 2.976310e-01
v -4.709658e-01 9.059951e-02 2.995261e-01
v -4.100871e-01 1.390905e-01 4.539728e-01
v -4.012328e-01 1.403557e-01 4.596578e-01
v -6.182665e-01 7.866219e-02 2.593002e-01
v -6.075346e-01 7.948696e-02 2.640286e-01
v -5.939523e-01 8.309029e-02 2.772681e-01
v -5.827879e-01 8.454829e-02 2.838878e-01
v -5.735842e-01 8.415871e-02 2.848334e-01
v -5.637875e-01 8.438971e-02 2.876703e-01
v -5.543291e-01 8.431376e-02 2.895618e-01
v -5.443196e-01 8.486168e-02 2.933445e-01
v -5.340833e-01 8.572536e-02 2.980727e-01
v -5.252949e-01 8.503480e-02 2.980727e-01
v -5.178497e-01 8.278176e-02 2.933445e-01
v -5.090264e-01 8.208845e-02 2.933445e-01
v -4.991843e-01 8.264949e-02 2.971270e-01
v -4.889028e-01 8.384328e-02 3.028010e-01
v -4.808714e-01 8.221136e-02 2.999640e-01
v -4.681237e-01 8.688109e-02 3.160405e-01
v -4.198256e-01 1.301250e-01 4.493797e-01
v -4.091752e-01 1.339587e-01 4.626192e-01
v -4.003665e-01 1.352682e-01 4.682932e-01
v -6.245692e-01 7.375722e-02 2.711512e-01
v -6.121749e-01 7.618713e-02 2.805893e-01
v -6.002520e-01 7.831376e-02 2.890838e-01
v -5.884548e-01 8.045018e-02 2.975780e-01
v -5.783734e-01 8.101958e-02 3.013533e-01
v -5.689698e-01 8.096144e-02 3.032410e-01
v -5.598983e-01 8.058897e-02 3.041847e-01
v -5.517320e-01 7.926653e-02 3.022970e-01
v -5.423772e-01 7.921222e-02 3.041847e-01
v -5.307857e-01 8.170525e-02 3.136229e-01
v -5.212666e-01 8.197838e-02 3.164542e-01
v -4.327048e-01 1.281192e-01 4.636891e-01
v -4.262603e-01 1.259109e-01 4.589700e-01
v -4.157808e-01 1.295124e-01 4.712396e-01
v -4.065494e-01 1.315101e-01 4.787902e-01
v -3.970169e-01 1.341649e-01 4.882282e-01
v -6.317822e-01 6.801769e-02 2.801392e-01
v -6.214404e-01 6.859373e-02 2.839071e-01
v -6.080989e-01 7.205842e-02 2.961526e-01
v -5.952715e-01 7.521631e-02 3.074559e-01
v -5.839138e-01 7.710113e-02 3.149917e-01
v -5.742605e-01 7.738407e-02 3.178176e-01
v -5.637144e-01 7.863828e-02 3.234692e-01
v -5.550796e-01 7.795978e-02 3.234692e-01
v -5.497183e-01 7.371984e-02 3.131078e-01
v -5.398442e-01 7.433255e-02 3.168755e-01
v -5.252040e-01 8.047245e-02 3.366567e-01
v -4.680683e-01 1.176415e-01 4.496916e-01
v -4.575558e-01 1.206342e-01 4.600531e-01
v -4.427940e-01 1.187799e-01 4.581691e-01
v -4.311661e-01 1.237679e-01 4.741824e-01
v -4.231925e-01 1.238357e-01 4.760664e-01
v -4.141427e-01 1.255546e-01 4.826599e-01
v -4.049769e-01 1.276116e-01 4.901956e-01
v -5.886080e-01 7.398659e-02 3.304656e-01
v -5.796820e-01 7.363914e-02 3.314057e-01
v -5.675792e-01 7.658138e-02 3.417469e-01
v -5.119367e-01 1.256522e-01 4.837022e-01
v -5.044746e-01 1.250659e-01 4.837022e-01
v -4.618076e-01 1.188818e-01 4.761814e-01
v -4.545458e-01 1.179572e-01 4.752412e-01
v -4.445282e-01 1.207093e-01 4.846422e-01
v -4.373153e-01 1.197887e-01 4.837022e-01
v -4.293826e-01 1.198732e-01 4.855824e-01
v -4.212494e-01 1.202959e-01 4.884027e-01
v -4.129368e-01 1.210584e-01 4.921630e-01
v -5.143778e-01 1.164402e-01 4.800568e-01
v -5.071795e-01 1.155138e-01 4.791184e-01
v -4.420955e-01 1.176138e-01 4.978834e-01
v -4.356954e-01 1.156680e-01 4.941303e-01
v -4.280602e-01 1.154288e-01 4.950687e-01
v -4.199813e-01 1.158761e-01 4.978834e-01
v -4.126099e-01 1.152969e-01 4.978834e-01
v -4.272021e-01 1.103943e-01 5.026524e-01
v -4.191635e-01 1.108650e-01 5.054616e-01
v -5.727561e-01 1.016017e-01 4.718983e-01
v -5.658726e-01 1.003123e-01 4.700292e-01
v -5.700639e-01 9.745096e-02 4.823117e-01
v -5.625320e-01 9.685913e-02 4.823117e-01
v -5.560473e-01 9.520655e-02 4.795137e-01
v -5.478102e-01 9.532132e-02 4.813791e-01
v -5.379253e-01 9.721167e-02 4.879077e-01
v -5.291225e-01 9.804409e-02 4.916385e-01
v -5.200545e-01 9.923663e-02 4.963019e-01
v -5.573967e-01 9.535286e-02 4.992074e-01
v -5.513750e-01 9.332856e-02 4.954842e-01
v -5.446122e-01 9.202159e-02 4.936226e-01
v -5.368143e-01 9.179662e-02 4.945533e-01
v -5.287018e-01 9.193471e-02 4.964149e-01
v -5.186868e-01 9.425009e-02 5.038615e-01
v -5.459864e-01 9.238652e-02 5.132569e-01
v -5.386570e-01 9.181059e-02 5.132569e-01
v -5.356981e-01 8.644881e-02 5.011804e-01
v -5.302532e-01 8.365363e-02 4.956067e-01
v -5.186019e-01 8.786740e-02 5.076832e-01
v -3.291557e-01 1.948537e-01 2.762601e-01
v -3.278519e-01 1.949769e-01 2.845104e-01
v -3.258439e-01 1.946370e-01 2.922143e-01
v -3.216693e-01 1.928878e-01 2.983823e-01
v -3.189477e-01 1.920814e-01 3.055580e-01
v -3.162323e-01 1.912772e-01 3.127213e-01
v -3.135231e-01 1.904753e-01 3.198723e-01
v -3.323820e-01 1.858174e-01 2.578621e-01
v -3.345633e-01 1.883006e-01 2.688513e-01
v -3.339427e-01 1.889080e-01 2.776574e-01
v -3.326309e-01 1.890499e-01 2.858991e-01
v -3.313381e-01 1.891989e-01 2.941042e-01
v -3.286191e-01 1.884007e-01 3.012667e-01
v -3.251804e-01 1.871264e-01 3.079202e-01
v -3.224708e-01 1.863316e-01 3.150643e-01
v -3.197675e-01 1.855392e-01 3.221961e-01
v -3.163352e-01 1.842672e-01 3.288373e-01
v -3.106872e-01 1.815461e-01 3.340619e-01
v -3.329961e-01 1.758701e-01 2.465883e-01
v -3.350906e-01 1.783791e-01 2.576814e-01
v -3.372358e-01 1.809070e-01 2.686765e-01
v -3.380128e-01 1.824946e-01 2.785325e-01
v -3.381151e-01 1.836155e-01 2.878006e-01
v -3.375332e-01 1.842663e-01 2.964991e-01
v -3.348201e-01 1.834775e-01 3.036425e-01
v -3.321130e-01 1.826909e-01 3.107735e-01
v -3.294124e-01 1.819068e-01 3.178923e-01
v -3.267181e-01 1.811249e-01 3.249987e-01
v -3.232984e-01 1.798576e-01 3.316154e-01
v -3.169394e-01 1.766346e-01 3.363465e-01
v -3.406787e-01 1.706357e-01 2.406497e-01
v -3.399332e-01 1.712549e-01 2.496334e-01
v -3.413111e-01 1.733326e-01 2.601636e-01
v -3.427333e-01 1.754267e-01 2.706081e-01
v -3.434943e-01 1.770519e-01 2.804471e-01
v -3.435844e-01 1.782046e-01 2.896988e-01
v -3.429940e-01 1.788812e-01 2.983819e-01
v -3.409986e-01 1.785895e-01 3.060134e-01
v -3.390158e-01 1.783025e-01 3.136204e-01
v -3.363240e-01 1.775288e-01 3.207138e-01
v -3.336387e-01 1.767575e-01 3.277950e-01
v -3.316875e-01 1.764822e-01 3.353406e-01
v -3.260937e-01 1.737376e-01 3.405087e-01
v -3.204808e-01 1.709860e-01 3.457136e-01
v -3.195482e-01 1.764609e-01 3.965335e-01
v -3.705655e-01 1.764033e-01 2.142746e-01
v -3.553069e-01 1.691309e-01 2.306582e-01
v -3.511062e-01 1.673430e-01 2.369094e-01
v -3.489669e-01 1.670125e-01 2.448029e-01
v -3.482253e-01 1.676622e-01 2.537465e-01
v -3.489006e-01 1.692991e-01 2.637033e-01
v -3.496138e-01 1.709502e-01 2.735865e-01
v -3.503650e-01 1.726152e-01 2.833961e-01
v -3.497440e-01 1.733096e-01 2.921066e-01
v -3.491481e-01 1.740132e-01 3.007681e-01
v -3.485779e-01 1.747264e-01 3.093805e-01
v -3.458887e-01 1.739609e-01 3.164608e-01
v -3.432059e-01 1.731979e-01 3.235291e-01
v -3.412506e-01 1.729355e-01 3.310669e-01
v -3.385837e-01 1.721783e-01 3.381044e-01
v -3.344684e-01 1.704222e-01 3.441900e-01
v -3.303467e-01 1.686636e-01 3.502877e-01
v -3.284199e-01 1.684118e-01 3.577705e-01
v -3.287163e-01 1.696773e-01 3.665829e-01
v -3.290445e-01 1.709545e-01 3.753340e-01
v -3.271746e-01 1.707238e-01 3.827063e-01
v -3.260639e-01 1.710055e-01 3.904871e-01
v -3.257216e-01 1.718031e-01 3.986580e-01
v -3.238993e-01 1.715900e-01 4.059384e-01
v -4.037559e-01 1.861912e-01 2.018758e-01
v -3.910928e-01 1.781613e-01 2.002094e-01
v -3.849750e-01 1.749407e-01 2.045699e-01
v -3.814984e-01 1.736523e-01 2.112970e-01
v -3.766821e-01 1.713907e-01 2.168775e-01
v -3.711804e-01 1.686368e-01 2.219156e-01
v -3.670117e-01 1.668537e-01 2.281123e-01
v -3.628367e-01 1.650681e-01 2.343213e-01
v -3.600203e-01 1.642628e-01 2.416401e-01
v -3.592670e-01 1.649370e-01 2.505741e-01
v -3.585392e-01 1.656209e-01 2.594594e-01
v -3.571447e-01 1.658192e-01 2.677652e-01
v -3.571595e-01 1.670165e-01 2.770826e-01
v -3.572059e-01 1.682256e-01 2.863387e-01
v -3.565825e-01 1.689481e-01 2.950215e-01
v -3.566891e-01 1.701794e-01 3.041610e-01
v -3.554120e-01 1.704213e-01 3.122399e-01
v -3.534427e-01 1.701682e-01 3.197884e-01
v -3.500579e-01 1.689139e-01 3.263377e-01
v -3.481078e-01 1.686680e-01 3.338494e-01
v -3.461704e-01 1.684268e-01 3.413368e-01
v -3.435219e-01 1.676836e-01 3.483305e-01
v -3.394263e-01 1.659275e-01 3.543863e-01
v -3.375141e-01 1.656957e-01 3.618244e-01
v -3.370809e-01 1.664886e-01 3.701392e-01
v -3.366731e-01 1.672910e-01 3.784051e-01
v -3.348117e-01 1.670779e-01 3.857451e-01
v -3.329629e-01 1.668695e-01 3.930607e-01
v -3.311268e-01 1.666658e-01 4.003516e-01
v -3.285545e-01 1.659510e-01 4.071983e-01
v -4.105470e-01 1.806348e-01 1.955208e-01
v -4.051640e-01 1.779030e-01 2.003526e-01
v -3.977926e-01 1.736975e-01 2.034487e-01
v -3.923623e-01 1.709483e-01 2.083727e-01
v -3.889014e-01 1.696658e-01 2.150691e-01
v -3.841085e-01 1.673984e-01 2.206205e-01
v -3.786338e-01 1.646327e-01 2.256303e-01
v -3.744847e-01 1.628495e-01 2.317972e-01
v -3.723559e-01 1.625518e-01 2.396385e-01
v -3.709186e-01 1.627561e-01 2.480033e-01
v -3.701821e-01 1.634657e-01 2.568729e-01
v -3.681009e-01 1.631857e-01 2.646223e-01
v -3.660323e-01 1.629104e-01 2.723471e-01
v -3.646679e-01 1.631416e-01 2.805708e-01
v -3.640169e-01 1.638829e-01 2.892749e-01
v -3.640891e-01 1.651377e-01 2.984410e-01
v -3.634921e-01 1.658990e-01 3.070410e-01
v -3.615123e-01 1.656566e-01 3.145941e-01
v -3.588379e-01 1.649111e-01 3.216299e-01
v -3.568804e-01 1.646770e-01 3.291402e-01
v -3.556489e-01 1.649575e-01 3.371061e-01
v -3.551533e-01 1.657564e-01 3.455099e-01
v -3.525234e-01 1.650274e-01 3.524599e-01
v -3.484535e-01 1.632736e-01 3.584735e-01
v -3.465560e-01 1.630616e-01 3.658670e-01
v -3.454009e-01 1.633704e-01 3.736860e-01
v -3.449970e-01 1.642033e-01 3.819118e-01
v -3.424115e-01 1.634908e-01 3.887760e-01
v -3.398322e-01 1.627806e-01 3.956279e-01
v -3.365172e-01 1.615521e-01 4.020422e-01
v -3.324569e-01 1.598018e-01 4.080374e-01
v -3.291386e-01 1.585721e-01 4.144579e-01
v -4.239784e-01 1.787889e-01 1.855990e-01
v -4.192816e-01 1.765427e-01 1.909804e-01
v -4.152189e-01 1.747842e-01 1.969886e-01
v -4.098503e-01 1.720361e-01 2.018169e-01
v -4.038099e-01 1.687861e-01 2.060917e-01
v -3.997122e-01 1.670147e-01 2.121674e-01
v -3.969263e-01 1.662352e-01 2.194110e-01
v -3.934845e-01 1.649597e-01 2.260705e-01
v -3.893773e-01 1.631848e-01 2.321647e-01
v -3.859323e-01 1.619082e-01 2.388304e-01
v -3.838309e-01 1.616352e-01 2.466027e-01
v -3.810672e-01 1.608639e-01 2.538033e-01
v -3.789881e-01 1.605992e-01 2.615327e-01
v -3.762402e-01 1.598337e-01 2.687026e-01
v -3.734988e-01 1.590707e-01 2.758603e-01
v -3.728266e-01 1.598331e-01 2.845734e-01
v -3.714889e-01 1.600961e-01 2.927211e-01
v -3.701704e-01 1.603661e-01 3.008320e-01
v -3.688708e-01 1.606431e-01 3.089061e-01
v -3.668899e-01 1.604148e-01 3.164453e-01
v -3.642182e-01 1.596776e-01 3.234681e-01
v -3.636726e-01 1.604869e-01 3.319360e-01
v -3.631527e-01 1.613058e-01 3.403549e-01
v -3.619450e-01 1.616169e-01 3.482511e-01
v -3.600402e-01 1.614168e-01 3.556432e-01
v -3.574285e-01 1.607018e-01 3.625494e-01
v -3.555459e-01 1.605099e-01 3.698985e-01
v -3.536760e-01 1.603228e-01 3.772232e-01
v -3.510897e-01 1.596172e-01 3.840804e-01
v -3.492419e-01 1.594382e-01 3.913621e-01
v -3.474069e-01 1.592639e-01 3.986192e-01
v -3.433693e-01 1.575148e-01 4.045784e-01
v -3.378422e-01 1.547079e-01 4.097131e-01
v -3.337857e-01 1.529518e-01 4.157092e-01
v -4.345651e-01 1.762072e-01 1.829625e-01
v -4.298980e-01 1.739574e-01 1.883026e-01
v -4.252184e-01 1.717029e-01 1.936673e-01
v -4.211686e-01 1.699420e-01 1.996579e-01
v -4.164666e-01 1.676793e-01 2.050655e-01
v -4.111030e-01 1.649112e-01 2.099082e-01
v -4.076770e-01 1.636416e-01 2.165372e-01
v -4.049065e-01 1.628751e-01 2.237433e-01
v -4.014838e-01 1.616067e-01 2.303661e-01
v -3.987227e-01 1.608436e-01 2.375536e-01
v -3.953031e-01 1.595764e-01 2.441703e-01
v -3.912154e-01 1.578015e-01 2.502345e-01
v -3.877926e-01 1.565330e-01 2.568574e-01
v -3.857185e-01 1.562847e-01 2.645605e-01
v -3.829798e-01 1.555299e-01 2.717052e-01
v -3.816088e-01 1.558023e-01 2.798934e-01
v -3.802567e-01 1.560816e-01 2.880447e-01
v -3.782367e-01 1.558533e-01 2.956437e-01
v -3.762293e-01 1.556297e-01 3.032181e-01
v -3.749281e-01 1.559279e-01 3.112715e-01
v -3.736458e-01 1.562330e-01 3.192878e-01
v -3.716828e-01 1.560259e-01 3.267765e-01
v -3.704354e-01 1.563441e-01 3.347256e-01
v -3.699131e-01 1.571910e-01 3.431166e-01
v -3.687069e-01 1.575245e-01 3.509860e-01
v -3.668073e-01 1.573408e-01 3.583519e-01
v -3.642047e-01 1.566364e-01 3.652328e-01
v -3.630460e-01 1.569874e-01 3.730101e-01
v -3.611845e-01 1.568179e-01 3.803025e-01
v -3.586103e-01 1.561240e-01 3.871282e-01
v -3.567709e-01 1.559627e-01 3.943776e-01
v -3.556756e-01 1.563372e-01 4.020323e-01
v -3.509262e-01 1.540570e-01 4.075319e-01
v -3.454262e-01 1.512383e-01 4.126383e-01
v -3.406483e-01 1.489474e-01 4.181931e-01
v -3.351134e-01 1.461159e-01 4.233671e-01
v -3.280649e-01 1.422032e-01 4.277795e-01
v -4.413249e-01 1.706754e-01 1.766281e-01
v -4.391865e-01 1.704177e-01 1.844400e-01
v -4.357954e-01 1.691611e-01 1.910015e-01
v -4.317683e-01 1.674014e-01 1.969562e-01
v -4.277351e-01 1.656393e-01 2.029232e-01
v -4.243377e-01 1.643803e-01 2.094969e-01
v -4.196496e-01 1.621082e-01 2.148938e-01
v -4.155972e-01 1.603391e-01 2.208975e-01
v -4.121903e-01 1.590766e-01 2.274897e-01
v -4.081285e-01 1.573039e-01 2.335118e-01
v -4.053764e-01 1.565515e-01 2.406740e-01
v -4.019695e-01 1.552889e-01 2.472662e-01
v -3.978981e-01 1.535127e-01 2.533066e-01
v -3.944880e-01 1.522490e-01 2.599050e-01
v -3.930899e-01 1.525331e-01 2.681214e-01
v -3.910371e-01 1.523072e-01 2.757678e-01
v -3.889970e-01 1.520859e-01 2.833897e-01
v -3.862891e-01 1.513498e-01 2.904660e-01
v -3.842711e-01 1.511367e-01 2.980450e-01
v -3.822659e-01 1.509285e-01 3.055995e-01
v -3.816526e-01 1.517707e-01 3.141345e-01
v -3.803719e-01 1.520983e-01 3.221241e-01
v -3.784140e-01 1.519075e-01 3.295865e-01
v -3.764688e-01 1.517215e-01 3.370244e-01
v -3.752388e-01 1.520678e-01 3.449158e-01
v -3.747334e-01 1.529501e-01 3.532425e-01
v -3.721271e-01 1.522516e-01 3.601226e-01
v -3.709509e-01 1.526180e-01 3.679098e-01
v -3.705088e-01 1.535236e-01 3.761137e-01
v -3.693738e-01 1.539052e-01 3.838212e-01
v -3.668151e-01 1.532244e-01 3.906094e-01
v -3.642627e-01 1.525460e-01 3.973853e-01
v -3.617165e-01 1.518697e-01 4.041488e-01
v -3.584458e-01 1.506577e-01 4.104773e-01
v -3.537070e-01 1.483668e-01 4.159723e-01
v -3.489556e-01 1.460713e-01 4.214919e-01
v -3.449318e-01 1.443128e-01 4.274404e-01
v -3.401581e-01 1.420089e-01 4.330029e-01
v -3.331314e-01 1.380680e-01 4.374132e-01
v -4.425236e-01 1.605965e-01 1.646077e-01
v -4.446978e-01 1.638740e-01 1.768627e-01
v -4.438004e-01 1.646400e-01 1.859158e-01
v -4.410413e-01 1.638922e-01 1.930834e-01
v -4.376565e-01 1.626379e-01 1.996326e-01
v -4.336366e-01 1.608735e-01 2.055820e-01
v -4.296101e-01 1.591068e-01 2.115437e-01
v -4.255774e-01 1.573377e-01 2.175173e-01
v -4.221831e-01 1.560798e-01 2.240850e-01
v -4.187888e-01 1.548220e-01 2.306527e-01
v -4.166969e-01 1.545960e-01 2.383589e-01
v -4.139631e-01 1.538576e-01 2.454773e-01
v -4.099210e-01 1.520851e-01 2.514696e-01
v -4.052117e-01 1.497906e-01 2.569232e-01
v -4.018174e-01 1.485327e-01 2.634909e-01
v -3.997572e-01 1.483185e-01 2.711357e-01
v -3.977095e-01 1.481090e-01 2.787560e-01
v -3.950012e-01 1.473800e-01 2.858253e-01
v -3.922993e-01 1.466534e-01 2.928826e-01
v -3.896037e-01 1.459291e-01 2.999275e-01
v -3.882800e-01 1.462624e-01 3.079759e-01
v -3.876614e-01 1.471318e-01 3.164895e-01
v -3.856898e-01 1.469504e-01 3.239625e-01
v -3.844232e-01 1.473050e-01 3.319006e-01
v -3.824801e-01 1.471342e-01 3.393185e-01
v -3.819471e-01 1.480353e-01 3.476664e-01
v -3.800357e-01 1.478763e-01 3.550231e-01
v -3.781371e-01 1.477220e-01 3.623551e-01
v -3.769592e-01 1.481094e-01 3.701215e-01
v -3.772231e-01 1.495804e-01 3.787566e-01
v -3.753750e-01 1.494448e-01 3.859905e-01
v -3.728221e-01 1.487734e-01 3.927595e-01
v -3.717171e-01 1.491879e-01 4.003848e-01
v -3.699071e-01 1.490664e-01 4.075452e-01
v -3.659282e-01 1.473172e-01 4.134147e-01
v -3.612128e-01 1.450205e-01 4.188808e-01
v -3.572180e-01 1.432655e-01 4.247810e-01
v -3.546904e-01 1.426035e-01 4.315010e-01
v -3.521691e-01 1.419438e-01 4.382085e-01
v -3.466821e-01 1.390865e-01 4.433382e-01
v -4.477879e-01 1.552619e-01 1.667344e-01
v -4.480783e-01 1.570609e-01 1.770991e-01
v -4.477848e-01 1.583616e-01 1.867726e-01
v -4.462724e-01 1.586468e-01 1.951620e-01
v -4.428939e-01 1.573948e-01 2.016990e-01
v -4.388840e-01 1.556270e-01 2.076370e-01
v -4.348676e-01 1.538567e-01 2.135870e-01
v -4.314829e-01 1.526024e-01 2.201362e-01
v -4.280981e-01 1.513480e-01 2.266855e-01
v -4.247133e-01 1.500937e-01 2.332347e-01
v -4.226234e-01 1.498830e-01 2.409208e-01
v -4.192450e-01 1.486310e-01 2.474578e-01
v -4.165204e-01 1.479033e-01 2.545510e-01
v -4.124881e-01 1.461270e-01 2.605318e-01
v -4.084496e-01 1.443486e-01 2.665250e-01
v -4.050680e-01 1.430955e-01 2.730680e-01
v -4.023528e-01 1.423711e-01 2.801427e-01
v -4.003137e-01 1.421793e-01 2.877308e-01
v -3.982870e-01 1.419921e-01 2.952943e-01
v -3.962730e-01 1.418095e-01 3.028332e-01
v -3.942718e-01 1.416317e-01 3.103476e-01
v -3.922834e-01 1.414586e-01 3.178375e-01
v -3.909929e-01 1.418260e-01 3.257977e-01
v -3.904100e-01 1.427377e-01 3.342100e-01
v -3.891608e-01 1.431204e-01 3.420904e-01
v -3.872356e-01 1.429708e-01 3.494577e-01
v -3.860213e-01 1.433665e-01 3.572708e-01
v -3.841246e-01 1.432274e-01 3.645828e-01
v -3.829451e-01 1.436360e-01 3.723284e-01
v -3.824921e-01 1.445957e-01 3.804891e-01
v -3.813539e-01 1.450197e-01 3.881550e-01
v -3.802345e-01 1.454505e-01 3.957841e-01
v -3.798514e-01 1.464361e-01 4.038099e-01
v -3.780530e-01 1.463334e-01 4.109319e-01
v -3.740969e-01 1.445855e-01 4.167655e-01
v -3.701344e-01 1.428352e-01 4.226113e-01
v -3.668955e-01 1.416349e-01 4.288785e-01
v -3.643895e-01 1.409881e-01 4.355485e-01
v -3.626259e-01 1.408984e-01 4.426030e-01
v -3.593964e-01 1.397016e-01 4.488518e-01
v -3.606219e-01 1.418471e-01 4.574074e-01
v -4.524252e-01 1.494349e-01 1.682290e-01
v -4.514661e-01 1.502360e-01 1.773370e-01
v -4.511508e-01 1.515650e-01 1.870127e-01
v -4.496241e-01 1.518667e-01 1.954058e-01
v -4.468671e-01 1.511341e-01 2.025533e-01
v -4.441166e-01 1.504040e-01 2.096887e-01
v -4.407413e-01 1.491532e-01 2.162196e-01
v -4.367319e-01 1.473781e-01 2.221642e-01
v -4.339908e-01 1.466516e-01 2.292812e-01
v -4.306155e-01 1.454008e-01 2.358121e-01
v -4.272403e-01 1.441500e-01 2.423429e-01
v -4.245119e-01 1.434281e-01 2.494353e-01
v -4.211398e-01 1.421784e-01 2.559600e-01
v -4.171145e-01 1.403976e-01 2.619354e-01
v -4.130828e-01 1.386143e-01 2.679231e-01
v -4.097045e-01 1.373623e-01 2.744601e-01
v -4.069888e-01 1.366452e-01 2.815280e-01
v -4.049451e-01 1.364661e-01 2.891082e-01
v -4.029143e-01 1.362918e-01 2.966640e-01
v -4.022405e-01 1.371988e-01 3.052202e-01
v -3.995660e-01 1.364968e-01 3.122082e-01
v -3.968977e-01 1.357972e-01 3.191841e-01
v -3.955994e-01 1.361835e-01 3.271357e-01
v -3.956896e-01 1.376627e-01 3.360265e-01
v -3.944355e-01 1.380654e-01 3.438924e-01
v -3.932005e-01 1.384752e-01 3.517214e-01
v -3.912900e-01 1.383455e-01 3.590442e-01
v -3.900899e-01 1.387682e-01 3.668057e-01
v -3.896093e-01 1.397467e-01 3.749877e-01
v -3.891542e-01 1.407347e-01 3.831207e-01
v -3.880174e-01 1.411808e-01 3.907596e-01
v -3.876098e-01 1.421864e-01 3.988007e-01
v -3.865142e-01 1.426479e-01 4.063600e-01
v -3.840044e-01 1.420070e-01 4.130291e-01
v -3.822207e-01 1.419242e-01 4.201065e-01
v -3.790039e-01 1.407322e-01 4.263308e-01
v -3.765132e-01 1.400983e-01 4.329632e-01
v -3.754873e-01 1.405856e-01 4.403875e-01
v -3.752129e-01 1.416405e-01 4.481711e-01
v -3.764348e-01 1.438283e-01 4.566850e-01
v -3.858212e-01 1.522223e-01 4.693459e-01
v -4.604714e-01 1.448856e-01 1.631113e-01
v -4.576633e-01 1.441414e-01 1.703500e-01
v -4.566956e-01 1.449684e-01 1.794426e-01
v -4.557535e-01 1.458048e-01 1.884861e-01
v -4.542188e-01 1.461253e-01 1.968707e-01
v -4.514613e-01 1.453999e-01 2.040114e-01
v -4.493342e-01 1.452044e-01 2.117372e-01
v -4.453381e-01 1.434272e-01 2.176645e-01
v -4.419660e-01 1.421775e-01 2.241892e-01
v -4.392274e-01 1.414591e-01 2.312930e-01
v -4.371321e-01 1.412754e-01 2.389575e-01
v -4.337695e-01 1.400293e-01 2.454638e-01
v -4.304069e-01 1.387832e-01 2.519701e-01
v -4.276906e-01 1.380730e-01 2.590309e-01
v -4.230323e-01 1.357539e-01 2.644344e-01
v -4.183614e-01 1.334301e-01 2.698622e-01
v -4.149893e-01 1.321805e-01 2.763869e-01
v -4.129351e-01 1.320121e-01 2.839717e-01
v -4.102314e-01 1.313066e-01 2.910079e-01
v -4.088647e-01 1.316893e-01 2.990676e-01
v -4.068487e-01 1.315350e-01 3.065789e-01
v -4.041734e-01 1.308400e-01 3.135600e-01
v -4.021795e-01 1.306939e-01 3.210283e-01
v -4.008762e-01 1.311002e-01 3.289653e-01
v -4.009542e-01 1.326111e-01 3.378398e-01
v -3.996953e-01 1.330339e-01 3.456911e-01
v -3.984554e-01 1.334636e-01 3.535054e-01
v -3.972346e-01 1.339004e-01 3.612830e-01
v -3.967264e-01 1.348977e-01 3.694863e-01
v -3.962437e-01 1.359045e-01 3.776407e-01
v -3.964866e-01 1.374765e-01 3.861962e-01
v -3.953543e-01 1.379461e-01 3.938021e-01
v -3.949477e-01 1.389810e-01 4.018092e-01
v -3.938568e-01 1.394660e-01 4.093354e-01
v -3.920719e-01 1.393974e-01 4.163990e-01
v -3.902999e-01 1.393335e-01 4.234381e-01
v -3.885404e-01 1.392743e-01 4.304526e-01
v -3.875161e-01 1.397839e-01 4.378500e-01
v -3.872362e-01 1.408659e-01 4.456118e-01
v -3.877103e-01 1.425236e-01 4.537197e-01
v -3.904117e-01 1.458959e-01 4.629333e-01
v -3.924289e-01 1.487183e-01 4.716660e-01
v -4.668949e-01 1.406605e-01 1.665094e-01
v -4.628865e-01 1.388713e-01 1.724679e-01
v -4.619103e-01 1.397242e-01 1.815450e-01
v -4.609596e-01 1.405865e-01 1.905730e-01
v -4.581919e-01 1.398646e-01 1.977250e-01
v -4.560480e-01 1.396774e-01 2.054678e-01
v -4.539166e-01 1.394949e-01 2.131859e-01
v -4.511744e-01 1.387823e-01 2.202889e-01
v -4.490652e-01 1.386081e-01 2.279641e-01
v -4.469688e-01 1.384385e-01 2.356147e-01
v -4.442519e-01 1.377353e-01 2.426687e-01
v -4.409052e-01 1.364951e-01 2.491443e-01
v -4.369190e-01 1.347143e-01 2.550601e-01
v -4.342117e-01 1.340146e-01 2.620956e-01
v -4.302192e-01 1.322315e-01 2.680237e-01
v -4.255715e-01 1.299018e-01 2.734225e-01
v -4.215632e-01 1.281126e-01 2.793810e-01
v -4.188591e-01 1.274143e-01 2.864106e-01
v -4.168196e-01 1.272658e-01 2.939508e-01
v -4.147927e-01 1.271220e-01 3.014665e-01
v -4.121141e-01 1.264330e-01 3.084469e-01
v -4.094415e-01 1.257463e-01 3.154150e-01
v -4.081175e-01 1.261666e-01 3.233680e-01
v -4.074869e-01 1.271475e-01 3.317767e-01
v -4.062040e-01 1.275831e-01 3.396500e-01
v -4.049401e-01 1.280257e-01 3.474865e-01
v -4.043793e-01 1.290325e-01 3.557603e-01
v -4.052174e-01 1.311651e-01 3.649208e-01
v -4.047135e-01 1.321930e-01 3.730842e-01
v -4.035417e-01 1.326697e-01 3.807429e-01
v -4.023887e-01 1.331534e-01 3.883647e-01
v -4.026541e-01 1.347701e-01 3.968365e-01
v -4.022484e-01 1.358344e-01 4.048099e-01
v -4.011622e-01 1.363429e-01 4.123030e-01
v -3.993857e-01 1.362919e-01 4.193342e-01
v -3.983343e-01 1.368132e-01 4.267599e-01
v -3.987328e-01 1.384792e-01 4.349742e-01
v -3.998815e-01 1.407269e-01 4.435338e-01
v -3.996247e-01 1.418464e-01 4.512188e-01
v -3.993934e-01 1.429753e-01 4.588548e-01
v -3.991874e-01 1.441136e-01 4.664418e-01
v -3.990066e-01 1.452612e-01 4.739797e-01
v -3.775518e-01 1.297190e-01 4.705663e-01
v -4.726907e-01 1.359498e-01 1.692681e-01
v -4.692964e-01 1.346919e-01 1.758356e-01
v -4.683180e-01 1.355731e-01 1.848851e-01
v -4.661508e-01 1.353918e-01 1.926568e-01
v -4.633858e-01 1.346780e-01 1.997958e-01
v -4.612406e-01 1.345049e-01 2.075246e-01
v -4.597248e-01 1.348759e-01 2.158247e-01
v -4.576082e-01 1.347134e-01 2.234983e-01
v -4.561273e-01 1.350973e-01 2.317309e-01
v -4.540391e-01 1.349453e-01 2.393494e-01
v -4.507051e-01 1.337098e-01 2.458005e-01
v -4.467385e-01 1.319289e-01 2.516864e-01
v -4.434013e-01 1.306922e-01 2.581436e-01
v -4.400641e-01 1.294555e-01 2.646008e-01
v -4.354428e-01 1.271211e-01 2.699644e-01
v -4.314541e-01 1.253321e-01 2.758933e-01
v -4.281074e-01 1.240919e-01 2.823689e-01
v -4.247607e-01 1.228517e-01 2.888446e-01
v -4.220685e-01 1.221649e-01 2.958425e-01
v -4.193829e-01 1.214806e-01 3.028282e-01
v -4.167034e-01 1.207985e-01 3.098017e-01
v -4.140305e-01 1.201189e-01 3.167628e-01
v -4.140332e-01 1.216745e-01 3.257029e-01
v -4.127265e-01 1.221231e-01 3.335983e-01
v -4.114389e-01 1.225786e-01 3.414569e-01
v -4.108471e-01 1.236030e-01 3.497582e-01
v -4.109607e-01 1.251996e-01 3.584835e-01
v -4.117892e-01 1.273722e-01 3.676148e-01
v -4.112830e-01 1.284282e-01 3.757504e-01
v -4.094231e-01 1.283608e-01 3.829272e-01
v -4.082686e-01 1.288658e-01 3.905284e-01
v -4.092207e-01 1.310841e-01 3.994204e-01
v -4.088128e-01 1.321766e-01 4.073660e-01
v -4.084302e-01 1.332785e-01 4.152625e-01
v -4.073676e-01 1.338174e-01 4.226857e-01
v -4.070325e-01 1.349369e-01 4.304902e-01
v -4.081463e-01 1.372151e-01 4.390695e-01
v -4.085832e-01 1.389316e-01 4.471694e-01
v -4.083337e-01 1.400828e-01 4.548083e-01
v -4.073883e-01 1.406652e-01 4.620047e-01
v -4.057376e-01 1.406753e-01 4.687768e-01
v -4.040995e-01 1.406901e-01 4.755244e-01
v -4.017434e-01 1.401279e-01 4.818724e-01
v -3.986597e-01 1.389852e-01 4.878390e-01
v -4.859841e-01 1.362883e-01 1.699390e-01
v -4.802460e-01 1.328892e-01 1.739178e-01
v -4.774678e-01 1.321779e-01 1.810744e-01
v -4.758964e-01 1.325500e-01 1.894579e-01
v -4.737407e-01 1.323876e-01 1.971913e-01
v -4.715976e-01 1.322297e-01 2.049000e-01
v -4.688574e-01 1.315324e-01 2.119831e-01
v -4.667366e-01 1.313828e-01 2.196489e-01
v -4.640121e-01 1.306913e-01 2.267012e-01
v -4.612942e-01 1.300023e-01 2.337413e-01
v -4.592049e-01 1.298644e-01 2.413458e-01
v -4.558772e-01 1.286312e-01 2.477847e-01
v -4.519208e-01 1.268469e-01 2.536592e-01
v -4.485899e-01 1.256126e-01 2.601042e-01
v -4.446240e-01 1.238247e-01 2.659970e-01
v -4.400133e-01 1.214797e-01 2.713560e-01
v -4.366729e-01 1.202419e-01 2.778194e-01
v -4.339771e-01 1.195610e-01 2.848165e-01
v -4.299921e-01 1.177661e-01 2.907462e-01
v -4.266518e-01 1.165282e-01 2.972096e-01
v -4.246196e-01 1.164115e-01 3.047037e-01
v -4.219428e-01 1.157377e-01 3.116642e-01
v -4.199328e-01 1.156291e-01 3.191153e-01
v -4.192627e-01 1.166534e-01 3.275359e-01
v -4.186181e-01 1.176873e-01 3.359076e-01
v -4.173287e-01 1.181640e-01 3.437454e-01
v -4.160584e-01 1.186477e-01 3.515464e-01
v -4.161597e-01 1.202762e-01 3.602555e-01
v -4.169723e-01 1.224863e-01 3.693697e-01
v -4.164575e-01 1.235682e-01 3.774898e-01
v -4.145965e-01 1.235149e-01 3.846529e-01
v -4.148151e-01 1.251868e-01 3.931351e-01
v -4.150654e-01 1.268704e-01 4.015560e-01
v -4.167379e-01 1.297173e-01 4.107870e-01
v -4.163594e-01 1.308498e-01 4.186435e-01
v -4.153047e-01 1.314134e-01 4.260275e-01
v -4.156786e-01 1.331429e-01 4.342093e-01
v -4.160842e-01 1.348840e-01 4.423297e-01
v -4.150991e-01 1.354734e-01 4.495788e-01
v -4.141330e-01 1.360699e-01 4.567912e-01
v -4.124685e-01 1.360894e-01 4.635740e-01
v -4.093753e-01 1.349432e-01 4.695590e-01
v -4.077298e-01 1.349697e-01 4.763051e-01
v -4.046429e-01 1.338258e-01 4.822779e-01
v -4.015560e-01 1.326819e-01 4.882507e-01
v -3.808689e-01 1.173796e-01 4.855338e-01
v -5.187292e-01 1.530923e-01 1.824573e-01
v -5.090649e-01 1.459312e-01 1.816536e-01
v -4.975697e-01 1.371153e-01 1.790732e-01
v -4.895270e-01 1.315316e-01 1.804512e-01
v -4.867735e-01 1.308366e-01 1.875517e-01
v -4.840266e-01 1.301441e-01 1.946401e-01
v -4.812858e-01 1.294538e-01 2.017161e-01
v -4.797570e-01 1.298636e-01 2.099931e-01
v -4.776414e-01 1.297303e-01 2.176328e-01
v -4.737109e-01 1.279484e-01 2.234651e-01
v -4.691617e-01 1.256117e-01 2.287215e-01
v -4.664462e-01 1.249308e-01 2.357485e-01
v -4.649747e-01 1.253618e-01 2.439151e-01
v -4.622783e-01 1.246880e-01 2.509054e-01
v -4.577131e-01 1.223453e-01 2.561923e-01
v -4.537635e-01 1.205563e-01 2.620615e-01
v -4.498076e-01 1.187649e-01 2.679428e-01
v -4.445763e-01 1.158500e-01 2.727460e-01
v -4.412390e-01 1.146133e-01 2.792033e-01
v -4.385427e-01 1.139395e-01 2.861935e-01
v -4.345645e-01 1.121399e-01 2.921177e-01
v -4.318746e-01 1.114685e-01 2.990957e-01
v -4.298413e-01 1.113658e-01 3.065759e-01
v -4.278207e-01 1.112678e-01 3.140317e-01
v -4.264695e-01 1.117434e-01 3.219652e-01
v -4.251374e-01 1.122260e-01 3.298620e-01
v -4.238242e-01 1.127157e-01 3.377220e-01
v -4.225301e-01 1.132123e-01 3.455451e-01
v -4.219242e-01 1.142895e-01 3.538093e-01
v -4.220165e-01 1.159508e-01 3.624959e-01
v -4.228161e-01 1.181997e-01 3.715869e-01
v -4.222960e-01 1.193086e-01 3.796855e-01
v -4.211190e-01 1.198488e-01 3.872817e-01
v -4.220170e-01 1.221341e-01 3.961826e-01
v -4.222645e-01 1.238530e-01 4.045689e-01
v -4.232352e-01 1.261652e-01 4.133287e-01
v -4.228545e-01 1.273258e-01 4.211574e-01
v -4.224991e-01 1.284958e-01 4.289371e-01
v -4.235713e-01 1.308457e-01 4.375006e-01
v -4.232730e-01 1.320369e-01 4.451699e-01
v -4.215852e-01 1.320622e-01 4.519818e-01
v -4.199101e-01 1.320923e-01 4.587692e-01
v -4.175338e-01 1.315372e-01 4.651400e-01
v -4.137300e-01 1.298021e-01 4.707271e-01
v -4.113601e-01 1.292493e-01 4.770857e-01
v -4.089965e-01 1.286988e-01 4.834320e-01
v -4.059128e-01 1.275561e-01 4.893986e-01
v -4.035587e-01 1.270091e-01 4.957266e-01
v -5.263580e-01 1.488308e-01 1.776586e-01
v -5.225421e-01 1.470841e-01 1.832771e-01
v -5.163994e-01 1.431443e-01 1.863376e-01
v -5.084752e-01 1.375464e-01 1.875502e-01
v -5.010867e-01 1.324795e-01 1.894912e-01
v -4.966019e-01 1.301522e-01 1.946388e-01
v -4.932900e-01 1.289249e-01 2.010470e-01
v -4.899781e-01 1.276976e-01 2.074552e-01
v -4.884637e-01 1.281344e-01 2.156807e-01
v -4.857636e-01 1.274665e-01 2.226702e-01
v -4.812534e-01 1.251297e-01 2.278668e-01
v -4.767306e-01 1.227883e-01 2.330880e-01
v -4.740306e-01 1.221205e-01 2.400774e-01
v -4.707219e-01 1.208943e-01 2.464795e-01
v -4.680313e-01 1.202299e-01 2.534505e-01
v -4.647258e-01 1.190049e-01 2.598464e-01
v -4.607958e-01 1.172159e-01 2.656857e-01
v -4.556042e-01 1.142940e-01 2.704361e-01
v -4.497627e-01 1.107985e-01 2.746788e-01
v -4.451638e-01 1.084289e-01 2.800472e-01
v -4.424638e-01 1.077610e-01 2.870366e-01
v -4.397700e-01 1.070955e-01 2.940138e-01
v -4.377261e-01 1.070034e-01 3.014985e-01
v -4.356949e-01 1.069160e-01 3.089588e-01
v -4.343262e-01 1.074068e-01 3.169023e-01
v -4.323235e-01 1.073300e-01 3.243073e-01
v -4.303334e-01 1.072578e-01 3.316878e-01
v -4.290155e-01 1.077675e-01 3.395332e-01
v -4.283789e-01 1.088624e-01 3.478248e-01
v -4.284335e-01 1.105460e-01 3.565443e-01
v -4.285198e-01 1.122413e-01 3.652025e-01
v -4.286377e-01 1.139484e-01 3.737994e-01
v -4.281120e-01 1.150843e-01 3.818763e-01
v -4.276119e-01 1.162297e-01 3.899043e-01
v -4.285000e-01 1.185549e-01 3.987757e-01
v -4.287416e-01 1.203078e-01 4.071335e-01
v -4.290148e-01 1.220725e-01 4.154299e-01
v -4.293197e-01 1.238489e-01 4.236650e-01
v -4.296563e-01 1.256370e-01 4.318387e-01
v -4.300246e-01 1.274368e-01 4.399511e-01
v -4.290236e-01 1.280639e-01 4.471832e-01
v -4.273378e-01 1.281046e-01 4.539750e-01
v -4.263716e-01 1.287445e-01 4.611396e-01
v -4.232942e-01 1.276041e-01 4.670940e-01
v -4.202169e-01 1.264637e-01 4.730484e-01
v -4.171395e-01 1.253233e-01 4.790028e-01
v -4.147817e-01 1.247823e-01 4.853300e-01
v -4.102621e-01 1.224420e-01 4.905451e-01
v -4.071816e-01 1.213004e-01 4.965056e-01
v -5.368074e-01 1.473288e-01 1.761714e-01
v -5.335875e-01 1.461355e-01 1.824018e-01
v -5.292211e-01 1.438376e-01 1.873365e-01
v -5.242656e-01 1.409814e-01 1.916537e-01
v -5.181320e-01 1.370088e-01 1.947367e-01
v -5.119668e-01 1.330244e-01 1.978810e-01
v -5.069417e-01 1.301424e-01 2.023332e-01
v -5.036647e-01 1.289280e-01 2.086740e-01
v -4.997953e-01 1.271541e-01 2.144036e-01
v -4.971106e-01 1.264992e-01 2.213555e-01
v -4.932350e-01 1.247230e-01 2.270974e-01
v -4.887514e-01 1.223816e-01 2.322589e-01
v -4.854649e-01 1.211637e-01 2.386180e-01
v -4.821784e-01 1.199458e-01 2.449771e-01
v -4.782805e-01 1.181614e-01 2.507619e-01
v -4.743764e-01 1.163747e-01 2.565592e-01
v -4.717012e-01 1.157232e-01 2.634925e-01
v -4.677907e-01 1.139342e-01 2.693020e-01
v -4.626262e-01 1.110005e-01 2.740240e-01
v -4.568154e-01 1.074874e-01 2.782393e-01
v -4.516096e-01 1.045384e-01 2.830412e-01
v -4.482851e-01 1.033064e-01 2.894738e-01
v -4.462337e-01 1.032261e-01 2.969571e-01
v -4.448348e-01 1.037275e-01 3.049348e-01
v -4.428120e-01 1.036577e-01 3.123628e-01
v -4.401557e-01 1.030133e-01 3.192595e-01
v -4.375057e-01 1.023712e-01 3.261438e-01
v -4.361671e-01 1.028950e-01 3.340052e-01
v -4.348474e-01 1.034257e-01 3.418296e-01
v -4.335468e-01 1.039635e-01 3.496173e-01
v -4.342509e-01 1.062640e-01 3.587967e-01
v -4.349931e-01 1.085787e-01 3.679025e-01
v -4.344368e-01 1.097322e-01 3.760069e-01
v -4.339058e-01 1.108952e-01 3.840623e-01
v -4.340749e-01 1.126575e-01 3.925203e-01
v -4.349534e-01 1.150227e-01 4.013625e-01
v -4.351889e-01 1.168096e-01 4.096916e-01
v -4.361404e-01 1.192019e-01 4.183928e-01
v -4.371297e-01 1.216081e-01 4.270203e-01
v -4.367762e-01 1.228368e-01 4.347323e-01
v -4.364482e-01 1.240750e-01 4.423952e-01
v -4.347518e-01 1.241262e-01 4.491915e-01
v -4.330680e-01 1.241821e-01 4.559634e-01
v -4.321001e-01 1.248432e-01 4.631072e-01
v -4.304450e-01 1.249097e-01 4.698239e-01
v -4.273835e-01 1.237752e-01 4.757476e-01
v -4.236093e-01 1.220366e-01 4.812933e-01
v -4.205446e-01 1.209009e-01 4.872232e-01
v -4.160419e-01 1.185524e-01 4.924215e-01
v -4.108044e-01 1.155917e-01 4.972846e-01
v -4.062732e-01 1.132327e-01 5.025381e-01
v -5.422837e-01 1.430293e-01 1.789638e-01
v -5.402058e-01 1.429537e-01 1.864821e-01
v -5.358628e-01 1.406499e-01 1.913877e-01
v -5.309344e-01 1.377819e-01 1.956767e-01
v -5.254110e-01 1.343463e-01 1.993678e-01
v -5.204415e-01 1.314632e-01 2.037368e-01
v -5.160350e-01 1.291358e-01 2.087648e-01
v -5.127865e-01 1.279320e-01 2.150504e-01
v -5.083610e-01 1.255976e-01 2.201154e-01
v -5.039229e-01 1.232586e-01 2.252050e-01
v -4.994721e-01 1.209148e-01 2.303190e-01
v -4.956064e-01 1.191351e-01 2.360494e-01
v -4.923357e-01 1.179230e-01 2.423779e-01
v -4.896695e-01 1.172823e-01 2.492860e-01
v -4.857944e-01 1.154990e-01 2.550348e-01
v -4.819131e-01 1.137135e-01 2.607960e-01
v -4.780254e-01 1.119256e-01 2.665693e-01
v -4.735144e-01 1.095595e-01 2.717999e-01
v -4.689906e-01 1.071887e-01 2.770549e-01
v -4.638309e-01 1.042351e-01 2.817918e-01
v -4.592785e-01 1.018537e-01 2.871021e-01
v -4.553434e-01 1.000482e-01 2.929674e-01
v -4.520347e-01 9.882207e-02 2.993695e-01
v -4.499981e-01 9.876175e-02 3.068081e-01
v -4.479740e-01 9.870600e-02 3.142223e-01
v -4.453204e-01 9.806986e-02 3.211059e-01
v -4.433187e-01 9.802244e-02 3.284771e-01
v -4.419783e-01 9.856728e-02 3.363175e-01
v -4.413088e-01 9.970788e-02 3.446088e-01
v -4.400096e-01 1.002680e-01 3.523696e-01
v -4.400459e-01 1.020174e-01 3.610443e-01
v -4.407753e-01 1.043708e-01 3.701269e-01
v -4.408781e-01 1.061449e-01 3.786729e-01
v -4.403450e-01 1.073360e-01 3.867006e-01
v -4.398371e-01 1.085366e-01 3.946791e-01
v -4.407027e-01 1.109405e-01 4.034981e-01
v -4.422837e-01 1.139567e-01 4.126820e-01
v -4.439089e-01 1.169893e-01 4.217801e-01
v -4.448951e-01 1.194379e-01 4.303661e-01
v -4.445457e-01 1.206971e-01 4.380380e-01
v -4.428418e-01 1.207601e-01 4.448328e-01
v -4.411507e-01 1.208277e-01 4.516031e-01
v -4.394722e-01 1.209001e-01 4.583488e-01
v -4.385058e-01 1.215835e-01 4.654657e-01
v -4.361532e-01 1.210589e-01 4.717667e-01
v -4.331012e-01 1.199279e-01 4.776720e-01
v -4.307581e-01 1.194068e-01 4.839546e-01
v -4.269972e-01 1.176658e-01 4.894827e-01
v -4.210841e-01 1.140858e-01 4.939281e-01
v -4.151457e-01 1.104965e-01 4.984225e-01
v -4.091819e-01 1.068977e-01 5.029660e-01
v -4.053672e-01 1.051368e-01 5.085983e-01
v -5.466187e-01 1.376416e-01 1.804341e-01
v -5.445367e-01 1.375789e-01 1.879448e-01
v -5.419014e-01 1.369568e-01 1.947847e-01
v -5.375657e-01 1.346412e-01 1.996918e-01
v -5.315012e-01 1.306216e-01 2.027214e-01
v -5.265554e-01 1.277254e-01 2.070682e-01
v -5.233259e-01 1.265286e-01 2.133169e-01
v -5.195148e-01 1.247619e-01 2.189500e-01
v -5.151127e-01 1.224217e-01 2.239859e-01
v -5.112858e-01 1.206490e-01 2.296497e-01
v -5.062703e-01 1.177271e-01 2.341314e-01
v -5.018301e-01 1.153728e-01 2.392409e-01
v -4.985721e-01 1.141654e-01 2.455449e-01
v -4.953141e-01 1.129581e-01 2.518488e-01
v -4.920561e-01 1.117508e-01 2.581528e-01
v -4.881912e-01 1.099640e-01 2.638902e-01
v -4.843198e-01 1.081749e-01 2.696397e-01
v -4.798289e-01 1.058018e-01 2.748474e-01
v -4.747088e-01 1.028411e-01 2.795313e-01
v -4.695697e-01 9.987329e-02 2.842521e-01
v -4.669029e-01 9.923951e-02 2.911534e-01
v -4.629904e-01 9.743509e-02 2.969827e-01
v -4.584423e-01 9.504083e-02 3.023007e-01
v -4.551464e-01 9.381938e-02 3.086782e-01
v -4.531213e-01 9.377784e-02 3.160785e-01
v -4.511090e-01 9.374102e-02 3.234543e-01
v -4.491092e-01 9.370887e-02 3.308055e-01
v -4.484121e-01 9.486826e-02 3.391181e-01
v -4.470922e-01 9.544248e-02 3.468948e-01
v -4.464428e-01 9.661958e-02 3.551155e-01
v -4.464732e-01 9.840304e-02 3.637618e-01
v -4.465352e-01 1.001982e-01 3.723466e-01
v -4.479505e-01 1.032038e-01 3.817947e-01
v -4.480823e-01 1.050248e-01 3.902447e-01
v -4.469114e-01 1.056543e-01 3.977332e-01
v -4.477705e-01 1.080993e-01 4.065167e-01
v -4.493412e-01 1.111624e-01 4.156644e-01
v -4.509562e-01 1.142420e-01 4.247262e-01
v -4.519358e-01 1.167317e-01 4.332767e-01
v -4.515874e-01 1.180203e-01 4.409148e-01
v -4.505780e-01 1.187096e-01 4.480905e-01
v -4.488985e-01 1.187961e-01 4.548224e-01
v -4.472315e-01 1.188873e-01 4.615298e-01
v -4.448815e-01 1.183708e-01 4.678177e-01
v -4.425379e-01 1.178568e-01 4.740934e-01
v -4.409027e-01 1.179597e-01 4.807394e-01
v -4.399853e-01 1.186830e-01 4.877373e-01
v -4.362535e-01 1.169456e-01 4.932172e-01
v -4.296691e-01 1.127334e-01 4.972525e-01
v -4.251973e-01 1.103673e-01 5.024233e-01
v -4.221484e-01 1.092375e-01 5.083226e-01
v -4.183785e-01 1.074860e-01 5.138759e-01
v -5.515020e-01 1.328332e-01 1.825608e-01
v -5.488600e-01 1.322158e-01 1.894059e-01
v -5.467862e-01 1.321707e-01 1.968843e-01
v -5.424644e-01 1.298458e-01 2.017807e-01
v -5.364247e-01 1.257991e-01 2.048021e-01
v -5.320681e-01 1.234612e-01 2.097660e-01
v -5.282734e-01 1.216933e-01 2.153755e-01
v -5.238945e-01 1.193472e-01 2.203823e-01
v -5.200840e-01 1.175733e-01 2.260223e-01
v -5.174355e-01 1.169536e-01 2.328798e-01
v -5.136187e-01 1.151774e-01 2.385322e-01
v -5.092049e-01 1.128184e-01 2.436065e-01
v -5.041848e-01 1.098729e-01 2.481212e-01
v -5.003395e-01 1.080863e-01 2.538287e-01
v -4.970878e-01 1.068813e-01 2.601204e-01
v -4.944392e-01 1.062614e-01 2.669778e-01
v -4.905845e-01 1.044713e-01 2.727038e-01
v -4.867232e-01 1.026787e-01 2.784419e-01
v -4.810175e-01 9.911750e-02 2.825503e-01
v -4.759022e-01 9.613678e-02 2.872490e-01
v -4.732443e-01 9.551352e-02 2.941249e-01
v -4.699705e-01 9.430031e-02 3.004595e-01
v -4.654457e-01 9.190010e-02 3.057484e-01
v -4.615371e-01 9.008995e-02 3.115786e-01
v -4.588854e-01 8.946896e-02 3.184421e-01
v -4.568751e-01 8.944744e-02 3.257979e-01
v -4.548775e-01 8.943053e-02 3.331291e-01
v -4.541749e-01 9.061692e-02 3.414201e-01
v -4.541423e-01 9.241331e-02 3.501481e-01
v -4.528461e-01 9.301805e-02 3.578550e-01
v -4.528704e-01 9.483558e-02 3.664727e-01
v -4.535806e-01 9.726894e-02 3.754967e-01
v -4.549856e-01 1.003215e-01 3.849086e-01
v -4.557748e-01 1.027841e-01 3.937792e-01
v -4.552752e-01 1.040458e-01 4.016778e-01
v -4.554676e-01 1.059255e-01 4.099704e-01
v -4.563614e-01 1.084269e-01 4.186387e-01
v -4.579661e-01 1.115535e-01 4.276643e-01
v -4.589392e-01 1.140843e-01 4.361793e-01
v -4.592711e-01 1.160157e-01 4.442021e-01
v -4.582695e-01 1.167297e-01 4.513386e-01
v -4.572872e-01 1.174507e-01 4.584385e-01
v -4.563238e-01 1.181788e-01 4.655014e-01
v -4.539954e-01 1.176777e-01 4.717396e-01
v -4.516734e-01 1.171789e-01 4.779654e-01
v -4.507544e-01 1.179234e-01 4.849425e-01
v -4.491529e-01 1.180532e-01 4.915072e-01
v -4.461548e-01 1.169422e-01 4.973083e-01
v -4.417410e-01 1.145832e-01 5.023826e-01
v -4.380256e-01 1.128446e-01 5.078387e-01
v -4.393029e-01 1.154882e-01 5.157650e-01
v -4.391836e-01 1.168907e-01 5.229277e-01
v -5.537310e-01 1.274391e-01 1.915161e-01
v -5.499812e-01 1.256807e-01 1.970467e-01
v -5.456637e-01 1.233428e-01 2.019509e-01
v -5.413334e-01 1.210001e-01 2.068796e-01
v -5.369904e-01 1.186528e-01 2.118329e-01
v -5.332059e-01 1.168814e-01 2.174307e-01
v -5.294150e-01 1.151076e-01 2.230411e-01
v -5.256177e-01 1.133314e-01 2.286635e-01
v -5.229750e-01 1.127211e-01 2.355017e-01
v -5.197551e-01 1.115278e-01 2.417322e-01
v -5.159483e-01 1.097482e-01 2.473730e-01
v -5.109551e-01 1.067909e-01 2.518594e-01
v -5.065362e-01 1.044155e-01 2.569599e-01
v -5.027009e-01 1.026253e-01 2.626559e-01
v -4.994588e-01 1.014238e-01 2.689293e-01
v -4.962166e-01 1.002223e-01 2.752025e-01
v -4.923686e-01 9.842740e-02 2.809232e-01
v -4.891233e-01 9.722475e-02 2.872025e-01
v -4.840413e-01 9.423460e-02 2.918606e-01
v -4.795559e-01 9.183450e-02 2.970900e-01
v -4.756761e-01 9.002779e-02 3.028718e-01
v -4.724118e-01 8.881809e-02 3.091880e-01
v -4.691475e-01 8.760838e-02 3.155042e-01
v -4.665112e-01 8.700043e-02 3.223303e-01
v -4.638812e-01 8.639476e-02 3.291440e-01
v -4.612575e-01 8.579140e-02 3.359453e-01
v -4.605530e-01 8.700609e-02 3.442087e-01
v -4.598736e-01 8.823014e-02 3.524230e-01
v -4.592196e-01 8.946356e-02 3.605881e-01
v -4.598850e-01 9.192388e-02 3.696503e-01
v -4.599383e-01 9.378836e-02 3.781719e-01
v -4.613300e-01 9.688680e-02 3.875536e-01
v -4.621096e-01 9.938935e-02 3.963949e-01
v -4.616077e-01 1.006792e-01 4.042658e-01
v -4.617941e-01 1.025930e-01 4.125299e-01
v -4.633443e-01 1.057502e-01 4.216050e-01
v -4.649389e-01 1.089237e-01 4.305943e-01
v -4.665778e-01 1.121138e-01 4.394978e-01
v -4.662344e-01 1.134623e-01 4.470620e-01
v -4.659164e-01 1.148202e-01 4.545771e-01
v -4.656237e-01 1.161875e-01 4.620433e-01
v -4.653563e-01 1.175643e-01 4.694603e-01
v -4.644261e-01 1.183264e-01 4.764350e-01
v -4.628235e-01 1.184704e-01 4.829859e-01
v -4.612336e-01 1.186192e-01 4.895122e-01
v -4.596563e-01 1.187725e-01 4.960139e-01
v -4.573908e-01 1.183019e-01 5.021225e-01
v -4.537235e-01 1.165739e-01 5.074935e-01
v -4.514643e-01 1.161057e-01 5.135898e-01
v -4.520532e-01 1.181687e-01 5.210750e-01
v -4.505329e-01 1.183432e-01 5.274665e-01
v -5.591384e-01 1.232665e-01 1.942732e-01
v -5.542928e-01 1.203422e-01 1.984984e-01
v -5.499859e-01 1.179938e-01 2.033981e-01
v -5.456662e-01 1.156406e-01 2.083223e-01
v -5.413340e-01 1.132828e-01 2.132710e-01
v -5.375562e-01 1.115066e-01 2.188636e-01
v -5.337722e-01 1.097280e-01 2.244684e-01
v -5.305554e-01 1.085360e-01 2.306927e-01
v -5.279154e-01 1.079339e-01 2.375179e-01
v -5.247017e-01 1.067430e-01 2.437360e-01
v -5.209050e-01 1.049597e-01 2.493654e-01
v -5.165157e-01 1.025808e-01 2.544246e-01
v -5.127031e-01 1.007917e-01 2.600847e-01
v -5.088842e-01 9.900027e-02 2.657570e-01
v -5.050589e-01 9.720647e-02 2.714416e-01
v -5.018263e-01 9.600853e-02 2.776964e-01
v -4.985936e-01 9.481058e-02 2.839514e-01
v -4.959663e-01 9.421318e-02 2.907520e-01
v -4.909115e-01 9.121135e-02 2.953819e-01
v -4.858376e-01 8.820241e-02 3.000485e-01
v -4.819744e-01 8.639461e-02 3.058068e-01
v -4.793406e-01 8.579478e-02 3.126196e-01
v -4.754711e-01 8.398462e-02 3.183901e-01
v -4.728436e-01 8.338713e-02 3.251908e-01
v -4.702227e-01 8.279210e-02 3.319792e-01
v -4.682386e-01 8.280923e-02 3.392519e-01
v -4.662672e-01 8.283108e-02 3.465003e-01
v -4.649455e-01 8.346992e-02 3.542085e-01
v -4.655632e-01 8.595609e-02 3.633148e-01
v -4.675057e-01 8.968554e-02 3.732920e-01
v -4.675593e-01 9.158647e-02 3.817728e-01
v -4.682943e-01 9.411602e-02 3.906522e-01
v -4.684145e-01 9.604161e-02 3.990043e-01
v -4.672544e-01 9.674035e-02 4.063997e-01
v -4.680908e-01 9.930752e-02 4.150830e-01
v -4.702900e-01 1.031321e-01 4.245633e-01
v -4.725398e-01 1.069755e-01 4.339456e-01
v -4.735030e-01 1.095897e-01 4.423836e-01
v -4.731605e-01 1.109676e-01 4.499139e-01
v -4.735184e-01 1.129813e-01 4.578060e-01
v -4.732299e-01 1.143791e-01 4.652321e-01
v -4.736480e-01 1.164151e-01 4.730078e-01
v -4.727287e-01 1.172030e-01 4.799372e-01
v -4.718285e-01 1.179980e-01 4.868298e-01
v -4.709473e-01 1.188002e-01 4.936856e-01
v -4.686971e-01 1.183424e-01 4.997566e-01
v -4.664532e-01 1.178871e-01 5.058152e-01
v -4.642157e-01 1.174341e-01 5.118616e-01
v -4.633916e-01 1.182573e-01 5.186071e-01
v -4.625864e-01 1.190876e-01 5.253158e-01
v -4.596707e-01 1.180071e-01 5.309574e-01
v -5.617851e-01 1.161971e-01 1.937794e-01
v -5.585969e-01 1.150156e-01 1.999485e-01
v -5.543007e-01 1.126566e-01 2.048437e-01
v -5.499917e-01 1.102929e-01 2.097634e-01
v -5.456699e-01 1.079243e-01 2.147076e-01
v -5.424627e-01 1.067358e-01 2.209134e-01
v -5.392553e-01 1.055472e-01 2.271192e-01
v -5.360481e-01 1.043587e-01 2.333250e-01
v -5.334138e-01 1.037659e-01 2.401311e-01
v -5.302097e-01 1.025786e-01 2.463308e-01
v -5.270056e-01 1.013912e-01 2.525305e-01
v -5.220538e-01 9.840580e-02 2.569849e-01
v -5.182545e-01 9.661436e-02 2.626273e-01
v -5.156266e-01 9.602397e-02 2.694211e-01
v -5.118209e-01 9.423019e-02 2.750758e-01
v -5.080089e-01 9.243410e-02 2.807428e-01
v -5.047889e-01 9.124086e-02 2.869732e-01
v -5.009675e-01 8.944123e-02 2.926586e-01
v -4.971396e-01 8.763929e-02 2.983563e-01
v -4.920896e-01 8.461747e-02 3.030009e-01
v -4.888538e-01 8.341833e-02 3.092618e-01
v -4.862322e-01 8.283024e-02 3.160433e-01
v -4.823822e-01 8.102009e-02 3.217839e-01
v -4.791463e-01 7.982095e-02 3.280449e-01
v -4.759105e-01 7.862182e-02 3.343059e-01
v -4.739285e-01 7.865423e-02 3.415588e-01
v -4.725893e-01 7.930832e-02 3.492768e-01
v -4.725356e-01 8.120572e-02 3.579254e-01
v -4.731500e-01 8.373421e-02 3.669901e-01
v -4.744419e-01 8.689721e-02 3.764527e-01
v -4.751356e-01 8.945494e-02 3.853641e-01
v -4.758672e-01 9.202684e-02 3.942019e-01
v -4.753388e-01 9.336481e-02 4.020602e-01
v -4.748355e-01 9.471220e-02 4.098694e-01
v -4.763241e-01 9.794806e-02 4.189517e-01
v -4.778570e-01 1.012003e-01 4.279482e-01
v -4.794342e-01 1.044690e-01 4.368589e-01
v -4.803909e-01 1.071243e-01 4.452613e-01
v -4.807174e-01 1.091626e-01 4.531739e-01
v -4.810758e-01 1.112127e-01 4.610253e-01
v -4.807912e-01 1.126411e-01 4.684114e-01
v -4.812098e-01 1.147135e-01 4.761462e-01
v -4.802984e-01 1.155261e-01 4.830365e-01
v -4.794060e-01 1.163458e-01 4.898899e-01
v -4.778455e-01 1.165345e-01 4.963272e-01
v -4.769880e-01 1.173671e-01 5.031131e-01
v -4.754561e-01 1.175663e-01 5.094952e-01
v -4.732401e-01 1.171285e-01 5.154917e-01
v -4.731300e-01 1.186215e-01 5.225405e-01
v -4.723422e-01 1.194800e-01 5.291915e-01
v -4.701612e-01 1.190552e-01 5.351206e-01
v -5.644469e-01 1.091042e-01 1.932890e-01
v -5.607051e-01 1.073268e-01 1.988279e-01
v -5.580577e-01 1.067364e-01 2.056516e-01
v -5.548631e-01 1.055526e-01 2.118329e-01
v -5.511118e-01 1.037717e-01 2.173903e-01
v -5.484739e-01 1.031849e-01 2.241955e-01
v -5.452793e-01 1.020010e-01 2.303768e-01
v -5.420846e-01 1.008172e-01 2.365581e-01
v -5.388900e-01 9.963328e-02 2.427394e-01
v -5.362678e-01 9.905222e-02 2.495139e-01
v -5.330764e-01 9.786958e-02 2.556891e-01
v -5.281485e-01 9.487129e-02 2.601214e-01
v -5.243655e-01 9.307866e-02 2.657401e-01
v -5.223318e-01 9.310639e-02 2.730772e-01
v -5.197223e-01 9.253014e-02 2.798272e-01
v -5.159362e-01 9.073634e-02 2.854521e-01
v -5.121438e-01 8.894027e-02 2.910893e-01
v -5.089429e-01 8.775407e-02 2.972828e-01
v -5.039389e-01 8.472755e-02 3.018623e-01
v -4.995201e-01 8.230853e-02 3.070104e-01
v -4.963033e-01 8.111644e-02 3.132346e-01
v -4.930865e-01 7.992435e-02 3.194589e-01
v -4.898697e-01 7.873228e-02 3.256831e-01
v -4.866529e-01 7.754021e-02 3.319074e-01
v -4.828161e-01 7.572769e-02 3.376304e-01
v -4.808425e-01 7.577772e-02 3.448509e-01
v -4.801343e-01 7.707821e-02 3.530250e-01
v -4.807104e-01 7.963594e-02 3.621155e-01
v -4.813247e-01 8.220787e-02 3.711325e-01
v -4.813410e-01 8.416750e-02 3.796054e-01
v -4.826672e-01 8.739390e-02 3.889457e-01
v -4.833955e-01 9.000810e-02 3.977420e-01
v -4.828711e-01 9.137662e-02 4.055603e-01
v -4.830206e-01 9.338559e-02 4.137755e-01
v -4.845052e-01 9.667073e-02 4.228093e-01
v -4.860341e-01 9.997237e-02 4.317573e-01
v -4.876074e-01 1.032904e-01 4.406193e-01
v -4.879027e-01 1.053534e-01 4.485525e-01
v -4.888941e-01 1.080650e-01 4.568398e-01
v -4.892559e-01 1.101527e-01 4.646442e-01
v -4.896495e-01 1.122521e-01 4.723873e-01
v -4.887269e-01 1.130823e-01 4.792751e-01
v -4.878233e-01 1.139197e-01 4.861261e-01
v -4.862586e-01 1.141212e-01 4.925556e-01
v -4.853898e-01 1.149714e-01 4.993392e-01
v -4.845402e-01 1.158287e-01 5.060860e-01
v -4.830198e-01 1.160467e-01 5.124296e-01
v -4.815121e-01 1.162694e-01 5.187487e-01
v -4.814092e-01 1.177941e-01 5.257514e-01
v -4.813317e-01 1.193282e-01 5.327050e-01
v -4.784698e-01 1.182677e-01 5.382425e-01
v -5.639225e-01 1.008015e-01 1.989952e-01
v -5.623612e-01 1.014168e-01 2.070947e-01
v -5.597195e-01 1.008358e-01 2.138991e-01
v -5.565312e-01 9.965428e-02 2.200681e-01
v -5.538991e-01 9.907686e-02 2.268541e-01
v -5.512732e-01 9.850165e-02 2.336278e-01
v -5.475288e-01 9.671620e-02 2.391800e-01
v -5.443437e-01 9.553584e-02 2.453428e-01
v -5.422961e-01 9.557293e-02 2.526906e-01
v -5.391173e-01 9.439497e-02 2.588413e-01
v -5.347884e-01 9.199484e-02 2.638316e-01
v -5.310250e-01 9.020222e-02 2.694204e-01
v -5.284182e-01 8.963417e-02 2.761574e-01
v -5.258177e-01 8.906839e-02 2.828821e-01
v -5.238113e-01 8.912075e-02 2.901501e-01
v -5.200447e-01 8.732707e-02 2.957451e-01
v -5.162719e-01 8.553091e-02 3.013524e-01
v -5.107009e-01 8.187460e-02 3.053603e-01
v -5.063054e-01 7.944977e-02 3.104795e-01
v -5.037080e-01 7.888519e-02 3.171979e-01
v -5.005102e-01 7.770013e-02 3.233854e-01
v -4.973124e-01 7.651511e-02 3.295728e-01
v -4.941147e-01 7.533009e-02 3.357602e-01
v -4.909169e-01 7.414506e-02 3.419477e-01
v -4.901970e-01 7.547017e-02 3.501123e-01
v -4.895023e-01 7.680459e-02 3.582279e-01
v -4.894589e-01 7.877830e-02 3.667764e-01
v -4.888181e-01 8.013272e-02 3.747877e-01
v -4.888349e-01 8.212878e-02 3.832198e-01
v -4.901540e-01 8.540343e-02 3.925178e-01
v -4.908789e-01 8.805986e-02 4.012724e-01
v -4.910003e-01 9.009466e-02 4.095021e-01
v -4.911533e-01 9.214120e-02 4.176704e-01
v -4.926340e-01 9.547575e-02 4.266557e-01
v -4.941591e-01 9.882666e-02 4.355550e-01
v -4.950742e-01 1.015536e-01 4.439418e-01
v -4.953698e-01 1.036530e-01 4.518342e-01
v -4.963579e-01 1.064069e-01 4.600798e-01
v -4.973839e-01 1.091750e-01 4.682519e-01
v -4.971140e-01 1.106668e-01 4.755457e-01
v -4.955291e-01 1.108754e-01 4.819982e-01
v -4.939569e-01 1.110888e-01 4.884261e-01
v -4.923973e-01 1.113067e-01 4.948294e-01
v -4.915301e-01 1.121792e-01 5.015861e-01
v -4.899991e-01 1.124078e-01 5.079342e-01
v -4.891668e-01 1.132933e-01 5.146234e-01
v -4.876643e-01 1.135324e-01 5.209164e-01
v -4.882515e-01 1.157399e-01 5.282446e-01
v -4.881749e-01 1.173034e-01 5.351644e-01
v -5.682265e-01 9.547483e-02 2.004453e-01
v -5.666573e-01 9.610893e-02 2.085362e-01
v -5.640151e-01 9.553502e-02 2.153338e-01
v -5.602807e-01 9.374591e-02 2.208744e-01
v -5.581972e-01 9.378420e-02 2.282757e-01
v -5.561262e-01 9.382718e-02 2.356525e-01
v -5.529507e-01 9.265037e-02 2.417970e-01
v -5.497750e-01 9.147357e-02 2.479415e-01
v -5.482945e-01 9.214061e-02 2.558609e-01
v -5.462648e-01 9.219890e-02 2.631580e-01
v -5.425338e-01 9.041101e-02 2.686925e-01
v -5.387963e-01 8.862075e-02 2.742392e-01
v -5.356302e-01 8.744747e-02 2.803654e-01
v -5.330450e-01 8.689470e-02 2.870525e-01
v -5.304661e-01 8.634422e-02 2.937272e-01
v -5.273063e-01 8.517325e-02 2.998411e-01
v -5.229659e-01 8.275434e-02 3.048698e-01
v -5.180191e-01 7.970547e-02 3.093867e-01
v -5.130534e-01 7.664964e-02 3.139404e-01
v -5.098684e-01 7.546933e-02 3.201032e-01
v -5.066832e-01 7.428901e-02 3.262662e-01
v -5.041043e-01 7.373848e-02 3.329408e-01
v -5.021411e-01 7.382140e-02 3.401092e-01
v -5.001907e-01 7.390912e-02 3.472531e-01
v -4.988686e-01 7.463482e-02 3.548657e-01
v -4.981845e-01 7.600222e-02 3.629291e-01
v -4.975256e-01 7.737895e-02 3.709433e-01
v -4.975175e-01 7.940201e-02 3.793835e-01
v -4.981693e-01 8.207489e-02 3.882316e-01
v -4.988592e-01 8.476188e-02 3.970059e-01
v -4.995872e-01 8.746303e-02 4.057066e-01
v -4.997153e-01 8.953659e-02 4.138833e-01
v -5.005160e-01 9.226465e-02 4.224430e-01
v -5.013549e-01 9.500687e-02 4.309291e-01
v -5.022319e-01 9.776321e-02 4.393416e-01
v -5.024962e-01 9.988731e-02 4.472546e-01
v -5.034460e-01 1.026706e-01 4.555261e-01
v -5.037769e-01 1.048193e-01 4.633102e-01
v -5.041395e-01 1.069798e-01 4.710330e-01
v -5.032073e-01 1.078500e-01 4.778915e-01
v -5.022940e-01 1.087272e-01 4.847132e-01
v -5.007301e-01 1.089581e-01 4.911088e-01
v -4.985062e-01 1.085392e-01 4.970968e-01
v -4.969646e-01 1.087784e-01 5.034495e-01
v -4.954356e-01 1.090222e-01 5.097777e-01
v -4.946017e-01 1.099288e-01 5.164461e-01
v -4.937866e-01 1.108425e-01 5.230776e-01
v -4.943679e-01 1.130840e-01 5.303774e-01
v -4.935973e-01 1.140141e-01 5.369231e-01
v -5.709460e-01 9.081286e-02 2.099763e-01
v -5.683031e-01 9.024589e-02 2.167668e-01
v -5.651212e-01 8.906673e-02 2.229236e-01
v -5.630365e-01 8.911912e-02 2.303110e-01
v -5.609645e-01 8.917629e-02 2.376740e-01
v -5.583502e-01 8.861993e-02 2.444093e-01
v -5.563003e-01 8.868527e-02 2.517293e-01
v -5.553858e-01 8.999627e-02 2.602065e-01
v -5.528031e-01 8.945163e-02 2.668804e-01
v -5.496592e-01 8.828656e-02 2.729636e-01
v -5.465154e-01 8.712150e-02 2.790468e-01
v -5.433714e-01 8.595644e-02 2.851299e-01
v -5.402275e-01 8.479136e-02 2.912132e-01
v -5.370836e-01 8.362629e-02 2.972964e-01
v -5.339397e-01 8.246123e-02 3.033795e-01
v -5.302092e-01 8.066635e-02 3.089210e-01
v -5.252926e-01 7.760692e-02 3.134034e-01
v -5.209501e-01 7.517277e-02 3.184523e-01
v -5.171910e-01 7.336719e-02 3.240488e-01
v -5.140249e-01 7.219391e-02 3.301749e-01
v -5.120638e-01 7.229212e-02 3.373232e-01
v -5.101155e-01 7.239504e-02 3.444470e-01
v -5.075708e-01 7.186456e-02 3.510475e-01
v -5.062566e-01 7.261494e-02 3.586209e-01
v -5.061918e-01 7.465327e-02 3.671308e-01
v -5.061586e-01 7.670335e-02 3.755793e-01
v -5.061571e-01 7.876519e-02 3.839666e-01
v -5.068119e-01 8.148279e-02 3.927607e-01
v -5.075048e-01 8.421439e-02 4.014811e-01
v -5.082357e-01 8.696011e-02 4.101281e-01
v -5.083706e-01 8.907244e-02 4.182516e-01
v -5.085371e-01 9.119652e-02 4.263138e-01
v -5.093757e-01 9.398217e-02 4.347522e-01
v -5.102525e-01 9.678195e-02 4.431170e-01
v -5.111672e-01 9.959578e-02 4.514083e-01
v -5.108199e-01 1.011170e-01 4.587877e-01
v -5.104980e-01 1.026476e-01 4.661181e-01
v -5.102014e-01 1.041876e-01 4.733993e-01
v -5.099302e-01 1.057370e-01 4.806316e-01
v -5.083590e-01 1.059797e-01 4.870257e-01
v -5.061345e-01 1.055678e-01 4.930067e-01
v -5.045853e-01 1.058187e-01 4.993578e-01
v -5.030490e-01 1.060743e-01 5.056843e-01
v -5.015252e-01 1.063346e-01 5.119864e-01
v -5.000141e-01 1.065995e-01 5.182639e-01
v -4.991975e-01 1.075343e-01 5.248747e-01
v -4.990848e-01 1.091425e-01 5.318003e-01
v -5.741564e-01 8.429219e-02 2.101488e-01
v -5.725838e-01 8.496861e-02 2.181983e-01
v -5.699467e-01 8.441106e-02 2.249696e-01
v -5.684058e-01 8.509927e-02 2.329577e-01
v -5.668839e-01 8.579446e-02 2.409090e-01
v -5.653811e-01 8.649672e-02 2.488236e-01
v -5.644515e-01 8.783121e-02 2.572975e-01
v -5.629898e-01 8.854868e-02 2.651323e-01
v -5.598649e-01 8.739065e-02 2.711787e-01
v -5.573040e-01 8.686134e-02 2.778028e-01
v -5.547493e-01 8.633441e-02 2.844147e-01
v -5.516308e-01 8.517874e-02 2.904489e-01
v -5.473654e-01 8.275857e-02 2.953643e-01
v -5.442405e-01 8.160056e-02 3.014107e-01
v -5.416953e-01 8.107712e-02 3.080041e-01
v -5.374078e-01 7.864880e-02 3.129624e-01
v -5.319354e-01 7.494190e-02 3.168757e-01
v -5.282053e-01 7.313991e-02 3.224241e-01
v -5.256539e-01 7.261411e-02 3.290298e-01
v -5.237044e-01 7.273115e-02 3.361398e-01
v -5.217675e-01 7.285281e-02 3.432251e-01
v -5.192414e-01 7.233640e-02 3.497819e-01
v -5.167216e-01 7.182238e-02 3.563263e-01
v -5.154247e-01 7.260097e-02 3.638422e-01
v -5.147583e-01 7.403288e-02 3.718071e-01
v -5.153464e-01 7.676924e-02 3.806822e-01
v -5.159726e-01 7.951972e-02 3.894838e-01
v -5.160159e-01 8.163442e-02 3.977444e-01
v -5.167149e-01 8.441181e-02 4.064048e-01
v -5.168248e-01 8.655117e-02 4.145366e-01
v -5.163357e-01 8.804887e-02 4.221581e-01
v -5.165058e-01 9.021059e-02 4.301735e-01
v -5.173443e-01 9.303968e-02 4.385641e-01
v -5.188608e-01 9.653981e-02 4.473117e-01
v -5.191354e-01 9.874023e-02 4.551247e-01
v -5.187955e-01 1.002932e-01 4.624580e-01
v -5.184808e-01 1.018555e-01 4.697422e-01
v -5.175388e-01 1.027656e-01 4.765713e-01
v -5.166160e-01 1.036828e-01 4.833636e-01
v -5.143940e-01 1.032791e-01 4.893317e-01
v -5.121786e-01 1.028778e-01 4.952874e-01
v -5.106346e-01 1.031452e-01 5.016123e-01
v -5.091035e-01 1.034172e-01 5.079128e-01
v -5.069133e-01 1.030253e-01 5.138195e-01
v -5.047295e-01 1.026357e-01 5.197139e-01
v -5.032299e-01 1.029195e-01 5.259530e-01
v -5.017431e-01 1.032080e-01 5.321676e-01
v -5.800326e-01 8.087979e-02 2.134836e-01
v -5.789963e-01 8.220377e-02 2.221321e-01
v -5.769093e-01 8.228433e-02 2.294918e-01
v -5.759174e-01 8.362469e-02 2.380545e-01
v -5.744065e-01 8.434575e-02 2.459606e-01
v -5.734622e-01 8.570374e-02 2.544312e-01
v -5.725431e-01 8.707106e-02 2.628528e-01
v -5.705416e-01 8.718337e-02 2.700470e-01
v -5.679960e-01 8.666698e-02 2.766335e-01
v -5.654567e-01 8.615294e-02 2.832078e-01
v -5.629237e-01 8.564123e-02 2.897698e-01
v -5.598304e-01 8.449495e-02 2.957549e-01
v -5.555978e-01 8.207249e-02 3.006229e-01
v -5.519255e-01 8.028460e-02 3.060678e-01
v -5.493988e-01 7.977523e-02 3.126176e-01
v -5.451409e-01 7.734338e-02 3.175346e-01
v -5.408703e-01 7.490682e-02 3.224762e-01
v -5.371725e-01 7.310946e-02 3.279702e-01
v -5.340572e-01 7.195498e-02 3.339981e-01
v -5.321256e-01 7.209316e-02 3.410574e-01
v -5.302066e-01 7.223601e-02 3.480920e-01
v -5.277020e-01 7.173488e-02 3.545989e-01
v -5.264067e-01 7.253581e-02 3.620880e-01
v -5.251303e-01 7.334374e-02 3.695401e-01
v -5.244807e-01 7.481094e-02 3.774406e-01
v -5.244673e-01 7.694087e-02 3.857707e-01
v -5.244855e-01 7.908261e-02 3.940395e-01
v -5.239182e-01 8.058029e-02 4.017805e-01
v -5.246172e-01 8.340124e-02 4.103932e-01
v -5.253540e-01 8.623622e-02 4.189324e-01
v -5.255023e-01 8.842604e-02 4.269498e-01
v -5.250523e-01 8.996726e-02 4.344639e-01
v -5.258938e-01 9.284104e-02 4.428007e-01
v -5.267733e-01 9.572887e-02 4.510639e-01
v -5.270515e-01 9.796688e-02 4.588299e-01
v -5.260762e-01 9.888641e-02 4.656995e-01
v -5.264114e-01 1.011456e-01 4.733551e-01
v -5.248315e-01 1.014141e-01 4.797337e-01
v -5.232644e-01 1.016873e-01 4.860877e-01
v -5.203993e-01 1.006256e-01 4.916313e-01
v -5.175343e-01 9.956387e-02 4.971748e-01
v -5.153310e-01 9.917428e-02 5.030991e-01
v -5.131339e-01 9.878707e-02 5.090111e-01
v -5.109432e-01 9.840223e-02 5.149108e-01
v -5.087587e-01 9.801970e-02 5.207983e-01
v -5.065807e-01 9.763956e-02 5.266735e-01
v -5.050864e-01 9.793981e-02 5.328865e-01
v -5.911582e-01 8.381324e-02 2.231253e-01
v -5.901514e-01 8.517715e-02 2.316848e-01
v -5.875671e-01 8.465364e-02 2.383380e-01
v -5.855265e-01 8.476596e-02 2.455918e-01
v -5.840393e-01 8.551754e-02 2.534280e-01
v -5.825712e-01 8.627624e-02 2.612274e-01
v -5.805750e-01 8.640493e-02 2.683953e-01
v -5.780414e-01 8.590028e-02 2.749505e-01
v -5.755142e-01 8.539798e-02 2.814933e-01
v -5.724369e-01 8.425756e-02 2.874477e-01
v -5.699191e-01 8.375883e-02 2.939721e-01
v -5.662822e-01 8.197676e-02 2.993565e-01
v -5.632048e-01 8.083637e-02 3.053109e-01
v -5.595583e-01 7.905082e-02 3.107137e-01
v -5.570501e-01 7.855556e-02 3.172197e-01
v -5.539728e-01 7.741517e-02 3.231741e-01
v -5.497381e-01 7.497743e-02 3.280621e-01
v -5.460726e-01 7.318482e-02 3.335017e-01
v -5.429858e-01 7.204091e-02 3.394745e-01
v -5.398989e-01 7.089698e-02 3.454474e-01
v -5.379947e-01 7.105979e-02 3.524375e-01
v -5.366976e-01 7.188181e-02 3.599057e-01
v -5.354196e-01 7.271097e-02 3.673372e-01
v -5.347613e-01 7.420396e-02 3.752221e-01
v -5.341285e-01 7.570639e-02 3.830580e-01
v -5.335210e-01 7.721820e-02 3.908447e-01
v -5.329388e-01 7.873943e-02 3.985825e-01
v -5.323819e-01 8.027007e-02 4.062712e-01
v -5.330839e-01 8.313558e-02 4.148300e-01
v -5.344436e-01 8.667920e-02 4.237689e-01
v -5.339788e-01 8.824389e-02 4.312797e-01
v -5.341653e-01 9.048424e-02 4.391827e-01
v -5.350130e-01 9.340380e-02 4.474595e-01
v -5.346336e-01 9.500015e-02 4.548047e-01
v -5.336440e-01 9.593612e-02 4.616782e-01
v -5.333123e-01 9.755016e-02 4.689314e-01
v -5.336478e-01 9.984573e-02 4.765463e-01
v -5.314344e-01 9.945970e-02 4.824820e-01
v -5.292272e-01 9.907599e-02 4.884055e-01
v -5.263748e-01 9.801895e-02 4.939245e-01
v -5.235225e-01 9.696194e-02 4.994435e-01
v -5.206702e-01 9.590493e-02 5.049625e-01
v -5.184789e-01 9.552713e-02 5.108553e-01
v -5.162940e-01 9.515168e-02 5.167359e-01
v -5.134479e-01 9.409703e-02 5.222427e-01
v -5.106019e-01 9.304236e-02 5.277494e-01
v -5.070823e-01 9.130373e-02 5.329069e-01
v -6.042763e-01 8.945419e-02 2.352667e-01
v -6.017295e-01 8.895183e-02 2.418394e-01
v -5.981279e-01 8.717570e-02 2.471633e-01
v -5.961211e-01 8.731502e-02 2.543358e-01
v -5.941270e-01 8.745907e-02 2.614839e-01
v -5.916056e-01 8.696614e-02 2.680074e-01
v -5.890905e-01 8.647556e-02 2.745188e-01
v -5.860353e-01 8.534337e-02 2.804303e-01
v -5.824306e-01 8.356607e-02 2.857603e-01
v -5.793722e-01 8.243267e-02 2.916779e-01
v -5.763139e-01 8.129936e-02 2.975955e-01
v -5.732556e-01 8.016597e-02 3.035132e-01
v -5.701972e-01 7.903262e-02 3.094308e-01
v -5.665736e-01 7.724828e-02 3.147976e-01
v -5.640806e-01 7.676591e-02 3.212660e-01
v -5.615940e-01 7.628594e-02 3.277222e-01
v -5.573890e-01 7.384470e-02 3.325689e-01
v -5.543275e-01 7.271014e-02 3.384926e-01
v -5.506848e-01 7.091871e-02 3.438962e-01
v -5.482045e-01 7.044111e-02 3.503401e-01
v -5.469058e-01 7.128425e-02 3.577875e-01
v -5.456260e-01 7.213451e-02 3.651981e-01
v -5.443654e-01 7.299181e-02 3.725720e-01
v -5.437207e-01 7.451889e-02 3.803984e-01
v -5.431015e-01 7.605536e-02 3.881759e-01
v -5.425076e-01 7.760131e-02 3.959043e-01
v -5.419390e-01 7.915655e-02 4.035837e-01
v -5.420056e-01 8.138872e-02 4.116789e-01
v -5.427168e-01 8.430123e-02 4.201716e-01
v -5.434660e-01 8.722786e-02 4.285909e-01
v -5.430148e-01 8.882665e-02 4.360434e-01
v -5.425888e-01 9.043472e-02 4.434467e-01
v -5.428139e-01 9.272559e-02 4.512353e-01
v -5.418131e-01 9.367916e-02 4.581063e-01
v -5.408312e-01 9.463980e-02 4.649405e-01
v -5.405036e-01 9.628440e-02 4.721538e-01
v -5.395629e-01 9.726030e-02 4.789083e-01
v -5.379999e-01 9.756405e-02 4.852223e-01
v -5.358048e-01 9.719209e-02 4.911143e-01
v -5.329683e-01 9.614095e-02 4.966026e-01
v -5.301318e-01 9.508980e-02 5.020910e-01
v -5.266413e-01 9.335478e-02 5.072003e-01
v -5.244589e-01 9.298752e-02 5.130677e-01
v -5.216224e-01 9.193639e-02 5.185561e-01
v -5.187859e-01 9.088523e-02 5.240444e-01
v -5.152827e-01 8.914551e-02 5.291783e-01
v -6.141373e-01 9.145667e-02 2.436009e-01
v -6.116248e-01 9.097434e-02 2.500992e-01
v -6.080650e-01 8.920638e-02 2.553503e-01
v -6.055589e-01 8.872645e-02 2.618363e-01
v -6.025259e-01 8.760247e-02 2.677049e-01
v -5.994929e-01 8.647853e-02 2.735734e-01
v -5.964600e-01 8.535457e-02 2.794420e-01
v -5.934270e-01 8.423061e-02 2.853106e-01
v -5.898481e-01 8.245558e-02 2.905984e-01
v -5.868120e-01 8.133043e-02 2.964731e-01
v -5.837759e-01 8.020532e-02 3.023478e-01
v -5.807397e-01 7.908017e-02 3.082225e-01
v -5.777035e-01 7.795504e-02 3.140972e-01
v -5.746674e-01 7.682990e-02 3.199719e-01
v -5.716313e-01 7.570478e-02 3.258466e-01
v -5.691631e-01 7.523893e-02 3.322590e-01
v -5.655590e-01 7.345451e-02 3.375960e-01
v -5.619485e-01 7.166778e-02 3.429452e-01
v -5.594867e-01 7.120425e-02 3.493454e-01
v -5.576119e-01 7.140702e-02 3.562465e-01
v -5.557498e-01 7.161440e-02 3.631230e-01
v -5.544874e-01 7.249287e-02 3.704761e-01
v -5.526538e-01 7.271086e-02 3.772975e-01
v -5.514263e-01 7.360222e-02 3.845830e-01
v -5.508143e-01 7.517043e-02 3.923144e-01
v -5.508274e-01 7.741900e-02 4.004731e-01
v -5.508722e-01 7.967935e-02 4.085704e-01
v -5.515547e-01 8.262475e-02 4.170707e-01
v -5.516660e-01 8.490978e-02 4.250393e-01
v -5.524214e-01 8.788223e-02 4.333985e-01
v -5.513682e-01 8.883812e-02 4.403467e-01
v -5.503340e-01 8.980111e-02 4.472582e-01
v -5.505626e-01 9.212959e-02 4.549999e-01
v -5.495728e-01 9.310904e-02 4.618256e-01
v -5.486019e-01 9.409551e-02 4.686144e-01
v -5.476501e-01 9.508902e-02 4.753665e-01
v -5.467174e-01 9.608966e-02 4.820818e-01
v -5.445281e-01 9.572705e-02 4.879546e-01
v -5.417043e-01 9.468061e-02 4.934184e-01
v -5.388805e-01 9.363415e-02 4.988822e-01
v -5.360567e-01 9.258772e-02 5.043461e-01
v -5.332329e-01 9.154129e-02 5.098099e-01
v -5.304091e-01 9.049483e-02 5.152737e-01
v -5.269285e-01 8.875630e-02 5.203715e-01
v -5.234417e-01 8.701532e-02 5.254816e-01
v -5.192853e-01 8.457760e-02 5.302501e-01
v -6.209108e-01 9.248912e-02 2.577168e-01
v -6.163434e-01 8.942856e-02 2.616680e-01
v -6.128096e-01 8.766297e-02 2.668769e-01
v -6.097988e-01 8.654721e-02 2.727025e-01
v -6.057228e-01 8.412479e-02 2.773317e-01
v -6.021699e-01 8.235212e-02 2.825775e-01
v -5.996885e-01 8.188862e-02 2.890076e-01
v -5.966714e-01 8.077052e-02 2.948454e-01
v -5.936542e-01 7.965244e-02 3.006834e-01
v -5.906372e-01 7.853436e-02 3.065212e-01
v -5.876200e-01 7.741626e-02 3.123591e-01
v -5.851576e-01 7.695974e-02 3.187524e-01
v -5.827016e-01 7.650558e-02 3.251333e-01
v -5.802520e-01 7.605377e-02 3.315020e-01
v -5.766800e-01 7.427411e-02 3.367845e-01
v -5.731018e-01 7.249210e-02 3.420794e-01
v -5.700878e-01 7.137517e-02 3.479112e-01
v -5.682214e-01 7.159552e-02 3.547800e-01
v -5.669447e-01 7.249039e-02 3.621368e-01
v -5.656870e-01 7.339235e-02 3.694567e-01
v -5.638650e-01 7.362916e-02 3.762398e-01
v -5.620557e-01 7.387062e-02 3.829983e-01
v -5.614383e-01 7.546585e-02 3.907080e-01
v -5.614391e-01 7.774618e-02 3.988504e-01
v -5.614715e-01 8.003821e-02 4.069315e-01
v -5.609365e-01 8.166399e-02 4.144818e-01
v -5.604269e-01 8.329912e-02 4.219830e-01
v -5.611536e-01 8.630444e-02 4.303496e-01
v -5.613097e-01 8.864237e-02 4.381916e-01
v -5.602738e-01 8.962641e-02 4.450823e-01
v -5.586420e-01 8.993376e-02 4.514974e-01
v -5.576409e-01 9.093079e-02 4.583206e-01
v -5.572803e-01 9.262109e-02 4.655337e-01
v -5.563204e-01 9.363341e-02 4.722771e-01
v -5.547520e-01 9.396418e-02 4.785696e-01
v -5.531962e-01 9.429970e-02 4.848375e-01
v -5.510191e-01 9.394886e-02 4.906788e-01
v -5.482111e-01 9.290829e-02 4.961120e-01
v -5.447629e-01 9.117443e-02 5.011554e-01
v -5.419517e-01 9.013271e-02 5.065947e-01
v -5.397872e-01 8.978658e-02 5.124115e-01
v -5.363295e-01 8.804920e-02 5.174733e-01
v -5.322123e-01 8.561142e-02 5.221821e-01
v -6.275339e-01 9.086041e-02 2.622070e-01
v -6.224773e-01 8.713354e-02 2.655079e-01
v -6.184405e-01 8.471105e-02 2.700772e-01
v -6.149167e-01 8.294200e-02 2.752748e-01
v -6.119154e-01 8.182978e-02 2.810820e-01
v -6.083821e-01 8.005712e-02 2.862979e-01
v -6.053776e-01 7.894370e-02 2.921113e-01
v -6.029116e-01 7.849315e-02 2.985037e-01
v -5.999102e-01 7.738092e-02 3.043110e-01
v -5.969090e-01 7.626872e-02 3.101182e-01
v -5.944555e-01 7.582272e-02 3.164861e-01
v -5.920085e-01 7.537920e-02 3.228418e-01
v -5.901220e-01 7.560665e-02 3.297335e-01
v -5.876907e-01 7.516887e-02 3.360586e-01
v -5.852659e-01 7.473353e-02 3.423713e-01
v -5.817199e-01 7.295619e-02 3.476116e-01
v -5.793013e-01 7.252320e-02 3.539122e-01
v -5.774592e-01 7.276705e-02 3.607181e-01
v -5.767762e-01 7.436697e-02 3.685227e-01
v -5.749658e-01 7.462257e-02 3.752673e-01
v -5.737476e-01 7.556091e-02 3.824867e-01
v -5.719656e-01 7.582706e-02 3.891762e-01
v -5.719541e-01 7.813910e-02 3.973024e-01
v -5.713852e-01 7.978132e-02 4.048862e-01
v -5.702494e-01 8.075019e-02 4.119462e-01
v -5.691326e-01 8.172610e-02 4.189694e-01
v -5.686334e-01 8.339414e-02 4.264184e-01
v -5.687614e-01 8.575783e-02 4.342748e-01
v -5.689210e-01 8.813325e-02 4.420697e-01
v -5.685042e-01 8.983185e-02 4.493592e-01
v -5.668903e-01 9.016026e-02 4.557237e-01
v -5.659034e-01 9.118432e-02 4.624954e-01
v -5.649356e-01 9.221546e-02 4.692305e-01
v -5.639868e-01 9.325359e-02 4.759286e-01
v -5.618091e-01 9.290989e-02 4.817631e-01
v -5.596378e-01 9.256847e-02 4.875852e-01
v -5.574727e-01 9.222942e-02 4.933950e-01
v -5.546807e-01 9.119473e-02 4.987976e-01
v -5.518885e-01 9.016001e-02 5.042001e-01
v -5.484567e-01 8.842500e-02 5.092198e-01
v -5.456614e-01 8.738914e-02 5.146284e-01
v -5.422200e-01 8.565053e-02 5.196665e-01
v -5.374736e-01 8.250183e-02 5.239879e-01
v -6.285740e-01 8.489729e-02 2.693398e-01
v -6.240415e-01 8.180618e-02 2.732711e-01
v -6.200122e-01 7.937193e-02 2.778421e-01
v -6.170205e-01 7.826324e-02 2.836309e-01
v -6.135003e-01 7.648829e-02 2.888293e-01
v -6.105054e-01 7.537840e-02 2.946243e-01
v -6.080451e-01 7.493716e-02 3.009974e-01
v -6.050533e-01 7.382846e-02 3.067863e-01
v -6.031435e-01 7.406180e-02 3.137072e-01
v -6.007022e-01 7.362760e-02 3.200437e-01
v -5.993620e-01 7.454246e-02 3.274753e-01
v -5.974902e-01 7.478978e-02 3.343225e-01
v -5.956310e-01 7.504193e-02 3.411454e-01
v -5.937846e-01 7.529868e-02 3.479435e-01
v -5.902709e-01 7.352606e-02 3.531296e-01
v -5.873140e-01 7.243028e-02 3.588510e-01
v -5.854897e-01 7.269526e-02 3.656062e-01
v -5.842477e-01 7.364650e-02 3.728478e-01
v -5.830247e-01 7.460479e-02 3.800525e-01
v -5.818206e-01 7.557017e-02 3.872205e-01
v -5.806356e-01 7.654255e-02 3.943517e-01
v -5.800518e-01 7.820829e-02 4.019324e-01
v -5.794933e-01 7.988334e-02 4.094640e-01
v -5.777832e-01 8.019059e-02 4.159984e-01
v -5.766774e-01 8.119243e-02 4.229764e-01
v -5.761855e-01 8.289212e-02 4.303792e-01
v -5.763170e-01 8.529346e-02 4.381886e-01
v -5.764802e-01 8.770647e-02 4.459367e-01
v -5.760707e-01 8.943673e-02 4.531801e-01
v -5.744714e-01 8.978510e-02 4.595000e-01
v -5.741063e-01 9.153188e-02 4.666575e-01
v -5.731527e-01 9.258999e-02 4.733410e-01
v -5.716009e-01 9.295598e-02 4.795690e-01
v -5.694417e-01 9.262633e-02 4.853596e-01
v -5.672888e-01 9.229903e-02 4.911380e-01
v -5.651423e-01 9.197412e-02 4.969042e-01
v -5.630021e-01 9.165151e-02 5.026581e-01
v -5.596024e-01 8.992117e-02 5.076234e-01
v -5.561965e-01 8.818842e-02 5.126009e-01
v -5.457526e-01 7.867202e-02 5.134558e-01
v -5.493654e-01 8.471595e-02 5.225928e-01
v -6.330975e-01 8.071734e-02 2.713209e-01
v -6.290979e-01 7.827962e-02 2.758505e-01
v -6.256037e-01 7.650693e-02 2.810067e-01
v -6.221032e-01 7.473200e-02 2.861751e-01
v -6.191209e-01 7.362684e-02 2.919456e-01
v -6.161386e-01 7.252165e-02 2.977160e-01
v -6.131563e-01 7.141650e-02 3.034864e-01
v -6.107081e-01 7.098698e-02 3.098282e-01
v -6.088036e-01 7.123680e-02 3.167230e-01
v -6.074521e-01 7.216918e-02 3.241522e-01
v -6.061196e-01 7.310870e-02 3.315447e-01
v -6.048062e-01 7.405530e-02 3.389003e-01
v -6.029618e-01 7.432731e-02 3.456786e-01
v -6.005770e-01 7.392132e-02 3.518977e-01
v -5.981986e-01 7.351767e-02 3.581046e-01
v -5.958264e-01 7.311639e-02 3.642992e-01
v -5.940232e-01 7.340369e-02 3.709976e-01
v -5.916670e-01 7.300829e-02 3.771616e-01
v -5.910239e-01 7.468098e-02 3.848248e-01
v -5.898340e-01 7.567338e-02 3.919414e-01
v -5.886632e-01 7.667279e-02 3.990211e-01
v -5.869329e-01 7.698708e-02 4.055786e-01
v -5.857969e-01 7.799949e-02 4.125908e-01
v -5.846800e-01 7.901880e-02 4.195663e-01
v -5.841700e-01 8.074085e-02 4.269720e-01
v -5.830943e-01 8.177553e-02 4.338678e-01
v -5.832260e-01 8.421322e-02 4.416364e-01
v -5.839871e-01 8.736182e-02 4.497924e-01
v -5.835849e-01 8.912385e-02 4.569897e-01
v -5.820004e-01 8.949217e-02 4.632650e-01
v -5.810355e-01 9.056793e-02 4.699461e-01
v -5.800898e-01 9.165079e-02 4.765905e-01
v -5.785496e-01 9.203552e-02 4.827800e-01
v -5.764056e-01 9.171880e-02 4.885331e-01
v -5.742681e-01 9.140445e-02 4.942739e-01
v -6.331090e-01 7.343930e-02 2.772104e-01
v -6.301362e-01 7.233766e-02 2.829625e-01
v -6.271635e-01 7.123603e-02 2.887145e-01
v -6.247116e-01 7.081232e-02 2.950554e-01
v -6.217420e-01 6.971184e-02 3.008014e-01
v -6.187724e-01 6.861138e-02 3.065473e-01
v -6.163331e-01 6.819249e-02 3.128637e-01
v -6.149674e-01 6.914144e-02 3.202967e-01
v -6.136205e-01 7.009735e-02 3.276929e-01
v -6.122927e-01 7.106038e-02 3.350523e-01
v -6.104409e-01 7.134415e-02 3.418289e-01
v -6.091479e-01 7.232007e-02 3.491208e-01
v -6.078740e-01 7.330309e-02 3.563760e-01
v -6.049615e-01 7.222377e-02 3.620115e-01
v -6.031603e-01 7.252625e-02 3.686900e-01
v -6.019307e-01 7.352571e-02 3.758593e-01
v -6.001582e-01 7.383885e-02 3.824826e-01
v -5.995287e-01 7.554568e-02 3.900875e-01
v -5.977878e-01 7.587062e-02 3.966495e-01
v -5.960596e-01 7.620020e-02 4.031870e-01
v -5.943440e-01 7.653446e-02 4.096999e-01
v -5.937969e-01 7.827184e-02 4.171454e-01
v -5.921131e-01 7.861786e-02 4.235969e-01
v -5.904419e-01 7.896855e-02 4.300240e-01
v -5.905456e-01 8.143212e-02 4.378070e-01
v -5.906811e-01 8.390740e-02 4.455286e-01
v -5.920356e-01 8.780453e-02 4.540848e-01
v -5.916439e-01 8.959945e-02 4.612298e-01
v -5.900772e-01 8.998892e-02 4.674545e-01
v -5.885233e-01 9.038311e-02 4.736547e-01
v -5.869821e-01 9.078196e-02 4.798303e-01
v -5.848440e-01 9.047466e-02 4.855642e-01
v -5.827122e-01 9.016962e-02 4.912858e-01
v -6.366051e-01 6.793031e-02 2.779621e-01
v -6.341432e-01 6.751012e-02 2.843146e-01
v -6.316875e-01 6.709243e-02 2.906547e-01
v -6.292382e-01 6.667705e-02 2.969826e-01
v -6.267952e-01 6.626405e-02 3.032984e-01
v -6.243587e-01 6.585335e-02 3.096017e-01
v -6.224550e-01 6.613242e-02 3.164626e-01
v -6.205640e-01 6.641625e-02 3.232988e-01
v -6.192187e-01 6.739448e-02 3.306681e-01
v -6.178923e-01 6.837982e-02 3.380006e-01
v -6.165851e-01 6.937222e-02 3.452963e-01
v -6.152968e-01 7.037155e-02 3.525551e-01
v -6.140275e-01 7.137802e-02 3.597772e-01
v -6.116796e-01 7.100024e-02 3.659089e-01
v -6.093381e-01 7.062480e-02 3.720284e-01
v -6.086684e-01 7.234569e-02 3.796791e-01
v -6.074656e-01 7.337682e-02 3.867724e-01
v -6.062820e-01 7.441498e-02 3.938289e-01
v -6.045526e-01 7.475870e-02 4.003525e-01
v -6.022681e-01 7.440433e-02 4.063615e-01
v -6.011320e-01 7.546020e-02 4.133260e-01
v -5.994407e-01 7.581794e-02 4.197761e-01
v -5.977621e-01 7.618044e-02 4.262015e-01
v -5.966766e-01 7.725501e-02 4.330679e-01
v -5.967775e-01 7.975379e-02 4.408162e-01
v -5.980838e-01 8.368378e-02 4.494097e-01
v -5.994345e-01 8.763023e-02 4.579172e-01
v -5.996432e-01 9.016896e-02 4.654571e-01
v -5.974981e-01 8.986634e-02 4.711963e-01
v -5.959590e-01 9.028047e-02 4.773519e-01
v -5.777720e-01 7.320301e-02 4.791790e-01
v -6.406051e-01 6.310746e-02 2.793196e-01
v -6.381426e-01 6.269442e-02 2.856651e-01
v -6.361966e-01 6.297239e-02 2.925918e-01
v -6.337500e-01 6.256519e-02 2.989067e-01
v -6.318262e-01 6.285133e-02 3.057905e-01
v -6.299151e-01 6.314222e-02 3.126497e-01
v -6.274937e-01 6.274440e-02 3.189155e-01
v -6.261310e-01 6.373795e-02 3.262946e-01
v -6.247870e-01 6.473856e-02 3.336369e-01
v -6.239946e-01 6.644301e-02 3.414930e-01
v -6.226921e-01 6.745895e-02 3.487556e-01
v -6.214084e-01 6.848178e-02 3.559814e-01
v -6.196019e-01 6.881140e-02 3.626383e-01
v -6.172629e-01 6.844416e-02 3.687446e-01
v -6.154786e-01 6.878193e-02 3.753586e-01
v -6.153613e-01 7.123612e-02 3.834892e-01
v -6.141664e-01 7.229190e-02 3.905433e-01
v -6.118750e-01 7.194232e-02 3.965577e-01
v -6.101509e-01 7.230243e-02 4.030551e-01
v -6.090035e-01 7.337584e-02 4.100173e-01
v -6.067406e-01 7.303683e-02 4.159765e-01
v -6.044841e-01 7.270009e-02 4.219233e-01
v -6.028076e-01 7.307789e-02 4.283288e-01
v -6.017204e-01 7.417357e-02 4.351744e-01
v -6.023921e-01 7.741969e-02 4.433589e-01
v -6.042682e-01 8.211114e-02 4.523746e-01
v -6.067812e-01 8.753817e-02 4.617385e-01
v -6.069934e-01 9.011443e-02 4.692314e-01
v -6.048668e-01 8.982592e-02 4.749269e-01
v -6.421346e-01 5.789050e-02 2.870141e-01
v -6.401844e-01 5.818135e-02 2.939330e-01
v -6.382468e-01 5.847688e-02 3.008275e-01
v -6.368347e-01 5.947395e-02 3.082778e-01
v -6.344097e-01 5.908210e-02 3.145427e-01
v -6.325101e-01 5.939167e-02 3.213636e-01
v -6.311456e-01 6.040638e-02 3.287219e-01
v -6.303256e-01 6.212966e-02 3.365993e-01
v -6.295310e-01 6.386227e-02 3.444277e-01
v -6.287617e-01 6.560437e-02 3.522069e-01
v -6.269477e-01 6.594571e-02 3.588622e-01
v -6.251464e-01 6.629177e-02 3.654929e-01
v -6.228164e-01 6.593505e-02 3.715739e-01
v -6.215818e-01 6.699789e-02 3.786809e-01
v -6.209140e-01 6.877756e-02 3.862639e-01
v -6.202715e-01 7.056658e-02 3.937979e-01
v -6.185463e-01 7.094087e-02 4.002814e-01
v -6.168337e-01 7.131976e-02 4.067404e-01
v -6.151338e-01 7.170334e-02 4.131750e-01
v -6.123196e-01 7.066045e-02 4.186204e-01
v -6.100720e-01 7.033434e-02 4.245420e-01
v -6.084006e-01 7.072850e-02 4.309213e-01
v -6.073150e-01 7.184661e-02 4.377400e-01
v -6.079770e-01 7.513260e-02 4.458952e-01
v -6.052007e-01 7.410378e-02 4.512670e-01
v -6.451199e-01 5.169992e-02 2.871654e-01
v -6.436618e-01 5.270171e-02 2.946808e-01
v -6.422227e-01 5.371052e-02 3.021593e-01
v -6.408026e-01 5.472638e-02 3.096012e-01
v -6.388893e-01 5.504539e-02 3.164326e-01
v -6.375041e-01 5.607422e-02 3.238069e-01
v -6.361379e-01 5.711004e-02 3.311444e-01
v -6.353125e-01 5.886037e-02 3.390003e-01
v -6.355623e-01 6.203711e-02 3.479048e-01
v -6.347940e-01 6.380852e-02 3.556502e-01
v -6.324572e-01 6.345662e-02 3.617366e-01
v -6.306611e-01 6.381907e-02 3.683412e-01
v -6.288777e-01 6.418627e-02 3.749213e-01
v -6.281886e-01 6.598707e-02 3.825134e-01
v -6.269809e-01 6.708161e-02 3.895442e-01
v -6.257921e-01 6.818322e-02 3.965384e-01
v -6.246225e-01 6.929187e-02 4.034957e-01
v -6.234718e-01 7.040757e-02 4.104162e-01
v -6.212268e-01 7.008965e-02 4.163248e-01
v -6.184284e-01 6.905263e-02 4.217395e-01
v -6.156299e-01 6.801555e-02 4.271543e-01
v -6.139637e-01 6.842619e-02 4.335075e-01
v -6.128796e-01 6.956657e-02 4.402992e-01
v -6.135320e-01 7.289254e-02 4.484250e-01
v -6.159494e-01 7.841471e-02 4.578296e-01
v -6.471393e-01 4.722208e-02 2.954285e-01
v -6.456890e-01 4.824849e-02 3.029046e-01
v -6.447631e-01 4.999058e-02 3.109228e-01
v -6.443712e-01 5.245177e-02 3.194646e-01
v -6.440109e-01 5.492471e-02 3.279450e-01
v -6.431675e-01 5.669732e-02 3.358037e-01
v -6.423493e-01 5.847932e-02 3.436134e-01
v -6.420778e-01 6.098512e-02 3.519221e-01
v -6.407891e-01 6.207150e-02 3.590855e-01
v -6.384644e-01 6.173125e-02 3.651404e-01
v -6.361460e-01 6.139342e-02 3.711830e-01
v -6.343679e-01 6.177704e-02 3.777370e-01
v -6.336765e-01 6.360605e-02 3.853014e-01
v -6.330105e-01 6.544437e-02 3.928166e-01
v -6.318264e-01 6.656945e-02 3.997776e-01
v -6.306614e-01 6.770165e-02 4.067019e-01
v -6.289656e-01 6.811577e-02 4.130964e-01
v -6.261767e-01 6.708225e-02 4.184928e-01
v -6.228316e-01 6.532134e-02 4.234085e-01
v -6.205988e-01 6.501520e-02 4.292856e-01
v -6.189347e-01 6.544112e-02 4.356188e-01
v -6.178489e-01 6.660261e-02 4.423897e-01
v -6.179197e-01 6.923529e-02 4.500362e-01
v -6.501522e-01 4.421304e-02 3.048182e-01
v -6.497194e-01 4.669541e-02 3.133990e-01
v -6.503281e-01 5.062074e-02 3.230620e-01
v -6.499650e-01 5.312895e-02 3.315077e-01
v -6.496336e-01 5.564894e-02 3.398922e-01
v -6.488197e-01 5.746140e-02 3.476618e-01
v -6.480310e-01 5.928333e-02 3.553824e-01
v -6.457057e-01 5.895021e-02 3.614304e-01
v -6.439105e-01 5.934206e-02 3.680011e-01
v -6.416011e-01 5.901471e-02 3.740184e-01
v -6.398281e-01 5.941480e-02 3.805462e-01
v -6.386012e-01 6.054578e-02 3.875662e-01
v -6.384663e-01 6.313852e-02 3.955704e-01
v -6.383632e-01 6.574302e-02 4.035134e-01
v -6.372059e-01 6.689982e-02 4.103984e-01
v -6.349757e-01 6.660189e-02 4.162624e-01
v -6.322026e-01 6.557423e-02 4.216281e-01
v -6.283247e-01 6.308008e-02 4.260341e-01
v -6.255453e-01 6.205009e-02 4.314120e-01
v -6.238833e-01 6.249131e-02 4.377252e-01
v -6.222340e-01 6.293717e-02 4.440139e-01
v -6.211623e-01 6.412565e-02 4.507334e-01
v -6.566452e-01 4.631675e-02 3.181790e-01
v -6.562477e-01 4.884841e-02 3.266513e-01
v -6.553776e-01 5.066920e-02 3.344975e-01
v -6.555477e-01 5.394708e-02 3.434123e-01
v -6.552452e-01 5.651401e-02 3.517007e-01
v -6.534331e-01 5.691403e-02 3.582883e-01
v -6.511167e-01 5.659146e-02 3.643108e-01
v -6.493268e-01 5.699974e-02 3.708555e-01
v -6.470263e-01 5.668302e-02 3.768474e-01
v -6.452586e-01 5.709951e-02 3.833491e-01
v -6.445627e-01 5.898489e-02 3.908580e-01
v -6.449579e-01 6.234613e-02 3.993373e-01
v -6.448552e-01 6.498707e-02 4.072395e-01
v -6.442449e-01 6.690415e-02 4.145827e-01
v -6.420331e-01 6.662031e-02 4.204030e-01
v -6.387367e-01 6.486290e-02 4.252406e-01
v -6.343367e-01 6.162493e-02 4.291323e-01
v -6.304695e-01 5.912029e-02 4.335338e-01
v -6.282546e-01 5.883522e-02 4.393601e-01
v -6.271623e-01 6.003782e-02 4.460956e-01
v -6.249663e-01 5.975989e-02 4.518853e-01
v -6.616261e-01 5.563702e-02 3.557299e-01
v -6.588054e-01 5.459175e-02 3.611876e-01
v -6.493129e-01 4.401431e-02 3.596306e-01
v -6.541969e-01 5.397003e-02 3.731699e-01
v -6.519022e-01 5.366277e-02 3.791427e-01
v -6.506592e-01 5.483130e-02 3.861455e-01
v -6.425986e-01 4.641362e-02 3.864159e-01
v -6.245089e-01 3.862385e-02 4.183527e-01
v -6.348232e-01 5.547943e-02 4.351785e-01
v -6.585320e-01 5.023527e-02 3.749469e-01
v -6.572715e-01 5.141917e-02 3.819597e-01
v -6.544731e-01 5.038213e-02 3.873745e-01
v -6.527189e-01 5.083264e-02 3.938178e-01
