v -3.389474e-01 1.706602e-01 2.965208e-01
v -3.286088e-01 1.734755e-01 3.100461e-01
v -3.193952e-01 1.743062e-01 3.158425e-01
v -3.103747e-01 1.748929e-01 3.206729e-01
v -3.922750e-01 1.510721e-01 2.428860e-01
v -3.811940e-01 1.536579e-01 2.554209e-01
v -3.696879e-01 1.572738e-01 2.718127e-01
v -3.574065e-01 1.626901e-01 2.949543e-01
v -3.466994e-01 1.658371e-01 3.094178e-01
v -3.371166e-01 1.672112e-01 3.171316e-01
v -3.277693e-01 1.683379e-01 3.238811e-01
v -3.181694e-01 1.702424e-01 3.335234e-01
v -3.095872e-01 1.700998e-01 3.354518e-01
v -4.005921e-01 1.451570e-01 2.529829e-01
v -3.894693e-01 1.478276e-01 2.654938e-01
v -3.786873e-01 1.502523e-01 2.770421e-01
v -3.668553e-01 1.547757e-01 2.962896e-01
v -3.550121e-01 1.598437e-01 3.174619e-01
v -3.981456e-01 1.412989e-01 2.726554e-01
v -3.869749e-01 1.443331e-01 2.861025e-01
v -3.755207e-01 1.481835e-01 3.024314e-01
v -3.633876e-01 1.536570e-01 3.245233e-01
v -3.209361e-01 1.696021e-01 3.907990e-01
v -3.129574e-01 1.689751e-01 3.907990e-01
v -3.384729e-01 1.612358e-01 3.862097e-01
v -3.297839e-01 1.619841e-01 3.910030e-01
v -3.210393e-01 1.630142e-01 3.967550e-01
v -3.127335e-01 1.632202e-01 3.996310e-01
v -3.634853e-01 1.548270e-01 3.864305e-01
v -3.551362e-01 1.547569e-01 3.883441e-01
v -3.462279e-01 1.558148e-01 3.940850e-01
v -3.376831e-01 1.563153e-01 3.979121e-01
v -3.293268e-01 1.565376e-01 4.007826e-01
v -3.211384e-01 1.564801e-01 4.026962e-01
v -3.129778e-01 1.564249e-01 4.046099e-01
v -3.632882e-01 1.485085e-01 3.933434e-01
v -3.546644e-01 1.490299e-01 3.971633e-01
v -3.455071e-01 1.507083e-01 4.048027e-01
v -3.370230e-01 1.512407e-01 4.086227e-01
v -3.291280e-01 1.506203e-01 4.086227e-01
v -3.212332e-01 1.500000e-01 4.086227e-01
v -3.135770e-01 1.487989e-01 4.067128e-01
v -3.619532e-01 1.443140e-01 4.069093e-01
v -3.532562e-01 1.451633e-01 4.116749e-01
v -3.447769e-01 1.457231e-01 4.154873e-01
v -3.367760e-01 1.454009e-01 4.164404e-01
v -3.289229e-01 1.447838e-01 4.164404e-01
v -3.210699e-01 1.441668e-01 4.164404e-01
v -6.100979e-01 1.016128e-01 2.435008e-01
v -6.025748e-01 9.945524e-02 2.387446e-01
v -5.949821e-01 9.729216e-02 2.339884e-01
v -5.842301e-01 9.801378e-02 2.387446e-01
v -3.597939e-01 1.417837e-01 4.251871e-01
v -3.519896e-01 1.411705e-01 4.251871e-01
v -3.441854e-01 1.405573e-01 4.251871e-01
v -3.293835e-01 1.375144e-01 4.194795e-01
v -6.084775e-01 9.486099e-02 2.525760e-01
v -5.993889e-01 9.414683e-02 2.525760e-01
v -5.903004e-01 9.343268e-02 2.525760e-01
v -5.809023e-01 9.301424e-02 2.535252e-01
v -5.709133e-01 9.318953e-02 2.563734e-01
v -5.612616e-01 9.307131e-02 2.582722e-01
v -5.316505e-01 9.362515e-02 2.668167e-01
v -6.071805e-01 8.790252e-02 2.606776e-01
v -5.965141e-01 8.869857e-02 2.654153e-01
v -5.859176e-01 8.950012e-02 2.701529e-01
v -5.763207e-01 8.939971e-02 2.720479e-01
v -5.664488e-01 8.960451e-02 2.748905e-01
v -5.560267e-01 9.041976e-02 2.796281e-01
v -5.456744e-01 9.124051e-02 2.843658e-01
v -5.362381e-01 9.115271e-02 2.862608e-01
v -5.273798e-01 9.045665e-02 2.862608e-01
v -6.145437e-01 8.203942e-02 2.697027e-01
v -6.032257e-01 8.348531e-02 2.763223e-01
v -5.920054e-01 8.493893e-02 2.829420e-01
v -5.821530e-01 8.516559e-02 2.857790e-01
v -5.732737e-01 8.446788e-02 2.857790e-01
v -5.628769e-01 8.531899e-02 2.905073e-01
v -5.528464e-01 8.586530e-02 2.942901e-01
v -5.437405e-01 8.548337e-02 2.952357e-01
v -5.343660e-01 8.541396e-02 2.971270e-01
v -5.250193e-01 8.534678e-02 2.990185e-01
v -6.207639e-01 7.720246e-02 2.815333e-01
v -6.087853e-01 7.932462e-02 2.900275e-01
v -5.972642e-01 8.114239e-02 2.975780e-01
v -5.868298e-01 8.202440e-02 3.022970e-01
v -5.774194e-01 8.196572e-02 3.041847e-01
v -5.683478e-01 8.159330e-02 3.051285e-01
v -5.583780e-01 8.217147e-02 3.089038e-01
v -5.499495e-01 8.116880e-02 3.079600e-01
v -5.313519e-01 8.106896e-02 3.117352e-01
v -5.215426e-01 8.165975e-02 3.155105e-01
v -6.169362e-01 7.275283e-02 2.961526e-01
v -6.013092e-01 7.846801e-02 3.149917e-01
v -5.896190e-01 8.067378e-02 3.234692e-01
v -5.806586e-01 8.031689e-02 3.244113e-01
v -5.723493e-01 7.931679e-02 3.234692e-01
v -5.640259e-01 7.831564e-02 3.225274e-01
v -5.547750e-01 7.828303e-02 3.244113e-01
v -5.464447e-01 7.728128e-02 3.234692e-01
v -5.958479e-01 7.597123e-02 3.342261e-01
v -5.852776e-01 7.726421e-02 3.398667e-01
v -5.747912e-01 7.856374e-02 3.455072e-01
v -3.191187e-01 1.883049e-01 2.689512e-01
v -3.177706e-01 1.884115e-01 2.772873e-01
v -3.171649e-01 1.889955e-01 2.860966e-01
v -3.158580e-01 1.891175e-01 2.943530e-01
v -3.123813e-01 1.878291e-01 3.010801e-01
v -3.089046e-01 1.865407e-01 3.078072e-01
v -3.054280e-01 1.852523e-01 3.145343e-01
v -3.246231e-01 1.816860e-01 2.614678e-01
v -3.232447e-01 1.818033e-01 2.698384e-01
v -3.226019e-01 1.824025e-01 2.786873e-01
v -3.227038e-01 1.834870e-01 2.879962e-01
v -3.206693e-01 1.831518e-01 2.957350e-01
v -3.179217e-01 1.823430e-01 3.029528e-01
v -3.151804e-01 1.815364e-01 3.101582e-01
v -3.117132e-01 1.802515e-01 3.168668e-01
v -3.075107e-01 1.784849e-01 3.230972e-01
v -3.033018e-01 1.767157e-01 3.293398e-01
v -2.990866e-01 1.749443e-01 3.355947e-01
v -3.294656e-01 1.745617e-01 2.534195e-01
v -3.280540e-01 1.746885e-01 2.618307e-01
v -3.273708e-01 1.753017e-01 2.707256e-01
v -3.288509e-01 1.773665e-01 2.811142e-01
v -3.282278e-01 1.780020e-01 2.898925e-01
v -3.269113e-01 1.781640e-01 2.981197e-01
v -3.241695e-01 1.773645e-01 3.053182e-01
v -3.221592e-01 1.770528e-01 3.129943e-01
v -3.187048e-01 1.757726e-01 3.196783e-01
v -3.145185e-01 1.740047e-01 3.258849e-01
v -3.095914e-01 1.717456e-01 3.316324e-01
v -3.039133e-01 1.689915e-01 3.369391e-01
v -2.979778e-01 1.680916e-01 3.597833e-01
v -2.975259e-01 1.687906e-01 3.682304e-01
v -3.016225e-01 1.724748e-01 3.792361e-01
v -3.004834e-01 1.727025e-01 3.871198e-01
v -3.001236e-01 1.734356e-01 3.953892e-01
v -3.385996e-01 1.691937e-01 2.390172e-01
v -3.357558e-01 1.683637e-01 2.464050e-01
v -3.343171e-01 1.685021e-01 2.548444e-01
v -3.335999e-01 1.691318e-01 2.637727e-01
v -3.343197e-01 1.707418e-01 2.736915e-01
v -3.350775e-01 1.723657e-01 2.835364e-01
v -3.344491e-01 1.730283e-01 2.922931e-01
v -3.331309e-01 1.732114e-01 3.004995e-01
v -3.311132e-01 1.729114e-01 3.081739e-01
v -3.291082e-01 1.726161e-01 3.158238e-01
v -3.263912e-01 1.718331e-01 3.229663e-01
v -3.229525e-01 1.705588e-01 3.296198e-01
v -3.180517e-01 1.682949e-01 3.353320e-01
v -3.124039e-01 1.655304e-01 3.406044e-01
v -3.089494e-01 1.642502e-01 3.472885e-01
v -3.091979e-01 1.654617e-01 3.562337e-01
v -3.094782e-01 1.666848e-01 3.651177e-01
v -3.090430e-01 1.674190e-01 3.735002e-01
v -3.086334e-01 1.681627e-01 3.818338e-01
v -3.090024e-01 1.694187e-01 3.905460e-01
v -3.071337e-01 1.691740e-01 3.979322e-01
v -3.052776e-01 1.689338e-01 4.052938e-01
v -3.698920e-01 1.759226e-01 2.137006e-01
v -3.657196e-01 1.741452e-01 2.198965e-01
v -3.615410e-01 1.723656e-01 2.261047e-01
v -3.532580e-01 1.676782e-01 2.289912e-01
v -3.476753e-01 1.649161e-01 2.341618e-01
v -3.448308e-01 1.640931e-01 2.415425e-01
v -3.433778e-01 1.642480e-01 2.499858e-01
v -3.419438e-01 1.644099e-01 2.583920e-01
v -3.419265e-01 1.655591e-01 2.678116e-01
v -3.419409e-01 1.667200e-01 2.771697e-01
v -3.412817e-01 1.674002e-01 2.859538e-01
v -3.413563e-01 1.685834e-01 2.951955e-01
v -3.407511e-01 1.692837e-01 3.038754e-01
v -3.387417e-01 1.690012e-01 3.115175e-01
v -3.360274e-01 1.682265e-01 3.186470e-01
v -3.333192e-01 1.674540e-01 3.257641e-01
v -3.306175e-01 1.666840e-01 3.328691e-01
v -3.271947e-01 1.654155e-01 3.394919e-01
v -3.223109e-01 1.631434e-01 3.451874e-01
v -3.203491e-01 1.628787e-01 3.527375e-01
v -3.198738e-01 1.636270e-01 3.611659e-01
v -3.194238e-01 1.643847e-01 3.695454e-01
v -3.182561e-01 1.646453e-01 3.774366e-01
v -3.171072e-01 1.649129e-01 3.852909e-01
v -3.159774e-01 1.651876e-01 3.931086e-01
v -3.141140e-01 1.649593e-01 4.004686e-01
v -3.115072e-01 1.642244e-01 4.073896e-01
v -3.111841e-01 1.650292e-01 4.155237e-01
v -3.856384e-01 1.754249e-01 2.051554e-01
v -3.808317e-01 1.731669e-01 2.107176e-01
v -3.760124e-01 1.709042e-01 2.163043e-01
v -3.711804e-01 1.686368e-01 2.219156e-01
v -3.663356e-01 1.663647e-01 2.275512e-01
v -3.601197e-01 1.631077e-01 2.321019e-01
v -3.559256e-01 1.613151e-01 2.383477e-01
v -3.537822e-01 1.609976e-01 2.462335e-01
v -3.530290e-01 1.616719e-01 2.551678e-01
v -3.523010e-01 1.623556e-01 2.640528e-01
v -3.509033e-01 1.625528e-01 2.723648e-01
v -3.509212e-01 1.637513e-01 2.816761e-01
v -3.495681e-01 1.639650e-01 2.899022e-01
v -3.482338e-01 1.641856e-01 2.980915e-01
v -3.469186e-01 1.644133e-01 3.062439e-01
v -3.456223e-01 1.646480e-01 3.143597e-01
v -3.429166e-01 1.638838e-01 3.214637e-01
v -3.409348e-01 1.636261e-01 3.290368e-01
v -3.389657e-01 1.633731e-01 3.365854e-01
v -3.362855e-01 1.626182e-01 3.436404e-01
v -3.321582e-01 1.608504e-01 3.497575e-01
v -3.302143e-01 1.606068e-01 3.572571e-01
v -3.290163e-01 1.608779e-01 3.651826e-01
v -3.278372e-01 1.611561e-01 3.730713e-01
v -3.266773e-01 1.614413e-01 3.809233e-01
v -3.247937e-01 1.612201e-01 3.883063e-01
v -3.236686e-01 1.615183e-01 3.960909e-01
v -3.210646e-01 1.607917e-01 4.029988e-01
v -3.177146e-01 1.595503e-01 4.094806e-01
v -3.143647e-01 1.583088e-01 4.159624e-01
v -4.118473e-01 1.816078e-01 1.967270e-01
v -4.051640e-01 1.779030e-01 2.003526e-01
v -3.977926e-01 1.736975e-01 2.034487e-01
v -3.923623e-01 1.709483e-01 2.083727e-01
v -3.875756e-01 1.686832e-01 2.139119e-01
v -3.834425e-01 1.669060e-01 2.200481e-01
v -3.786338e-01 1.646327e-01 2.256303e-01
v -3.738123e-01 1.623547e-01 2.312369e-01
v -3.696538e-01 1.605680e-01 2.374223e-01
v -3.661676e-01 1.592761e-01 2.441678e-01
v -3.640452e-01 1.589808e-01 2.519968e-01
v -3.633055e-01 1.596892e-01 2.608726e-01
v -3.612149e-01 1.594058e-01 2.686404e-01
v -3.598281e-01 1.596287e-01 2.769069e-01
v -3.591551e-01 1.603618e-01 2.856541e-01
v -3.585073e-01 1.611042e-01 2.943520e-01
v -3.557823e-01 1.603401e-01 3.014861e-01
v -3.537675e-01 1.600846e-01 3.091065e-01
v -3.517655e-01 1.598340e-01 3.167026e-01
v -3.504866e-01 1.600969e-01 3.247607e-01
v -3.492268e-01 1.603670e-01 3.327820e-01
v -3.472691e-01 1.601327e-01 3.402921e-01
v -3.438843e-01 1.588784e-01 3.468414e-01
v -3.404996e-01 1.576241e-01 3.533906e-01
v -3.385673e-01 1.573993e-01 3.608517e-01
v -3.373771e-01 1.576951e-01 3.687381e-01
v -3.369387e-01 1.585152e-01 3.770314e-01
v -3.343181e-01 1.577896e-01 3.839630e-01
v -3.324429e-01 1.575860e-01 3.913138e-01
v -3.305804e-01 1.573871e-01 3.986400e-01
v -3.272400e-01 1.561492e-01 4.051034e-01
v -3.224027e-01 1.538653e-01 4.107407e-01
v -3.190560e-01 1.526251e-01 4.172164e-01
v -4.252587e-01 1.797692e-01 1.868282e-01
v -4.205682e-01 1.775252e-01 1.921973e-01
v -4.165118e-01 1.757691e-01 1.981933e-01
v -4.117992e-01 1.735170e-01 2.036054e-01
v -4.064212e-01 1.707654e-01 2.084519e-01
v -4.010241e-01 1.680067e-01 2.133353e-01
v -3.969263e-01 1.662352e-01 2.194110e-01
v -3.928223e-01 1.644614e-01 2.254989e-01
v -3.887118e-01 1.626853e-01 2.315992e-01
v -3.839263e-01 1.604062e-01 2.371523e-01
v -3.797999e-01 1.586241e-01 2.432831e-01
v -3.763423e-01 1.573428e-01 2.499734e-01
v -3.735629e-01 1.565657e-01 2.572047e-01
v -3.714710e-01 1.562962e-01 2.649586e-01
v -3.693918e-01 1.560314e-01 2.726879e-01
v -3.680129e-01 1.562791e-01 2.809153e-01
v -3.666532e-01 1.565339e-01 2.891060e-01
v -3.660063e-01 1.573057e-01 2.977700e-01
v -3.632935e-01 1.565532e-01 3.048726e-01
v -3.612871e-01 1.563155e-01 3.124608e-01
v -3.592935e-01 1.560825e-01 3.200245e-01
v -3.573127e-01 1.558542e-01 3.275638e-01
v -3.560542e-01 1.561464e-01 3.355581e-01
v -3.541019e-01 1.559287e-01 3.430423e-01
v -3.514459e-01 1.551973e-01 3.500343e-01
v -3.487964e-01 1.544684e-01 3.570142e-01
v -3.468756e-01 1.542623e-01 3.644369e-01
v -3.456933e-01 1.545829e-01 3.722841e-01
v -3.445301e-01 1.549104e-01 3.800945e-01
v -3.419216e-01 1.541966e-01 3.869946e-01
v -3.407900e-01 1.545359e-01 3.947437e-01
v -3.382007e-01 1.538293e-01 4.016071e-01
v -3.333931e-01 1.515419e-01 4.072031e-01
v -3.285727e-01 1.492498e-01 4.128236e-01
v -3.237397e-01 1.469530e-01 4.184687e-01
v -4.326655e-01 1.747228e-01 1.811029e-01
v -4.298980e-01 1.739574e-01 1.883026e-01
v -4.258579e-01 1.722001e-01 1.942750e-01
v -4.211686e-01 1.699420e-01 1.996579e-01
v -4.171127e-01 1.681788e-01 2.056608e-01
v -4.130502e-01 1.664132e-01 2.116760e-01
v -4.089816e-01 1.646454e-01 2.177035e-01
v -4.049065e-01 1.628751e-01 2.237433e-01
v -4.014838e-01 1.616067e-01 2.303661e-01
v -3.973991e-01 1.598328e-01 2.364241e-01
v -3.933084e-01 1.580568e-01 2.424945e-01
v -3.885430e-01 1.557705e-01 2.480247e-01
v -3.844362e-01 1.539886e-01 2.541258e-01
v -3.816720e-01 1.532243e-01 2.613194e-01
v -3.795918e-01 1.529737e-01 2.690349e-01
v -3.775242e-01 1.527278e-01 2.767258e-01
v -3.754691e-01 1.524865e-01 2.843922e-01
v -3.734269e-01 1.522499e-01 2.920341e-01
v -3.720876e-01 1.525340e-01 3.001609e-01
v -3.700739e-01 1.523080e-01 3.077476e-01
v -3.680729e-01 1.520868e-01 3.153098e-01
v -3.653847e-01 1.513507e-01 3.223563e-01
v -3.634058e-01 1.511376e-01 3.298755e-01
v -3.628519e-01 1.519730e-01 3.383281e-01
v -3.623232e-01 1.528176e-01 3.467313e-01
v -3.589702e-01 1.515750e-01 3.532192e-01
v -3.563328e-01 1.508578e-01 3.601677e-01
v -3.558580e-01 1.517224e-01 3.684668e-01
v -3.539648e-01 1.515411e-01 3.758205e-01
v -3.520841e-01 1.513644e-01 3.831497e-01
v -3.502162e-01 1.511924e-01 3.904542e-01
v -3.476295e-01 1.504940e-01 3.973045e-01
v -3.450490e-01 1.497978e-01 4.041425e-01
v -3.409994e-01 1.480370e-01 4.101331e-01
v -3.354614e-01 1.452043e-01 4.153132e-01
v -3.291602e-01 1.418287e-01 4.201249e-01
v -3.235811e-01 1.389808e-01 4.253847e-01
v -4.366685e-01 1.684151e-01 1.819636e-01
v -4.345300e-01 1.681574e-01 1.897756e-01
v -4.311326e-01 1.668984e-01 1.963494e-01
v -4.270961e-01 1.651351e-01 2.023223e-01
v -4.230534e-01 1.633696e-01 2.083078e-01
v -4.190042e-01 1.616017e-01 2.143053e-01
v -4.149487e-01 1.598314e-01 2.203151e-01
v -4.115385e-01 1.585677e-01 2.269135e-01
v -4.081285e-01 1.573039e-01 2.335118e-01
v -4.040604e-01 1.555290e-01 2.395462e-01
v -4.006471e-01 1.542641e-01 2.461506e-01
v -3.959051e-01 1.519720e-01 2.516517e-01
v -3.918179e-01 1.501900e-01 2.577229e-01
v -3.883951e-01 1.489216e-01 2.643458e-01
v -3.863200e-01 1.486874e-01 2.720351e-01
v -3.842576e-01 1.484579e-01 2.796998e-01
v -3.822080e-01 1.482331e-01 2.873402e-01
v -3.801709e-01 1.480130e-01 2.949560e-01
v -3.781466e-01 1.477976e-01 3.025471e-01
v -3.761348e-01 1.475869e-01 3.101137e-01
v -3.734430e-01 1.468567e-01 3.171595e-01
v -3.707574e-01 1.461288e-01 3.241929e-01
v -3.694766e-01 1.464564e-01 3.321825e-01
v -3.696197e-01 1.478464e-01 3.410913e-01
v -3.683833e-01 1.481903e-01 3.489951e-01
v -3.650397e-01 1.469513e-01 3.554646e-01
v -3.631200e-01 1.467747e-01 3.628535e-01
v -3.633581e-01 1.481998e-01 3.715783e-01
v -3.614733e-01 1.480361e-01 3.788998e-01
v -3.596010e-01 1.478771e-01 3.861967e-01
v -3.577415e-01 1.477228e-01 3.934690e-01
v -3.551669e-01 1.470361e-01 4.002878e-01
v -3.525985e-01 1.463516e-01 4.070943e-01
v -3.485685e-01 1.445909e-01 4.130552e-01
v -3.430575e-01 1.417465e-01 4.182070e-01
v -3.367871e-01 1.383531e-01 4.229911e-01
v -3.319785e-01 1.360364e-01 4.286210e-01
v -4.409622e-01 1.608418e-01 1.731161e-01
v -4.412972e-01 1.626138e-01 1.834425e-01
v -4.397834e-01 1.628768e-01 1.918591e-01
v -4.357602e-01 1.611112e-01 1.978145e-01
v -4.323659e-01 1.598533e-01 2.043821e-01
v -4.296101e-01 1.591068e-01 2.115437e-01
v -4.262191e-01 1.578501e-01 2.181051e-01
v -4.221831e-01 1.560798e-01 2.240850e-01
v -4.194368e-01 1.553368e-01 2.312282e-01
v -4.153946e-01 1.535641e-01 2.372203e-01
v -4.113460e-01 1.517892e-01 2.432249e-01
v -4.072911e-01 1.500118e-01 2.492416e-01
v -4.025693e-01 1.477128e-01 2.547199e-01
v -3.984984e-01 1.459295e-01 2.607673e-01
v -3.950883e-01 1.446658e-01 2.673656e-01
v -3.930185e-01 1.444481e-01 2.750289e-01
v -3.916346e-01 1.447592e-01 2.831937e-01
v -3.895934e-01 1.445520e-01 2.908018e-01
v -3.868850e-01 1.438230e-01 2.978712e-01
v -3.841832e-01 1.430964e-01 3.049284e-01
v -3.814875e-01 1.423720e-01 3.119733e-01
v -3.787983e-01 1.416502e-01 3.190059e-01
v -3.775000e-01 1.419930e-01 3.270054e-01
v -3.762207e-01 1.423428e-01 3.349680e-01
v -3.749605e-01 1.426998e-01 3.428938e-01
v -3.737192e-01 1.430637e-01 3.507829e-01
v -3.710870e-01 1.423629e-01 3.577051e-01
v -3.691692e-01 1.422015e-01 3.650739e-01
v -3.686870e-01 1.431214e-01 3.733238e-01
v -3.675154e-01 1.435111e-01 3.810779e-01
v -3.663629e-01 1.439079e-01 3.887952e-01
v -3.652295e-01 1.443119e-01 3.964759e-01
v -3.626670e-01 1.436369e-01 4.032632e-01
v -3.601107e-01 1.429643e-01 4.100382e-01
v -3.568305e-01 1.417487e-01 4.163851e-01
v -3.520834e-01 1.394402e-01 4.219124e-01
v -3.465867e-01 1.365793e-01 4.270605e-01
v -3.425509e-01 1.348091e-01 4.330405e-01
v -3.399946e-01 1.341364e-01 4.398155e-01
v -3.389373e-01 1.345686e-01 4.473489e-01
v -3.378989e-01 1.350077e-01 4.548455e-01
v -4.456027e-01 1.550159e-01 1.746045e-01
v -4.452965e-01 1.563119e-01 1.843025e-01
v -4.437716e-01 1.565925e-01 1.927166e-01
v -4.410089e-01 1.558506e-01 1.998834e-01
v -4.382524e-01 1.551110e-01 2.070378e-01
v -4.355024e-01 1.543739e-01 2.141801e-01
v -4.321208e-01 1.531207e-01 2.207231e-01
v -4.287392e-01 1.518675e-01 2.272663e-01
v -4.253576e-01 1.506144e-01 2.338094e-01
v -4.219761e-01 1.493612e-01 2.403525e-01
v -4.185944e-01 1.481081e-01 2.468956e-01
v -4.145590e-01 1.463307e-01 2.528824e-01
v -4.098605e-01 1.440258e-01 2.583317e-01
v -4.058093e-01 1.422425e-01 2.643492e-01
v -4.017518e-01 1.404571e-01 2.703791e-01
v -3.996872e-01 1.402558e-01 2.780162e-01
v -3.976352e-01 1.400591e-01 2.856286e-01
v -3.955959e-01 1.398672e-01 2.932167e-01
v -3.922175e-01 1.386152e-01 2.997537e-01
v -3.888391e-01 1.373632e-01 3.062906e-01
v -3.861430e-01 1.366461e-01 3.133287e-01
v -3.848240e-01 1.370030e-01 3.213441e-01
v -3.842126e-01 1.379039e-01 3.298114e-01
v -3.822431e-01 1.377379e-01 3.372645e-01
v -3.802863e-01 1.375766e-01 3.446931e-01
v -3.790402e-01 1.379605e-01 3.525675e-01
v -3.771118e-01 1.378097e-01 3.599409e-01
v -3.759007e-01 1.382065e-01 3.677477e-01
v -3.754161e-01 1.391545e-01 3.759698e-01
v -3.742460e-01 1.395667e-01 3.836970e-01
v -3.738089e-01 1.405322e-01 3.918271e-01
v -3.726801e-01 1.409596e-01 3.994745e-01
v -3.701298e-01 1.402964e-01 4.062305e-01
v -3.668623e-01 1.390856e-01 4.125528e-01
v -3.643214e-01 1.384258e-01 4.192902e-01
v -3.610570e-01 1.372161e-01 4.256065e-01
v -3.570598e-01 1.354530e-01 4.315199e-01
v -3.545284e-01 1.347967e-01 4.382389e-01
v -3.527427e-01 1.346988e-01 4.453364e-01
v -3.517121e-01 1.351625e-01 4.527937e-01
v -3.618852e-01 1.440067e-01 4.658895e-01
v -4.502359e-01 1.492018e-01 1.760914e-01
v -4.492958e-01 1.500100e-01 1.851625e-01
v -4.483812e-01 1.508277e-01 1.941847e-01
v -4.468671e-01 1.511341e-01 2.025533e-01
v -4.434887e-01 1.498821e-01 2.090903e-01
v -4.401103e-01 1.486301e-01 2.156273e-01
v -4.367319e-01 1.473781e-01 2.221642e-01
v -4.339908e-01 1.466516e-01 2.292812e-01
v -4.306155e-01 1.454008e-01 2.358121e-01
v -4.272403e-01 1.441500e-01 2.423429e-01
v -4.245119e-01 1.434281e-01 2.494353e-01
v -4.204898e-01 1.416484e-01 2.554046e-01
v -4.158081e-01 1.393352e-01 2.608370e-01
v -4.124265e-01 1.380820e-01 2.673801e-01
v -4.083854e-01 1.362953e-01 2.733861e-01
v -4.050006e-01 1.350409e-01 2.799354e-01
v -4.022818e-01 1.343225e-01 2.870094e-01
v -3.995692e-01 1.336064e-01 2.940710e-01
v -3.968630e-01 1.328928e-01 3.011206e-01
v -3.948384e-01 1.327208e-01 3.086639e-01
v -3.914695e-01 1.314723e-01 3.151825e-01
v -3.901456e-01 1.318492e-01 3.231832e-01
v -3.895258e-01 1.327761e-01 3.316352e-01
v -3.875552e-01 1.326242e-01 3.390744e-01
v -3.855971e-01 1.324768e-01 3.464891e-01
v -3.843462e-01 1.328807e-01 3.543488e-01
v -3.831144e-01 1.332917e-01 3.621718e-01
v -3.819014e-01 1.337096e-01 3.699578e-01
v -3.821153e-01 1.352347e-01 3.786094e-01
v -3.816539e-01 1.362203e-01 3.867547e-01
v -3.805076e-01 1.366630e-01 3.944121e-01
v -3.793802e-01 1.371127e-01 4.020326e-01
v -3.775553e-01 1.370147e-01 4.091897e-01
v -3.757432e-01 1.369215e-01 4.163224e-01
v -3.732208e-01 1.362758e-01 4.230161e-01
v -3.707046e-01 1.356325e-01 4.296976e-01
v -3.681949e-01 1.349917e-01 4.363669e-01
v -3.664239e-01 1.349137e-01 4.434198e-01
v -3.661368e-01 1.359638e-01 4.512276e-01
v -3.695687e-01 1.398380e-01 4.609050e-01
v -3.775092e-01 1.471179e-01 4.727372e-01
v -3.818194e-01 1.516067e-01 4.825284e-01
v -4.560843e-01 1.444454e-01 1.788206e-01
v -4.551389e-01 1.452807e-01 1.878702e-01
v -4.536010e-01 1.456001e-01 1.962610e-01
v -4.514613e-01 1.453999e-01 2.040114e-01
v -4.487102e-01 1.446768e-01 2.111398e-01
v -4.453381e-01 1.434272e-01 2.176645e-01
v -4.425963e-01 1.427075e-01 2.247744e-01
v -4.398611e-01 1.419903e-01 2.318721e-01
v -4.364953e-01 1.407430e-01 2.383846e-01
v -4.331296e-01 1.394958e-01 2.448970e-01
v -4.297638e-01 1.382485e-01 2.514095e-01
v -4.263981e-01 1.370012e-01 2.579219e-01
v -4.217334e-01 1.346798e-01 2.633375e-01
v -4.177087e-01 1.328919e-01 2.693199e-01
v -4.143335e-01 1.316411e-01 2.758507e-01
v -4.102992e-01 1.298496e-01 2.818514e-01
v -4.075829e-01 1.291395e-01 2.889123e-01
v -4.048730e-01 1.284316e-01 2.959610e-01
v -4.028378e-01 1.282703e-01 3.035090e-01
v -4.008152e-01 1.281135e-01 3.110324e-01
v -3.981307e-01 1.274151e-01 3.180321e-01
v -3.954524e-01 1.267190e-01 3.250193e-01
v -3.941427e-01 1.271229e-01 3.329686e-01
v -3.928522e-01 1.275338e-01 3.408812e-01
v -3.915806e-01 1.279519e-01 3.487568e-01
v -3.903280e-01 1.283769e-01 3.565957e-01
v -3.897883e-01 1.293625e-01 3.648604e-01
v -3.885769e-01 1.298028e-01 3.726196e-01
v -3.887848e-01 1.313619e-01 3.812427e-01
v -3.883210e-01 1.323756e-01 3.893602e-01
v -3.878828e-01 1.333989e-01 3.974287e-01
v -3.867602e-01 1.338720e-01 4.050161e-01
v -3.856564e-01 1.343522e-01 4.125668e-01
v -3.845718e-01 1.348396e-01 4.200807e-01
v -3.827870e-01 1.347709e-01 4.271442e-01
v -3.802926e-01 1.341430e-01 4.337759e-01
v -3.785300e-01 1.340826e-01 4.407965e-01
v -3.782375e-01 1.351599e-01 4.485830e-01
v -3.801657e-01 1.379493e-01 4.574873e-01
v -3.828736e-01 1.413240e-01 4.666886e-01
v -3.834174e-01 1.430076e-01 4.746616e-01
v -3.817689e-01 1.429895e-01 4.814616e-01
v -3.778995e-01 1.412591e-01 4.871435e-01
v -4.659092e-01 1.415098e-01 1.756047e-01
v -4.643412e-01 1.418397e-01 1.840299e-01
v -4.621813e-01 1.416466e-01 1.918032e-01
v -4.588060e-01 1.403958e-01 1.983341e-01
v -4.560480e-01 1.396774e-01 2.054678e-01
v -4.539166e-01 1.394949e-01 2.131859e-01
v -4.517978e-01 1.393170e-01 2.208794e-01
v -4.496919e-01 1.391439e-01 2.285484e-01
v -4.469688e-01 1.384385e-01 2.356147e-01
v -4.436188e-01 1.371971e-01 2.420965e-01
v -4.402689e-01 1.359557e-01 2.485783e-01
v -4.369190e-01 1.347143e-01 2.550601e-01
v -4.329266e-01 1.329310e-01 2.609880e-01
v -4.282819e-01 1.306025e-01 2.663807e-01
v -4.236248e-01 1.282694e-01 2.717980e-01
v -4.202591e-01 1.270221e-01 2.783103e-01
v -4.162381e-01 1.252283e-01 2.842935e-01
v -4.135276e-01 1.245276e-01 2.913352e-01
v -4.108233e-01 1.238291e-01 2.983646e-01
v -4.087903e-01 1.236830e-01 3.058927e-01
v -4.067699e-01 1.235416e-01 3.133961e-01
v -4.040911e-01 1.228525e-01 3.203765e-01
v -4.014185e-01 1.221658e-01 3.273446e-01
v -3.994298e-01 1.220361e-01 3.347868e-01
v -3.994955e-01 1.235787e-01 3.436449e-01
v -3.989092e-01 1.245762e-01 3.519678e-01
v -3.983481e-01 1.255829e-01 3.602415e-01
v -3.978126e-01 1.265991e-01 3.684663e-01
v -3.952224e-01 1.259429e-01 3.752749e-01
v -3.947281e-01 1.269743e-01 3.834199e-01
v -3.949585e-01 1.285780e-01 3.919592e-01
v -3.945179e-01 1.296294e-01 4.000000e-01
v -3.933967e-01 1.301249e-01 4.075605e-01
v -3.930037e-01 1.311939e-01 4.155092e-01
v -3.926360e-01 1.322723e-01 4.234089e-01
v -3.915784e-01 1.327913e-01 4.308469e-01
v -3.912581e-01 1.338873e-01 4.386545e-01
v -3.902416e-01 1.344215e-01 4.460128e-01
v -3.899689e-01 1.355352e-01 4.537285e-01
v -3.904498e-01 1.372316e-01 4.617834e-01
v -3.909624e-01 1.389399e-01 4.697769e-01
v -3.885688e-01 1.383566e-01 4.762054e-01
v -3.847063e-01 1.366215e-01 4.818819e-01
v -3.815782e-01 1.354624e-01 4.879344e-01
v -3.791941e-01 1.348825e-01 4.943445e-01
v -4.774717e-01 1.402088e-01 1.743296e-01
v -4.735021e-01 1.384269e-01 1.802217e-01
v -4.713379e-01 1.382468e-01 1.879872e-01
v -4.691863e-01 1.380712e-01 1.957282e-01
v -4.658269e-01 1.368263e-01 2.022284e-01
v -4.624675e-01 1.355813e-01 2.087286e-01
v -4.609581e-01 1.359548e-01 2.170165e-01
v -4.588477e-01 1.357945e-01 2.246778e-01
v -4.567502e-01 1.356390e-01 2.323146e-01
v -4.540391e-01 1.349453e-01 2.393494e-01
v -4.500757e-01 1.331656e-01 2.452291e-01
v -4.467385e-01 1.319289e-01 2.516864e-01
v -4.427657e-01 1.301458e-01 2.575845e-01
v -4.394253e-01 1.289079e-01 2.640479e-01
v -4.348009e-01 1.265724e-01 2.694176e-01
v -4.301637e-01 1.242321e-01 2.748118e-01
v -4.268107e-01 1.229895e-01 2.812997e-01
v -4.228062e-01 1.211946e-01 2.872593e-01
v -4.187952e-01 1.193973e-01 2.932309e-01
v -4.167515e-01 1.192617e-01 3.007635e-01
v -4.133984e-01 1.180191e-01 3.072514e-01
v -4.113737e-01 1.178908e-01 3.147472e-01
v -4.093617e-01 1.177670e-01 3.222184e-01
v -4.080329e-01 1.182073e-01 3.301567e-01
v -4.060493e-01 1.180940e-01 3.375728e-01
v -4.047554e-01 1.185473e-01 3.454437e-01
v -4.048405e-01 1.201334e-01 3.542243e-01
v -4.049573e-01 1.217313e-01 3.629436e-01
v -4.037330e-01 1.222103e-01 3.706796e-01
v -4.011486e-01 1.215635e-01 3.774690e-01
v -4.006489e-01 1.226220e-01 3.855924e-01
v -4.008703e-01 1.242586e-01 3.941093e-01
v -4.011233e-01 1.259069e-01 4.025649e-01
v -4.007058e-01 1.269959e-01 4.105288e-01
v -4.003138e-01 1.280943e-01 4.184437e-01
v -3.999470e-01 1.292020e-01 4.263095e-01
v -4.003173e-01 1.308938e-01 4.345383e-01
v -4.007193e-01 1.325974e-01 4.427056e-01
v -3.997169e-01 1.331587e-01 4.500124e-01
v -3.987336e-01 1.337270e-01 4.572822e-01
v -3.977692e-01 1.343024e-01 4.645154e-01
v -3.968239e-01 1.348848e-01 4.717117e-01
v -3.937053e-01 1.337291e-01 4.777459e-01
v -3.891189e-01 1.314076e-01 4.830420e-01
v -3.852569e-01 1.296656e-01 4.887255e-01
v -3.821289e-01 1.285064e-01 4.947780e-01
v -3.782574e-01 1.267608e-01 5.004800e-01
v -5.116741e-01 1.578990e-01 1.879106e-01
v -4.989802e-01 1.481042e-01 1.839756e-01
v -4.885606e-01 1.404249e-01 1.827643e-01
v -4.840355e-01 1.381116e-01 1.879577e-01
v -4.806982e-01 1.368749e-01 1.944150e-01
v -4.779645e-01 1.361800e-01 2.014857e-01
v -4.740238e-01 1.344015e-01 2.073295e-01
v -4.706866e-01 1.331648e-01 2.137867e-01
v -4.685752e-01 1.330187e-01 2.214342e-01
v -4.658604e-01 1.323308e-01 2.284681e-01
v -4.625327e-01 1.310976e-01 2.349069e-01
v -4.598274e-01 1.304133e-01 2.419226e-01
v -4.571284e-01 1.297312e-01 2.489259e-01
v -4.531783e-01 1.279493e-01 2.547881e-01
v -4.492217e-01 1.261648e-01 2.606624e-01
v -4.446240e-01 1.238247e-01 2.659970e-01
v -4.400133e-01 1.214797e-01 2.713560e-01
v -4.360314e-01 1.196859e-01 2.772795e-01
v -4.326878e-01 1.184469e-01 2.837490e-01
v -4.286966e-01 1.166496e-01 2.896909e-01
v -4.246989e-01 1.148500e-01 2.956450e-01
v -4.220031e-01 1.141692e-01 3.026422e-01
v -4.199709e-01 1.140524e-01 3.101363e-01
v -4.179515e-01 1.139404e-01 3.176059e-01
v -4.159446e-01 1.138330e-01 3.250510e-01
v -4.139505e-01 1.137303e-01 3.324716e-01
v -4.119691e-01 1.136325e-01 3.398676e-01
v -4.106734e-01 1.141068e-01 3.477178e-01
v -4.100731e-01 1.151571e-01 3.560035e-01
v -4.101776e-01 1.167866e-01 3.647065e-01
v -4.089485e-01 1.172857e-01 3.724278e-01
v -4.070526e-01 1.172194e-01 3.796583e-01
v -4.072363e-01 1.188783e-01 3.882080e-01
v -4.081439e-01 1.211237e-01 3.971382e-01
v -4.083942e-01 1.228073e-01 4.055591e-01
v -4.079776e-01 1.239256e-01 4.134891e-01
v -4.075865e-01 1.250534e-01 4.213702e-01
v -4.079256e-01 1.267698e-01 4.296194e-01
v -4.075882e-01 1.279175e-01 4.373961e-01
v -4.065652e-01 1.284929e-01 4.447189e-01
v -4.062754e-01 1.296582e-01 4.524037e-01
v -4.052935e-01 1.302488e-01 4.596466e-01
v -4.028893e-01 1.296760e-01 4.660796e-01
v -4.012152e-01 1.296920e-01 4.728808e-01
v -3.980999e-01 1.285375e-01 4.789088e-01
v -3.935242e-01 1.262055e-01 4.842004e-01
v -3.896690e-01 1.244587e-01 4.898786e-01
v -3.865442e-01 1.233007e-01 4.959250e-01
v -3.812003e-01 1.203659e-01 5.009220e-01
v -5.172385e-01 1.535161e-01 1.906605e-01
v -5.098968e-01 1.485174e-01 1.924548e-01
v -5.019205e-01 1.429582e-01 1.937040e-01
v -4.968604e-01 1.401068e-01 1.981759e-01
v -4.917812e-01 1.372483e-01 2.026849e-01
v -4.878824e-01 1.354780e-01 2.084558e-01
v -4.839771e-01 1.337053e-01 2.142390e-01
v -4.806715e-01 1.324804e-01 2.206350e-01
v -4.773660e-01 1.312554e-01 2.270309e-01
v -4.740604e-01 1.300304e-01 2.334268e-01
v -4.701394e-01 1.282520e-01 2.392407e-01
v -4.668307e-01 1.270259e-01 2.456428e-01
v -4.635220e-01 1.257997e-01 2.520449e-01
v -4.595882e-01 1.240165e-01 2.578832e-01
v -4.556482e-01 1.222310e-01 2.637340e-01
v -4.510704e-01 1.198837e-01 2.690455e-01
v -4.464799e-01 1.175317e-01 2.743816e-01
v -4.418768e-01 1.151751e-01 2.797424e-01
v -4.379018e-01 1.133765e-01 2.856604e-01
v -4.345645e-01 1.121399e-01 2.921177e-01
v -4.312273e-01 1.109032e-01 2.985750e-01
v -4.278901e-01 1.096664e-01 3.050322e-01
v -4.265135e-01 1.101326e-01 3.130148e-01
v -4.251561e-01 1.106059e-01 3.209607e-01
v -4.231576e-01 1.105160e-01 3.283735e-01
v -4.198457e-01 1.092887e-01 3.347817e-01
v -4.178663e-01 1.092061e-01 3.421577e-01
v -4.165690e-01 1.097016e-01 3.499870e-01
v -4.159634e-01 1.107789e-01 3.582511e-01
v -4.160588e-01 1.124413e-01 3.669318e-01
v -4.148280e-01 1.129615e-01 3.746323e-01
v -4.142983e-01 1.140669e-01 3.827492e-01
v -4.144792e-01 1.157611e-01 3.912642e-01
v -4.153803e-01 1.180476e-01 4.001590e-01
v -4.149361e-01 1.191847e-01 4.081104e-01
v -4.145175e-01 1.203312e-01 4.160127e-01
v -4.148220e-01 1.220711e-01 4.242886e-01
v -4.151582e-01 1.238229e-01 4.325031e-01
v -4.148218e-01 1.249999e-01 4.402460e-01
v -4.130960e-01 1.250112e-01 4.471315e-01
v -4.128040e-01 1.262047e-01 4.547885e-01
v -4.111098e-01 1.262277e-01 4.616126e-01
v -4.079944e-01 1.250732e-01 4.676406e-01
v -4.055991e-01 1.245110e-01 4.740483e-01
v -4.024869e-01 1.233577e-01 4.800702e-01
v -3.979219e-01 1.210151e-01 4.853572e-01
v -3.940737e-01 1.192636e-01 4.910301e-01
v -3.909520e-01 1.181068e-01 4.970703e-01
v -3.856224e-01 1.151555e-01 5.020636e-01
v -3.817521e-01 1.133958e-01 5.077794e-01
v -5.233607e-01 1.497161e-01 1.940482e-01
v -5.178075e-01 1.463276e-01 1.977329e-01
v -5.116426e-01 1.423796e-01 2.008363e-01
v -5.066254e-01 1.395223e-01 2.052495e-01
v -5.015891e-01 1.366579e-01 2.096995e-01
v -4.965337e-01 1.337865e-01 2.141860e-01
v -4.926575e-01 1.320173e-01 2.199210e-01
v -4.887751e-01 1.302459e-01 2.256683e-01
v -4.854918e-01 1.290292e-01 2.320213e-01
v -4.809910e-01 1.266959e-01 2.371995e-01
v -4.770896e-01 1.249175e-01 2.429836e-01
v -4.731817e-01 1.231366e-01 2.487798e-01
v -4.698857e-01 1.219151e-01 2.551575e-01
v -4.659685e-01 1.201308e-01 2.609722e-01
v -4.626693e-01 1.189082e-01 2.673559e-01
v -4.581147e-01 1.165550e-01 2.726383e-01
v -4.516551e-01 1.124978e-01 2.763120e-01
v -4.470657e-01 1.101317e-01 2.816620e-01
v -4.431009e-01 1.083298e-01 2.875688e-01
v -4.404103e-01 1.076654e-01 2.945397e-01
v -4.377261e-01 1.070034e-01 3.014985e-01
v -4.350482e-01 1.063436e-01 3.084450e-01
v -4.323767e-01 1.056863e-01 3.153794e-01
v -4.303644e-01 1.056059e-01 3.228028e-01
v -4.283649e-01 1.055303e-01 3.302017e-01
v -4.257188e-01 1.048825e-01 3.370869e-01
v -4.237413e-01 1.048149e-01 3.444429e-01
v -4.231081e-01 1.059111e-01 3.527284e-01
v -4.225000e-01 1.070164e-01 3.609648e-01
v -4.212455e-01 1.075496e-01 3.686875e-01
v -4.206850e-01 1.086725e-01 3.768318e-01
v -4.208283e-01 1.103890e-01 3.853797e-01
v -4.210033e-01 1.121173e-01 3.938661e-01
v -4.212100e-01 1.138573e-01 4.022914e-01
v -4.207604e-01 1.150214e-01 4.102212e-01
v -4.210273e-01 1.167837e-01 4.185298e-01
v -4.220201e-01 1.191477e-01 4.271990e-01
v -4.230510e-01 1.215258e-01 4.357945e-01
v -4.220182e-01 1.221411e-01 4.430879e-01
v -4.203007e-01 1.221700e-01 4.499411e-01
v -4.193028e-01 1.227982e-01 4.571670e-01
v -4.176138e-01 1.228377e-01 4.639650e-01
v -4.145111e-01 1.216879e-01 4.699684e-01
v -4.114084e-01 1.205381e-01 4.759719e-01
v -4.083057e-01 1.193882e-01 4.819754e-01
v -4.037576e-01 1.170374e-01 4.872457e-01
v -3.999226e-01 1.152836e-01 4.929010e-01
v -3.960814e-01 1.135274e-01 4.985685e-01
v -3.922338e-01 1.117690e-01 5.042482e-01
v -3.883798e-01 1.100081e-01 5.099403e-01
v -5.300294e-01 1.465167e-01 1.980713e-01
v -5.245071e-01 1.431104e-01 2.017284e-01
v -5.189594e-01 1.396949e-01 2.054348e-01
v -5.145582e-01 1.373840e-01 2.104368e-01
v -5.101443e-01 1.350684e-01 2.154634e-01
v -5.051254e-01 1.321888e-01 2.199034e-01
v -5.006830e-01 1.298626e-01 2.249852e-01
v -4.968264e-01 1.280935e-01 2.306904e-01
v -4.923618e-01 1.257592e-01 2.358151e-01
v -4.878845e-01 1.234201e-01 2.409643e-01
v -4.840026e-01 1.216416e-01 2.467184e-01
v -4.795031e-01 1.192943e-01 2.519106e-01
v -4.749908e-01 1.169423e-01 2.571273e-01
v -4.717012e-01 1.157232e-01 2.634925e-01
v -4.677907e-01 1.139342e-01 2.693020e-01
v -4.638739e-01 1.121427e-01 2.751235e-01
v -4.580696e-01 1.086320e-01 2.793266e-01
v -4.535004e-01 1.062589e-01 2.846537e-01
v -4.495520e-01 1.044558e-01 2.905366e-01
v -4.462337e-01 1.032261e-01 2.969571e-01
v -4.441949e-01 1.031504e-01 3.044157e-01
v -4.408831e-01 1.019231e-01 3.108239e-01
v -4.382174e-01 1.012752e-01 3.177390e-01
v -4.349087e-01 1.000491e-01 3.241410e-01
v -4.329049e-01 9.998637e-02 3.315322e-01
v -4.315694e-01 1.005113e-01 3.393874e-01
v -4.302528e-01 1.010432e-01 3.472057e-01
v -4.296172e-01 1.021673e-01 3.554634e-01
v -4.290071e-01 1.033010e-01 3.636721e-01
v -4.277539e-01 1.038563e-01 3.713678e-01
v -4.271913e-01 1.050076e-01 3.794845e-01
v -4.273286e-01 1.067582e-01 3.880038e-01
v -4.281754e-01 1.091116e-01 3.969073e-01
v -4.283793e-01 1.108869e-01 4.052978e-01
v -4.286149e-01 1.126738e-01 4.136270e-01
v -4.288821e-01 1.144724e-01 4.218948e-01
v -4.291811e-01 1.162829e-01 4.301014e-01
v -4.288181e-01 1.175081e-01 4.378317e-01
v -4.284804e-01 1.187427e-01 4.455130e-01
v -4.274682e-01 1.193874e-01 4.527426e-01
v -4.257718e-01 1.194386e-01 4.595390e-01
v -4.240881e-01 1.194946e-01 4.663110e-01
v -4.209981e-01 1.183495e-01 4.722899e-01
v -4.179080e-01 1.172044e-01 4.782688e-01
v -4.148180e-01 1.160593e-01 4.842478e-01
v -4.102900e-01 1.137014e-01 4.894951e-01
v -4.064714e-01 1.119464e-01 4.951266e-01
v -4.026466e-01 1.101890e-01 5.007704e-01
v -3.980869e-01 1.078194e-01 5.060791e-01
v -3.942461e-01 1.060562e-01 5.117536e-01
v -5.387102e-01 1.434410e-01 1.946231e-01
v -5.355156e-01 1.422572e-01 2.008044e-01
v -5.311693e-01 1.399521e-01 2.057161e-01
v -5.256524e-01 1.365189e-01 2.093949e-01
v -5.212745e-01 1.342022e-01 2.143679e-01
v -5.168839e-01 1.318807e-01 2.193654e-01
v -5.124805e-01 1.295545e-01 2.243874e-01
v -5.074729e-01 1.266573e-01 2.288299e-01
v -5.036359e-01 1.248882e-01 2.345052e-01
v -4.991945e-01 1.225479e-01 2.396008e-01
v -4.947406e-01 1.202030e-01 2.447210e-01
v -4.908782e-01 1.184245e-01 2.504453e-01
v -4.870095e-01 1.166436e-01 2.561818e-01
v -4.819131e-01 1.137135e-01 2.607960e-01
v -4.774115e-01 1.113509e-01 2.660081e-01
v -4.735144e-01 1.095595e-01 2.717999e-01
v -4.696109e-01 1.077658e-01 2.776040e-01
v -4.644541e-01 1.048132e-01 2.823345e-01
v -4.599051e-01 1.024331e-01 2.876387e-01
v -4.566028e-01 1.012093e-01 2.940285e-01
v -4.526675e-01 9.940371e-02 2.998939e-01
v -4.493620e-01 9.817880e-02 3.062898e-01
v -4.460564e-01 9.695382e-02 3.126858e-01
v -4.433933e-01 9.631417e-02 3.195878e-01
v -4.407366e-01 9.567678e-02 3.264775e-01
v -4.387347e-01 9.562933e-02 3.338487e-01
v -4.373976e-01 9.617536e-02 3.416830e-01
v -4.360794e-01 9.672843e-02 3.494806e-01
v -4.354384e-01 9.787966e-02 3.577168e-01
v -4.348228e-01 9.904020e-02 3.659037e-01
v -4.342325e-01 1.002103e-01 3.740417e-01
v -4.336676e-01 1.013897e-01 3.821307e-01
v -4.331281e-01 1.025785e-01 3.901706e-01
v -4.339621e-01 1.049706e-01 3.990509e-01
v -4.348340e-01 1.073769e-01 4.078576e-01
v -4.364245e-01 1.103967e-01 4.170232e-01
v -4.366922e-01 1.122318e-01 4.252502e-01
v -4.369915e-01 1.140786e-01 4.334159e-01
v -4.366326e-01 1.153344e-01 4.411063e-01
v -4.356060e-01 1.159955e-01 4.483397e-01
v -4.345983e-01 1.166637e-01 4.555363e-01
v -4.329104e-01 1.167325e-01 4.623004e-01
v -4.305324e-01 1.161985e-01 4.686504e-01
v -4.281609e-01 1.156668e-01 4.749882e-01
v -4.257956e-01 1.151374e-01 4.813138e-01
v -4.220125e-01 1.133884e-01 4.868848e-01
v -4.175078e-01 1.110246e-01 4.921031e-01
v -4.144273e-01 1.098830e-01 4.980637e-01
v -4.106251e-01 1.081269e-01 5.036714e-01
v -4.046424e-01 1.045210e-01 5.082517e-01
v -4.000901e-01 1.021396e-01 5.135619e-01
v -5.447302e-01 1.397773e-01 1.980161e-01
v -5.415483e-01 1.385981e-01 2.041728e-01
v -5.366501e-01 1.357196e-01 2.084275e-01
v -5.311575e-01 1.322664e-01 2.120912e-01
v -5.267966e-01 1.299415e-01 2.170474e-01
v -5.230045e-01 1.281817e-01 2.226437e-01
v -5.192061e-01 1.264197e-01 2.282523e-01
v -5.148134e-01 1.240830e-01 2.332699e-01
v -5.098169e-01 1.211680e-01 2.377147e-01
v -5.048016e-01 1.182461e-01 2.421963e-01
v -5.003643e-01 1.158929e-01 2.472997e-01
v -4.965153e-01 1.141121e-01 2.530064e-01
v -4.926598e-01 1.123289e-01 2.587254e-01
v -4.887981e-01 1.105434e-01 2.644567e-01
v -4.849300e-01 1.087555e-01 2.702003e-01
v -4.810555e-01 1.069652e-01 2.759560e-01
v -4.765582e-01 1.045897e-01 2.811758e-01
v -4.708091e-01 1.010415e-01 2.853363e-01
v -4.662801e-01 9.865418e-02 2.906174e-01
v -4.636164e-01 9.802159e-02 2.975125e-01
v -4.590716e-01 9.562848e-02 3.028244e-01
v -4.545141e-01 9.323068e-02 3.081607e-01
v -4.518503e-01 9.259794e-02 3.150557e-01
v -4.491930e-01 9.196770e-02 3.219386e-01
v -4.471838e-01 9.193201e-02 3.293082e-01
v -4.451872e-01 9.190094e-02 3.366533e-01
v -4.438515e-01 9.246928e-02 3.444606e-01
v -4.418834e-01 9.244887e-02 3.517506e-01
v -4.412372e-01 9.362713e-02 3.599652e-01
v -4.406161e-01 9.481476e-02 3.681305e-01
v -4.413422e-01 9.721046e-02 3.771716e-01
v -4.414422e-01 9.901975e-02 3.856829e-01
v -4.409068e-01 1.002391e-01 3.936828e-01
v -4.410670e-01 1.020707e-01 4.020775e-01
v -4.419325e-01 1.045181e-01 4.108487e-01
v -4.428361e-01 1.069795e-01 4.195464e-01
v -4.444574e-01 1.100615e-01 4.285959e-01
v -4.447571e-01 1.119448e-01 4.367209e-01
v -4.437162e-01 1.126224e-01 4.439580e-01
v -4.426943e-01 1.133070e-01 4.511583e-01
v -4.416913e-01 1.139986e-01 4.583218e-01
v -4.407074e-01 1.146973e-01 4.654485e-01
v -4.390436e-01 1.147896e-01 4.721498e-01
v -4.373925e-01 1.148867e-01 4.788264e-01
v -4.357541e-01 1.149884e-01 4.854786e-01
v -4.327116e-01 1.138609e-01 4.913656e-01
v -4.282460e-01 1.114972e-01 4.965241e-01
v -4.259120e-01 1.109867e-01 5.027814e-01
v -4.228663e-01 1.098580e-01 5.086745e-01
v -4.169364e-01 1.062427e-01 5.131843e-01
v -4.153265e-01 1.063550e-01 5.197813e-01
v -5.495964e-01 1.350206e-01 2.001116e-01
v -5.464207e-01 1.338438e-01 2.062562e-01
v -5.409716e-01 1.303777e-01 2.098678e-01
v -5.360688e-01 1.274757e-01 2.141557e-01
v -5.322964e-01 1.257160e-01 2.197221e-01
v -5.285175e-01 1.239539e-01 2.253009e-01
v -5.247324e-01 1.221895e-01 2.308918e-01
v -5.203566e-01 1.198446e-01 2.358926e-01
v -5.165556e-01 1.180743e-01 2.415142e-01
v -5.121577e-01 1.157211e-01 2.465579e-01
v -5.071534e-01 1.127815e-01 2.510419e-01
v -5.021302e-01 1.098350e-01 2.555628e-01
v -4.982879e-01 1.080494e-01 2.612642e-01
v -4.950426e-01 1.068468e-01 2.675437e-01
v -4.911908e-01 1.050576e-01 2.732633e-01
v -4.873328e-01 1.032663e-01 2.789955e-01
v -4.834684e-01 1.014725e-01 2.847397e-01
v -4.783658e-01 9.849650e-02 2.894138e-01
v -4.738633e-01 9.610454e-02 2.946599e-01
v -4.705926e-01 9.489251e-02 3.009884e-01
v -4.660712e-01 9.249360e-02 3.062713e-01
v -4.615371e-01 9.008995e-02 3.115786e-01
v -4.576219e-01 8.827742e-02 3.174211e-01
v -4.549703e-01 8.765647e-02 3.242846e-01
v -4.536013e-01 8.823424e-02 3.321325e-01
v -4.516100e-01 8.821968e-02 3.394515e-01
v -4.496313e-01 8.820979e-02 3.467459e-01
v -4.483129e-01 8.880633e-02 3.544957e-01
v -4.476643e-01 9.001269e-02 3.626825e-01
v -4.476951e-01 9.183259e-02 3.712878e-01
v -4.490716e-01 9.487465e-02 3.807550e-01
v -4.491721e-01 9.672035e-02 3.892254e-01
v -4.486408e-01 9.797020e-02 3.971853e-01
v -4.481348e-01 9.922948e-02 4.050961e-01
v -4.489938e-01 1.017180e-01 4.138318e-01
v -4.498908e-01 1.042206e-01 4.224941e-01
v -4.515019e-01 1.073495e-01 4.315073e-01
v -4.517988e-01 1.092680e-01 4.395976e-01
v -4.514449e-01 1.105836e-01 4.472141e-01
v -4.511164e-01 1.119087e-01 4.547815e-01
v -4.508134e-01 1.132432e-01 4.623000e-01
v -4.498436e-01 1.139689e-01 4.693752e-01
v -4.475026e-01 1.134631e-01 4.756378e-01
v -4.465645e-01 1.142005e-01 4.826517e-01
v -4.449441e-01 1.143234e-01 4.892533e-01
v -4.426315e-01 1.138281e-01 4.954607e-01
v -4.382020e-01 1.114632e-01 5.005656e-01
v -4.358926e-01 1.109691e-01 5.067670e-01
v -4.350180e-01 1.117301e-01 5.136582e-01
v -4.334450e-01 1.118706e-01 5.201677e-01
v -4.340461e-01 1.139018e-01 5.276693e-01
v -4.346790e-01 1.159448e-01 5.351096e-01
v -5.533310e-01 1.291357e-01 2.009147e-01
v -5.507169e-01 1.285359e-01 2.076978e-01
v -5.464152e-01 1.262039e-01 2.125714e-01
v -5.415329e-01 1.232878e-01 2.168431e-01
v -5.372028e-01 1.209453e-01 2.217719e-01
v -5.340082e-01 1.197614e-01 2.279532e-01
v -5.296589e-01 1.174117e-01 2.329188e-01
v -5.258774e-01 1.156414e-01 2.385105e-01
v -5.220897e-01 1.138688e-01 2.441146e-01
v -5.182956e-01 1.120939e-01 2.497310e-01
v -5.144951e-01 1.103165e-01 2.553596e-01
v -5.095020e-01 1.073593e-01 2.598460e-01
v -5.050862e-01 1.049850e-01 2.649403e-01
v -5.012572e-01 1.031971e-01 2.706241e-01
v -4.974219e-01 1.014069e-01 2.763202e-01
v -4.935802e-01 9.961426e-02 2.820285e-01
v -4.897323e-01 9.781936e-02 2.877491e-01
v -4.852657e-01 9.542619e-02 2.929415e-01
v -4.807864e-01 9.302842e-02 2.981585e-01
v -4.762947e-01 9.062599e-02 3.034000e-01
v -4.724118e-01 8.881809e-02 3.091880e-01
v -4.685227e-01 8.700796e-02 3.149884e-01
v -4.652552e-01 8.579706e-02 3.213107e-01
v -4.619877e-01 8.458621e-02 3.276331e-01
v -4.593545e-01 8.397929e-02 3.344529e-01
v -4.573653e-01 8.398006e-02 3.417519e-01
v -4.560293e-01 8.459178e-02 3.495114e-01
v -4.553564e-01 8.581827e-02 3.577135e-01
v -4.547087e-01 8.705405e-02 3.658665e-01
v -4.547367e-01 8.890913e-02 3.744371e-01
v -4.554496e-01 9.138709e-02 3.834073e-01
v -4.555441e-01 9.326683e-02 3.918492e-01
v -4.550105e-01 9.454493e-02 3.997813e-01
v -4.551652e-01 9.644698e-02 4.081068e-01
v -4.560177e-01 9.897656e-02 4.168070e-01
v -4.575773e-01 1.021372e-01 4.258637e-01
v -4.585090e-01 1.046962e-01 4.344107e-01
v -4.588032e-01 1.066499e-01 4.424663e-01
v -4.591290e-01 1.086155e-01 4.504606e-01
v -4.588047e-01 1.099710e-01 4.579880e-01
v -4.591907e-01 1.119588e-01 4.658658e-01
v -4.589201e-01 1.133344e-01 4.732890e-01
v -4.579837e-01 1.140942e-01 4.802760e-01
v -4.563715e-01 1.142347e-01 4.868452e-01
v -4.547721e-01 1.143799e-01 4.933899e-01
v -4.524843e-01 1.139011e-01 4.995414e-01
v -4.487949e-01 1.121648e-01 5.049554e-01
v -4.465135e-01 1.116884e-01 5.110945e-01
v -4.449489e-01 1.118464e-01 5.175718e-01
v -4.441106e-01 1.126426e-01 5.243687e-01
v -4.425745e-01 1.128113e-01 5.307908e-01
v -4.403312e-01 1.123490e-01 5.368563e-01
v -5.570656e-01 1.232508e-01 2.017177e-01
v -5.544478e-01 1.226569e-01 2.085000e-01
v -5.507145e-01 1.208972e-01 2.140068e-01
v -5.464107e-01 1.185499e-01 2.189004e-01
v -5.420942e-01 1.161979e-01 2.238184e-01
v -5.383356e-01 1.144288e-01 2.293743e-01
v -5.351441e-01 1.132461e-01 2.355494e-01
v -5.319527e-01 1.120634e-01 2.417246e-01
v -5.276014e-01 1.096985e-01 2.467102e-01
v -5.238205e-01 1.079213e-01 2.523089e-01
v -5.206196e-01 1.067350e-01 2.585025e-01
v -5.168291e-01 1.049542e-01 2.641196e-01
v -5.124399e-01 1.025752e-01 2.691787e-01
v -5.086336e-01 1.007884e-01 2.748266e-01
v -5.042221e-01 9.840122e-02 2.799285e-01
v -5.004000e-01 9.660862e-02 2.856071e-01
v -4.965716e-01 9.481373e-02 2.912978e-01
v -4.927368e-01 9.301642e-02 2.970008e-01
v -4.876725e-01 9.001100e-02 3.016490e-01
v -4.832039e-01 8.760271e-02 3.068615e-01
v -4.793406e-01 8.579478e-02 3.126196e-01
v -4.754711e-01 8.398462e-02 3.183901e-01
v -4.722194e-01 8.277963e-02 3.246818e-01
v -4.689677e-01 8.157461e-02 3.309735e-01
v -4.657161e-01 8.036966e-02 3.372652e-01
v -4.637320e-01 8.038679e-02 3.445381e-01
v -4.623977e-01 8.102090e-02 3.522707e-01
v -4.617224e-01 8.227550e-02 3.604450e-01
v -4.623591e-01 8.476868e-02 3.695146e-01
v -4.630339e-01 8.727602e-02 3.785105e-01
v -4.630971e-01 8.918045e-02 3.869730e-01
v -4.625391e-01 9.047845e-02 3.949203e-01
v -4.606945e-01 9.054733e-02 4.019234e-01
v -4.614992e-01 9.310276e-02 4.106679e-01
v -4.630043e-01 9.629392e-02 4.197741e-01
v -4.645538e-01 9.950158e-02 4.287947e-01
v -4.654789e-01 1.021016e-01 4.373061e-01
v -4.657703e-01 1.040906e-01 4.453270e-01
v -4.660934e-01 1.060913e-01 4.532867e-01
v -4.664481e-01 1.081038e-01 4.611849e-01
v -4.668345e-01 1.101281e-01 4.690219e-01
v -4.665681e-01 1.115342e-01 4.764051e-01
v -4.663270e-01 1.129497e-01 4.837392e-01
v -4.654205e-01 1.137423e-01 4.906441e-01
v -4.638390e-01 1.139087e-01 4.971382e-01
v -4.615729e-01 1.134451e-01 5.032398e-01
v -4.586128e-01 1.123482e-01 5.089673e-01
v -4.570598e-01 1.125250e-01 5.154060e-01
v -4.555195e-01 1.127066e-01 5.218204e-01
v -4.532820e-01 1.122537e-01 5.278668e-01
v -4.524768e-01 1.130839e-01 5.345755e-01
v -4.488258e-01 1.113547e-01 5.399228e-01
v -5.613511e-01 1.179535e-01 2.031639e-01
v -5.581787e-01 1.167779e-01 2.093023e-01
v -5.544491e-01 1.150123e-01 2.148098e-01
v -5.501528e-01 1.126533e-01 2.197050e-01
v -5.469709e-01 1.114741e-01 2.258617e-01
v -5.432223e-01 1.097015e-01 2.314062e-01
v -5.400372e-01 1.085212e-01 2.375690e-01
v -5.374250e-01 1.079366e-01 2.443321e-01
v -5.342431e-01 1.067575e-01 2.504889e-01
v -5.304818e-01 1.049802e-01 2.560578e-01
v -5.267141e-01 1.032005e-01 2.616389e-01
v -5.229403e-01 1.014185e-01 2.672323e-01
v -5.197487e-01 1.002358e-01 2.734075e-01
v -5.153732e-01 9.784740e-02 2.784560e-01
v -5.109850e-01 9.545427e-02 2.835289e-01
v -5.071825e-01 9.366168e-02 2.891776e-01
v -5.039752e-01 9.247313e-02 2.953834e-01
v -4.989537e-01 8.946188e-02 2.999727e-01
v -4.939133e-01 8.644366e-02 3.045990e-01
v -4.900759e-01 8.463813e-02 3.103150e-01
v -4.868464e-01 8.344134e-02 3.165638e-01
v -4.829995e-01 8.163227e-02 3.222982e-01
v -4.791463e-01 7.982095e-02 3.280449e-01
v -4.759105e-01 7.862182e-02 3.343059e-01
v -4.733016e-01 7.803843e-02 3.410629e-01
v -4.706990e-01 7.745747e-02 3.478075e-01
v -4.693694e-01 7.811507e-02 3.555072e-01
v -4.686951e-01 7.939903e-02 3.636476e-01
v -4.699649e-01 8.255387e-02 3.731531e-01
v -4.706363e-01 8.510341e-02 3.821074e-01
v -4.706998e-01 8.704427e-02 3.905291e-01
v -4.694969e-01 8.774881e-02 3.979834e-01
v -4.683129e-01 8.846046e-02 4.054010e-01
v -4.697697e-01 9.168454e-02 4.145446e-01
v -4.706124e-01 9.429758e-02 4.231679e-01
v -4.714929e-01 9.692458e-02 4.317174e-01
v -4.724116e-01 9.956580e-02 4.401935e-01
v -4.740364e-01 1.028522e-01 4.490121e-01
v -4.736917e-01 1.042583e-01 4.565148e-01
v -4.740468e-01 1.063072e-01 4.643722e-01
v -4.744335e-01 1.083678e-01 4.721684e-01
v -4.741713e-01 1.098045e-01 4.795116e-01
v -4.739344e-01 1.112505e-01 4.868058e-01
v -4.723485e-01 1.114297e-01 4.932920e-01
v -4.714657e-01 1.122529e-01 5.001270e-01
v -4.699083e-01 1.124427e-01 5.065582e-01
v -4.669704e-01 1.113540e-01 5.122428e-01
v -4.661320e-01 1.121937e-01 5.189920e-01
v -4.646095e-01 1.123963e-01 5.253555e-01
v -4.630998e-01 1.126039e-01 5.316947e-01
v -4.616026e-01 1.128159e-01 5.380093e-01
v -4.601182e-01 1.130327e-01 5.442993e-01
v -5.650821e-01 1.120745e-01 2.039662e-01
v -5.619096e-01 1.108989e-01 2.101045e-01
v -5.581838e-01 1.091274e-01 2.156129e-01
v -5.544516e-01 1.073536e-01 2.211335e-01
v -5.512728e-01 1.061757e-01 2.272842e-01
v -5.480940e-01 1.049977e-01 2.334348e-01
v -5.454814e-01 1.044201e-01 2.401909e-01
v -5.428751e-01 1.038450e-01 2.469348e-01
v -5.397026e-01 1.026694e-01 2.530732e-01
v -5.365302e-01 1.014937e-01 2.592115e-01
v -5.327790e-01 9.971287e-02 2.647690e-01
v -5.296034e-01 9.853607e-02 2.709135e-01
v -5.258427e-01 9.675177e-02 2.764894e-01
v -5.226639e-01 9.557378e-02 2.826400e-01
v -5.188936e-01 9.378587e-02 2.882342e-01
v -5.151171e-01 9.199566e-02 2.938407e-01
v -5.113341e-01 9.020305e-02 2.994594e-01
v -5.063429e-01 8.718123e-02 3.040144e-01
v -5.013326e-01 8.415236e-02 3.086062e-01
v -4.969106e-01 8.173227e-02 3.137604e-01
v -4.930865e-01 7.992435e-02 3.194589e-01
v -4.904834e-01 7.935044e-02 3.261966e-01
v -4.866529e-01 7.754021e-02 3.319074e-01
v -4.828161e-01 7.572769e-02 3.376304e-01
v -4.808425e-01 7.577772e-02 3.448509e-01
v -4.788816e-01 7.583246e-02 3.520470e-01
v -4.781924e-01 7.714000e-02 3.601842e-01
v -4.775285e-01 7.845679e-02 3.682723e-01
v -4.775259e-01 8.040937e-02 3.767820e-01
v -4.781940e-01 8.300127e-02 3.856947e-01
v -4.782578e-01 8.497851e-02 3.940755e-01
v -4.770628e-01 8.570777e-02 4.014907e-01
v -4.765352e-01 8.707511e-02 4.093151e-01
v -4.779881e-01 9.034852e-02 4.184102e-01
v -4.788305e-01 9.300501e-02 4.269857e-01
v -4.803690e-01 9.631013e-02 4.359153e-01
v -4.806294e-01 9.836017e-02 4.439159e-01
v -4.815859e-01 1.010589e-01 4.522706e-01
v -4.819129e-01 1.031337e-01 4.601425e-01
v -4.822715e-01 1.052201e-01 4.679530e-01
v -4.819879e-01 1.066779e-01 4.753053e-01
v -4.817297e-01 1.081451e-01 4.826085e-01
v -4.801365e-01 1.083361e-01 4.890931e-01
v -4.792393e-01 1.091757e-01 4.959319e-01
v -4.776745e-01 1.093773e-01 5.023614e-01
v -4.761224e-01 1.095835e-01 5.087664e-01
v -4.738901e-01 1.091470e-01 5.147867e-01
v -4.730563e-01 1.100102e-01 5.215028e-01
v -4.715422e-01 1.102305e-01 5.278341e-01
v -4.700408e-01 1.104556e-01 5.341410e-01
v -4.685522e-01 1.106853e-01 5.404233e-01
v -4.677849e-01 1.115731e-01 5.470106e-01
v -5.688130e-01 1.061955e-01 2.047684e-01
v -5.656406e-01 1.050199e-01 2.109068e-01
v -5.619184e-01 1.032425e-01 2.164159e-01
v -5.587427e-01 1.020657e-01 2.225604e-01
v -5.566794e-01 1.020970e-01 2.299389e-01
v -5.535102e-01 1.009225e-01 2.360711e-01
v -5.514657e-01 1.009609e-01 2.434127e-01
v -5.488683e-01 1.003963e-01 2.501312e-01
v -5.457085e-01 9.922535e-02 2.562451e-01
v -5.431207e-01 9.866431e-02 2.629452e-01
v -5.399641e-01 9.749454e-02 2.690530e-01
v -5.362293e-01 9.571252e-02 2.745866e-01
v -5.324882e-01 9.392820e-02 2.801327e-01
v -5.293252e-01 9.275604e-02 2.862526e-01
v -5.261623e-01 9.158394e-02 2.923726e-01
v -5.224085e-01 8.979490e-02 2.979431e-01
v -5.186484e-01 8.800347e-02 3.035258e-01
v -5.136872e-01 8.497107e-02 3.080464e-01
v -5.093076e-01 8.255218e-02 3.131349e-01
v -5.055188e-01 8.075015e-02 3.187728e-01
v -5.011171e-01 7.832300e-02 3.239042e-01
v -4.979225e-01 7.713917e-02 3.300855e-01
v -4.941147e-01 7.533009e-02 3.357602e-01
v -4.909169e-01 7.414506e-02 3.419477e-01
v -4.895775e-01 7.484259e-02 3.496179e-01
v -4.882571e-01 7.554719e-02 3.572516e-01
v -4.869558e-01 7.625887e-02 3.648483e-01
v -4.863023e-01 7.760854e-02 3.728841e-01
v -4.863064e-01 7.959990e-02 3.813407e-01
v -4.863422e-01 8.160300e-02 3.897360e-01
v -4.864096e-01 8.361783e-02 3.980699e-01
v -4.858672e-01 8.500870e-02 4.058911e-01
v -4.853500e-01 8.640894e-02 4.136633e-01
v -4.861542e-01 8.909476e-02 4.222646e-01
v -4.876476e-01 9.243392e-02 4.312253e-01
v -4.878767e-01 9.450868e-02 4.392465e-01
v -4.881375e-01 9.659516e-02 4.472063e-01
v -4.897513e-01 9.997902e-02 4.559340e-01
v -4.907456e-01 1.027353e-01 4.641674e-01
v -4.904441e-01 1.042154e-01 4.715226e-01
v -4.894976e-01 1.050585e-01 4.784325e-01
v -4.885702e-01 1.059088e-01 4.853057e-01
v -4.869853e-01 1.061174e-01 4.917581e-01
v -4.847335e-01 1.056809e-01 4.978082e-01
v -4.831707e-01 1.058977e-01 5.042177e-01
v -4.809346e-01 1.054670e-01 5.102372e-01
v -4.793942e-01 1.056921e-01 5.166038e-01
v -4.785587e-01 1.065763e-01 5.232991e-01
v -4.770466e-01 1.068120e-01 5.296104e-01
v -4.748486e-01 1.063954e-01 5.355562e-01
v -4.733588e-01 1.066392e-01 5.418248e-01
v -5.693715e-01 9.914085e-02 2.117090e-01
v -5.661991e-01 9.796522e-02 2.178474e-01
v -5.630266e-01 9.678958e-02 2.239858e-01
v -5.609589e-01 9.683377e-02 2.313564e-01
v -5.589038e-01 9.688264e-02 2.387026e-01
v -5.568614e-01 9.693622e-02 2.460242e-01
v -5.548318e-01 9.699453e-02 2.533213e-01
v -5.522497e-01 9.644284e-02 2.600022e-01
v -5.496740e-01 9.589358e-02 2.666708e-01
v -5.465332e-01 9.472969e-02 2.727479e-01
v -5.428180e-01 9.294765e-02 2.782517e-01
v -5.396741e-01 9.178258e-02 2.843349e-01
v -5.365301e-01 9.061753e-02 2.904182e-01
v -5.333862e-01 8.945247e-02 2.965013e-01
v -5.302423e-01 8.828740e-02 3.025845e-01
v -5.265081e-01 8.649839e-02 3.081251e-01
v -5.215804e-01 8.345657e-02 3.126052e-01
v -5.172303e-01 8.103415e-02 3.176524e-01
v -5.128678e-01 7.860697e-02 3.227240e-01
v -5.096984e-01 7.743251e-02 3.288563e-01
v -5.059230e-01 7.562812e-02 3.344766e-01
v -5.027505e-01 7.445249e-02 3.406150e-01
v -5.001907e-01 7.390912e-02 3.472531e-01
v -4.982529e-01 7.400145e-02 3.543722e-01
v -4.969467e-01 7.473302e-02 3.619543e-01
v -4.956594e-01 7.547167e-02 3.694996e-01
v -4.950164e-01 7.685432e-02 3.774832e-01
v -4.956556e-01 7.952250e-02 3.863557e-01
v -4.950697e-01 8.092627e-02 3.942288e-01
v -4.951440e-01 8.297990e-02 4.025097e-01
v -4.952498e-01 8.504523e-02 4.107293e-01
v -4.947463e-01 8.647953e-02 4.184430e-01
v -4.949124e-01 8.856721e-02 4.265460e-01
v -4.951102e-01 9.066659e-02 4.345877e-01
v -4.953397e-01 9.277773e-02 4.425681e-01
v -4.962546e-01 9.554816e-02 4.509071e-01
v -4.978645e-01 9.898132e-02 4.595862e-01
v -4.975385e-01 1.004814e-01 4.669566e-01
v -4.972378e-01 1.019908e-01 4.742779e-01
v -4.969625e-01 1.035097e-01 4.815502e-01
v -4.953733e-01 1.037312e-01 4.879948e-01
v -4.931241e-01 1.033029e-01 4.940319e-01
v -4.908811e-01 1.028770e-01 5.000567e-01
v -4.886446e-01 1.024534e-01 5.060692e-01
v -4.870965e-01 1.026901e-01 5.124341e-01
v -4.848758e-01 1.022724e-01 5.184160e-01
v -4.833500e-01 1.025174e-01 5.247381e-01
v -4.825287e-01 1.034287e-01 5.313819e-01
v -4.810313e-01 1.036843e-01 5.376488e-01
v -5.725633e-01 9.264954e-02 2.118775e-01
v -5.704723e-01 9.269970e-02 2.192773e-01
v -5.678484e-01 9.213980e-02 2.260310e-01
v -5.663282e-01 9.281384e-02 2.340031e-01
v -5.642752e-01 9.287802e-02 2.413293e-01
v -5.627899e-01 9.356501e-02 2.492339e-01
v -5.607653e-01 9.363973e-02 2.565049e-01
v -5.587535e-01 9.371911e-02 2.637513e-01
v -5.573189e-01 9.442493e-02 2.715578e-01
v -5.542003e-01 9.326923e-02 2.775920e-01
v -5.505110e-01 9.148957e-02 2.830536e-01
v -5.468153e-01 8.970753e-02 2.885277e-01
v -5.442675e-01 8.917585e-02 2.951342e-01
v -5.411458e-01 8.801902e-02 3.011744e-01
v -5.374406e-01 8.623344e-02 3.066669e-01
v -5.331424e-01 8.381570e-02 3.116297e-01
v -5.288316e-01 8.139321e-02 3.166172e-01
v -5.251010e-01 7.959829e-02 3.221586e-01
v -5.207680e-01 7.716762e-02 3.271889e-01
v -5.176209e-01 7.600138e-02 3.332783e-01
v -5.144739e-01 7.483515e-02 3.393676e-01
v -5.113268e-01 7.366890e-02 3.454569e-01
v -5.081797e-01 7.250265e-02 3.515463e-01
v -5.062566e-01 7.261494e-02 3.586209e-01
v -5.055765e-01 7.401284e-02 3.666442e-01
v -5.049219e-01 7.542007e-02 3.746184e-01
v -5.049140e-01 7.747956e-02 3.830180e-01
v -5.043132e-01 7.890686e-02 3.908880e-01
v -5.037378e-01 8.034355e-02 3.987089e-01
v -5.038186e-01 8.243586e-02 4.069367e-01
v -5.032971e-01 8.389254e-02 4.146535e-01
v -5.034382e-01 8.600719e-02 4.227647e-01
v -5.036110e-01 8.813361e-02 4.308146e-01
v -5.038155e-01 9.027178e-02 4.388032e-01
v -5.046986e-01 9.307387e-02 4.471558e-01
v -5.043196e-01 9.458336e-02 4.545966e-01
v -5.046192e-01 9.675674e-02 4.624013e-01
v -5.049504e-01 9.894189e-02 4.701446e-01
v -5.053135e-01 1.011388e-01 4.778266e-01
v -5.037200e-01 1.013733e-01 4.842636e-01
v -5.014733e-01 1.009531e-01 4.902876e-01
v -4.999020e-01 1.011958e-01 4.966816e-01
v -4.976712e-01 1.007816e-01 5.026749e-01
v -4.954467e-01 1.003697e-01 5.086560e-01
v -4.925500e-01 9.929623e-02 5.142608e-01
v -4.896533e-01 9.822277e-02 5.198657e-01
v -4.881264e-01 9.848190e-02 5.261739e-01
v -4.873002e-01 9.941319e-02 5.328030e-01
v -4.858019e-01 9.968285e-02 5.390560e-01
v -5.747380e-01 8.744582e-02 2.207055e-01
v -5.742805e-01 8.937498e-02 2.299350e-01
v -5.727649e-01 9.007249e-02 2.378739e-01
v -5.712683e-01 9.077710e-02 2.457763e-01
v -5.703421e-01 9.211275e-02 2.542440e-01
v -5.694411e-01 9.345781e-02 2.626628e-01
v -5.680079e-01 9.418587e-02 2.704424e-01
v -5.654723e-01 9.366598e-02 2.770175e-01
v -5.623791e-01 9.251970e-02 2.830026e-01
v -5.592859e-01 9.137339e-02 2.889876e-01
v -5.561927e-01 9.022712e-02 2.949727e-01
v -5.519527e-01 8.781639e-02 2.998391e-01
v -5.488531e-01 8.666776e-02 3.058364e-01
v -5.451738e-01 8.488459e-02 3.112866e-01
v -5.409054e-01 8.246328e-02 3.162082e-01
v -5.366241e-01 8.003728e-02 3.211543e-01
v -5.329195e-01 7.824472e-02 3.266536e-01
v -5.292085e-01 7.644974e-02 3.321652e-01
v -5.260868e-01 7.529290e-02 3.382054e-01
v -5.229651e-01 7.413607e-02 3.442457e-01
v -5.210472e-01 7.426479e-02 3.512943e-01
v -5.185369e-01 7.375428e-02 3.578204e-01
v -5.160330e-01 7.324611e-02 3.643341e-01
v -5.147583e-01 7.403288e-02 3.718071e-01
v -5.147318e-01 7.612177e-02 3.802025e-01
v -5.141192e-01 7.757366e-02 3.880633e-01
v -5.135320e-01 7.903501e-02 3.958749e-01
v -5.129703e-01 8.050580e-02 4.036375e-01
v -5.130610e-01 8.263804e-02 4.118060e-01
v -5.125530e-01 8.412874e-02 4.194643e-01
v -5.114368e-01 8.497425e-02 4.266307e-01
v -5.122500e-01 8.779402e-02 4.350705e-01
v -5.131011e-01 9.062777e-02 4.434366e-01
v -5.133472e-01 9.281762e-02 4.513047e-01
v -5.129787e-01 9.435999e-02 4.586932e-01
v -5.132850e-01 9.657218e-02 4.664448e-01
v -5.129704e-01 9.813452e-02 4.737290e-01
v -5.120253e-01 9.904342e-02 4.805643e-01
v -5.097812e-01 9.863162e-02 4.865752e-01
v -5.075434e-01 9.822203e-02 4.925739e-01
v -5.059774e-01 9.848116e-02 4.989418e-01
v -5.037556e-01 9.807750e-02 5.049097e-01
v -5.008684e-01 9.700755e-02 5.104962e-01
v -4.979812e-01 9.593762e-02 5.160827e-01
v -4.944159e-01 9.419673e-02 5.213122e-01
v -4.928880e-01 9.446996e-02 5.276065e-01
v -4.913726e-01 9.474782e-02 5.338763e-01
v -4.884949e-01 9.368142e-02 5.394444e-01
v -5.864838e-01 9.095630e-02 2.308962e-01
v -5.855173e-01 9.230601e-02 2.394098e-01
v -5.829525e-01 9.178259e-02 2.460331e-01
v -5.809385e-01 9.189018e-02 2.532518e-01
v -5.800321e-01 9.326223e-02 2.616488e-01
v -5.791511e-01 9.464369e-02 2.699969e-01
v -5.766340e-01 9.413787e-02 2.765283e-01
v -5.735661e-01 9.300102e-02 2.824643e-01
v -5.710585e-01 9.249867e-02 2.889772e-01
v -5.679938e-01 9.136298e-02 2.949071e-01
v -5.643626e-01 8.959035e-02 3.002724e-01
v -5.601554e-01 8.717731e-02 3.050913e-01
v -5.565083e-01 8.539877e-02 3.104871e-01
v -5.528549e-01 8.361791e-02 3.158953e-01
v -5.491952e-01 8.183472e-02 3.213156e-01
v -5.443645e-01 7.876357e-02 3.256803e-01
v -5.412713e-01 7.761728e-02 3.316654e-01
v -5.381781e-01 7.647104e-02 3.376504e-01
v -5.350849e-01 7.532477e-02 3.436355e-01
v -5.313967e-01 7.353100e-02 3.491110e-01
v -5.294967e-01 7.368094e-02 3.561091e-01
v -5.276094e-01 7.383545e-02 3.630824e-01
v -5.257349e-01 7.399475e-02 3.700312e-01
v -5.244807e-01 7.481094e-02 3.774406e-01
v -5.238564e-01 7.628751e-02 3.852918e-01
v -5.226434e-01 7.711900e-02 3.926215e-01
v -5.220666e-01 7.861320e-02 4.003808e-01
v -5.215152e-01 8.011678e-02 4.080911e-01
v -5.216127e-01 8.228785e-02 4.162066e-01
v -5.211152e-01 8.381140e-02 4.238126e-01
v -5.200130e-01 8.468396e-02 4.309276e-01
v -5.208293e-01 8.754831e-02 4.393135e-01
v -5.216834e-01 9.042681e-02 4.476257e-01
v -5.212969e-01 9.199141e-02 4.550171e-01
v -5.202930e-01 9.290043e-02 4.619420e-01
v -5.205997e-01 9.514897e-02 4.696527e-01
v -5.202891e-01 9.674184e-02 4.768970e-01
v -5.180477e-01 9.633819e-02 4.828948e-01
v -5.158126e-01 9.593687e-02 4.888804e-01
v -5.142422e-01 9.620892e-02 4.952406e-01
v -5.120230e-01 9.581350e-02 5.011955e-01
v -5.091453e-01 9.474707e-02 5.067636e-01
v -5.062676e-01 9.368067e-02 5.123317e-01
v -5.033899e-01 9.261429e-02 5.178998e-01
v -4.998380e-01 9.087097e-02 5.231117e-01
v -4.969571e-01 8.980338e-02 5.286859e-01
v -4.947568e-01 8.941503e-02 5.346040e-01
v -4.918792e-01 8.834863e-02 5.401721e-01
v -6.034287e-01 1.009534e-01 2.473148e-01
v -5.982524e-01 9.729820e-02 2.507193e-01
v -5.952004e-01 9.616720e-02 2.566247e-01
v -5.926890e-01 9.567076e-02 2.631369e-01
v -5.896402e-01 9.454094e-02 2.690360e-01
v -5.871384e-01 9.404808e-02 2.755298e-01
v -5.840927e-01 9.291941e-02 2.814230e-01
v -5.810470e-01 9.179075e-02 2.873160e-01
v -5.785578e-01 9.130250e-02 2.937853e-01
v -5.749557e-01 8.953343e-02 2.991022e-01
v -5.713473e-01 8.776194e-02 3.044314e-01
v -5.677324e-01 8.598813e-02 3.097729e-01
v -5.646804e-01 8.485715e-02 3.156782e-01
v -5.616284e-01 8.372612e-02 3.215836e-01
v -5.580010e-01 8.194764e-02 3.269496e-01
v -5.532099e-01 7.886943e-02 3.312614e-01
v -5.495635e-01 7.708390e-02 3.366643e-01
v -5.464956e-01 7.594702e-02 3.426003e-01
v -5.434277e-01 7.481016e-02 3.485363e-01
v -5.403600e-01 7.367327e-02 3.544723e-01
v -5.384811e-01 7.384551e-02 3.614134e-01
v -5.366148e-01 7.402238e-02 3.683300e-01
v -5.353622e-01 7.486091e-02 3.757124e-01
v -5.341285e-01 7.570639e-02 3.830580e-01
v -5.329138e-01 7.655898e-02 3.903667e-01
v -5.317181e-01 7.741863e-02 3.976387e-01
v -5.305415e-01 7.828531e-02 4.048739e-01
v -5.306172e-01 8.048454e-02 4.129915e-01
v -5.307246e-01 8.269554e-02 4.210478e-01
v -5.302407e-01 8.425319e-02 4.285955e-01
v -5.297821e-01 8.582018e-02 4.360941e-01
v -5.299783e-01 8.806406e-02 4.439787e-01
v -5.295736e-01 8.965111e-02 4.513730e-01
v -5.285586e-01 9.057766e-02 4.582955e-01
v -5.288402e-01 9.285324e-02 4.660145e-01
v -5.285117e-01 9.446845e-02 4.732617e-01
v -5.275632e-01 9.541969e-02 4.800553e-01
v -5.253371e-01 9.502900e-02 4.860156e-01
v -5.237687e-01 9.531626e-02 4.923558e-01
v -5.215584e-01 9.493139e-02 4.982853e-01
v -5.193545e-01 9.454887e-02 5.042027e-01
v -5.158348e-01 9.281030e-02 5.093602e-01
v -5.123087e-01 9.106943e-02 5.145300e-01
v -5.087763e-01 8.932610e-02 5.197120e-01
v -5.052376e-01 8.758055e-02 5.249063e-01
v -5.016926e-01 8.583253e-02 5.301128e-01
v -4.988180e-01 8.476730e-02 5.356748e-01
v -4.959435e-01 8.370206e-02 5.412368e-01
v -6.117495e-01 1.010534e-01 2.537029e-01
v -6.087387e-01 9.993769e-02 2.595286e-01
v -6.062616e-01 9.946125e-02 2.659664e-01
v -6.032540e-01 9.834667e-02 2.717859e-01
v -5.986262e-01 9.530726e-02 2.758057e-01
v -5.945227e-01 9.290352e-02 2.804562e-01
v -5.914991e-01 9.178306e-02 2.863063e-01
v -5.884757e-01 9.066264e-02 2.921565e-01
v -5.848995e-01 8.889591e-02 2.974314e-01
v -5.813170e-01 8.712682e-02 3.027184e-01
v -5.782872e-01 8.600404e-02 3.085809e-01
v -5.746951e-01 8.423144e-02 3.138864e-01
v -5.710967e-01 8.245643e-02 3.192041e-01
v -5.686292e-01 8.198350e-02 3.256235e-01
v -5.661679e-01 8.151289e-02 3.320306e-01
v -5.619883e-01 7.908099e-02 3.368282e-01
v -5.577959e-01 7.664442e-02 3.416503e-01
v -5.541722e-01 7.486013e-02 3.470171e-01
v -5.517110e-01 7.438949e-02 3.534242e-01
v -5.498437e-01 7.458046e-02 3.603269e-01
v -5.479891e-01 7.477617e-02 3.672051e-01
v -5.461471e-01 7.497652e-02 3.740588e-01
v -5.443178e-01 7.518170e-02 3.808880e-01
v -5.431015e-01 7.605536e-02 3.881759e-01
v -5.413007e-01 7.627109e-02 3.949499e-01
v -5.401192e-01 7.715770e-02 4.021704e-01
v -5.407861e-01 8.005384e-02 4.107490e-01
v -5.402651e-01 8.162675e-02 4.183364e-01
v -5.403855e-01 8.387884e-02 4.263274e-01
v -5.392991e-01 8.480067e-02 4.333639e-01
v -5.388542e-01 8.640180e-02 4.408041e-01
v -5.390602e-01 8.868555e-02 4.486295e-01
v -5.374116e-01 8.895765e-02 4.551091e-01
v -5.364075e-01 8.991002e-02 4.619863e-01
v -5.360577e-01 9.154633e-02 4.692425e-01
v -5.357331e-01 9.319207e-02 4.764496e-01
v -5.347926e-01 9.416799e-02 4.832041e-01
v -5.332263e-01 9.447053e-02 4.895242e-01
v -5.310250e-01 9.409630e-02 4.954286e-01
v -5.288299e-01 9.372441e-02 5.013205e-01
v -5.253330e-01 9.198698e-02 5.064420e-01
v -5.224870e-01 9.093229e-02 5.119488e-01
v -5.189805e-01 8.919131e-02 5.170887e-01
v -5.148040e-01 8.676066e-02 5.218803e-01
v -5.106149e-01 8.432525e-02 5.266961e-01
v -5.070830e-01 8.257493e-02 5.318851e-01
v -6.189558e-01 9.997355e-02 2.588295e-01
v -6.170208e-01 1.001539e-01 2.658472e-01
v -6.140385e-01 9.904875e-02 2.716176e-01
v -6.099900e-01 9.665099e-02 2.761777e-01
v -6.059287e-01 9.424850e-02 2.807622e-01
v -6.018549e-01 9.184126e-02 2.853713e-01
v -5.983109e-01 9.007915e-02 2.905917e-01
v -5.947606e-01 8.831476e-02 2.958244e-01
v -5.912040e-01 8.654799e-02 3.010694e-01
v -5.881932e-01 8.543227e-02 3.068950e-01
v -5.851824e-01 8.431650e-02 3.127207e-01
v -5.821716e-01 8.320079e-02 3.185463e-01
v -5.791608e-01 8.208503e-02 3.243719e-01
v -5.767148e-01 8.162737e-02 3.307415e-01
v -5.737072e-01 8.051280e-02 3.365610e-01
v -5.695572e-01 7.807742e-02 3.413172e-01
v -5.653946e-01 7.563732e-02 3.460981e-01
v -5.623743e-01 7.451808e-02 3.519421e-01
v -5.599347e-01 7.406275e-02 3.582993e-01
v -5.580852e-01 7.427488e-02 3.651513e-01
v -5.562485e-01 7.449173e-02 3.719789e-01
v -5.550146e-01 7.538074e-02 3.792768e-01
v -5.532064e-01 7.560816e-02 3.860491e-01
v -5.514108e-01 7.584024e-02 3.927970e-01
v -5.502277e-01 7.674805e-02 3.999967e-01
v -5.502693e-01 7.900721e-02 4.081002e-01
v -5.503426e-01 8.127810e-02 4.161424e-01
v -5.492292e-01 8.221171e-02 4.232072e-01
v -5.487471e-01 8.382810e-02 4.306871e-01
v -5.476749e-01 8.477698e-02 4.376722e-01
v -5.472404e-01 8.641097e-02 4.450601e-01
v -5.468313e-01 8.805435e-02 4.523989e-01
v -5.458224e-01 8.902672e-02 4.592613e-01
v -5.448326e-01 9.000619e-02 4.660871e-01
v -5.444931e-01 9.167539e-02 4.732910e-01
v -5.435445e-01 9.267013e-02 4.800369e-01
v -5.419771e-01 9.298673e-02 4.863432e-01
v -5.397816e-01 9.262185e-02 4.922283e-01
v -5.375924e-01 9.225931e-02 4.981011e-01
v -5.347622e-01 9.121052e-02 5.035772e-01
v -5.319321e-01 9.016170e-02 5.090533e-01
v -5.284484e-01 8.842199e-02 5.141572e-01
v -5.249583e-01 8.667988e-02 5.192733e-01
v -5.214619e-01 8.493545e-02 5.244019e-01
v -5.166330e-01 8.179965e-02 5.288350e-01
v -5.131175e-01 8.004819e-02 5.340002e-01
v -6.236666e-01 9.852642e-02 2.703013e-01
v -6.196509e-01 9.612626e-02 2.748139e-01
v -6.156225e-01 9.372138e-02 2.793510e-01
v -6.121139e-01 9.196520e-02 2.845109e-01
v -6.085990e-01 9.020667e-02 2.896831e-01
v -6.045389e-01 8.779007e-02 2.942815e-01
v -6.004661e-01 8.536875e-02 2.989045e-01
v -5.974711e-01 8.425888e-02 3.046995e-01
v -5.944762e-01 8.314903e-02 3.104944e-01
v -5.909296e-01 8.137871e-02 3.157279e-01
v -5.884863e-01 8.092929e-02 3.220844e-01
v -5.866073e-01 8.114498e-02 3.289778e-01
v -5.841797e-01 8.070139e-02 3.353035e-01
v -5.811943e-01 7.959505e-02 3.410801e-01
v -5.782088e-01 7.848869e-02 3.468567e-01
v -5.752234e-01 7.738234e-02 3.526333e-01
v -5.716642e-01 7.560738e-02 3.578914e-01
v -5.692525e-01 7.516968e-02 3.641865e-01
v -5.680075e-01 7.607629e-02 3.714819e-01
v -5.667814e-01 7.698995e-02 3.787405e-01
v -5.649880e-01 7.723738e-02 3.854684e-01
v -5.632072e-01 7.748938e-02 3.921716e-01
v -5.620319e-01 7.842188e-02 3.993322e-01
v -5.608756e-01 7.936134e-02 4.064559e-01
v -5.597382e-01 8.030790e-02 4.135429e-01
v -5.592223e-01 8.194073e-02 4.210564e-01
v -5.581262e-01 8.290253e-02 4.280635e-01
v -5.570491e-01 8.387138e-02 4.350339e-01
v -5.553792e-01 8.416457e-02 4.415226e-01
v -5.543370e-01 8.514635e-02 4.484256e-01
v -5.539320e-01 8.682029e-02 4.557245e-01
v -5.535522e-01 8.850361e-02 4.629743e-01
v -5.531980e-01 9.019629e-02 4.701750e-01
v -5.522413e-01 9.120978e-02 4.769124e-01
v -5.513037e-01 9.223031e-02 4.836130e-01
v -5.491171e-01 9.187599e-02 4.894727e-01
v -5.462996e-01 9.083191e-02 4.949243e-01
v -5.441225e-01 9.048109e-02 5.007656e-01
v -5.413082e-01 8.943817e-02 5.062111e-01
v -5.384939e-01 8.839525e-02 5.116565e-01
v -5.350297e-01 8.665551e-02 5.167305e-01
v -5.315592e-01 8.491343e-02 5.218168e-01
v -5.267700e-01 8.177063e-02 5.261972e-01
v -5.219618e-01 7.862077e-02 5.306144e-01
v -5.184596e-01 7.686698e-02 5.357621e-01
v -6.281902e-01 9.434650e-02 2.722824e-01
v -6.241883e-01 9.193693e-02 2.767843e-01
v -6.206994e-01 9.018070e-02 2.819143e-01
v -6.172041e-01 8.842220e-02 2.870567e-01
v -6.137024e-01 8.666132e-02 2.922113e-01
v -6.101944e-01 8.489805e-02 2.973781e-01
v -6.066801e-01 8.313247e-02 3.025572e-01
v -6.031594e-01 8.136454e-02 3.077486e-01
v -6.007219e-01 8.092446e-02 3.140858e-01
v -5.977429e-01 7.982049e-02 3.198501e-01
v -5.947637e-01 7.871646e-02 3.256145e-01
v -5.928931e-01 7.894982e-02 3.324756e-01
v -5.915925e-01 7.985757e-02 3.398545e-01
v -5.891898e-01 7.943046e-02 3.461243e-01
v -5.867934e-01 7.900567e-02 3.523818e-01
v -5.838365e-01 7.790989e-02 3.581032e-01
v -5.808796e-01 7.681414e-02 3.638246e-01
v -5.790691e-01 7.706970e-02 3.705692e-01
v -5.778477e-01 7.800688e-02 3.777947e-01
v -5.760659e-01 7.827302e-02 3.844842e-01
v -5.742966e-01 7.854393e-02 3.911491e-01
v -5.731259e-01 7.949985e-02 3.982766e-01
v -5.713852e-01 7.978132e-02 4.048862e-01
v -5.696572e-01 8.006743e-02 4.114714e-01
v -5.679418e-01 8.035832e-02 4.180321e-01
v -5.668377e-01 8.133886e-02 4.250307e-01
v -5.663544e-01 8.301280e-02 4.324491e-01
v -5.652914e-01 8.400864e-02 4.393680e-01
v -5.636395e-01 8.432301e-02 4.458060e-01
v -5.626114e-01 8.533182e-02 4.526575e-01
v -5.616024e-01 8.634767e-02 4.594722e-01
v -5.612300e-01 8.806266e-02 4.666759e-01
v -5.608829e-01 8.978706e-02 4.738305e-01
v -5.599373e-01 9.082642e-02 4.805226e-01
v -5.583835e-01 9.117714e-02 4.867705e-01
v -5.562123e-01 9.083579e-02 4.925926e-01
v -5.534138e-01 8.979875e-02 4.980074e-01
v -5.518885e-01 9.016001e-02 5.042001e-01
v -5.497362e-01 8.982566e-02 5.099854e-01
v -5.463043e-01 8.809060e-02 5.150051e-01
v -5.422200e-01 8.565053e-02 5.196665e-01
v -5.381229e-01 8.320574e-02 5.243524e-01
v -5.320558e-01 7.864107e-02 5.279878e-01
v -6.287108e-01 8.777107e-02 2.787515e-01
v -6.257539e-01 8.667529e-02 2.844729e-01
v -6.222719e-01 8.491446e-02 2.895976e-01
v -6.187834e-01 8.315117e-02 2.947346e-01
v -6.152887e-01 8.138557e-02 2.998838e-01
v -6.117876e-01 7.961764e-02 3.050454e-01
v -6.082803e-01 7.784742e-02 3.102192e-01
v -6.058484e-01 7.741673e-02 3.165372e-01
v -6.039672e-01 7.766057e-02 3.234029e-01
v -6.020986e-01 7.790912e-02 3.302440e-01
v -6.002426e-01 7.816238e-02 3.370606e-01
v -5.983994e-01 7.842036e-02 3.438527e-01
v -5.965688e-01 7.868299e-02 3.506202e-01
v -5.936308e-01 7.759424e-02 3.563048e-01
v -5.912561e-01 7.718473e-02 3.625125e-01
v -5.888877e-01 7.677754e-02 3.687079e-01
v -5.870952e-01 7.705428e-02 3.754018e-01
v -5.853153e-01 7.733575e-02 3.820712e-01
v -5.835482e-01 7.762190e-02 3.887162e-01
v -5.817936e-01 7.791269e-02 3.953365e-01
v -5.812161e-01 7.958076e-02 4.029049e-01
v -5.794933e-01 7.988334e-02 4.094640e-01
v -5.771947e-01 7.950201e-02 4.155244e-01
v -5.760857e-01 8.050259e-02 4.225084e-01
v -5.744009e-01 8.081923e-02 4.289940e-01
v -5.733269e-01 8.183277e-02 4.359105e-01
v -5.722718e-01 8.285327e-02 4.427902e-01
v -5.718401e-01 8.457538e-02 4.500766e-01
v -5.708262e-01 8.561123e-02 4.568766e-01
v -5.704421e-01 8.735089e-02 4.640709e-01
v -5.700832e-01 8.909999e-02 4.712162e-01
v -5.685157e-01 8.946011e-02 4.774748e-01
v -5.669609e-01 8.982493e-02 4.837088e-01
v -5.654187e-01 9.019449e-02 4.899184e-01
v -5.638892e-01 9.056867e-02 4.961033e-01
v -5.623724e-01 9.094766e-02 5.022638e-01
v -5.608682e-01 9.133121e-02 5.083997e-01
v -5.587407e-01 9.101330e-02 5.141290e-01
v -5.553411e-01 8.928299e-02 5.190943e-01
v -5.493654e-01 8.471595e-02 5.225928e-01
v -5.440037e-01 8.084698e-02 5.265162e-01
v -6.327033e-01 8.296010e-02 2.801074e-01
v -6.302678e-01 8.253529e-02 2.864247e-01
v -6.267958e-01 8.077090e-02 2.915379e-01
v -6.238421e-01 7.967628e-02 2.972531e-01
v -6.203606e-01 7.790836e-02 3.023848e-01
v -6.168728e-01 7.613810e-02 3.075288e-01
v -6.139127e-01 7.504116e-02 3.132563e-01
v -6.114899e-01 7.462108e-02 3.195489e-01
v -6.096138e-01 7.488133e-02 3.263885e-01
v -6.077504e-01 7.514637e-02 3.332035e-01
v -6.058997e-01 7.541603e-02 3.399939e-01
v -6.046116e-01 7.637202e-02 3.473006e-01
v -6.022363e-01 7.596951e-02 3.535013e-01
v -5.998673e-01 7.556940e-02 3.596898e-01
v -5.980642e-01 7.585676e-02 3.663883e-01
v -5.968363e-01 7.683498e-02 3.735783e-01
v -5.950616e-01 7.713291e-02 3.802217e-01
v -5.927307e-01 7.674683e-02 3.863365e-01
v -5.909782e-01 7.705295e-02 3.929369e-01
v -5.892385e-01 7.736375e-02 3.995128e-01
v -5.880898e-01 7.837136e-02 4.065495e-01
v -5.863785e-01 7.869272e-02 4.130702e-01
v -5.846800e-01 7.901880e-02 4.195663e-01
v -5.824061e-01 7.865390e-02 4.255708e-01
v -5.813208e-01 7.968502e-02 4.324850e-01
v -5.796603e-01 8.002526e-02 4.389075e-01
v -5.798048e-01 8.246767e-02 4.466516e-01
v -5.793804e-01 8.422139e-02 4.538917e-01
v -5.789813e-01 8.598458e-02 4.610829e-01
v -5.786076e-01 8.775714e-02 4.682249e-01
v -5.782593e-01 8.953910e-02 4.753180e-01
v -5.767097e-01 8.992044e-02 4.815259e-01
v -5.739397e-01 8.889394e-02 4.868855e-01
v -5.717895e-01 8.857487e-02 4.926509e-01
v -5.702683e-01 8.896666e-02 4.988035e-01
v -5.693859e-01 9.007300e-02 5.053252e-01
v -5.678933e-01 9.047535e-02 5.114228e-01
v -6.337378e-01 7.706743e-02 2.871708e-01
v -6.313050e-01 7.665086e-02 2.934749e-01
v -6.283576e-01 7.555861e-02 2.991779e-01
v -6.254102e-01 7.446635e-02 3.048809e-01
v -6.224627e-01 7.337411e-02 3.105839e-01
v -6.195153e-01 7.228187e-02 3.162869e-01
v -6.171015e-01 7.187238e-02 3.225543e-01
v -6.152306e-01 7.214909e-02 3.293677e-01
v -6.133724e-01 7.243053e-02 3.361566e-01
v -6.120700e-01 7.340296e-02 3.434669e-01
v -6.107866e-01 7.438241e-02 3.507405e-01
v -6.089728e-01 7.468026e-02 3.574434e-01
v -6.060665e-01 7.360325e-02 3.630667e-01
v -6.042717e-01 7.390828e-02 3.697330e-01
v -6.030486e-01 7.490998e-02 3.768900e-01
v -6.018443e-01 7.591879e-02 3.840102e-01
v -6.006592e-01 7.693465e-02 3.910937e-01
v -5.983562e-01 7.656619e-02 3.971464e-01
v -5.966311e-01 7.689698e-02 4.036778e-01
v -5.954934e-01 7.793050e-02 4.106692e-01
v -5.937969e-01 7.827184e-02 4.171454e-01
v -5.909510e-01 7.721714e-02 4.226521e-01
v -5.886892e-01 7.686408e-02 4.286252e-01
v -5.876086e-01 7.791860e-02 4.355063e-01
v -5.859564e-01 7.827646e-02 4.418965e-01
v -5.860982e-01 8.075405e-02 4.496059e-01
v -5.862716e-01 8.324345e-02 4.572540e-01
v -5.858767e-01 8.503715e-02 4.644051e-01
v -5.861104e-01 8.754887e-02 4.719367e-01
v -5.851629e-01 8.865272e-02 4.785602e-01
v -5.836248e-01 8.905283e-02 4.847298e-01
v -5.814866e-01 8.874548e-02 4.904636e-01
v -5.793548e-01 8.844050e-02 4.961852e-01
v -6.377186e-01 7.228109e-02 2.885173e-01
v -6.352852e-01 7.187160e-02 2.948145e-01
v -6.328580e-01 7.146438e-02 3.010995e-01
v -6.299170e-01 7.037448e-02 3.067903e-01
v -6.269759e-01 6.928462e-02 3.124810e-01
v -6.245615e-01 6.888215e-02 3.187415e-01
v -6.226833e-01 6.917064e-02 3.255533e-01
v -6.202846e-01 6.877406e-02 3.317831e-01
v -6.189646e-01 6.976170e-02 3.391033e-01
v -6.176637e-01 7.075643e-02 3.463866e-01
v -6.163818e-01 7.175823e-02 3.536333e-01
v -6.145732e-01 7.207253e-02 3.603101e-01
v -6.122285e-01 7.169590e-02 3.664357e-01
v -6.098901e-01 7.132160e-02 3.725490e-01
v -6.081132e-01 7.164769e-02 3.791645e-01
v -6.074656e-01 7.337682e-02 3.867724e-01
v -6.062820e-01 7.441498e-02 3.938289e-01
v -6.045526e-01 7.475870e-02 4.003525e-01
v -6.034038e-01 7.580983e-02 4.073416e-01
v -6.022740e-01 7.686791e-02 4.142938e-01
v -6.000148e-01 7.652302e-02 4.202537e-01
v -5.971847e-01 7.547421e-02 4.257299e-01
v -5.949351e-01 7.513284e-02 4.316714e-01
v -5.926917e-01 7.479373e-02 4.376007e-01
v -5.916285e-01 7.587654e-02 4.444242e-01
v -5.917643e-01 7.838826e-02 4.521052e-01
v -5.919318e-01 8.091172e-02 4.597247e-01
v -5.927272e-01 8.416019e-02 4.677177e-01
v -5.935609e-01 8.742270e-02 4.756371e-01
v -6.382376e-01 6.572680e-02 2.949656e-01
v -6.363169e-01 6.601411e-02 3.018433e-01
v -6.338924e-01 6.561517e-02 3.081152e-01
v -6.314743e-01 6.521856e-02 3.143748e-01
v -6.295853e-01 6.551765e-02 3.211912e-01
v -6.277091e-01 6.582142e-02 3.279829e-01
v -6.258455e-01 6.612990e-02 3.347503e-01
v -6.250595e-01 6.783666e-02 3.425940e-01
v -6.237632e-01 6.885492e-02 3.498443e-01
v -6.224859e-01 6.988016e-02 3.570580e-01
v -6.206857e-01 7.021208e-02 3.637025e-01
v -6.178080e-01 6.914565e-02 3.692706e-01
v -6.154786e-01 6.878193e-02 3.753586e-01
v -6.142584e-01 6.982837e-02 3.824617e-01
v -6.136117e-01 7.158685e-02 3.900358e-01
v -6.124328e-01 7.264856e-02 3.970592e-01
v -6.107117e-01 7.300981e-02 4.035505e-01
v -6.095677e-01 7.408443e-02 4.105065e-01
v -6.073079e-01 7.374656e-02 4.164595e-01
v -6.050545e-01 7.341103e-02 4.224003e-01
v -6.028076e-01 7.307789e-02 4.283288e-01
v -5.999901e-01 7.203377e-02 4.337803e-01
v -5.977526e-01 7.170406e-02 4.396905e-01
v -5.966876e-01 7.280803e-02 4.464932e-01
v -5.968143e-01 7.535265e-02 4.541516e-01
v -5.975621e-01 7.862699e-02 4.621889e-01
v -6.397757e-01 6.056385e-02 3.025870e-01
v -6.373475e-01 6.017079e-02 3.088582e-01
v -6.354417e-01 6.047806e-02 3.156913e-01
v -6.340676e-01 6.148923e-02 3.230680e-01
v -6.321903e-01 6.180714e-02 3.298459e-01
v -6.313767e-01 6.353269e-02 3.377110e-01
v -6.305883e-01 6.526768e-02 3.455271e-01
v -6.298254e-01 6.701213e-02 3.532941e-01
v -6.285528e-01 6.806081e-02 3.604745e-01
v -6.267610e-01 6.841040e-02 3.670869e-01
v -6.238991e-01 6.734988e-02 3.726243e-01
v -6.215818e-01 6.699789e-02 3.786809e-01
v -6.203663e-01 6.806779e-02 3.857509e-01
v -6.197206e-01 6.985565e-02 3.932910e-01
v -6.191003e-01 7.165290e-02 4.007821e-01
v -6.173909e-01 7.203303e-02 4.072350e-01
v -6.162545e-01 7.313224e-02 4.141518e-01
v -6.134466e-01 7.209166e-02 4.195849e-01
v -6.112053e-01 7.176792e-02 4.254943e-01
v -6.089705e-01 7.144650e-02 4.313913e-01
v -6.055957e-01 6.968910e-02 4.363484e-01
v -6.033672e-01 6.937006e-02 4.422332e-01
v -6.023038e-01 7.049631e-02 4.490089e-01
v -6.018418e-01 7.235228e-02 4.561934e-01
v -6.031626e-01 7.638919e-02 4.646468e-01
v -6.404261e-01 5.715705e-02 3.181529e-01
v -6.390505e-01 5.818938e-02 3.255089e-01
v -6.376938e-01 5.922871e-02 3.328279e-01
v -6.373997e-01 6.168991e-02 3.412204e-01
v -6.371373e-01 6.416290e-02 3.495516e-01
v -6.363785e-01 6.593780e-02 3.572786e-01
v -6.345823e-01 6.630033e-02 3.638832e-01
v -6.327990e-01 6.666748e-02 3.704633e-01
v -6.299530e-01 6.561284e-02 3.759701e-01
v -6.276478e-01 6.527263e-02 3.819951e-01
v -6.258929e-01 6.565036e-02 3.885199e-01
v -6.252450e-01 6.746642e-02 3.960324e-01
v -6.246225e-01 6.929187e-02 4.034957e-01
v -6.240253e-01 7.112672e-02 4.109099e-01
v -6.234534e-01 7.297091e-02 4.182752e-01
v -6.212275e-01 7.266010e-02 4.241469e-01
v -6.184449e-01 7.162893e-02 4.295310e-01
v -6.150961e-01 6.987384e-02 4.344458e-01
v -6.117410e-01 6.811650e-02 4.393731e-01
v -6.089520e-01 6.708297e-02 4.447695e-01
v -6.073144e-01 6.750422e-02 4.510675e-01
v -6.068472e-01 6.938724e-02 4.582303e-01
v -6.455461e-01 5.705753e-02 3.296445e-01
v -6.452270e-01 5.954573e-02 3.380452e-01
v -6.449397e-01 6.204568e-02 3.463847e-01
v -6.441627e-01 6.384295e-02 3.541146e-01
v -6.428868e-01 6.493401e-02 3.612535e-01
v -6.405747e-01 6.459846e-02 3.672838e-01
v -6.382690e-01 6.426528e-02 3.733019e-01
v -6.359695e-01 6.393448e-02 3.793077e-01
v -6.336765e-01 6.360605e-02 3.853014e-01
v -6.313897e-01 6.327988e-02 3.912826e-01
v -6.301962e-01 6.440146e-02 3.982621e-01
v -6.301149e-01 6.697783e-02 4.062028e-01
v -6.306149e-01 7.029080e-02 4.145752e-01
v -6.294942e-01 7.143948e-02 4.214137e-01
v -6.272804e-01 7.114036e-02 4.272539e-01
v -6.239544e-01 6.938651e-02 4.321328e-01
v -6.206220e-01 6.763026e-02 4.370239e-01
v -6.167177e-01 6.514083e-02 4.414651e-01
v -6.139382e-01 6.411078e-02 4.468431e-01
v -6.123027e-01 6.454729e-02 4.531212e-01
v -6.118300e-01 6.645732e-02 4.602624e-01
v -6.506185e-01 6.288496e-02 3.581191e-01
v -6.488297e-01 6.327915e-02 3.646776e-01
v -6.465297e-01 6.295541e-02 3.706765e-01
v -6.442361e-01 6.263395e-02 3.766630e-01
v -6.408884e-01 6.086485e-02 3.815918e-01
v -6.380678e-01 5.981960e-02 3.870495e-01
v -6.363203e-01 6.022903e-02 3.935283e-01
v -6.362044e-01 6.282885e-02 4.014958e-01
v -6.361202e-01 6.544044e-02 4.094019e-01
v -6.360677e-01 6.806373e-02 4.172467e-01
v -6.354978e-01 6.996666e-02 4.245442e-01
v -6.327437e-01 6.894606e-02 4.298731e-01
v -6.288785e-01 6.645658e-02 4.342545e-01
v -6.250008e-01 6.396250e-02 4.386604e-01
v -6.222340e-01 6.293717e-02 4.440139e-01
v -6.194672e-01 6.191190e-02 4.493674e-01
v -6.172686e-01 6.162566e-02 4.551700e-01
v -6.565158e-01 6.127120e-02 3.615674e-01
v -6.537015e-01 6.022829e-02 3.670128e-01
v -6.519274e-01 6.064246e-02 3.735268e-01
v -6.491195e-01 5.960189e-02 3.789599e-01
v -6.299195e-01 6.105959e-02 4.407605e-01
