v -4.139676e-01 1.791793e-01 1.983144e-01
v -4.335941e-01 1.712368e-01 1.988397e-01
v -4.237551e-01 1.712004e-01 2.017491e-01
v -4.139580e-01 1.711672e-01 2.046584e-01
v -4.035189e-01 1.720660e-01 2.114471e-01
v -3.830907e-01 1.736532e-01 2.240545e-01
v -3.739882e-01 1.729379e-01 2.240545e-01
v -3.279290e-01 1.887188e-01 3.006684e-01
v -3.189172e-01 1.889929e-01 3.045475e-01
v -3.098531e-01 1.895085e-01 3.093965e-01
v -3.005553e-01 1.907425e-01 3.171549e-01
v -4.327577e-01 1.641826e-01 2.090518e-01
v -4.226020e-01 1.646463e-01 2.138915e-01
v -4.126947e-01 1.648771e-01 2.177631e-01
v -4.026717e-01 1.653513e-01 2.226028e-01
v -3.925538e-01 1.660703e-01 2.284106e-01
v -3.823623e-01 1.670359e-01 2.351861e-01
v -3.722684e-01 1.680091e-01 2.419617e-01
v -3.619850e-01 1.694722e-01 2.506732e-01
v -3.375168e-01 1.804190e-01 3.000382e-01
v -3.282088e-01 1.812017e-01 3.058459e-01
v -3.189845e-01 1.819909e-01 3.116534e-01
v -3.096266e-01 1.832743e-01 3.193970e-01
v -3.003804e-01 1.845665e-01 3.271406e-01
v -5.142501e-01 1.543777e-01 1.844550e-01
v -5.048265e-01 1.536372e-01 1.844550e-01
v -4.977517e-01 1.504902e-01 1.747942e-01
v -4.882583e-01 1.497442e-01 1.747942e-01
v -4.311409e-01 1.582118e-01 2.230983e-01
v -4.205082e-01 1.594493e-01 2.308271e-01
v -4.103453e-01 1.602054e-01 2.366236e-01
v -4.002664e-01 1.609681e-01 2.424200e-01
v -3.901059e-01 1.619835e-01 2.491826e-01
v -3.798852e-01 1.632533e-01 2.569113e-01
v -3.697761e-01 1.645319e-01 2.646400e-01
v -3.589138e-01 1.673060e-01 2.781653e-01
v -3.471499e-01 1.720821e-01 2.994191e-01
v -3.366042e-01 1.751402e-01 3.139103e-01
v -3.278696e-01 1.749721e-01 3.158425e-01
v -3.188141e-01 1.755561e-01 3.206729e-01
v -3.092823e-01 1.773983e-01 3.303339e-01
v -3.000947e-01 1.787492e-01 3.380625e-01
v -5.233624e-01 1.470146e-01 1.908175e-01
v -5.142160e-01 1.460300e-01 1.898532e-01
v -5.045710e-01 1.455380e-01 1.908175e-01
v -4.951752e-01 1.447997e-01 1.908175e-01
v -4.864648e-01 1.433176e-01 1.879248e-01
v -4.768266e-01 1.428262e-01 1.888891e-01
v -4.530275e-01 1.473374e-01 2.120305e-01
v -4.405771e-01 1.506133e-01 2.274582e-01
v -4.291243e-01 1.529040e-01 2.390290e-01
v -4.187717e-01 1.539518e-01 2.457786e-01
v -4.086964e-01 1.547554e-01 2.515639e-01
v -3.983598e-01 1.560702e-01 2.592777e-01
v -3.878035e-01 1.578996e-01 2.689200e-01
v -3.773870e-01 1.597400e-01 2.785623e-01
v -3.666550e-01 1.623532e-01 2.910973e-01
v -3.553812e-01 1.662533e-01 3.084534e-01
v -3.449095e-01 1.691530e-01 3.219528e-01
v -3.355481e-01 1.702786e-01 3.287022e-01
v -3.267795e-01 1.703872e-01 3.315950e-01
v -3.180526e-01 1.704992e-01 3.344877e-01
v -5.415115e-01 1.406884e-01 1.981275e-01
v -5.321507e-01 1.399529e-01 1.981275e-01
v -5.230467e-01 1.389649e-01 1.971653e-01
v -5.129291e-01 1.389878e-01 2.000523e-01
v -5.023677e-01 1.395212e-01 2.048641e-01
v -4.930558e-01 1.387895e-01 2.048641e-01
v -4.844307e-01 1.372939e-01 2.019771e-01
v -4.744318e-01 1.373261e-01 2.048641e-01
v -4.618948e-01 1.404309e-01 2.192999e-01
v -4.508154e-01 1.420142e-01 2.279611e-01
v -4.398616e-01 1.436075e-01 2.366225e-01
v -4.284513e-01 1.459828e-01 2.481711e-01
v -4.175826e-01 1.478554e-01 2.577948e-01
v -4.072137e-01 1.492219e-01 2.654938e-01
v -3.960910e-01 1.518925e-01 2.780046e-01
v -3.858143e-01 1.535389e-01 2.866659e-01
v -3.756633e-01 1.551952e-01 2.953273e-01
v -3.645727e-01 1.586862e-01 3.107252e-01
v -3.537054e-01 1.621949e-01 3.261232e-01
v -3.438909e-01 1.641503e-01 3.357469e-01
v -3.350032e-01 1.645426e-01 3.395965e-01
v -5.518599e-01 1.321405e-01 1.996560e-01
v -5.416780e-01 1.321787e-01 2.025375e-01
v -5.323312e-01 1.314442e-01 2.025375e-01
v -5.227268e-01 1.309690e-01 2.034981e-01
v -5.116339e-01 1.320533e-01 2.102216e-01
v -5.003953e-01 1.334057e-01 2.179058e-01
v -4.909236e-01 1.329409e-01 2.188664e-01
v -4.819249e-01 1.319544e-01 2.179058e-01
v -4.711322e-01 1.330623e-01 2.246294e-01
v -4.593594e-01 1.354905e-01 2.361557e-01
v -4.483800e-01 1.371426e-01 2.448002e-01
v -4.381308e-01 1.380139e-01 2.505635e-01
v -4.275763e-01 1.394200e-01 2.582476e-01
v -4.167582e-01 1.413642e-01 2.678528e-01
v -4.057184e-01 1.438499e-01 2.793789e-01
v -3.939780e-01 1.476777e-01 2.957077e-01
v -3.838082e-01 1.493935e-01 3.043524e-01
v -3.736045e-01 1.513861e-01 3.139576e-01
v -3.620132e-01 1.560639e-01 3.331678e-01
v -3.507011e-01 1.607636e-01 3.523782e-01
v -3.410558e-01 1.628000e-01 3.619833e-01
v -5.630810e-01 1.227888e-01 1.983121e-01
v -5.522908e-01 1.233720e-01 2.031054e-01
v -5.410266e-01 1.244903e-01 2.098160e-01
v -5.311849e-01 1.242894e-01 2.117334e-01
v -5.218869e-01 1.235588e-01 2.117334e-01
v -5.108321e-01 1.246936e-01 2.184441e-01
v -4.996311e-01 1.261031e-01 2.261134e-01
v -4.894898e-01 1.264510e-01 2.299479e-01
v -4.789443e-01 1.273396e-01 2.357000e-01
v -4.684826e-01 1.282348e-01 2.414518e-01
v -4.581046e-01 1.291365e-01 2.472038e-01
v -4.469741e-01 1.311240e-01 2.567904e-01
v -4.363873e-01 1.325817e-01 2.644597e-01
v -4.263026e-01 1.335066e-01 2.702118e-01
v -4.153609e-01 1.357950e-01 2.807569e-01
v -4.040292e-01 1.389115e-01 2.941783e-01
v -3.930673e-01 1.417708e-01 3.066409e-01
v -3.834572e-01 1.427328e-01 3.123927e-01
v -3.574394e-01 1.572883e-01 3.679952e-01
v -3.470854e-01 1.607678e-01 3.823751e-01
v -3.379158e-01 1.623369e-01 3.900444e-01
v -3.284609e-01 1.647422e-01 4.005896e-01
v -5.615017e-01 1.158930e-01 2.084648e-01
v -5.510442e-01 1.162431e-01 2.122919e-01
v -5.398251e-01 1.174124e-01 2.189897e-01
v -5.295003e-01 1.177730e-01 2.228168e-01
v -5.197482e-01 1.175927e-01 2.247304e-01
v -5.090179e-01 1.185074e-01 2.304714e-01
v -4.983716e-01 1.194287e-01 2.362122e-01
v -4.870963e-01 1.211795e-01 2.448233e-01
v -4.761773e-01 1.226654e-01 2.524779e-01
v -4.662643e-01 1.230583e-01 2.563050e-01
v -4.566236e-01 1.231797e-01 2.591754e-01
v -4.453480e-01 1.255165e-01 2.697004e-01
v -4.348338e-01 1.270341e-01 2.773548e-01
v -4.244314e-01 1.285605e-01 2.850092e-01
v -4.137633e-01 1.306520e-01 2.945773e-01
v -4.028714e-01 1.333119e-01 3.060590e-01
v -3.923218e-01 1.357057e-01 3.165838e-01
v -3.543674e-01 1.561614e-01 3.931281e-01
v -3.457876e-01 1.566591e-01 3.969555e-01
v -3.368443e-01 1.580072e-01 4.036530e-01
v -3.281314e-01 1.590805e-01 4.093939e-01
v -3.198799e-01 1.593110e-01 4.122643e-01
v -5.602009e-01 1.088276e-01 2.176327e-01
v -5.486703e-01 1.103195e-01 2.252723e-01
v -5.372514e-01 1.118203e-01 2.329120e-01
v -5.272743e-01 1.119356e-01 2.357769e-01
v -5.165618e-01 1.128923e-01 2.415064e-01
v -5.059331e-01 1.138556e-01 2.472361e-01
v -4.953883e-01 1.148255e-01 2.529659e-01
v -4.846891e-01 1.160831e-01 2.596506e-01
v -4.745499e-01 1.167851e-01 2.644252e-01
v -4.649286e-01 1.169283e-01 2.672902e-01
v -4.546978e-01 1.179229e-01 2.730199e-01
v -4.443408e-01 1.192073e-01 2.797045e-01
v -4.336750e-01 1.210670e-01 2.882990e-01
v -4.227427e-01 1.235052e-01 2.988035e-01
v -4.129097e-01 1.245311e-01 3.045332e-01
v -4.024318e-01 1.267052e-01 3.140827e-01
v -3.899907e-01 1.323221e-01 3.350915e-01
v -3.724725e-01 1.471320e-01 3.866588e-01
v -3.626431e-01 1.496569e-01 3.971633e-01
v -3.540472e-01 1.501804e-01 4.009831e-01
v -3.452125e-01 1.512847e-01 4.067128e-01
v -3.363214e-01 1.526843e-01 4.133974e-01
v -3.280613e-01 1.529345e-01 4.162623e-01
v -3.200958e-01 1.526083e-01 4.172171e-01
v -5.588927e-01 1.018564e-01 2.267747e-01
v -5.462849e-01 1.045440e-01 2.382120e-01
v -5.343916e-01 1.066747e-01 2.477429e-01
v -5.242370e-01 1.071028e-01 2.515551e-01
v -5.136191e-01 1.081077e-01 2.572738e-01
v -5.035901e-01 1.085457e-01 2.610861e-01
v -4.938626e-01 1.087009e-01 2.639454e-01
v -4.839382e-01 1.091472e-01 2.677578e-01
v -4.738383e-01 1.098862e-01 2.725233e-01
v -4.631341e-01 1.114972e-01 2.801481e-01
v -4.525417e-01 1.131170e-01 2.877727e-01
v -4.426930e-01 1.138758e-01 2.925381e-01
v -4.323030e-01 1.155115e-01 3.001629e-01
v -4.212379e-01 1.183204e-01 3.116001e-01
v -4.107197e-01 1.205591e-01 3.211311e-01
v -3.702135e-01 1.443500e-01 4.050031e-01
v -3.619532e-01 1.443140e-01 4.069093e-01
v -3.529465e-01 1.457520e-01 4.135811e-01
v -3.444812e-01 1.463128e-01 4.173933e-01
v -3.363534e-01 1.462872e-01 4.192995e-01
v -3.283874e-01 1.459678e-01 4.202527e-01
v -5.535453e-01 9.904885e-02 2.492081e-01
v -5.427638e-01 1.000814e-01 2.549156e-01
v -5.317919e-01 1.014123e-01 2.615742e-01
v -5.214520e-01 1.021663e-01 2.663303e-01
v -5.117018e-01 1.023401e-01 2.691840e-01
v -5.022467e-01 1.022237e-01 2.710865e-01
v -4.923273e-01 1.026975e-01 2.748916e-01
v -4.827028e-01 1.028811e-01 2.777453e-01
v -4.724239e-01 1.039531e-01 2.834526e-01
v -4.617784e-01 1.056230e-01 2.910625e-01
v -4.510263e-01 1.075978e-01 2.996238e-01
v -4.404000e-01 1.095825e-01 3.081849e-01
v -4.280613e-01 1.142522e-01 3.253072e-01
v -4.189326e-01 1.144748e-01 3.281609e-01
v -4.100358e-01 1.144023e-01 3.300633e-01
v -3.687832e-01 1.402971e-01 4.185284e-01
v -3.606055e-01 1.402811e-01 4.204309e-01
v -3.521450e-01 1.408694e-01 4.242357e-01
v -3.441854e-01 1.405573e-01 4.251871e-01
v -3.362399e-01 1.402462e-01 4.261382e-01
v -6.256216e-01 9.716831e-02 2.554241e-01
v -6.165539e-01 9.645580e-02 2.554241e-01
v -6.078167e-01 9.544916e-02 2.544746e-01
v -5.993889e-01 9.414683e-02 2.525760e-01
v -5.890346e-01 9.461344e-02 2.563734e-01
v -5.781171e-01 9.567602e-02 2.620698e-01
v -5.669812e-01 9.704141e-02 2.687153e-01
v -5.568292e-01 9.752400e-02 2.725130e-01
v -5.484643e-01 9.622655e-02 2.706141e-01
v -5.389453e-01 9.611873e-02 2.725130e-01
v -5.291797e-01 9.631155e-02 2.753610e-01
v -5.197235e-01 9.620867e-02 2.772599e-01
v -5.100345e-01 9.640755e-02 2.801080e-01
v -4.998804e-01 9.720999e-02 2.848549e-01
v -4.905359e-01 9.711587e-02 2.867537e-01
v -4.812193e-01 9.702393e-02 2.886524e-01
v -4.710000e-01 9.814132e-02 2.943487e-01
v -4.606387e-01 9.956763e-02 3.009944e-01
v -4.503752e-01 1.010016e-01 3.076399e-01
v -3.670004e-01 1.370190e-01 4.339077e-01
v -3.597337e-01 1.354878e-01 4.310595e-01
v -3.558544e-01 1.271814e-01 4.073251e-01
v -6.300983e-01 9.362538e-02 2.720479e-01
v -6.211354e-01 9.292110e-02 2.720479e-01
v -6.118347e-01 9.251707e-02 2.729954e-01
v -6.028786e-01 9.181334e-02 2.729954e-01
v -5.939227e-01 9.110960e-02 2.729954e-01
v -5.840159e-01 9.131167e-02 2.758379e-01
v -5.744609e-01 9.121455e-02 2.777330e-01
v -5.646308e-01 9.142265e-02 2.805756e-01
v -5.551386e-01 9.133049e-02 2.824707e-01
v -5.456744e-01 9.124051e-02 2.843658e-01
v -5.356739e-01 9.176202e-02 2.881558e-01
v -5.262795e-01 9.167750e-02 2.900508e-01
v -5.177174e-01 9.067792e-02 2.891034e-01
v -5.080967e-01 9.090247e-02 2.919460e-01
v -4.987720e-01 9.082344e-02 2.938410e-01
v -4.897226e-01 9.043917e-02 2.947884e-01
v -4.797262e-01 9.128788e-02 2.995261e-01
v -4.695666e-01 9.245059e-02 3.052112e-01
v -4.588120e-01 9.454711e-02 3.137390e-01
v -4.020538e-01 1.391129e-01 4.558678e-01
v -3.916691e-01 1.428726e-01 4.691330e-01
v -6.300727e-01 8.559486e-02 2.763223e-01
v -6.193966e-01 8.642403e-02 2.810506e-01
v -6.087905e-01 8.725868e-02 2.857790e-01
v -5.989169e-01 8.748372e-02 2.886161e-01
v -5.897341e-01 8.709577e-02 2.895618e-01
v -5.805654e-01 8.670889e-02 2.905073e-01
v -5.717211e-01 8.601394e-02 2.905073e-01
v -5.619663e-01 8.624830e-02 2.933445e-01
v -5.528464e-01 8.586530e-02 2.942901e-01
v -5.437405e-01 8.548337e-02 2.952357e-01
v -5.340833e-01 8.572536e-02 2.980727e-01
v -5.244681e-01 8.597069e-02 3.009098e-01
v -5.148948e-01 8.621929e-02 3.037468e-01
v -5.058866e-01 8.584502e-02 3.046924e-01
v -4.974016e-01 8.484473e-02 3.037468e-01
v -4.881598e-01 8.478575e-02 3.056381e-01
v -4.777422e-01 8.630241e-02 3.122577e-01
v -4.678899e-01 8.719630e-02 3.169861e-01
v -4.106647e-01 1.317405e-01 4.559995e-01
v -4.003665e-01 1.352682e-01 4.682932e-01
v -3.902500e-01 1.388102e-01 4.805868e-01
v -6.303978e-01 7.727870e-02 2.796456e-01
v -6.183423e-01 7.939481e-02 2.881398e-01
v -6.057346e-01 8.214838e-02 2.985219e-01
v -5.952723e-01 8.302821e-02 3.032410e-01
v -5.858548e-01 8.296894e-02 3.051285e-01
v -5.774194e-01 8.196572e-02 3.041847e-01
v -5.680368e-01 8.190928e-02 3.060724e-01
v -5.583780e-01 8.217147e-02 3.089038e-01
v -5.496524e-01 8.148583e-02 3.089038e-01
v -5.403466e-01 8.143539e-02 3.107915e-01
v -5.310688e-01 8.138712e-02 3.126791e-01
v -5.218188e-01 8.134102e-02 3.145666e-01
v -5.125969e-01 8.129714e-02 3.164542e-01
v -5.034026e-01 8.125550e-02 3.183420e-01
v -4.944916e-01 8.089566e-02 3.192857e-01
v -4.860911e-01 7.989521e-02 3.183420e-01
v -4.742992e-01 8.339358e-02 3.306114e-01
v -4.186446e-01 1.253125e-01 4.589700e-01
v -4.091091e-01 1.276267e-01 4.674644e-01
v -3.988739e-01 1.312474e-01 4.797340e-01
v -3.896177e-01 1.335835e-01 4.882282e-01
v -6.138181e-01 7.563216e-02 3.046301e-01
v -5.999513e-01 7.974987e-02 3.187594e-01
v -5.879564e-01 8.227891e-02 3.281790e-01
v -5.796819e-01 8.128162e-02 3.272371e-01
v -5.723493e-01 7.931679e-02 3.234692e-01
v -5.640259e-01 7.831564e-02 3.225274e-01
v -5.544704e-01 7.860626e-02 3.253532e-01
v -5.449567e-01 7.890013e-02 3.281790e-01
v -5.360661e-01 7.854869e-02 3.291209e-01
v -5.277568e-01 7.754862e-02 3.281790e-01
v -5.191567e-01 7.687285e-02 3.281790e-01
v -5.102872e-01 7.652307e-02 3.291209e-01
v -5.019569e-01 7.552134e-02 3.281790e-01
v -4.928455e-01 7.549974e-02 3.300630e-01
v -4.325748e-01 1.217956e-01 4.685306e-01
v -4.254705e-01 1.205431e-01 4.666468e-01
v -4.170134e-01 1.212672e-01 4.704145e-01
v -4.073292e-01 1.239777e-01 4.798341e-01
v -3.961295e-01 1.293465e-01 4.967893e-01
v -5.921077e-01 7.957055e-02 3.445672e-01
v -5.819473e-01 8.054179e-02 3.492677e-01
v -5.734869e-01 7.987700e-02 3.492677e-01
v -5.647076e-01 7.954105e-02 3.502077e-01
v -5.562541e-01 7.887680e-02 3.502077e-01
v -5.484110e-01 7.755270e-02 3.483276e-01
v -5.399437e-01 7.688737e-02 3.483276e-01
v -5.314763e-01 7.622202e-02 3.483276e-01
v -5.249983e-01 7.323551e-02 3.417469e-01
v -4.375576e-01 1.194538e-01 4.827621e-01
v -4.307945e-01 1.178606e-01 4.799417e-01
v -4.235327e-01 1.169361e-01 4.790017e-01
v -4.153716e-01 1.173565e-01 4.818219e-01
v -4.063950e-01 1.191287e-01 4.884027e-01
v -3.960643e-01 1.232719e-01 5.015640e-01
v -5.936010e-01 7.938134e-02 3.674674e-01
v -5.866216e-01 7.739011e-02 3.637144e-01
v -5.785855e-01 7.639797e-02 3.627762e-01
v -5.692292e-01 7.674487e-02 3.655909e-01
v -5.579971e-01 7.910855e-02 3.740350e-01
v -5.487664e-01 7.946534e-02 3.768497e-01
v -5.408003e-01 7.847867e-02 3.759115e-01
v -4.428449e-01 1.165906e-01 4.950687e-01
v -4.354525e-01 1.160097e-01 4.950687e-01
v -4.287678e-01 1.144023e-01 4.922540e-01
v -4.215833e-01 1.134771e-01 4.913156e-01
v -4.139412e-01 1.132373e-01 4.922540e-01
v -4.056683e-01 1.140300e-01 4.960068e-01
v -3.966196e-01 1.162046e-01 5.035128e-01
v -5.893603e-01 7.609973e-02 3.827947e-01
v -5.838450e-01 7.272662e-02 3.753037e-01
v -4.419030e-01 1.115494e-01 5.026524e-01
v -4.338225e-01 1.120169e-01 5.054616e-01
v -4.264930e-01 1.114410e-01 5.054616e-01
v -4.198516e-01 1.098167e-01 5.026524e-01
v -4.125012e-01 1.092391e-01 5.026524e-01
v -4.045045e-01 1.097132e-01 5.054616e-01
v -3.971750e-01 1.091373e-01 5.054616e-01
v -5.334717e-01 1.000118e-01 4.756363e-01
v -5.252636e-01 1.001153e-01 4.775055e-01
v -5.164560e-01 1.009202e-01 4.812435e-01
v -5.061708e-01 1.034802e-01 4.896544e-01
v -4.197188e-01 1.037977e-01 5.074104e-01
v -4.117205e-01 1.042920e-01 5.102142e-01
v -5.783360e-01 9.733888e-02 4.804463e-01
v -5.474681e-01 9.567546e-02 4.823117e-01
v -5.402713e-01 9.472894e-02 4.813791e-01
v -5.317479e-01 9.520224e-02 4.841771e-01
v -5.229452e-01 9.603458e-02 4.879077e-01
v -5.135698e-01 9.758404e-02 4.935039e-01
v -5.030493e-01 1.005675e-01 5.028306e-01
v -5.853209e-01 9.173022e-02 4.852451e-01
v -5.785371e-01 9.042162e-02 4.833836e-01
v -5.598931e-01 9.283452e-02 4.926918e-01
v -5.527736e-01 9.188726e-02 4.917608e-01
v -5.449548e-01 9.166072e-02 4.926918e-01
v -5.371500e-01 9.143524e-02 4.936226e-01
v -5.283731e-01 9.229672e-02 4.973459e-01
v -5.190085e-01 9.388763e-02 5.029308e-01
v -5.097277e-01 9.548507e-02 5.085156e-01
v -5.565303e-01 8.966402e-02 5.048963e-01
v -5.491379e-01 8.908315e-02 5.048963e-01
v -5.424321e-01 8.776705e-02 5.030383e-01
v -5.343533e-01 8.792142e-02 5.048963e-01
v -5.253148e-01 8.918399e-02 5.095412e-01
v -5.163462e-01 9.045208e-02 5.141860e-01
v -5.083931e-01 9.061628e-02 5.160439e-01
v -5.465418e-01 8.531919e-02 5.152057e-01
v -5.392123e-01 8.474327e-02 5.152057e-01
v -5.328930e-01 8.304272e-02 5.124244e-01
v -5.152871e-01 8.527137e-02 5.207685e-01
v -5.079994e-01 8.469872e-02 5.207685e-01
v -3.262880e-01 1.929826e-01 2.741718e-01
v -3.256917e-01 1.935701e-01 2.829626e-01
v -3.236741e-01 1.932265e-01 2.906847e-01
v -3.216693e-01 1.928878e-01 2.983823e-01
v -3.189477e-01 1.920814e-01 3.055580e-01
v -3.162323e-01 1.912772e-01 3.127213e-01
v -3.120514e-01 1.895257e-01 3.189018e-01
v -3.063858e-01 1.868199e-01 3.241362e-01
v -3.288832e-01 1.845208e-01 2.646321e-01
v -3.303767e-01 1.865398e-01 2.750510e-01
v -3.297655e-01 1.871507e-01 2.838386e-01
v -3.298991e-01 1.882470e-01 2.930862e-01
v -3.286191e-01 1.884007e-01 3.012667e-01
v -3.251804e-01 1.871264e-01 3.079202e-01
v -3.217418e-01 1.858521e-01 3.145737e-01
v -3.190353e-01 1.850585e-01 3.217116e-01
v -3.148645e-01 1.833035e-01 3.278807e-01
v -3.092103e-01 1.805801e-01 3.331175e-01
v -3.072454e-01 1.802707e-01 3.407215e-01
v -3.329812e-01 1.769476e-01 2.560832e-01
v -3.329980e-01 1.780368e-01 2.655169e-01
v -3.344654e-01 1.800969e-01 2.759302e-01
v -3.345520e-01 1.812121e-01 2.852289e-01
v -3.339543e-01 1.818570e-01 2.939582e-01
v -3.333820e-01 1.825113e-01 3.026383e-01
v -3.306686e-01 1.817224e-01 3.097815e-01
v -3.279618e-01 1.809360e-01 3.169127e-01
v -3.252610e-01 1.801517e-01 3.240314e-01
v -3.225668e-01 1.793699e-01 3.311380e-01
v -3.169394e-01 1.766346e-01 3.363465e-01
v -3.127692e-01 1.748726e-01 3.425224e-01
v -3.068994e-01 1.759466e-01 3.822785e-01
v -3.080534e-01 1.776739e-01 3.914047e-01
v -3.069650e-01 1.779203e-01 3.991903e-01
v -3.392370e-01 1.707731e-01 2.490954e-01
v -3.385135e-01 1.714004e-01 2.580359e-01
v -3.392205e-01 1.730055e-01 2.679790e-01
v -3.399656e-01 1.746249e-01 2.778487e-01
v -3.400399e-01 1.757717e-01 2.871312e-01
v -3.401457e-01 1.769303e-01 2.963523e-01
v -3.388529e-01 1.771228e-01 3.045096e-01
v -3.368605e-01 1.768322e-01 3.121350e-01
v -3.341593e-01 1.760550e-01 3.192468e-01
v -3.314644e-01 1.752802e-01 3.263464e-01
v -3.295038e-01 1.750013e-01 3.339104e-01
v -3.260937e-01 1.737376e-01 3.405087e-01
v -3.219494e-01 1.719780e-01 3.466426e-01
v -3.141114e-01 1.677302e-01 3.504968e-01
v -3.158633e-01 1.699465e-01 3.603036e-01
v -3.146844e-01 1.701812e-01 3.682401e-01
v -3.142717e-01 1.709237e-01 3.765799e-01
v -3.138842e-01 1.716756e-01 3.848705e-01
v -3.135220e-01 1.724368e-01 3.931120e-01
v -3.124287e-01 1.727032e-01 4.008829e-01
v -3.105950e-01 1.724714e-01 4.082018e-01
v -3.835549e-01 1.832969e-01 2.060360e-01
v -3.774097e-01 1.800951e-01 2.104178e-01
v -3.531646e-01 1.687992e-01 2.385580e-01
v -3.496562e-01 1.674991e-01 2.453464e-01
v -3.468403e-01 1.666867e-01 2.526720e-01
v -3.454222e-01 1.668546e-01 2.610477e-01
v -3.468183e-01 1.689897e-01 2.714864e-01
v -3.475569e-01 1.706502e-01 2.813206e-01
v -3.469232e-01 1.713397e-01 2.900556e-01
v -3.470231e-01 1.725324e-01 2.992483e-01
v -3.464433e-01 1.732420e-01 3.078791e-01
v -3.451740e-01 1.734650e-01 3.159666e-01
v -3.424880e-01 1.727007e-01 3.230408e-01
v -3.398085e-01 1.719389e-01 3.301028e-01
v -3.371352e-01 1.711793e-01 3.371524e-01
v -3.337409e-01 1.699214e-01 3.437201e-01
v -3.296162e-01 1.681618e-01 3.498241e-01
v -3.262188e-01 1.669028e-01 3.563979e-01
v -3.250320e-01 1.671563e-01 3.643258e-01
v -3.246042e-01 1.679223e-01 3.726623e-01
v -3.227152e-01 1.676845e-01 3.800714e-01
v -3.215855e-01 1.679592e-01 3.878890e-01
v -3.204748e-01 1.682410e-01 3.956699e-01
v -3.193831e-01 1.685297e-01 4.034139e-01
v -3.167985e-01 1.678031e-01 4.102919e-01
v -3.157384e-01 1.681036e-01 4.179746e-01
v -3.991563e-01 1.828180e-01 1.976913e-01
v -3.937337e-01 1.800934e-01 2.025759e-01
v -3.902824e-01 1.788144e-01 2.092540e-01
v -3.861645e-01 1.770501e-01 2.153527e-01
v -3.827100e-01 1.757699e-01 2.220368e-01
v -3.772367e-01 1.730265e-01 2.270196e-01
v -3.655539e-01 1.670285e-01 2.365408e-01
v -3.627501e-01 1.662278e-01 2.438349e-01
v -3.599527e-01 1.654295e-01 2.511169e-01
v -3.571617e-01 1.646336e-01 2.583865e-01
v -3.557608e-01 1.648296e-01 2.667045e-01
v -3.564643e-01 1.665206e-01 2.765584e-01
v -3.565075e-01 1.677284e-01 2.858206e-01
v -3.551797e-01 1.679515e-01 2.939976e-01
v -3.545753e-01 1.686810e-01 3.026436e-01
v -3.547042e-01 1.699206e-01 3.117402e-01
v -3.527319e-01 1.696664e-01 3.192950e-01
v -3.500579e-01 1.689139e-01 3.263377e-01
v -3.473906e-01 1.681638e-01 3.333683e-01
v -3.447294e-01 1.674160e-01 3.403864e-01
v -3.406274e-01 1.656575e-01 3.464545e-01
v -3.372458e-01 1.644044e-01 3.529976e-01
v -3.353242e-01 1.641690e-01 3.604541e-01
v -3.348815e-01 1.649584e-01 3.687874e-01
v -3.329916e-01 1.647348e-01 3.761827e-01
v -3.303747e-01 1.640034e-01 3.831150e-01
v -3.292496e-01 1.643016e-01 3.908996e-01
v -3.281436e-01 1.646069e-01 3.986474e-01
v -3.270565e-01 1.649191e-01 4.063584e-01
v -3.244840e-01 1.642041e-01 4.132049e-01
v -3.211627e-01 1.629733e-01 4.196315e-01
v -3.185998e-01 1.622620e-01 4.264597e-01
v -4.077775e-01 1.798541e-01 2.027406e-01
v -4.010752e-01 1.761422e-01 2.064030e-01
v -3.976398e-01 1.748690e-01 2.130503e-01
v -3.928786e-01 1.726134e-01 2.185406e-01
v -3.881048e-01 1.703531e-01 2.240553e-01
v -3.839873e-01 1.685816e-01 2.301608e-01
v -3.805360e-01 1.673026e-01 2.368388e-01
v -3.750581e-01 1.645358e-01 2.418547e-01
v -3.715973e-01 1.632533e-01 2.485512e-01
v -3.701821e-01 1.634657e-01 2.568729e-01
v -3.674158e-01 1.626862e-01 2.640866e-01
v -3.653440e-01 1.624097e-01 2.718175e-01
v -3.646679e-01 1.631416e-01 2.805708e-01
v -3.640169e-01 1.638829e-01 2.892749e-01
v -3.633914e-01 1.646336e-01 2.979300e-01
v -3.627912e-01 1.653937e-01 3.065360e-01
v -3.608082e-01 1.651500e-01 3.140951e-01
v -3.588379e-01 1.649111e-01 3.216299e-01
v -3.561699e-01 1.641681e-01 3.286535e-01
v -3.542217e-01 1.639374e-01 3.361452e-01
v -3.530030e-01 1.642226e-01 3.440868e-01
v -3.496436e-01 1.629777e-01 3.505870e-01
v -3.462842e-01 1.617328e-01 3.570872e-01
v -3.436511e-01 1.610027e-01 3.640433e-01
v -3.432125e-01 1.618226e-01 3.723366e-01
v -3.420667e-01 1.621349e-01 3.801372e-01
v -3.387327e-01 1.608993e-01 3.865883e-01
v -3.368764e-01 1.607027e-01 3.939022e-01
v -3.357751e-01 1.610315e-01 4.016169e-01
v -3.339473e-01 1.608454e-01 4.088756e-01
v -3.306355e-01 1.596180e-01 4.152838e-01
v -3.273235e-01 1.583907e-01 4.216921e-01
v -4.244281e-01 1.804729e-01 1.958480e-01
v -4.216835e-01 1.797087e-01 2.030118e-01
v -4.156969e-01 1.764786e-01 2.071824e-01
v -4.090323e-01 1.727445e-01 2.108120e-01
v -4.049599e-01 1.709825e-01 2.168388e-01
v -4.008811e-01 1.692181e-01 2.228777e-01
v -3.961338e-01 1.669530e-01 2.283572e-01
v -3.920390e-01 1.651827e-01 2.344267e-01
v -3.892755e-01 1.644115e-01 2.416274e-01
v -3.851744e-01 1.626388e-01 2.477092e-01
v -3.810672e-01 1.608639e-01 2.538033e-01
v -3.789881e-01 1.605992e-01 2.615327e-01
v -3.762402e-01 1.598337e-01 2.687026e-01
v -3.741833e-01 1.595773e-01 2.763890e-01
v -3.735143e-01 1.603409e-01 2.850960e-01
v -3.714889e-01 1.600961e-01 2.927211e-01
v -3.701704e-01 1.603661e-01 3.008320e-01
v -3.681736e-01 1.601319e-01 3.084019e-01
v -3.661895e-01 1.599024e-01 3.159472e-01
v -3.635147e-01 1.591640e-01 3.229762e-01
v -3.629660e-01 1.599722e-01 3.314502e-01
v -3.624429e-01 1.607899e-01 3.398752e-01
v -3.605189e-01 1.605826e-01 3.473041e-01
v -3.571753e-01 1.593436e-01 3.537736e-01
v -3.538318e-01 1.581045e-01 3.602430e-01
v -3.519333e-01 1.579068e-01 3.676228e-01
v -3.507731e-01 1.582355e-01 3.754271e-01
v -3.496321e-01 1.585713e-01 3.831947e-01
v -3.477779e-01 1.583899e-01 3.904886e-01
v -3.452012e-01 1.576879e-01 3.973274e-01
v -3.426309e-01 1.569883e-01 4.041539e-01
v -3.385839e-01 1.552357e-01 4.101315e-01
v -3.352751e-01 1.540095e-01 4.165336e-01
v -3.319664e-01 1.527834e-01 4.229356e-01
v -3.279066e-01 1.510260e-01 4.289377e-01
v -3.253490e-01 1.503311e-01 4.357398e-01
v -4.330800e-01 1.764372e-01 1.913714e-01
v -4.290558e-01 1.746858e-01 1.973132e-01
v -4.263104e-01 1.739286e-01 2.044699e-01
v -4.216340e-01 1.716753e-01 2.098285e-01
v -4.156466e-01 1.684160e-01 2.140330e-01
v -4.109382e-01 1.661509e-01 2.194528e-01
v -4.075281e-01 1.648871e-01 2.260511e-01
v -4.041180e-01 1.636234e-01 2.326494e-01
v -4.000462e-01 1.618544e-01 2.386830e-01
v -3.966329e-01 1.605895e-01 2.452874e-01
v -3.918835e-01 1.583092e-01 2.507870e-01
v -3.884638e-01 1.570419e-01 2.574037e-01
v -3.863931e-01 1.567948e-01 2.651007e-01
v -3.843349e-01 1.565523e-01 2.727733e-01
v -3.829703e-01 1.568271e-01 2.809492e-01
v -3.809407e-01 1.565952e-01 2.885666e-01
v -3.782367e-01 1.558533e-01 2.956437e-01
v -3.755389e-01 1.551137e-01 3.027085e-01
v -3.735411e-01 1.548936e-01 3.102645e-01
v -3.715560e-01 1.546782e-01 3.177962e-01
v -3.702832e-01 1.549869e-01 3.257942e-01
v -3.697324e-01 1.558234e-01 3.342406e-01
v -3.685009e-01 1.561474e-01 3.421589e-01
v -3.665791e-01 1.559555e-01 3.495678e-01
v -3.639575e-01 1.552442e-01 3.564855e-01
v -3.613421e-01 1.545351e-01 3.633909e-01
v -3.594520e-01 1.543549e-01 3.707384e-01
v -3.582965e-01 1.547071e-01 3.785096e-01
v -3.564349e-01 1.545375e-01 3.858020e-01
v -3.553143e-01 1.549026e-01 3.935058e-01
v -3.542127e-01 1.552748e-01 4.011728e-01
v -3.501916e-01 1.535245e-01 4.071082e-01
v -3.454262e-01 1.512383e-01 4.126383e-01
v -3.406483e-01 1.489474e-01 4.181931e-01
v -3.366017e-01 1.471877e-01 4.241776e-01
v -3.318015e-01 1.448886e-01 4.297753e-01
v -3.269888e-01 1.425848e-01 4.353975e-01
v -4.417044e-01 1.724204e-01 1.869163e-01
v -4.383260e-01 1.711684e-01 1.934533e-01
v -4.343118e-01 1.694134e-01 1.993836e-01
v -4.315691e-01 1.686644e-01 2.065273e-01
v -4.275485e-01 1.669071e-01 2.124698e-01
v -4.228763e-01 1.646409e-01 2.178360e-01
v -4.188399e-01 1.628777e-01 2.238091e-01
v -4.141453e-01 1.606032e-01 2.292183e-01
v -4.100930e-01 1.588341e-01 2.352219e-01
v -4.066924e-01 1.575739e-01 2.418018e-01
v -4.032918e-01 1.563137e-01 2.483816e-01
v -3.992269e-01 1.545400e-01 2.544100e-01
v -3.964905e-01 1.537933e-01 2.615415e-01
v -3.937607e-01 1.530491e-01 2.686608e-01
v -3.923849e-01 1.533414e-01 2.768343e-01
v -3.896739e-01 1.526042e-01 2.839168e-01
v -3.869694e-01 1.518693e-01 2.909871e-01
v -3.835878e-01 1.506162e-01 2.975302e-01
v -3.815794e-01 1.504067e-01 3.050907e-01
v -3.795834e-01 1.502018e-01 3.126268e-01
v -3.782932e-01 1.505258e-01 3.206347e-01
v -3.770220e-01 1.508569e-01 3.286059e-01
v -3.750704e-01 1.506684e-01 3.360560e-01
v -3.738341e-01 1.510125e-01 3.439597e-01
v -3.719111e-01 1.508346e-01 3.513547e-01
v -3.700009e-01 1.506615e-01 3.587252e-01
v -3.681034e-01 1.504931e-01 3.660712e-01
v -3.669335e-01 1.508617e-01 3.738460e-01
v -3.650645e-01 1.507040e-01 3.811368e-01
v -3.639294e-01 1.510854e-01 3.888442e-01
v -3.628135e-01 1.514741e-01 3.965150e-01
v -3.609888e-01 1.513327e-01 4.037199e-01
v -3.584458e-01 1.506577e-01 4.104773e-01
v -3.537070e-01 1.483668e-01 4.159723e-01
v -3.489556e-01 1.460713e-01 4.214919e-01
v -3.434509e-01 1.432292e-01 4.266315e-01
v -3.379273e-01 1.403801e-01 4.318078e-01
v -3.331314e-01 1.380680e-01 4.374132e-01
v -3.298227e-01 1.368419e-01 4.438152e-01
v -4.450519e-01 1.656531e-01 1.871524e-01
v -4.422991e-01 1.649076e-01 1.943077e-01
v -4.389207e-01 1.636556e-01 2.008447e-01
v -4.355423e-01 1.624037e-01 2.073816e-01
v -4.321639e-01 1.611517e-01 2.139186e-01
v -4.287855e-01 1.598997e-01 2.204556e-01
v -4.254070e-01 1.586477e-01 2.269926e-01
v -4.207327e-01 1.563663e-01 2.323788e-01
v -4.166969e-01 1.545960e-01 2.383589e-01
v -4.139631e-01 1.538576e-01 2.454773e-01
v -4.105784e-01 1.526033e-01 2.520265e-01
v -4.071936e-01 1.513490e-01 2.585757e-01
v -4.038088e-01 1.500946e-01 2.651250e-01
v -4.010911e-01 1.493622e-01 2.722129e-01
v -3.983796e-01 1.486319e-01 2.792884e-01
v -3.956746e-01 1.479042e-01 2.863517e-01
v -3.922993e-01 1.466534e-01 2.928826e-01
v -3.896037e-01 1.459291e-01 2.999275e-01
v -3.875973e-01 1.457348e-01 3.074681e-01
v -3.856034e-01 1.455452e-01 3.149840e-01
v -3.843115e-01 1.458905e-01 3.229712e-01
v -3.830386e-01 1.462426e-01 3.309215e-01
v -3.810892e-01 1.460695e-01 3.383518e-01
v -3.798511e-01 1.464346e-01 3.462347e-01
v -3.779302e-01 1.462721e-01 3.536097e-01
v -3.753170e-01 1.455783e-01 3.604951e-01
v -3.741265e-01 1.459610e-01 3.682860e-01
v -3.736663e-01 1.468891e-01 3.764929e-01
v -3.725170e-01 1.472871e-01 3.842041e-01
v -3.706690e-01 1.471516e-01 3.914381e-01
v -3.688336e-01 1.470207e-01 3.986474e-01
v -3.670110e-01 1.468946e-01 4.058323e-01
v -3.637467e-01 1.456849e-01 4.121485e-01
v -3.604824e-01 1.444752e-01 4.184647e-01
v -3.557509e-01 1.421725e-01 4.239613e-01
v -3.510069e-01 1.398653e-01 4.294825e-01
v -3.469900e-01 1.381020e-01 4.354257e-01
v -3.437098e-01 1.368864e-01 4.417726e-01
v -3.411759e-01 1.362221e-01 4.485048e-01
v -3.378989e-01 1.350077e-01 4.548455e-01
v -4.490288e-01 1.593864e-01 1.880076e-01
v -4.462724e-01 1.586468e-01 1.951620e-01
v -4.428939e-01 1.573948e-01 2.016990e-01
v -4.401471e-01 1.566589e-01 2.088352e-01
v -4.374066e-01 1.559252e-01 2.159590e-01
v -4.340346e-01 1.546756e-01 2.224837e-01
v -4.306624e-01 1.534259e-01 2.290084e-01
v -4.266461e-01 1.516557e-01 2.349586e-01
v -4.232709e-01 1.504049e-01 2.414894e-01
v -4.198956e-01 1.491541e-01 2.480202e-01
v -4.165204e-01 1.479033e-01 2.545510e-01
v -4.124881e-01 1.461270e-01 2.605318e-01
v -4.091097e-01 1.448751e-01 2.670688e-01
v -4.057312e-01 1.436231e-01 2.736057e-01
v -4.036857e-01 1.434289e-01 2.812061e-01
v -4.009831e-01 1.427093e-01 2.882563e-01
v -3.982870e-01 1.419921e-01 2.952943e-01
v -3.962730e-01 1.418095e-01 3.028332e-01
v -3.935928e-01 1.410982e-01 3.098405e-01
v -3.909187e-01 1.403891e-01 3.168355e-01
v -3.896219e-01 1.407542e-01 3.248080e-01
v -3.890329e-01 1.416636e-01 3.332325e-01
v -3.877772e-01 1.420439e-01 3.411252e-01
v -3.858458e-01 1.418919e-01 3.485048e-01
v -3.839269e-01 1.417447e-01 3.558598e-01
v -3.813195e-01 1.410603e-01 3.627260e-01
v -3.808317e-01 1.420072e-01 3.709542e-01
v -3.803693e-01 1.429634e-01 3.791333e-01
v -3.785108e-01 1.428384e-01 3.863719e-01
v -3.766648e-01 1.427182e-01 3.935858e-01
v -3.755487e-01 1.431503e-01 4.012087e-01
v -3.737312e-01 1.430405e-01 4.083675e-01
v -3.719265e-01 1.429356e-01 4.155017e-01
v -3.686812e-01 1.417329e-01 4.217811e-01
v -3.639762e-01 1.394256e-01 4.272426e-01
v -3.592587e-01 1.371135e-01 4.327285e-01
v -3.567367e-01 1.364608e-01 4.394291e-01
v -3.542213e-01 1.358106e-01 4.461176e-01
v -3.517121e-01 1.351625e-01 4.527937e-01
v -3.529375e-01 1.373081e-01 4.613494e-01
v -4.523874e-01 1.526015e-01 1.882459e-01
v -4.502456e-01 1.523860e-01 1.960163e-01
v -4.468671e-01 1.511341e-01 2.025533e-01
v -4.447445e-01 1.509258e-01 2.102870e-01
v -4.420032e-01 1.501991e-01 2.174039e-01
v -4.392686e-01 1.494749e-01 2.245085e-01
v -4.365401e-01 1.487529e-01 2.316008e-01
v -4.331775e-01 1.475068e-01 2.381071e-01
v -4.291713e-01 1.457330e-01 2.440459e-01
v -4.258056e-01 1.444858e-01 2.505584e-01
v -4.224398e-01 1.432385e-01 2.570707e-01
v -4.184208e-01 1.414599e-01 2.630339e-01
v -4.150519e-01 1.402115e-01 2.695525e-01
v -4.116829e-01 1.389630e-01 2.760710e-01
v -4.089768e-01 1.382494e-01 2.831206e-01
v -4.056110e-01 1.370021e-01 2.896330e-01
v -4.035833e-01 1.368289e-01 2.971826e-01
v -4.015683e-01 1.366605e-01 3.047076e-01
v -3.995660e-01 1.364968e-01 3.122082e-01
v -3.962193e-01 1.352566e-01 3.186839e-01
v -3.942360e-01 1.350999e-01 3.261476e-01
v -3.936349e-01 1.360338e-01 3.345626e-01
v -3.930595e-01 1.369771e-01 3.429288e-01
v -3.911268e-01 1.368393e-01 3.502944e-01
v -3.892069e-01 1.367061e-01 3.576355e-01
v -3.879972e-01 1.371253e-01 3.654156e-01
v -3.875071e-01 1.381002e-01 3.736159e-01
v -3.863386e-01 1.385346e-01 3.813162e-01
v -3.851892e-01 1.389762e-01 3.889797e-01
v -3.840587e-01 1.394247e-01 3.966064e-01
v -3.829472e-01 1.398803e-01 4.041963e-01
v -3.811382e-01 1.397882e-01 4.113227e-01
v -3.786220e-01 1.391449e-01 4.180042e-01
v -3.761123e-01 1.385040e-01 4.246735e-01
v -3.736090e-01 1.378655e-01 4.313305e-01
v -3.703827e-01 1.366699e-01 4.375731e-01
v -3.678888e-01 1.360348e-01 4.442116e-01
v -3.668723e-01 1.365256e-01 4.516175e-01
v -3.658750e-01 1.370235e-01 4.589866e-01
v -3.656385e-01 1.380925e-01 4.666966e-01
v -4.569826e-01 1.468532e-01 1.897178e-01
v -4.548366e-01 1.466507e-01 1.974805e-01
v -4.520823e-01 1.459264e-01 2.046151e-01
v -4.493342e-01 1.452044e-01 2.117372e-01
v -4.459652e-01 1.439560e-01 2.182558e-01
v -4.444876e-01 1.442976e-01 2.265300e-01
v -4.430291e-01 1.446464e-01 2.347676e-01
v -4.396792e-01 1.434050e-01 2.412494e-01
v -4.356893e-01 1.416299e-01 2.471642e-01
v -4.323362e-01 1.403874e-01 2.536522e-01
v -4.296295e-01 1.396807e-01 2.606947e-01
v -4.249807e-01 1.373652e-01 2.660797e-01
v -4.222770e-01 1.366596e-01 2.731160e-01
v -4.189240e-01 1.354170e-01 2.796038e-01
v -4.155709e-01 1.341744e-01 2.860918e-01
v -4.122178e-01 1.329319e-01 2.925797e-01
v -4.095301e-01 1.322323e-01 2.995855e-01
v -4.068487e-01 1.315350e-01 3.065789e-01
v -4.041734e-01 1.308400e-01 3.135600e-01
v -4.008299e-01 1.296010e-01 3.200296e-01
v -3.995203e-01 1.300049e-01 3.279788e-01
v -3.989108e-01 1.309646e-01 3.363784e-01
v -3.983267e-01 1.319339e-01 3.447291e-01
v -3.963930e-01 1.318101e-01 3.520808e-01
v -3.951626e-01 1.322433e-01 3.598768e-01
v -3.939512e-01 1.326836e-01 3.676360e-01
v -3.927588e-01 1.331310e-01 3.753584e-01
v -3.922856e-01 1.341413e-01 3.834943e-01
v -3.918377e-01 1.351608e-01 3.915811e-01
v -3.914152e-01 1.361899e-01 3.996190e-01
v -3.903085e-01 1.366690e-01 4.071758e-01
v -3.892206e-01 1.371551e-01 4.146958e-01
v -3.860038e-01 1.359630e-01 4.209200e-01
v -3.842255e-01 1.358968e-01 4.279713e-01
v -3.824596e-01 1.358353e-01 4.349982e-01
v -3.807065e-01 1.357784e-01 4.420004e-01
v -3.789661e-01 1.357263e-01 4.489781e-01
v -3.787021e-01 1.368141e-01 4.567093e-01
v -3.806684e-01 1.396176e-01 4.655400e-01
v -3.841556e-01 1.435775e-01 4.750384e-01
v -3.832517e-01 1.441318e-01 4.822028e-01
v -4.649488e-01 1.423685e-01 1.846511e-01
v -4.627922e-01 1.421767e-01 1.924184e-01
v -4.600340e-01 1.414582e-01 1.995520e-01
v -4.572823e-01 1.407422e-01 2.066735e-01
v -4.545370e-01 1.400284e-01 2.137825e-01
v -4.517978e-01 1.393170e-01 2.208794e-01
v -4.509454e-01 1.402158e-01 2.297173e-01
v -4.494882e-01 1.405867e-01 2.379279e-01
v -4.461509e-01 1.393500e-01 2.443852e-01
v -4.421776e-01 1.375739e-01 2.502764e-01
v -4.388372e-01 1.363361e-01 2.567398e-01
v -4.354969e-01 1.350982e-01 2.632032e-01
v -4.315106e-01 1.333173e-01 2.691189e-01
v -4.275182e-01 1.315342e-01 2.750470e-01
v -4.241715e-01 1.302939e-01 2.815226e-01
v -4.208248e-01 1.290537e-01 2.879982e-01
v -4.181364e-01 1.283611e-01 2.949969e-01
v -4.154545e-01 1.276709e-01 3.019835e-01
v -4.121141e-01 1.264330e-01 3.084469e-01
v -4.094415e-01 1.257463e-01 3.154150e-01
v -4.067754e-01 1.250619e-01 3.223709e-01
v -4.054641e-01 1.254870e-01 3.302994e-01
v -4.048491e-01 1.264737e-01 3.386774e-01
v -4.042597e-01 1.274699e-01 3.470064e-01
v -4.030117e-01 1.279184e-01 3.548121e-01
v -4.024698e-01 1.289323e-01 3.630491e-01
v -3.998829e-01 1.282773e-01 3.698517e-01
v -3.979955e-01 1.281852e-01 3.770976e-01
v -3.982101e-01 1.297830e-01 3.856676e-01
v -3.984565e-01 1.313926e-01 3.941762e-01
v -3.980318e-01 1.324498e-01 4.021863e-01
v -3.983383e-01 1.340818e-01 4.105784e-01
v -3.965493e-01 1.340261e-01 4.176343e-01
v -3.947730e-01 1.339752e-01 4.246656e-01
v -3.937247e-01 1.344977e-01 4.320850e-01
v -3.934140e-01 1.355972e-01 4.398744e-01
v -3.909634e-01 1.349927e-01 4.464133e-01
v -3.906939e-01 1.361075e-01 4.541228e-01
v -3.911780e-01 1.378052e-01 4.621715e-01
v -3.924250e-01 1.400893e-01 4.705410e-01
v -3.915066e-01 1.406599e-01 4.777091e-01
v -4.729013e-01 1.378934e-01 1.795951e-01
v -4.707338e-01 1.377119e-01 1.873668e-01
v -4.691863e-01 1.380712e-01 1.957282e-01
v -4.664373e-01 1.373634e-01 2.028366e-01
v -4.636945e-01 1.366579e-01 2.099327e-01
v -4.615748e-01 1.364942e-01 2.176124e-01
v -4.594676e-01 1.363352e-01 2.252676e-01
v -4.579962e-01 1.367227e-01 2.334819e-01
v -4.552914e-01 1.360312e-01 2.405043e-01
v -4.525930e-01 1.353422e-01 2.475147e-01
v -4.486359e-01 1.335648e-01 2.533820e-01
v -4.446726e-01 1.317852e-01 2.592619e-01
v -4.407029e-01 1.300032e-01 2.651538e-01
v -4.360849e-01 1.276700e-01 2.705113e-01
v -4.314541e-01 1.253321e-01 2.758933e-01
v -4.294041e-01 1.251943e-01 2.834380e-01
v -4.260637e-01 1.239564e-01 2.899015e-01
v -4.227233e-01 1.227185e-01 2.963648e-01
v -4.200406e-01 1.220353e-01 3.033444e-01
v -4.167034e-01 1.207985e-01 3.098017e-01
v -4.140305e-01 1.201189e-01 3.167628e-01
v -4.126984e-01 1.205581e-01 3.247074e-01
v -4.113855e-01 1.210042e-01 3.326150e-01
v -4.100914e-01 1.214574e-01 3.404859e-01
v -4.088165e-01 1.219177e-01 3.483200e-01
v -4.075606e-01 1.223851e-01 3.561173e-01
v -4.083733e-01 1.245517e-01 3.652792e-01
v -4.064785e-01 1.244714e-01 3.725235e-01
v -4.045963e-01 1.243957e-01 3.797432e-01
v -4.048051e-01 1.260276e-01 3.882847e-01
v -4.043496e-01 1.271025e-01 3.963223e-01
v -4.053175e-01 1.293267e-01 4.051837e-01
v -4.042169e-01 1.298516e-01 4.126805e-01
v -4.031353e-01 1.303835e-01 4.201405e-01
v -4.027812e-01 1.314959e-01 4.279818e-01
v -4.024525e-01 1.326178e-01 4.357741e-01
v -4.021491e-01 1.337491e-01 4.435173e-01
v -4.011531e-01 1.343126e-01 4.508116e-01
v -4.008972e-01 1.354615e-01 4.584629e-01
v -3.999424e-01 1.360405e-01 4.656776e-01
v -3.997342e-01 1.372069e-01 4.732368e-01
v -3.980897e-01 1.372194e-01 4.799967e-01
v -3.949902e-01 1.360707e-01 4.859940e-01
v -3.918906e-01 1.349221e-01 4.919914e-01
v -4.855911e-01 1.377335e-01 1.796048e-01
v -4.822444e-01 1.364933e-01 1.860804e-01
v -4.788976e-01 1.352531e-01 1.925561e-01
v -4.773610e-01 1.356382e-01 2.008722e-01
v -4.746304e-01 1.349445e-01 2.079369e-01
v -4.712964e-01 1.337089e-01 2.143880e-01
v -4.698011e-01 1.341093e-01 2.226244e-01
v -4.677087e-01 1.339703e-01 2.302351e-01
v -4.637712e-01 1.321929e-01 2.360726e-01
v -4.610723e-01 1.315109e-01 2.430760e-01
v -4.583796e-01 1.308313e-01 2.500671e-01
v -4.550646e-01 1.296028e-01 2.564813e-01
v -4.511177e-01 1.278220e-01 2.623374e-01
v -4.458941e-01 1.249317e-01 2.671013e-01
v -4.406515e-01 1.220344e-01 2.719021e-01
v -4.366729e-01 1.202419e-01 2.778194e-01
v -4.339771e-01 1.195610e-01 2.848165e-01
v -4.312877e-01 1.188825e-01 2.918015e-01
v -4.279536e-01 1.176470e-01 2.982526e-01
v -4.246196e-01 1.164115e-01 3.047037e-01
v -4.219428e-01 1.157377e-01 3.116642e-01
v -4.199328e-01 1.156291e-01 3.191153e-01
v -4.192627e-01 1.166534e-01 3.275359e-01
v -4.172845e-01 1.165567e-01 3.349258e-01
v -4.153189e-01 1.164647e-01 3.422913e-01
v -4.126927e-01 1.158096e-01 3.491535e-01
v -4.127782e-01 1.174322e-01 3.578932e-01
v -4.128954e-01 1.190665e-01 3.665717e-01
v -4.123616e-01 1.201414e-01 3.747288e-01
v -4.118533e-01 1.212256e-01 3.828366e-01
v -4.113702e-01 1.223193e-01 3.908955e-01
v -4.116046e-01 1.239970e-01 3.993471e-01
v -4.111754e-01 1.251106e-01 4.073017e-01
v -4.107716e-01 1.262337e-01 4.152072e-01
v -4.103931e-01 1.273661e-01 4.230638e-01
v -4.100399e-01 1.285079e-01 4.308712e-01
v -4.097122e-01 1.296591e-01 4.386295e-01
v -4.094098e-01 1.308198e-01 4.463389e-01
v -4.091327e-01 1.319897e-01 4.539991e-01
v -4.074459e-01 1.320010e-01 4.608248e-01
v -4.057720e-01 1.320170e-01 4.676260e-01
v -4.048344e-01 1.326241e-01 4.747832e-01
v -4.024619e-01 1.320631e-01 4.811548e-01
v -3.993655e-01 1.309156e-01 4.871460e-01
v -3.962692e-01 1.297682e-01 4.931372e-01
v -3.916997e-01 1.274385e-01 4.984166e-01
v -5.166547e-01 1.529744e-01 1.900172e-01
v -5.069617e-01 1.458027e-01 1.892688e-01
v -4.971992e-01 1.386052e-01 1.886553e-01
v -4.933003e-01 1.368350e-01 1.944263e-01
v -4.899916e-01 1.356088e-01 2.008283e-01
v -4.866830e-01 1.343827e-01 2.072304e-01
v -4.827713e-01 1.326077e-01 2.130259e-01
v -4.794595e-01 1.313804e-01 2.194341e-01
v -4.773660e-01 1.312554e-01 2.270309e-01
v -4.746729e-01 1.305829e-01 2.340150e-01
v -4.701394e-01 1.282520e-01 2.392407e-01
v -4.662119e-01 1.264711e-01 2.450669e-01
v -4.641438e-01 1.263555e-01 2.526146e-01
v -4.614634e-01 1.256877e-01 2.595742e-01
v -4.581610e-01 1.244639e-01 2.659640e-01
v -4.529645e-01 1.215619e-01 2.706997e-01
v -4.471145e-01 1.180923e-01 2.749269e-01
v -4.431521e-01 1.162985e-01 2.808205e-01
v -4.398244e-01 1.150653e-01 2.872594e-01
v -4.364967e-01 1.138321e-01 2.936982e-01
v -4.331690e-01 1.125990e-01 3.001371e-01
v -4.304918e-01 1.119323e-01 3.070906e-01
v -4.278207e-01 1.112678e-01 3.140317e-01
v -4.258128e-01 1.111746e-01 3.214630e-01
v -4.244774e-01 1.116560e-01 3.293659e-01
v -4.231611e-01 1.121445e-01 3.372318e-01
v -4.205314e-01 1.114954e-01 3.440934e-01
v -4.192467e-01 1.119956e-01 3.518982e-01
v -4.186536e-01 1.130775e-01 3.601377e-01
v -4.194374e-01 1.153205e-01 3.692594e-01
v -4.189014e-01 1.164236e-01 3.773885e-01
v -4.177086e-01 1.169578e-01 3.850155e-01
v -4.172202e-01 1.180785e-01 3.930527e-01
v -4.174456e-01 1.197892e-01 4.014819e-01
v -4.177025e-01 1.215115e-01 4.098498e-01
v -4.186859e-01 1.238285e-01 4.185851e-01
v -4.183116e-01 1.249914e-01 4.264016e-01
v -4.179626e-01 1.261638e-01 4.341689e-01
v -4.176389e-01 1.273455e-01 4.418873e-01
v -4.166331e-01 1.279491e-01 4.491524e-01
v -4.163570e-01 1.291485e-01 4.567788e-01
v -4.139649e-01 1.285875e-01 4.631804e-01
v -4.115791e-01 1.280288e-01 4.695697e-01
v -4.099199e-01 1.280647e-01 4.763263e-01
v -4.068267e-01 1.269184e-01 4.823114e-01
v -4.030070e-01 1.251775e-01 4.879290e-01
v -4.006403e-01 1.246259e-01 4.942815e-01
v -3.968143e-01 1.228826e-01 4.999114e-01
v -5.216204e-01 1.480732e-01 1.921205e-01
v -5.154745e-01 1.441323e-01 1.951872e-01
v -5.087104e-01 1.396296e-01 1.976849e-01
v -5.030877e-01 1.362152e-01 2.015045e-01
v -4.992178e-01 1.344484e-01 2.072272e-01
v -4.953418e-01 1.326794e-01 2.129622e-01
v -4.914594e-01 1.309080e-01 2.187095e-01
v -4.881728e-01 1.296900e-01 2.250687e-01
v -4.842808e-01 1.279150e-01 2.308342e-01
v -4.809910e-01 1.266959e-01 2.371995e-01
v -4.764777e-01 1.243580e-01 2.424023e-01
v -4.725669e-01 1.225761e-01 2.482049e-01
v -4.698857e-01 1.219151e-01 2.551575e-01
v -4.672111e-01 1.212567e-01 2.620978e-01
v -4.645426e-01 1.206004e-01 2.690259e-01
v -4.599976e-01 1.182508e-01 2.742900e-01
v -4.541784e-01 1.147636e-01 2.784898e-01
v -4.489677e-01 1.118346e-01 2.832771e-01
v -4.450123e-01 1.100361e-01 2.891652e-01
v -4.416909e-01 1.088053e-01 2.955918e-01
v -4.390131e-01 1.081456e-01 3.025384e-01
v -4.369882e-01 1.080606e-01 3.099864e-01
v -4.343262e-01 1.074068e-01 3.169023e-01
v -4.316704e-01 1.067553e-01 3.238058e-01
v -4.296773e-01 1.066821e-01 3.311926e-01
v -4.276967e-01 1.066135e-01 3.385547e-01
v -4.263915e-01 1.071278e-01 3.463754e-01
v -4.257707e-01 1.082284e-01 3.546364e-01
v -4.265132e-01 1.104997e-01 3.637899e-01
v -4.266216e-01 1.122033e-01 3.724052e-01
v -4.247362e-01 1.121699e-01 3.795834e-01
v -4.235418e-01 1.127253e-01 3.871895e-01
v -4.244110e-01 1.150435e-01 3.960978e-01
v -4.239487e-01 1.162029e-01 4.040521e-01
v -4.248877e-01 1.185470e-01 4.128256e-01
v -4.251736e-01 1.203162e-01 4.210974e-01
v -4.247969e-01 1.215074e-01 4.288861e-01
v -4.251431e-01 1.232991e-01 4.370415e-01
v -4.248203e-01 1.245102e-01 4.447260e-01
v -4.245229e-01 1.257307e-01 4.523615e-01
v -4.235441e-01 1.263660e-01 4.595506e-01
v -4.204541e-01 1.252209e-01 4.655295e-01
v -4.173640e-01 1.240758e-01 4.715085e-01
v -4.149903e-01 1.235289e-01 4.778663e-01
v -4.119035e-01 1.223850e-01 4.838391e-01
v -4.073712e-01 1.200400e-01 4.890787e-01
v -4.042780e-01 1.188937e-01 4.950638e-01
v -4.011848e-01 1.177474e-01 5.010488e-01
v -3.973594e-01 1.159972e-01 5.066857e-01
v -5.326603e-01 1.471517e-01 1.912237e-01
v -5.283002e-01 1.448561e-01 1.961460e-01
v -5.227685e-01 1.414464e-01 1.998217e-01
v -5.177940e-01 1.385831e-01 2.041759e-01
v -5.122146e-01 1.351557e-01 2.079433e-01
v -5.077879e-01 1.328355e-01 2.129945e-01
v -5.033488e-01 1.305106e-01 2.180702e-01
v -4.994921e-01 1.287414e-01 2.237753e-01
v -4.962278e-01 1.275317e-01 2.300915e-01
v -4.929635e-01 1.263220e-01 2.364077e-01
v -4.890943e-01 1.245483e-01 2.421374e-01
v -4.846106e-01 1.222069e-01 2.472989e-01
v -4.795031e-01 1.192943e-01 2.519106e-01
v -4.749908e-01 1.169423e-01 2.571273e-01
v -4.729364e-01 1.168608e-01 2.646166e-01
v -4.696530e-01 1.156441e-01 2.709696e-01
v -4.657458e-01 1.138562e-01 2.767729e-01
v -4.599509e-01 1.103490e-01 2.809575e-01
v -4.553911e-01 1.079793e-01 2.862661e-01
v -4.514522e-01 1.061798e-01 2.921306e-01
v -4.475068e-01 1.043777e-01 2.980075e-01
v -4.441949e-01 1.031504e-01 3.044157e-01
v -4.421690e-01 1.030795e-01 3.118498e-01
v -4.395096e-01 1.024340e-01 3.187527e-01
v -4.375057e-01 1.023712e-01 3.261438e-01
v -4.355146e-01 1.023132e-01 3.335105e-01
v -4.335362e-01 1.022599e-01 3.408527e-01
v -4.322292e-01 1.027954e-01 3.486527e-01
v -4.322651e-01 1.045084e-01 3.573682e-01
v -4.329978e-01 1.068195e-01 3.664924e-01
v -4.317636e-01 1.073819e-01 3.741513e-01
v -4.305486e-01 1.079514e-01 3.817734e-01
v -4.300271e-01 1.091179e-01 3.898104e-01
v -4.315644e-01 1.120672e-01 3.991349e-01
v -4.317842e-01 1.138482e-01 4.074948e-01
v -4.313514e-01 1.150476e-01 4.153600e-01
v -4.316313e-01 1.168510e-01 4.236033e-01
v -4.319430e-01 1.186662e-01 4.317853e-01
v -4.315927e-01 1.198961e-01 4.394911e-01
v -4.319645e-01 1.217336e-01 4.475566e-01
v -4.309680e-01 1.223841e-01 4.547556e-01
v -4.292875e-01 1.224412e-01 4.615214e-01
v -4.269133e-01 1.219013e-01 4.678722e-01
v -4.238360e-01 1.207609e-01 4.738267e-01
v -4.214713e-01 1.202245e-01 4.801591e-01
v -4.183972e-01 1.190853e-01 4.861074e-01
v -4.131660e-01 1.161269e-01 4.909583e-01
v -4.086379e-01 1.137691e-01 4.962057e-01
v -4.048226e-01 1.120152e-01 5.018310e-01
v -4.017294e-01 1.108690e-01 5.078161e-01
v -3.993679e-01 1.103338e-01 5.141425e-01
v -5.375712e-01 1.423246e-01 1.933290e-01
v -5.337976e-01 1.405789e-01 1.988815e-01
v -5.288660e-01 1.377098e-01 2.031768e-01
v -5.239154e-01 1.348336e-01 2.075088e-01
v -5.195279e-01 1.325134e-01 2.125002e-01
v -5.157131e-01 1.307525e-01 2.181325e-01
v -5.113035e-01 1.284240e-01 2.231668e-01
v -5.068812e-01 1.260908e-01 2.282258e-01
v -5.030410e-01 1.243205e-01 2.339071e-01
v -4.997925e-01 1.231167e-01 2.401926e-01
v -4.959429e-01 1.213429e-01 2.458925e-01
v -4.914825e-01 1.189957e-01 2.510249e-01
v -4.870095e-01 1.166436e-01 2.561818e-01
v -4.825237e-01 1.142869e-01 2.613633e-01
v -4.786393e-01 1.125003e-01 2.671306e-01
v -4.753655e-01 1.112871e-01 2.734653e-01
v -4.714714e-01 1.094968e-01 2.792508e-01
v -4.657009e-01 1.059696e-01 2.834202e-01
v -4.611581e-01 1.035918e-01 2.887121e-01
v -4.591215e-01 1.035314e-01 2.961507e-01
v -4.551990e-01 1.017307e-01 3.019917e-01
v -4.512701e-01 9.992742e-02 3.078447e-01
v -4.486133e-01 9.929014e-02 3.147345e-01
v -4.466052e-01 9.924038e-02 3.221180e-01
v -4.433187e-01 9.802244e-02 3.284771e-01
v -4.413295e-01 9.797963e-02 3.358238e-01
v -4.400050e-01 9.853034e-02 3.436335e-01
v -4.380444e-01 9.849817e-02 3.509250e-01
v -4.380712e-01 1.002440e-01 3.596181e-01
v -4.381298e-01 1.020016e-01 3.682499e-01
v -4.375553e-01 1.031776e-01 3.763573e-01
v -4.363386e-01 1.037682e-01 3.839586e-01
v -4.364827e-01 1.055576e-01 3.924249e-01
v -4.373324e-01 1.079556e-01 4.012745e-01
v -4.382203e-01 1.103677e-01 4.100505e-01
v -4.384657e-01 1.121946e-01 4.183205e-01
v -4.401101e-01 1.152343e-01 4.273818e-01
v -4.397385e-01 1.164854e-01 4.350967e-01
v -4.393923e-01 1.177458e-01 4.427625e-01
v -4.383783e-01 1.184116e-01 4.499714e-01
v -4.366871e-01 1.184793e-01 4.567416e-01
v -4.350086e-01 1.185516e-01 4.634873e-01
v -4.319376e-01 1.174136e-01 4.694295e-01
v -4.295724e-01 1.168843e-01 4.757550e-01
v -4.279225e-01 1.169672e-01 4.824456e-01
v -4.248609e-01 1.158327e-01 4.883694e-01
v -4.189383e-01 1.122491e-01 4.928331e-01
v -4.144273e-01 1.098830e-01 4.980637e-01
v -4.106251e-01 1.081269e-01 5.036714e-01
v -4.075414e-01 1.069841e-01 5.096381e-01
v -4.044577e-01 1.058413e-01 5.156048e-01
v -5.441644e-01 1.392132e-01 1.973698e-01
v -5.398415e-01 1.369023e-01 2.022524e-01
v -5.343616e-01 1.334538e-01 2.058915e-01
v -5.300070e-01 1.311312e-01 2.108354e-01
v -5.262181e-01 1.293727e-01 2.164256e-01
v -5.224229e-01 1.276117e-01 2.220281e-01
v -5.186213e-01 1.258486e-01 2.276428e-01
v -5.142255e-01 1.235107e-01 2.326666e-01
v -5.098169e-01 1.211680e-01 2.377147e-01
v -5.065843e-01 1.199701e-01 2.439695e-01
v -5.015594e-01 1.170446e-01 2.484696e-01
v -4.971159e-01 1.146891e-01 2.535852e-01
v -4.926598e-01 1.123289e-01 2.587254e-01
v -4.894050e-01 1.111227e-01 2.650232e-01
v -4.855401e-01 1.093361e-01 2.707607e-01
v -4.816688e-01 1.075470e-01 2.765103e-01
v -4.777911e-01 1.057555e-01 2.822721e-01
v -4.720483e-01 1.022096e-01 2.864203e-01
v -4.681484e-01 1.004099e-01 2.922252e-01
v -4.661203e-01 1.003673e-01 2.996316e-01
v -4.628464e-01 9.915402e-02 3.059662e-01
v -4.589403e-01 9.735204e-02 3.117833e-01
v -4.556633e-01 9.613766e-02 3.181240e-01
v -4.530249e-01 9.551437e-02 3.249700e-01
v -4.497510e-01 9.430115e-02 3.313047e-01
v -4.477672e-01 9.427487e-02 3.386252e-01
v -4.457960e-01 9.425325e-02 3.459212e-01
v -4.444888e-01 9.483215e-02 3.536735e-01
v -4.438551e-01 9.601505e-02 3.618634e-01
v -4.439045e-01 9.780555e-02 3.704728e-01
v -4.439855e-01 9.960779e-02 3.790209e-01
v -4.440982e-01 1.014218e-01 3.875076e-01
v -4.435755e-01 1.026458e-01 3.954829e-01
v -4.437485e-01 1.044822e-01 4.038532e-01
v -4.439531e-01 1.063302e-01 4.121621e-01
v -4.455427e-01 1.094004e-01 4.212730e-01
v -4.464970e-01 1.118807e-01 4.298725e-01
v -4.468062e-01 1.137675e-01 4.379790e-01
v -4.457748e-01 1.144485e-01 4.451977e-01
v -4.447623e-01 1.151366e-01 4.523796e-01
v -4.437689e-01 1.158319e-01 4.595248e-01
v -4.420987e-01 1.159218e-01 4.662383e-01
v -4.397425e-01 1.154030e-01 4.725385e-01
v -4.373925e-01 1.148867e-01 4.788264e-01
v -4.357541e-01 1.149884e-01 4.854786e-01
v -4.334200e-01 1.144779e-01 4.917358e-01
v -4.268230e-01 1.102609e-01 4.957957e-01
v -4.216237e-01 1.072708e-01 5.006330e-01
v -4.185590e-01 1.061351e-01 5.065628e-01
v -4.147733e-01 1.043778e-01 5.121469e-01
v -4.102570e-01 1.019953e-01 5.174036e-01
v -5.501584e-01 1.355906e-01 2.007572e-01
v -5.464207e-01 1.338438e-01 2.062562e-01
v -5.409716e-01 1.303777e-01 2.098678e-01
v -5.354973e-01 1.269022e-01 2.135286e-01
v -5.311469e-01 1.245666e-01 2.184802e-01
v -5.279396e-01 1.233781e-01 2.246860e-01
v -5.235702e-01 1.210355e-01 2.296745e-01
v -5.197724e-01 1.192664e-01 2.352900e-01
v -5.171429e-01 1.186537e-01 2.421107e-01
v -5.127483e-01 1.163017e-01 2.471482e-01
v -5.071534e-01 1.127815e-01 2.510419e-01
v -5.015332e-01 1.092521e-01 2.549848e-01
v -4.976878e-01 1.074653e-01 2.606922e-01
v -4.950426e-01 1.068468e-01 2.675437e-01
v -4.930101e-01 1.068169e-01 2.749422e-01
v -4.885519e-01 1.044415e-01 2.801025e-01
v -4.840812e-01 1.020613e-01 2.852871e-01
v -4.789818e-01 9.908648e-02 2.899552e-01
v -4.744825e-01 9.669576e-02 2.951951e-01
v -4.718371e-01 9.607711e-02 3.020463e-01
v -4.679475e-01 9.427400e-02 3.078398e-01
v -4.653085e-01 9.365770e-02 3.146787e-01
v -4.620442e-01 9.244800e-02 3.209949e-01
v -4.587798e-01 9.123831e-02 3.273112e-01
v -4.548775e-01 8.943053e-02 3.331291e-01
v -4.528925e-01 8.941833e-02 3.404359e-01
v -4.515646e-01 9.001131e-02 3.482040e-01
v -4.509033e-01 9.121304e-02 3.564153e-01
v -4.502674e-01 9.242418e-02 3.645776e-01
v -4.503108e-01 9.424875e-02 3.731584e-01
v -4.510430e-01 9.669020e-02 3.821395e-01
v -4.518132e-01 9.914581e-02 3.910469e-01
v -4.512945e-01 1.004004e-01 3.989823e-01
v -4.508012e-01 1.016644e-01 4.068686e-01
v -4.510031e-01 1.035477e-01 4.151428e-01
v -4.525825e-01 1.066649e-01 4.242174e-01
v -4.535303e-01 1.091863e-01 4.327815e-01
v -4.538367e-01 1.111083e-01 4.408534e-01
v -4.534924e-01 1.124275e-01 4.484515e-01
v -4.524877e-01 1.131402e-01 4.555942e-01
v -4.521909e-01 1.144771e-01 4.631003e-01
v -4.512276e-01 1.152051e-01 4.701633e-01
v -4.488928e-01 1.147016e-01 4.764136e-01
v -4.465645e-01 1.142005e-01 4.826517e-01
v -4.442426e-01 1.137017e-01 4.888775e-01
v -4.419269e-01 1.132053e-01 4.950912e-01
v -4.360785e-01 1.095912e-01 4.994755e-01
v -4.309157e-01 1.065929e-01 5.042661e-01
v -4.300189e-01 1.073457e-01 5.112003e-01
v -4.277064e-01 1.068504e-01 5.174077e-01
v -4.225182e-01 1.038427e-01 5.222474e-01
v -5.531758e-01 1.268646e-01 1.908653e-01
v -5.538893e-01 1.297115e-01 2.015594e-01
v -5.512784e-01 1.291130e-01 2.083364e-01
v -5.464152e-01 1.262039e-01 2.125714e-01
v -5.415329e-01 1.232878e-01 2.168431e-01
v -5.372028e-01 1.209453e-01 2.217719e-01
v -5.328598e-01 1.185979e-01 2.267252e-01
v -5.285043e-01 1.162459e-01 2.317029e-01
v -5.247165e-01 1.144733e-01 2.373070e-01
v -5.215060e-01 1.132836e-01 2.435190e-01
v -5.182956e-01 1.120939e-01 2.497310e-01
v -5.144951e-01 1.103165e-01 2.553596e-01
v -5.089089e-01 1.067706e-01 2.592688e-01
v -5.032972e-01 1.032152e-01 2.632270e-01
v -5.012572e-01 1.031971e-01 2.706241e-01
v -4.992300e-01 1.031838e-01 2.779967e-01
v -4.953978e-01 1.013947e-01 2.836866e-01
v -4.909503e-01 9.900865e-02 2.888422e-01
v -4.871023e-01 9.721367e-02 2.945628e-01
v -4.814019e-01 9.362546e-02 2.986929e-01
v -4.762947e-01 9.062599e-02 3.034000e-01
v -4.730335e-01 8.941747e-02 3.097101e-01
v -4.697724e-01 8.820896e-02 3.160202e-01
v -4.665112e-01 8.700043e-02 3.223303e-01
v -4.638812e-01 8.639476e-02 3.291440e-01
v -4.612575e-01 8.579140e-02 3.359453e-01
v -4.592778e-01 8.579559e-02 3.432259e-01
v -4.579515e-01 8.641098e-02 3.509672e-01
v -4.572880e-01 8.764093e-02 3.591508e-01
v -4.572969e-01 8.948898e-02 3.677583e-01
v -4.573375e-01 9.134883e-02 3.763045e-01
v -4.574098e-01 9.322032e-02 3.847894e-01
v -4.575138e-01 9.510362e-02 3.932129e-01
v -4.576495e-01 9.699865e-02 4.015751e-01
v -4.571539e-01 9.829081e-02 4.094337e-01
v -4.580158e-01 1.008239e-01 4.181155e-01
v -4.595851e-01 1.039881e-01 4.271539e-01
v -4.611986e-01 1.071687e-01 4.361064e-01
v -4.615054e-01 1.091272e-01 4.441375e-01
v -4.604865e-01 1.098564e-01 4.512840e-01
v -4.608504e-01 1.118360e-01 4.592046e-01
v -4.605608e-01 1.132045e-01 4.666646e-01
v -4.596084e-01 1.139584e-01 4.736823e-01
v -4.579837e-01 1.140942e-01 4.802760e-01
v -4.556769e-01 1.136083e-01 4.864642e-01
v -4.540743e-01 1.137523e-01 4.930151e-01
v -4.517834e-01 1.132723e-01 4.991726e-01
v -4.480907e-01 1.115350e-01 5.045927e-01
v -4.450989e-01 1.104262e-01 5.103816e-01
v -4.435280e-01 1.105820e-01 5.168711e-01
v -4.419698e-01 1.107425e-01 5.233361e-01
v -4.418577e-01 1.121767e-01 5.304526e-01
v -5.574842e-01 1.215249e-01 1.923232e-01
v -5.576202e-01 1.238325e-01 2.023617e-01
v -5.550056e-01 1.232398e-01 2.091378e-01
v -5.507145e-01 1.208972e-01 2.140068e-01
v -5.469748e-01 1.191352e-01 2.195259e-01
v -5.426615e-01 1.167844e-01 2.244378e-01
v -5.377652e-01 1.138413e-01 2.287611e-01
v -5.339970e-01 1.120686e-01 2.343352e-01
v -5.302225e-01 1.102937e-01 2.399218e-01
v -5.264415e-01 1.085163e-01 2.455205e-01
v -5.226543e-01 1.067366e-01 2.511315e-01
v -5.200333e-01 1.061415e-01 2.579199e-01
v -5.162398e-01 1.043595e-01 2.635432e-01
v -5.106620e-01 1.007877e-01 2.674678e-01
v -5.080378e-01 1.001914e-01 2.742623e-01
v -5.042221e-01 9.840122e-02 2.799285e-01
v -5.010021e-01 9.720794e-02 2.861589e-01
v -4.983874e-01 9.661518e-02 2.929350e-01
v -4.951706e-01 9.542311e-02 2.991593e-01
v -4.895073e-01 9.181961e-02 3.032495e-01
v -4.838188e-01 8.820672e-02 3.073888e-01
v -4.799587e-01 8.640007e-02 3.131409e-01
v -4.754711e-01 8.398462e-02 3.183901e-01
v -4.722194e-01 8.277963e-02 3.246818e-01
v -4.708502e-01 8.340080e-02 3.324820e-01
v -4.682386e-01 8.280923e-02 3.392519e-01
v -4.662672e-01 8.283108e-02 3.465003e-01
v -4.643086e-01 8.285772e-02 3.537241e-01
v -4.636428e-01 8.411579e-02 3.618799e-01
v -4.642891e-01 8.661256e-02 3.709311e-01
v -4.643269e-01 8.850756e-02 3.794426e-01
v -4.643964e-01 9.041434e-02 3.878928e-01
v -4.638447e-01 9.171475e-02 3.958279e-01
v -4.633185e-01 9.302450e-02 4.037139e-01
v -4.634768e-01 9.496415e-02 4.119923e-01
v -4.649913e-01 9.815888e-02 4.210803e-01
v -4.672158e-01 1.019929e-01 4.305116e-01
v -4.674849e-01 1.039736e-01 4.385754e-01
v -4.677858e-01 1.059662e-01 4.465780e-01
v -4.674434e-01 1.073441e-01 4.541084e-01
v -4.678044e-01 1.093589e-01 4.619944e-01
v -4.681971e-01 1.113854e-01 4.698191e-01
v -4.672526e-01 1.121641e-01 4.767976e-01
v -4.663270e-01 1.129497e-01 4.837392e-01
v -4.640389e-01 1.124779e-01 4.898837e-01
v -4.631450e-01 1.132753e-01 4.967640e-01
v -4.615729e-01 1.134451e-01 5.032398e-01
v -4.586128e-01 1.123482e-01 5.089673e-01
v -4.584669e-01 1.137989e-01 5.161174e-01
v -4.562262e-01 1.133448e-01 5.221699e-01
v -4.532820e-01 1.122537e-01 5.278668e-01
v -4.531898e-01 1.137243e-01 5.349127e-01
v -5.613511e-01 1.179535e-01 2.031639e-01
v -5.581787e-01 1.167779e-01 2.093023e-01
v -5.544491e-01 1.150123e-01 2.148098e-01
v -5.501528e-01 1.126533e-01 2.197050e-01
v -5.469709e-01 1.114741e-01 2.258617e-01
v -5.432223e-01 1.097015e-01 2.314062e-01
v -5.394673e-01 1.079265e-01 2.369627e-01
v -5.362790e-01 1.067450e-01 2.431318e-01
v -5.325145e-01 1.049665e-01 2.487069e-01
v -5.287438e-01 1.031857e-01 2.542941e-01
v -5.249665e-01 1.014025e-01 2.598937e-01
v -5.217688e-01 1.002175e-01 2.660811e-01
v -5.185710e-01 9.903243e-02 2.722685e-01
v -5.153732e-01 9.784740e-02 2.784560e-01
v -5.109850e-01 9.545427e-02 2.835289e-01
v -5.071825e-01 9.366168e-02 2.891776e-01
v -5.045767e-01 9.307952e-02 2.959284e-01
v -5.013726e-01 9.189215e-02 3.021281e-01
v -4.969527e-01 8.948732e-02 3.072624e-01
v -4.912981e-01 8.585793e-02 3.113681e-01
v -4.862322e-01 8.283024e-02 3.160433e-01
v -4.823822e-01 8.102009e-02 3.217839e-01
v -4.803874e-01 8.104780e-02 3.290612e-01
v -4.777818e-01 8.046567e-02 3.358121e-01
v -4.739285e-01 7.865423e-02 3.415588e-01
v -4.719592e-01 7.869137e-02 3.487871e-01
v -4.712691e-01 7.996950e-02 3.569581e-01
v -4.706043e-01 8.125694e-02 3.650801e-01
v -4.718836e-01 8.441520e-02 3.745672e-01
v -4.719218e-01 8.634671e-02 3.830379e-01
v -4.719916e-01 8.828987e-02 3.914472e-01
v -4.707951e-01 8.899686e-02 3.988894e-01
v -4.702697e-01 9.033599e-02 4.067415e-01
v -4.710806e-01 9.293723e-02 4.154260e-01
v -4.725882e-01 9.618009e-02 4.244716e-01
v -4.741400e-01 9.943942e-02 4.334312e-01
v -4.750713e-01 1.020853e-01 4.418827e-01
v -4.760407e-01 1.047453e-01 4.502607e-01
v -4.757055e-01 1.061549e-01 4.577449e-01
v -4.753956e-01 1.075739e-01 4.651800e-01
v -4.757888e-01 1.096369e-01 4.729640e-01
v -4.755329e-01 1.110759e-01 4.802949e-01
v -4.739344e-01 1.112505e-01 4.868058e-01
v -4.730356e-01 1.120678e-01 4.936714e-01
v -4.721559e-01 1.128921e-01 5.005003e-01
v -4.699083e-01 1.124427e-01 5.065582e-01
v -4.669704e-01 1.113540e-01 5.122428e-01
v -4.668317e-01 1.128364e-01 5.193468e-01
v -4.653125e-01 1.130404e-01 5.257043e-01
v -4.630998e-01 1.126039e-01 5.316947e-01
v -4.623120e-01 1.134622e-01 5.383457e-01
v -5.687985e-01 1.138425e-01 1.984762e-01
v -5.650821e-01 1.120745e-01 2.039662e-01
v -5.619096e-01 1.108989e-01 2.101045e-01
v -5.581838e-01 1.091274e-01 2.156129e-01
v -5.544516e-01 1.073536e-01 2.211335e-01
v -5.512728e-01 1.061757e-01 2.272842e-01
v -5.475311e-01 1.043983e-01 2.328232e-01
v -5.443491e-01 1.032191e-01 2.389800e-01
v -5.417365e-01 1.026417e-01 2.457361e-01
v -5.397026e-01 1.026694e-01 2.530732e-01
v -5.365302e-01 1.014937e-01 2.592115e-01
v -5.322002e-01 9.910773e-02 2.641881e-01
v -5.284395e-01 9.732333e-02 2.697638e-01
v -5.252575e-01 9.614417e-02 2.759206e-01
v -5.220756e-01 9.496499e-02 2.820774e-01
v -5.177107e-01 9.256604e-02 2.871213e-01
v -5.133331e-01 9.016241e-02 2.921898e-01
v -5.107363e-01 8.959078e-02 2.989152e-01
v -5.075449e-01 8.840812e-02 3.050905e-01
v -5.031450e-01 8.599621e-02 3.102019e-01
v -4.987326e-01 8.357961e-02 3.153378e-01
v -4.936970e-01 8.054134e-02 3.199785e-01
v -4.898697e-01 7.873228e-02 3.256831e-01
v -4.872697e-01 7.815955e-02 3.324147e-01
v -4.846762e-01 7.758915e-02 3.391341e-01
v -4.808425e-01 7.577772e-02 3.448509e-01
v -4.795079e-01 7.645530e-02 3.525360e-01
v -4.788219e-01 7.776394e-02 3.606670e-01
v -4.787939e-01 7.970713e-02 3.692257e-01
v -4.794334e-01 8.228842e-02 3.781936e-01
v -4.794720e-01 8.425629e-02 3.866235e-01
v -4.795423e-01 8.623587e-02 3.949921e-01
v -4.789989e-01 8.759738e-02 4.028472e-01
v -4.784808e-01 8.896825e-02 4.106533e-01
v -4.792915e-01 9.161296e-02 4.192901e-01
v -4.807951e-01 9.490518e-02 4.282870e-01
v -4.823431e-01 9.821380e-02 4.371982e-01
v -4.832743e-01 1.009032e-01 4.456020e-01
v -4.842434e-01 1.036066e-01 4.539321e-01
v -4.839155e-01 1.050479e-01 4.613702e-01
v -4.842837e-01 1.071379e-01 4.691624e-01
v -4.840096e-01 1.085993e-01 4.764962e-01
v -4.830839e-01 1.094283e-01 4.833901e-01
v -4.821772e-01 1.102645e-01 4.902473e-01
v -4.812895e-01 1.111076e-01 4.970677e-01
v -4.797342e-01 1.113127e-01 5.034788e-01
v -4.768121e-01 1.102299e-01 5.091327e-01
v -4.738901e-01 1.091470e-01 5.147867e-01
v -4.737523e-01 1.106588e-01 5.218568e-01
v -4.729407e-01 1.115302e-01 5.285300e-01
v -4.714457e-01 1.117576e-01 5.348245e-01
v -4.699633e-01 1.119896e-01 5.410946e-01
v -5.719854e-01 1.073711e-01 1.986300e-01
v -5.688130e-01 1.061955e-01 2.047684e-01
v -5.656406e-01 1.050199e-01 2.109068e-01
v -5.619184e-01 1.032425e-01 2.164159e-01
v -5.587427e-01 1.020657e-01 2.225604e-01
v -5.561233e-01 1.014930e-01 2.293219e-01
v -5.529508e-01 1.003173e-01 2.354603e-01
v -5.503409e-01 9.974809e-02 2.422034e-01
v -5.483028e-01 9.978876e-02 2.495327e-01
v -5.457085e-01 9.922535e-02 2.562451e-01
v -5.425488e-01 9.805442e-02 2.623589e-01
v -5.393890e-01 9.688346e-02 2.684728e-01
v -5.362293e-01 9.571252e-02 2.745866e-01
v -5.324882e-01 9.392820e-02 2.801327e-01
v -5.281561e-01 9.152684e-02 2.851291e-01
v -5.238113e-01 8.912075e-02 2.901501e-01
v -5.200447e-01 8.732707e-02 2.957451e-01
v -5.174601e-01 8.676715e-02 3.024391e-01
v -5.142844e-01 8.559035e-02 3.085836e-01
v -5.099080e-01 8.317262e-02 3.136660e-01
v -5.049153e-01 8.012850e-02 3.182478e-01
v -5.011171e-01 7.832300e-02 3.239042e-01
v -4.973124e-01 7.651511e-02 3.295728e-01
v -4.947279e-01 7.595530e-02 3.362668e-01
v -4.921495e-01 7.539775e-02 3.429486e-01
v -4.895775e-01 7.484259e-02 3.496179e-01
v -4.882571e-01 7.554719e-02 3.572516e-01
v -4.875815e-01 7.688872e-02 3.653303e-01
v -4.869313e-01 7.823960e-02 3.733601e-01
v -4.869385e-01 8.023212e-02 3.818105e-01
v -4.876128e-01 8.286983e-02 3.906632e-01
v -4.876866e-01 8.488699e-02 3.989848e-01
v -4.871505e-01 8.628021e-02 4.067939e-01
v -4.866397e-01 8.768279e-02 4.145537e-01
v -4.874502e-01 9.037095e-02 4.231428e-01
v -4.896010e-01 9.435182e-02 4.325243e-01
v -4.898397e-01 9.643003e-02 4.405271e-01
v -4.901100e-01 9.852008e-02 4.484685e-01
v -4.917333e-01 1.019074e-01 4.571777e-01
v -4.920733e-01 1.040232e-01 4.649843e-01
v -4.917780e-01 1.055057e-01 4.723272e-01
v -4.915081e-01 1.069975e-01 4.796211e-01
v -4.905902e-01 1.078513e-01 4.864759e-01
v -4.890148e-01 1.080634e-01 4.929098e-01
v -4.874521e-01 1.082803e-01 4.993194e-01
v -4.852192e-01 1.078508e-01 5.053327e-01
v -4.823067e-01 1.067714e-01 5.109682e-01
v -4.807725e-01 1.069988e-01 5.173225e-01
v -4.799433e-01 1.078854e-01 5.240056e-01
v -4.791332e-01 1.087791e-01 5.306518e-01
v -4.783420e-01 1.096798e-01 5.372612e-01
v -4.761662e-01 1.092715e-01 5.431641e-01
v -5.725439e-01 1.003165e-01 2.055706e-01
v -5.693715e-01 9.914085e-02 2.117090e-01
v -5.661991e-01 9.796522e-02 2.178474e-01
v -5.624774e-01 9.618081e-02 2.233635e-01
v -5.604066e-01 9.622391e-02 2.307403e-01
v -5.577928e-01 9.566047e-02 2.374826e-01
v -5.563028e-01 9.632397e-02 2.454203e-01
v -5.537081e-01 9.576765e-02 2.521258e-01
v -5.511196e-01 9.521368e-02 2.588190e-01
v -5.491058e-01 9.527780e-02 2.660854e-01
v -5.459618e-01 9.411271e-02 2.721686e-01
v -5.433925e-01 9.356582e-02 2.788249e-01
v -5.396741e-01 9.178258e-02 2.843349e-01
v -5.359493e-01 8.999706e-02 2.898572e-01
v -5.310501e-01 8.696584e-02 2.942820e-01
v -5.278935e-01 8.579608e-02 3.003898e-01
v -5.259177e-01 8.587438e-02 3.075826e-01
v -5.215804e-01 8.345657e-02 3.126052e-01
v -5.172303e-01 8.103415e-02 3.176524e-01
v -5.122678e-01 7.797940e-02 3.221998e-01
v -5.096984e-01 7.743251e-02 3.288563e-01
v -5.065292e-01 7.625804e-02 3.349885e-01
v -5.027505e-01 7.445249e-02 3.406150e-01
v -5.001907e-01 7.390912e-02 3.472531e-01
v -4.988686e-01 7.463482e-02 3.548657e-01
v -4.969467e-01 7.473302e-02 3.619543e-01
v -4.956594e-01 7.547167e-02 3.694996e-01
v -4.956417e-01 7.749119e-02 3.779582e-01
v -4.956556e-01 7.952250e-02 3.863557e-01
v -4.957014e-01 8.156554e-02 3.946917e-01
v -4.957787e-01 8.362031e-02 4.029665e-01
v -4.952498e-01 8.504523e-02 4.107293e-01
v -4.960285e-01 8.776515e-02 4.193319e-01
v -4.962010e-01 8.985517e-02 4.274227e-01
v -4.970524e-01 9.260206e-02 4.358843e-01
v -4.972915e-01 9.471668e-02 4.438462e-01
v -4.975621e-01 9.684312e-02 4.517469e-01
v -4.985214e-01 9.962995e-02 4.600000e-01
v -4.988587e-01 1.017811e-01 4.677718e-01
v -4.985644e-01 1.032928e-01 4.750809e-01
v -4.982954e-01 1.048141e-01 4.823409e-01
v -4.960429e-01 1.043846e-01 4.883841e-01
v -4.944696e-01 1.046120e-01 4.947982e-01
v -4.929089e-01 1.048440e-01 5.011876e-01
v -4.913610e-01 1.050809e-01 5.075526e-01
v -4.884611e-01 1.040063e-01 5.131636e-01
v -4.862466e-01 1.035908e-01 5.191332e-01
v -4.854159e-01 1.044986e-01 5.257954e-01
v -4.859876e-01 1.067367e-01 5.331135e-01
v -4.845062e-01 1.069981e-01 5.393497e-01
v -5.752029e-01 9.321533e-02 2.050932e-01
v -5.731024e-01 9.326185e-02 2.125113e-01
v -5.704723e-01 9.269970e-02 2.192773e-01
v -5.673030e-01 9.152521e-02 2.254095e-01
v -5.652310e-01 9.158234e-02 2.327724e-01
v -5.631716e-01 9.164410e-02 2.401108e-01
v -5.616799e-01 9.232876e-02 2.480278e-01
v -5.596491e-01 9.240111e-02 2.553109e-01
v -5.576309e-01 9.247817e-02 2.625697e-01
v -5.561899e-01 9.318158e-02 2.703885e-01
v -5.530651e-01 9.202355e-02 2.764349e-01
v -5.499402e-01 9.086556e-02 2.824813e-01
v -5.462413e-01 8.908234e-02 2.879614e-01
v -5.425360e-01 8.729680e-02 2.934538e-01
v -5.388246e-01 8.550892e-02 2.989584e-01
v -5.356902e-01 8.434739e-02 3.050233e-01
v -5.331424e-01 8.381570e-02 3.116297e-01
v -5.288316e-01 8.139321e-02 3.166172e-01
v -5.251010e-01 7.959829e-02 3.221586e-01
v -5.207680e-01 7.716762e-02 3.271889e-01
v -5.170216e-01 7.536683e-02 3.327611e-01
v -5.144739e-01 7.483515e-02 3.393676e-01
v -5.107211e-01 7.303199e-02 3.449520e-01
v -5.075708e-01 7.186456e-02 3.510475e-01
v -5.062566e-01 7.261494e-02 3.586209e-01
v -5.055765e-01 7.401284e-02 3.666442e-01
v -5.043036e-01 7.477853e-02 3.741381e-01
v -5.042925e-01 7.683680e-02 3.825437e-01
v -5.036885e-01 7.826293e-02 3.904199e-01
v -5.037378e-01 8.034355e-02 3.987089e-01
v -5.044496e-01 8.308220e-02 4.073926e-01
v -5.039312e-01 8.453995e-02 4.151032e-01
v -5.040755e-01 8.665581e-02 4.232084e-01
v -5.042515e-01 8.878342e-02 4.312521e-01
v -5.051029e-01 9.157380e-02 4.396660e-01
v -5.053455e-01 9.372605e-02 4.475811e-01
v -5.056197e-01 9.589010e-02 4.554348e-01
v -5.059256e-01 9.806587e-02 4.632272e-01
v -5.056068e-01 9.959762e-02 4.705515e-01
v -5.059730e-01 1.017957e-01 4.782274e-01
v -5.043827e-01 1.020313e-01 4.846582e-01
v -5.028051e-01 1.022716e-01 4.910645e-01
v -5.005711e-01 1.018563e-01 4.970639e-01
v -4.990156e-01 1.021048e-01 5.034272e-01
v -4.974729e-01 1.023580e-01 5.097661e-01
v -4.945857e-01 1.012880e-01 5.153526e-01
v -4.916985e-01 1.002181e-01 5.209390e-01
v -4.915509e-01 1.018133e-01 5.279322e-01
v -4.921167e-01 1.040854e-01 5.352217e-01
v -4.913317e-01 1.050319e-01 5.417712e-01
v -5.768333e-01 8.738283e-02 2.133135e-01
v -5.747380e-01 8.744582e-02 2.207055e-01
v -5.731970e-01 8.813397e-02 2.286936e-01
v -5.711303e-01 8.820755e-02 2.360304e-01
v -5.696242e-01 8.890860e-02 2.439510e-01
v -5.686884e-01 9.024071e-02 2.524372e-01
v -5.672235e-01 9.095712e-02 2.602782e-01
v -5.657777e-01 9.168047e-02 2.680823e-01
v -5.632294e-01 9.115587e-02 2.746820e-01
v -5.606874e-01 9.063356e-02 2.812693e-01
v -5.581517e-01 9.011363e-02 2.878444e-01
v -5.544820e-01 8.833397e-02 2.932762e-01
v -5.496590e-01 8.528751e-02 2.976017e-01
v -5.465468e-01 8.413418e-02 3.036235e-01
v -5.440144e-01 8.361542e-02 3.101925e-01
v -5.403224e-01 8.182757e-02 3.156673e-01
v -5.354519e-01 7.876345e-02 3.200847e-01
v -5.317409e-01 7.696849e-02 3.255963e-01
v -5.292085e-01 7.644974e-02 3.321652e-01
v -5.254912e-01 7.465245e-02 3.376891e-01
v -5.217675e-01 7.285281e-02 3.432251e-01
v -5.186395e-01 7.169361e-02 3.492777e-01
v -5.161165e-01 7.117837e-02 3.558283e-01
v -5.148164e-01 7.195580e-02 3.633503e-01
v -5.141468e-01 7.338662e-02 3.713214e-01
v -5.135026e-01 7.482682e-02 3.792434e-01
v -5.135015e-01 7.692505e-02 3.875898e-01
v -5.135320e-01 7.903501e-02 3.958749e-01
v -5.129703e-01 8.050580e-02 4.036375e-01
v -5.136882e-01 8.329021e-02 4.122612e-01
v -5.125530e-01 8.412874e-02 4.194643e-01
v -5.120704e-01 8.562880e-02 4.270736e-01
v -5.122500e-01 8.779402e-02 4.350705e-01
v -5.131011e-01 9.062777e-02 4.434366e-01
v -5.139903e-01 9.347570e-02 4.517292e-01
v -5.136250e-01 9.501923e-02 4.591115e-01
v -5.139345e-01 9.723259e-02 4.668569e-01
v -5.136230e-01 9.879606e-02 4.741351e-01
v -5.126811e-01 9.970627e-02 4.809642e-01
v -5.110992e-01 9.995945e-02 4.873627e-01
v -5.088678e-01 9.955226e-02 4.933491e-01
v -5.066428e-01 9.914745e-02 4.993233e-01
v -5.050925e-01 9.941244e-02 5.056605e-01
v -5.035550e-01 9.968209e-02 5.119732e-01
v -5.006805e-01 9.861687e-02 5.175352e-01
v -4.978060e-01 9.755161e-02 5.230971e-01
v -4.969749e-01 9.850289e-02 5.297116e-01
v -4.975316e-01 1.008078e-01 5.369788e-01
v -5.922606e-01 9.523199e-02 2.280227e-01
v -5.848793e-01 8.908074e-02 2.290181e-01
v -5.817513e-01 8.792152e-02 2.350707e-01
v -5.797056e-01 8.801741e-02 2.423507e-01
v -5.787611e-01 8.937534e-02 2.508213e-01
v -5.778421e-01 9.074276e-02 2.592430e-01
v -5.763977e-01 9.148844e-02 2.670203e-01
v -5.744186e-01 9.160898e-02 2.741715e-01
v -5.713381e-01 9.046739e-02 2.801320e-01
v -5.682575e-01 8.932581e-02 2.860926e-01
v -5.657404e-01 8.881999e-02 2.926238e-01
v -5.626630e-01 8.767959e-02 2.985783e-01
v -5.584463e-01 8.526296e-02 3.034156e-01
v -5.547898e-01 8.348096e-02 3.088299e-01
v -5.522789e-01 8.297747e-02 3.153490e-01
v -5.474577e-01 7.990984e-02 3.196952e-01
v -5.420350e-01 7.619239e-02 3.235442e-01
v -5.389292e-01 7.504143e-02 3.295538e-01
v -5.375894e-01 7.582590e-02 3.371286e-01
v -5.350849e-01 7.532477e-02 3.436355e-01
v -5.308016e-01 7.288349e-02 3.486016e-01
v -5.277020e-01 7.173488e-02 3.545989e-01
v -5.258053e-01 7.188594e-02 3.615908e-01
v -5.239212e-01 7.204168e-02 3.685580e-01
v -5.226575e-01 7.285433e-02 3.759857e-01
v -5.226346e-01 7.498079e-02 3.843342e-01
v -5.220293e-01 7.646441e-02 3.921488e-01
v -5.220666e-01 7.861320e-02 4.003808e-01
v -5.215152e-01 8.011678e-02 4.080911e-01
v -5.222363e-01 8.294592e-02 4.166609e-01
v -5.211152e-01 8.381140e-02 4.238126e-01
v -5.200130e-01 8.468396e-02 4.309276e-01
v -5.208293e-01 8.754831e-02 4.393135e-01
v -5.216834e-01 9.042681e-02 4.476257e-01
v -5.212969e-01 9.199141e-02 4.550171e-01
v -5.215782e-01 9.423066e-02 4.627771e-01
v -5.218912e-01 9.648161e-02 4.704755e-01
v -5.209381e-01 9.740927e-02 4.773022e-01
v -5.193519e-01 9.767549e-02 4.836931e-01
v -5.171231e-01 9.727648e-02 4.896664e-01
v -5.149007e-01 9.687990e-02 4.956275e-01
v -5.133462e-01 9.715785e-02 5.019569e-01
v -5.111396e-01 9.676706e-02 5.078873e-01
v -5.082714e-01 9.570418e-02 5.134370e-01
v -5.054032e-01 9.464128e-02 5.189867e-01
v -5.025350e-01 9.357839e-02 5.245364e-01
v -5.010218e-01 9.387158e-02 5.307862e-01
v -6.064681e-01 1.020797e-01 2.414339e-01
v -5.991800e-01 9.590498e-02 2.423132e-01
v -5.939782e-01 9.224037e-02 2.457668e-01
v -5.919758e-01 9.236679e-02 2.529471e-01
v -5.905266e-01 9.313252e-02 2.607097e-01
v -5.874651e-01 9.199799e-02 2.666334e-01
v -5.854975e-01 9.213730e-02 2.737462e-01
v -5.829924e-01 9.164317e-02 2.802461e-01
v -5.799404e-01 9.051218e-02 2.861514e-01
v -5.768884e-01 8.938115e-02 2.920568e-01
v -5.732768e-01 8.760858e-02 2.973922e-01
v -5.690961e-01 8.519081e-02 3.021759e-01
v -5.660346e-01 8.405627e-02 3.080997e-01
v -5.624040e-01 8.227654e-02 3.134718e-01
v -5.587670e-01 8.049454e-02 3.188562e-01
v -5.545482e-01 7.806270e-02 3.237135e-01
v -5.503168e-01 7.562608e-02 3.285954e-01
v -5.472363e-01 7.448450e-02 3.345559e-01
v -5.447407e-01 7.399395e-02 3.410374e-01
v -5.422515e-01 7.350576e-02 3.475066e-01
v -5.403600e-01 7.367327e-02 3.544723e-01
v -5.378866e-01 7.319092e-02 3.609108e-01
v -5.348219e-01 7.205521e-02 3.668407e-01
v -5.329588e-01 7.223331e-02 3.737512e-01
v -5.317125e-01 7.307412e-02 3.811213e-01
v -5.316995e-01 7.524054e-02 3.894107e-01
v -5.304975e-01 7.609778e-02 3.966948e-01
v -5.299280e-01 7.762369e-02 4.044081e-01
v -5.300005e-01 7.982181e-02 4.125319e-01
v -5.301047e-01 8.203161e-02 4.205943e-01
v -5.296177e-01 8.358807e-02 4.281481e-01
v -5.297821e-01 8.582018e-02 4.360941e-01
v -5.299783e-01 8.806406e-02 4.439787e-01
v -5.295736e-01 8.965111e-02 4.513730e-01
v -5.285586e-01 9.057766e-02 4.582955e-01
v -5.288402e-01 9.285324e-02 4.660145e-01
v -5.297957e-01 9.581274e-02 4.740828e-01
v -5.282084e-01 9.609304e-02 4.804598e-01
v -5.266338e-01 9.637796e-02 4.868122e-01
v -5.244203e-01 9.599192e-02 4.927479e-01
v -5.215584e-01 9.493139e-02 4.982853e-01
v -5.200123e-01 9.522694e-02 5.045826e-01
v -5.171569e-01 9.416877e-02 5.101078e-01
v -5.136371e-01 9.243017e-02 5.152653e-01
v -5.101111e-01 9.068922e-02 5.204350e-01
v -5.072493e-01 8.962870e-02 5.259725e-01
v -5.043874e-01 8.856818e-02 5.315099e-01
v -6.110909e-01 9.771894e-02 2.434637e-01
v -6.075305e-01 9.595803e-02 2.487078e-01
v -6.044944e-01 9.483290e-02 2.545825e-01
v -6.030593e-01 9.562560e-02 2.622936e-01
v -6.005696e-01 9.514440e-02 2.687558e-01
v -5.959259e-01 9.209914e-02 2.728064e-01
v -5.928930e-01 9.097520e-02 2.786751e-01
v -5.898600e-01 8.985122e-02 2.845436e-01
v -5.873766e-01 8.937239e-02 2.909936e-01
v -5.837941e-01 8.760329e-02 2.962807e-01
v -5.802052e-01 8.583185e-02 3.015800e-01
v -5.771690e-01 8.470669e-02 3.074547e-01
v -5.735706e-01 8.293168e-02 3.127725e-01
v -5.694006e-01 8.050340e-02 3.175517e-01
v -5.657863e-01 7.872250e-02 3.229001e-01
v -5.627375e-01 7.759272e-02 3.287993e-01
v -5.596887e-01 7.646288e-02 3.346985e-01
v -5.560618e-01 7.467726e-02 3.400714e-01
v -5.524285e-01 7.288940e-02 3.454567e-01
v -5.499577e-01 7.241526e-02 3.518822e-01
v -5.474933e-01 7.194351e-02 3.582954e-01
v -5.462168e-01 7.279492e-02 3.656999e-01
v -5.443654e-01 7.299181e-02 3.725720e-01
v -5.425265e-01 7.319336e-02 3.794195e-01
v -5.413007e-01 7.406361e-02 3.867259e-01
v -5.406973e-01 7.560593e-02 3.944726e-01
v -5.401192e-01 7.715770e-02 4.021704e-01
v -5.395665e-01 7.871884e-02 4.098191e-01
v -5.396521e-01 8.095804e-02 4.178775e-01
v -5.391533e-01 8.253914e-02 4.254220e-01
v -5.386798e-01 8.412970e-02 4.329174e-01
v -5.388542e-01 8.640180e-02 4.408041e-01
v -5.384345e-01 8.801225e-02 4.481952e-01
v -5.374116e-01 8.895765e-02 4.551091e-01
v -5.364075e-01 8.991002e-02 4.619863e-01
v -5.366928e-01 9.222323e-02 4.696584e-01
v -5.363714e-01 9.387010e-02 4.768594e-01
v -5.347926e-01 9.416799e-02 4.832041e-01
v -5.332263e-01 9.447053e-02 4.895242e-01
v -5.310250e-01 9.409630e-02 4.954286e-01
v -5.288299e-01 9.372441e-02 5.013205e-01
v -5.266413e-01 9.335478e-02 5.072003e-01
v -5.231443e-01 9.161742e-02 5.123218e-01
v -5.196410e-01 8.987764e-02 5.174556e-01
v -5.161313e-01 8.813546e-02 5.226016e-01
v -5.119486e-01 8.570249e-02 5.274054e-01
v -6.158139e-01 9.611673e-02 2.550879e-01
v -6.143868e-01 9.693406e-02 2.627598e-01
v -6.119186e-01 9.646818e-02 2.691723e-01
v -6.083905e-01 9.471198e-02 2.743620e-01
v -6.037834e-01 9.165846e-02 2.783660e-01
v -5.996968e-01 8.924659e-02 2.829996e-01
v -5.966828e-01 8.812968e-02 2.888313e-01
v -5.936689e-01 8.701273e-02 2.946631e-01
v -5.906550e-01 8.589584e-02 3.004949e-01
v -5.870889e-01 8.412559e-02 3.057582e-01
v -5.840717e-01 8.300750e-02 3.115962e-01
v -5.816131e-01 8.254510e-02 3.179902e-01
v -5.780375e-01 8.077129e-02 3.232719e-01
v -5.744554e-01 7.899512e-02 3.285660e-01
v -5.720032e-01 7.853513e-02 3.349478e-01
v -5.684149e-01 7.675659e-02 3.402540e-01
v -5.648202e-01 7.497571e-02 3.455726e-01
v -5.612192e-01 7.319254e-02 3.509033e-01
v -5.581926e-01 7.207094e-02 3.567597e-01
v -5.551660e-01 7.094931e-02 3.626159e-01
v -5.533134e-01 7.116031e-02 3.694742e-01
v -5.526538e-01 7.271086e-02 3.772975e-01
v -5.520196e-01 7.427087e-02 3.850717e-01
v -5.508143e-01 7.517043e-02 3.923144e-01
v -5.490283e-01 7.540605e-02 3.990438e-01
v -5.490636e-01 7.766289e-02 4.071596e-01
v -5.491305e-01 7.993140e-02 4.152141e-01
v -5.486200e-01 8.153720e-02 4.227491e-01
v -5.481347e-01 8.315241e-02 4.302352e-01
v -5.476749e-01 8.477698e-02 4.376722e-01
v -5.466217e-01 8.573298e-02 4.446204e-01
v -5.468313e-01 8.805435e-02 4.523989e-01
v -5.451973e-01 8.834632e-02 4.588340e-01
v -5.442043e-01 8.932457e-02 4.656658e-01
v -5.444931e-01 9.167539e-02 4.732910e-01
v -5.429099e-01 9.198617e-02 4.796280e-01
v -5.413395e-01 9.230165e-02 4.859404e-01
v -5.391407e-01 9.193559e-02 4.918316e-01
v -5.369482e-01 9.157187e-02 4.977105e-01
v -5.347622e-01 9.121052e-02 5.035772e-01
v -5.325825e-01 9.085157e-02 5.094316e-01
v -5.291019e-01 8.911294e-02 5.145293e-01
v -5.256150e-01 8.737200e-02 5.196394e-01
v -5.214619e-01 8.493545e-02 5.244019e-01
v -5.166330e-01 8.179965e-02 5.288350e-01
v -6.220974e-01 9.657693e-02 2.684513e-01
v -6.180721e-01 9.417316e-02 2.729823e-01
v -6.140341e-01 9.176481e-02 2.775378e-01
v -6.099836e-01 8.935175e-02 2.821178e-01
v -6.059202e-01 8.693392e-02 2.867224e-01
v -6.029221e-01 8.582286e-02 2.925235e-01
v -5.993819e-01 8.405500e-02 2.977448e-01
v -5.963806e-01 8.294277e-02 3.035520e-01
v -5.933794e-01 8.183058e-02 3.093592e-01
v -5.903781e-01 8.071835e-02 3.151665e-01
v -5.879315e-01 8.026766e-02 3.215291e-01
v -5.854913e-01 7.981944e-02 3.278794e-01
v -5.824964e-01 7.870954e-02 3.336743e-01
v -5.800658e-01 7.826481e-02 3.400062e-01
v -5.770740e-01 7.715613e-02 3.457951e-01
v -5.729409e-01 7.471247e-02 3.505346e-01
v -5.699428e-01 7.360143e-02 3.563357e-01
v -5.675217e-01 7.316021e-02 3.626493e-01
v -5.651069e-01 7.272134e-02 3.689504e-01
v -5.632816e-01 7.295699e-02 3.757396e-01
v -5.626421e-01 7.454403e-02 3.834923e-01
v -5.614383e-01 7.546585e-02 3.907080e-01
v -5.602534e-01 7.639478e-02 3.978869e-01
v -5.584916e-01 7.665392e-02 4.045533e-01
v -5.579408e-01 7.827382e-02 4.121343e-01
v -5.580177e-01 8.058229e-02 4.201297e-01
v -5.575207e-01 8.222212e-02 4.276063e-01
v -5.570491e-01 8.387138e-02 4.350339e-01
v -5.553792e-01 8.416457e-02 4.415226e-01
v -5.543370e-01 8.514635e-02 4.484256e-01
v -5.539320e-01 8.682029e-02 4.557245e-01
v -5.535522e-01 8.850361e-02 4.629743e-01
v -5.531980e-01 9.019629e-02 4.701750e-01
v -5.522413e-01 9.120978e-02 4.769124e-01
v -5.506728e-01 9.154054e-02 4.832048e-01
v -5.484831e-01 9.118504e-02 4.890707e-01
v -5.456624e-01 9.013977e-02 4.945284e-01
v -5.434821e-01 8.978781e-02 5.003759e-01
v -5.406647e-01 8.874370e-02 5.058274e-01
v -5.378472e-01 8.769959e-02 5.112790e-01
v -5.350297e-01 8.665551e-02 5.167305e-01
v -5.309062e-01 8.421542e-02 5.214516e-01
v -5.261138e-01 8.107144e-02 5.258382e-01
v -6.266321e-01 9.237930e-02 2.704348e-01
v -6.231432e-01 9.062315e-02 2.755649e-01
v -6.196480e-01 8.886462e-02 2.807072e-01
v -6.156175e-01 8.644445e-02 2.852642e-01
v -6.115742e-01 8.401960e-02 2.898459e-01
v -6.085888e-01 8.291327e-02 2.956225e-01
v -6.056034e-01 8.180694e-02 3.013990e-01
v -6.020764e-01 8.003670e-02 3.066027e-01
v -5.990878e-01 7.892920e-02 3.123854e-01
v -5.966471e-01 7.848789e-02 3.187288e-01
v -5.947637e-01 7.871646e-02 3.256145e-01
v -5.928931e-01 7.894982e-02 3.324756e-01
v -5.904777e-01 7.851793e-02 3.387699e-01
v -5.880687e-01 7.808848e-02 3.450519e-01
v -5.845385e-01 7.631701e-02 3.502617e-01
v -5.810020e-01 7.454323e-02 3.554838e-01
v -5.780293e-01 7.344161e-02 3.612359e-01
v -5.773495e-01 7.504271e-02 3.690344e-01
v -5.755421e-01 7.529942e-02 3.757728e-01
v -5.737476e-01 7.556091e-02 3.824867e-01
v -5.719656e-01 7.582706e-02 3.891762e-01
v -5.707823e-01 7.677832e-02 3.963282e-01
v -5.696180e-01 7.773664e-02 4.034433e-01
v -5.684727e-01 7.870200e-02 4.105218e-01
v -5.673464e-01 7.967438e-02 4.175633e-01
v -5.668377e-01 8.133886e-02 4.250307e-01
v -5.657526e-01 8.232654e-02 4.319926e-01
v -5.652914e-01 8.400864e-02 4.393680e-01
v -5.636395e-01 8.432301e-02 4.458060e-01
v -5.626114e-01 8.533182e-02 4.526575e-01
v -5.616024e-01 8.634767e-02 4.594722e-01
v -5.612300e-01 8.806266e-02 4.666759e-01
v -5.608829e-01 8.978706e-02 4.738305e-01
v -5.593134e-01 9.013196e-02 4.801091e-01
v -5.577564e-01 9.048151e-02 4.863631e-01
v -5.555819e-01 9.013890e-02 4.921914e-01
v -5.521468e-01 8.840271e-02 4.972172e-01
v -5.493420e-01 8.736331e-02 5.026442e-01
v -5.478168e-01 8.772463e-02 5.088370e-01
v -5.450184e-01 8.668761e-02 5.142517e-01
v -5.415738e-01 8.494780e-02 5.192959e-01
v -5.387722e-01 8.390960e-02 5.247168e-01
v -5.320558e-01 7.864107e-02 5.279878e-01
v -6.306365e-01 8.754365e-02 2.718000e-01
v -6.276732e-01 8.644554e-02 2.775336e-01
v -6.247099e-01 8.534741e-02 2.832673e-01
v -6.206964e-01 8.291907e-02 2.878076e-01
v -6.171986e-01 8.115233e-02 2.929630e-01
v -6.142257e-01 8.005069e-02 2.987151e-01
v -6.107183e-01 7.828038e-02 3.038888e-01
v -6.077424e-01 7.717755e-02 3.096471e-01
v -6.053075e-01 7.674576e-02 3.159712e-01
v -6.034230e-01 7.698839e-02 3.228430e-01
v -6.020986e-01 7.790912e-02 3.302440e-01
v -6.002426e-01 7.816238e-02 3.370606e-01
v -5.983994e-01 7.842036e-02 3.438527e-01
v -5.960119e-01 7.800609e-02 3.500848e-01
v -5.930708e-01 7.691619e-02 3.557756e-01
v -5.895666e-01 7.514713e-02 3.609432e-01
v -5.866224e-01 7.405606e-02 3.666401e-01
v -5.848172e-01 7.432810e-02 3.733586e-01
v -5.830247e-01 7.460479e-02 3.800525e-01
v -5.818206e-01 7.557017e-02 3.872205e-01
v -5.812146e-01 7.722765e-02 3.948441e-01
v -5.794696e-01 7.752201e-02 4.014460e-01
v -5.777373e-01 7.782103e-02 4.080235e-01
v -5.766062e-01 7.881341e-02 4.150504e-01
v -5.754940e-01 7.981281e-02 4.220406e-01
v -5.744009e-01 8.081923e-02 4.289940e-01
v -5.733269e-01 8.183277e-02 4.359105e-01
v -5.728730e-01 8.354662e-02 4.432397e-01
v -5.712357e-01 8.388093e-02 4.496332e-01
v -5.708262e-01 8.561123e-02 4.568766e-01
v -5.704421e-01 8.735089e-02 4.640709e-01
v -5.700832e-01 8.909999e-02 4.712162e-01
v -5.685157e-01 8.946011e-02 4.774748e-01
v -5.663406e-01 8.912459e-02 4.832961e-01
v -5.641720e-01 8.879139e-02 4.891052e-01
v -5.626361e-01 8.916330e-02 4.953025e-01
v -5.604832e-01 8.883597e-02 5.010809e-01
v -5.583366e-01 8.851101e-02 5.068470e-01
v -5.561965e-01 8.818842e-02 5.126009e-01
v -5.527841e-01 8.645333e-02 5.175907e-01
v -5.487231e-01 8.400743e-02 5.222231e-01
v -5.459405e-01 8.297624e-02 5.276071e-01
v -5.425091e-01 8.123409e-02 5.326337e-01
v -6.321883e-01 8.229149e-02 2.794993e-01
v -6.292314e-01 8.119571e-02 2.852207e-01
v -6.252316e-01 7.875791e-02 2.897503e-01
v -6.222684e-01 7.765978e-02 2.954839e-01
v -6.193051e-01 7.656166e-02 3.012176e-01
v -6.158109e-01 7.478904e-02 3.063737e-01
v -6.128445e-01 7.368975e-02 3.121135e-01
v -6.109526e-01 7.394421e-02 3.189838e-01
v -6.090733e-01 7.420328e-02 3.258294e-01
v -6.077504e-01 7.514637e-02 3.332035e-01
v -6.058997e-01 7.541603e-02 3.399939e-01
v -6.040617e-01 7.569039e-02 3.467599e-01
v -6.027894e-01 7.665226e-02 3.540358e-01
v -5.998673e-01 7.556940e-02 3.596898e-01
v -5.975047e-01 7.517165e-02 3.658661e-01
v -5.951485e-01 7.477626e-02 3.720300e-01
v -5.927985e-01 7.438315e-02 3.781816e-01
v -5.910239e-01 7.468098e-02 3.848248e-01
v -5.898340e-01 7.567338e-02 3.919414e-01
v -5.892385e-01 7.736375e-02 3.995128e-01
v -5.875114e-01 7.767923e-02 4.060641e-01
v -5.857969e-01 7.799949e-02 4.125908e-01
v -5.840952e-01 7.832437e-02 4.190931e-01
v -5.829941e-01 7.934962e-02 4.260379e-01
v -5.813208e-01 7.968502e-02 4.324850e-01
v -5.802546e-01 8.072322e-02 4.393623e-01
v -5.798048e-01 8.246767e-02 4.466516e-01
v -5.793804e-01 8.422139e-02 4.538917e-01
v -5.783775e-01 8.528302e-02 4.606464e-01
v -5.780007e-01 8.705444e-02 4.677947e-01
v -5.770390e-01 8.813141e-02 4.744697e-01
v -5.748697e-01 8.780521e-02 4.802718e-01
v -5.727067e-01 8.748147e-02 4.860617e-01
v -5.705501e-01 8.716003e-02 4.918393e-01
v -5.702683e-01 8.896666e-02 4.988035e-01
v -5.687599e-01 8.936322e-02 5.049317e-01
v -5.666351e-01 8.905354e-02 5.106480e-01
v -6.361771e-01 7.748631e-02 2.808543e-01
v -6.332233e-01 7.639171e-02 2.865696e-01
v -6.297519e-01 7.462029e-02 2.916897e-01
v -6.267950e-01 7.352449e-02 2.974111e-01
v -6.243620e-01 7.310792e-02 3.037154e-01
v -6.214084e-01 7.201332e-02 3.094306e-01
v -6.184546e-01 7.091870e-02 3.151458e-01
v -6.165679e-01 7.118963e-02 3.219898e-01
v -6.146939e-01 7.146518e-02 3.288094e-01
v -6.133724e-01 7.243053e-02 3.361566e-01
v -6.115269e-01 7.271669e-02 3.429209e-01
v -6.102404e-01 7.369498e-02 3.502006e-01
v -6.089728e-01 7.468026e-02 3.574434e-01
v -6.066191e-01 7.429307e-02 3.635943e-01
v -6.042717e-01 7.390828e-02 3.697330e-01
v -6.024897e-01 7.421784e-02 3.763746e-01
v -6.007202e-01 7.453215e-02 3.829918e-01
v -5.989635e-01 7.485120e-02 3.895844e-01
v -5.977878e-01 7.587062e-02 3.966495e-01
v -5.960596e-01 7.620020e-02 4.031870e-01
v -5.943440e-01 7.653446e-02 4.096999e-01
v -5.926411e-01 7.687345e-02 4.161882e-01
v -5.909510e-01 7.721714e-02 4.226521e-01
v -5.892735e-01 7.756553e-02 4.290914e-01
v -5.881960e-01 7.862133e-02 4.359663e-01
v -5.865470e-01 7.898026e-02 4.423505e-01
v -5.866919e-01 8.145908e-02 4.500538e-01
v -5.862716e-01 8.324345e-02 4.572540e-01
v -5.858767e-01 8.503715e-02 4.644051e-01
v -5.855071e-01 8.684030e-02 4.715072e-01
v -5.839500e-01 8.723326e-02 4.777135e-01
v -5.824056e-01 8.763094e-02 4.838953e-01
v -5.808739e-01 8.803342e-02 4.900525e-01
v -5.787389e-01 8.772721e-02 4.957803e-01
v -5.778484e-01 8.885233e-02 5.022934e-01
v -5.769770e-01 8.998444e-02 5.087697e-01
v -5.742482e-01 8.897323e-02 5.140496e-01
v -6.361863e-01 7.023640e-02 2.867161e-01
v -6.337433e-01 6.982335e-02 2.930317e-01
v -6.313067e-01 6.941265e-02 2.993352e-01
v -6.293967e-01 6.968947e-02 3.062083e-01
v -6.269759e-01 6.928462e-02 3.124810e-01
v -6.240349e-01 6.819469e-02 3.181718e-01
v -6.221534e-01 6.848203e-02 3.249896e-01
v -6.202846e-01 6.877406e-02 3.317831e-01
v -6.189646e-01 6.976170e-02 3.391033e-01
v -6.176637e-01 7.075643e-02 3.463866e-01
v -6.158393e-01 7.106489e-02 3.530942e-01
v -6.145732e-01 7.207253e-02 3.603101e-01
v -6.122285e-01 7.169590e-02 3.664357e-01
v -6.098901e-01 7.132160e-02 3.725490e-01
v -6.086684e-01 7.234569e-02 3.796791e-01
v -6.080240e-01 7.407601e-02 3.872808e-01
v -6.062820e-01 7.441498e-02 3.938289e-01
v -6.045526e-01 7.475870e-02 4.003525e-01
v -6.028359e-01 7.510708e-02 4.068516e-01
v -6.011320e-01 7.546020e-02 4.133260e-01
v -5.988664e-01 7.511289e-02 4.192983e-01
v -5.971847e-01 7.547421e-02 4.257299e-01
v -5.949351e-01 7.513284e-02 4.316714e-01
v -5.932754e-01 7.550234e-02 4.380601e-01
v -5.928022e-01 7.729605e-02 4.453307e-01
v -5.929443e-01 7.981011e-02 4.529993e-01
v -5.937113e-01 8.304798e-02 4.610475e-01
v -5.939200e-01 8.558668e-02 4.685873e-01
v -5.935609e-01 8.742270e-02 4.756371e-01
v -5.920217e-01 8.783689e-02 4.817928e-01
v -5.904951e-01 8.825567e-02 4.879239e-01
v -5.889813e-01 8.867931e-02 4.940305e-01
v -5.862558e-01 8.766925e-02 4.993042e-01
v -6.401708e-01 6.544418e-02 2.880635e-01
v -6.382376e-01 6.572680e-02 2.949656e-01
v -6.363169e-01 6.601411e-02 3.018433e-01
v -6.333758e-01 6.492419e-02 3.075340e-01
v -6.309545e-01 6.452647e-02 3.137998e-01
v -6.290624e-01 6.482431e-02 3.206222e-01
v -6.277091e-01 6.582142e-02 3.279829e-01
v -6.258455e-01 6.612990e-02 3.347503e-01
v -6.245270e-01 6.713982e-02 3.420435e-01
v -6.232276e-01 6.815686e-02 3.493000e-01
v -6.214084e-01 6.848178e-02 3.559814e-01
v -6.201438e-01 6.951174e-02 3.631704e-01
v -6.178080e-01 6.914565e-02 3.692706e-01
v -6.154786e-01 6.878193e-02 3.753586e-01
v -6.148098e-01 7.053220e-02 3.829754e-01
v -6.136117e-01 7.158685e-02 3.900358e-01
v -6.124328e-01 7.264856e-02 3.970592e-01
v -6.101509e-01 7.230243e-02 4.030551e-01
v -6.090035e-01 7.337584e-02 4.100173e-01
v -6.067406e-01 7.303683e-02 4.159765e-01
v -6.044841e-01 7.270009e-02 4.219233e-01
v -6.022340e-01 7.236576e-02 4.278580e-01
v -5.999901e-01 7.203377e-02 4.337803e-01
v -5.983325e-01 7.241858e-02 4.401491e-01
v -5.984370e-01 7.495496e-02 4.478504e-01
v -5.997458e-01 7.893659e-02 4.563831e-01
v -6.005094e-01 8.221680e-02 4.643898e-01
v -6.013111e-01 8.551103e-02 4.723227e-01
v -6.003635e-01 8.665848e-02 4.788986e-01
v -5.988358e-01 8.709137e-02 4.850157e-01
v -5.967187e-01 8.680636e-02 4.906929e-01
v -5.940027e-01 8.579985e-02 4.959482e-01
v -5.900697e-01 8.334336e-02 5.003968e-01
v -6.427168e-01 6.165374e-02 2.968963e-01
v -6.402854e-01 6.125953e-02 3.031736e-01
v -6.373475e-01 6.017079e-02 3.088582e-01
v -6.354417e-01 6.047806e-02 3.156913e-01
v -6.335484e-01 6.079005e-02 3.224999e-01
v -6.321903e-01 6.180714e-02 3.298459e-01
v -6.308511e-01 6.283116e-02 3.371551e-01
v -6.300596e-01 6.456499e-02 3.449773e-01
v -6.292935e-01 6.630822e-02 3.527504e-01
v -6.274827e-01 6.665075e-02 3.593996e-01
v -6.256846e-01 6.699792e-02 3.660242e-01
v -6.238991e-01 6.734988e-02 3.726243e-01
v -6.221264e-01 6.770650e-02 3.792000e-01
v -6.203663e-01 6.806779e-02 3.857509e-01
v -6.197206e-01 6.985565e-02 3.932910e-01
v -6.185463e-01 7.094087e-02 4.002814e-01
v -6.168337e-01 7.131976e-02 4.067404e-01
v -6.156942e-01 7.241783e-02 4.136634e-01
v -6.128831e-01 7.137609e-02 4.191027e-01
v -6.100720e-01 7.033434e-02 4.245420e-01
v -6.078307e-01 7.001053e-02 4.304513e-01
v -6.055957e-01 6.968910e-02 4.363484e-01
v -6.039434e-01 7.009041e-02 4.426909e-01
v -6.040420e-01 7.266083e-02 4.503638e-01
v -6.047547e-01 7.596564e-02 4.584208e-01
v -6.080610e-01 8.479264e-02 4.756137e-01
v -6.442464e-01 5.651666e-02 3.045022e-01
v -6.413118e-01 5.542910e-02 3.101806e-01
v -6.399139e-01 5.645317e-02 3.175795e-01
v -6.390505e-01 5.818938e-02 3.255089e-01
v -6.371751e-01 5.852249e-02 3.322667e-01
v -6.363561e-01 6.027511e-02 3.401103e-01
v -6.360874e-01 6.274570e-02 3.484538e-01
v -6.353222e-01 6.451833e-02 3.561930e-01
v -6.335198e-01 6.487845e-02 3.628099e-01
v -6.317300e-01 6.524330e-02 3.694022e-01
v -6.299530e-01 6.561284e-02 3.759701e-01
v -6.276478e-01 6.527263e-02 3.819951e-01
v -6.264369e-01 6.636597e-02 3.890321e-01
v -6.252450e-01 6.746642e-02 3.960324e-01
v -6.240722e-01 6.857386e-02 4.029958e-01
v -6.229183e-01 6.968840e-02 4.099224e-01
v -6.217835e-01 7.080996e-02 4.168123e-01
v -6.195480e-01 7.049558e-02 4.227024e-01
v -6.167559e-01 6.946089e-02 4.281050e-01
v -6.133976e-01 6.770236e-02 4.330382e-01
v -6.111716e-01 6.739149e-02 4.389099e-01
v -6.095246e-01 6.780913e-02 4.452264e-01
v -6.090414e-01 6.968631e-02 4.524198e-01
v -6.103202e-01 7.375844e-02 4.608984e-01
v -6.457739e-01 5.140774e-02 3.120804e-01
v -6.448797e-01 5.316157e-02 3.200373e-01
v -6.445226e-01 5.563572e-02 3.285115e-01
v -6.436823e-01 5.740941e-02 3.363641e-01
v -6.428674e-01 5.919261e-02 3.441676e-01
v -6.425990e-01 6.169957e-02 3.524702e-01
v -6.413136e-01 6.278710e-02 3.596275e-01
v -6.389920e-01 6.244811e-02 3.656762e-01
v -6.372075e-01 6.282936e-02 3.722424e-01
v -6.349017e-01 6.249619e-02 3.782606e-01
v -6.331394e-01 6.288569e-02 3.847838e-01
v -6.319300e-01 6.400139e-02 3.917939e-01
v -6.312830e-01 6.584678e-02 3.992725e-01
v -6.301149e-01 6.697783e-02 4.062028e-01
v -6.295154e-01 6.884078e-02 4.135894e-01
v -6.278354e-01 6.926083e-02 4.199532e-01
v -6.250560e-01 6.823084e-02 4.253312e-01
v -6.222766e-01 6.720080e-02 4.307092e-01
v -6.183723e-01 6.471136e-02 4.351504e-01
v -6.155865e-01 6.367899e-02 4.405406e-01
v -6.145070e-01 6.484288e-02 4.472993e-01
v -6.140185e-01 6.674703e-02 4.544712e-01
v -6.175811e-01 7.380144e-02 4.647012e-01
v -6.503281e-01 5.062074e-02 3.230620e-01
v -6.504730e-01 5.384576e-02 3.320735e-01
v -6.506560e-01 5.708484e-02 3.410113e-01
v -6.503626e-01 5.961886e-02 3.493222e-01
v -6.495834e-01 6.144434e-02 3.570244e-01
v -6.472677e-01 6.111468e-02 3.630540e-01
v -6.449582e-01 6.078738e-02 3.690712e-01
v -6.426551e-01 6.046243e-02 3.750763e-01
v -6.403583e-01 6.013982e-02 3.810691e-01
v -6.380678e-01 5.981960e-02 3.870495e-01
v -6.368568e-01 6.095645e-02 3.940389e-01
v -6.367441e-01 6.355742e-02 4.020001e-01
v -6.366630e-01 6.617008e-02 4.099001e-01
v -6.355218e-01 6.733282e-02 4.167546e-01
v -6.338501e-01 6.777044e-02 4.230861e-01
v -6.305343e-01 6.601311e-02 4.279536e-01
v -6.272119e-01 6.425338e-02 4.328333e-01
v -6.238833e-01 6.249131e-02 4.377252e-01
v -6.211102e-01 6.146363e-02 4.430910e-01
v -6.194672e-01 6.191190e-02 4.493674e-01
v -6.189733e-01 6.384301e-02 4.565177e-01
v -6.196474e-01 6.726413e-02 4.645050e-01
v -6.570700e-01 5.611860e-02 3.450886e-01
v -6.572877e-01 5.941412e-02 3.539113e-01
v -6.554882e-01 5.981882e-02 3.604743e-01
v -6.531845e-01 5.950091e-02 3.664724e-01
v -6.508872e-01 5.918536e-02 3.724582e-01
v -6.475496e-01 5.741275e-02 3.773755e-01
v -6.452586e-01 5.709951e-02 3.833491e-01
v -6.429739e-01 5.678870e-02 3.893104e-01
v -6.428268e-01 5.941318e-02 3.972984e-01
v -6.427112e-01 6.204937e-02 4.052250e-01
v -6.420884e-01 6.396175e-02 4.125929e-01
v -6.420331e-01 6.662031e-02 4.204030e-01
v -6.398276e-01 6.633874e-02 4.262110e-01
v -6.365313e-01 6.458145e-02 4.310486e-01
v -6.326767e-01 6.208137e-02 4.354255e-01
v -6.293645e-01 6.031813e-02 4.402937e-01
v -6.266041e-01 5.929520e-02 4.456350e-01
v -6.249663e-01 5.975989e-02 4.518853e-01
v -6.608456e-01 5.752002e-02 3.633705e-01
v -6.606037e-01 6.014570e-02 3.715016e-01
v -6.614263e-01 6.425197e-02 3.806384e-01
v -6.524217e-01 5.439832e-02 3.796700e-01
v -6.501365e-01 5.409448e-02 3.856244e-01
v -6.489094e-01 5.526896e-02 3.925966e-01
v -6.503466e-01 6.014605e-02 4.020767e-01
v -6.486411e-01 6.060012e-02 4.084419e-01
v -6.479611e-01 6.523557e-02 4.235513e-01
v -6.452261e-01 6.422203e-02 4.288435e-01
v -6.424910e-01 6.320848e-02 4.341355e-01
v -6.381117e-01 5.995642e-02 4.380113e-01
v -6.353671e-01 5.893933e-02 4.433218e-01
