v -4.386332e-01 1.734760e-01 1.672216e-01
v -4.302463e-01 1.713842e-01 1.613917e-01
v -4.187589e-01 1.731083e-01 1.720799e-01
v -4.074252e-01 1.748445e-01 1.827680e-01
v -3.980434e-01 1.741073e-01 1.827680e-01
v -3.677598e-01 1.753097e-01 1.973428e-01
v -3.578049e-01 1.757214e-01 2.022010e-01
v -4.385847e-01 1.652441e-01 1.736249e-01
v -4.278243e-01 1.661175e-01 1.804135e-01
v -4.176957e-01 1.663040e-01 1.842928e-01
v -4.076230e-01 1.664947e-01 1.881718e-01
v -3.974420e-01 1.669226e-01 1.930208e-01
v -3.871738e-01 1.675892e-01 1.988397e-01
v -3.769894e-01 1.682623e-01 2.046584e-01
v -3.668887e-01 1.689421e-01 2.104772e-01
v -3.574163e-01 1.686889e-01 2.124168e-01
v -4.373771e-01 1.584893e-01 1.858211e-01
v -4.266829e-01 1.594154e-01 1.925966e-01
v -4.166219e-01 1.596342e-01 1.964685e-01
v -4.064454e-01 1.600963e-01 2.013082e-01
v -3.960094e-01 1.610426e-01 2.080837e-01
v -3.856713e-01 1.619967e-01 2.148593e-01
v -3.755814e-01 1.627179e-01 2.206669e-01
v -3.655753e-01 1.634457e-01 2.264747e-01
v -3.559262e-01 1.636969e-01 2.303464e-01
v -4.363519e-01 1.516252e-01 1.970142e-01
v -4.259029e-01 1.523588e-01 2.028105e-01
v -4.151795e-01 1.535891e-01 2.105392e-01
v -4.047399e-01 1.545826e-01 2.173018e-01
v -3.943980e-01 1.555838e-01 2.240645e-01
v -3.839958e-01 1.568393e-01 2.317931e-01
v -3.734030e-01 1.585981e-01 2.414541e-01
v -3.632381e-01 1.598723e-01 2.491826e-01
v -3.402492e-01 1.681714e-01 2.868600e-01
v -3.294711e-01 1.717294e-01 3.032834e-01
v -5.297712e-01 1.408710e-01 1.667119e-01
v -5.189542e-01 1.413505e-01 1.715330e-01
v -5.094189e-01 1.406012e-01 1.715330e-01
v -4.984710e-01 1.413363e-01 1.773184e-01
v -4.903482e-01 1.391027e-01 1.715330e-01
v -4.808128e-01 1.383535e-01 1.715330e-01
v -4.471940e-01 1.423589e-01 1.956386e-01
v -4.360914e-01 1.438796e-01 2.043168e-01
v -4.249278e-01 1.456612e-01 2.139591e-01
v -4.139039e-01 1.474539e-01 2.236014e-01
v -4.031923e-01 1.490051e-01 2.322793e-01
v -3.927718e-01 1.503134e-01 2.399932e-01
v -3.818286e-01 1.526442e-01 2.515639e-01
v -3.707495e-01 1.554961e-01 2.650632e-01
v -3.600105e-01 1.581088e-01 2.775982e-01
v -3.490401e-01 1.615009e-01 2.930259e-01
v -3.382930e-01 1.649106e-01 3.084534e-01
v -3.287591e-01 1.662886e-01 3.161673e-01
v -3.193368e-01 1.676753e-01 3.238811e-01
v -5.469284e-01 1.356609e-01 1.788802e-01
v -5.376918e-01 1.346624e-01 1.779177e-01
v -5.276706e-01 1.344204e-01 1.798426e-01
v -5.171776e-01 1.346864e-01 1.836919e-01
v -5.074691e-01 1.341963e-01 1.846544e-01
v -4.980106e-01 1.334531e-01 1.846544e-01
v -4.883231e-01 1.329645e-01 1.856167e-01
v -4.782056e-01 1.329874e-01 1.885038e-01
v -4.685598e-01 1.325022e-01 1.894663e-01
v -4.580961e-01 1.330433e-01 1.942782e-01
v -4.458928e-01 1.359016e-01 2.077513e-01
v -4.340790e-01 1.385179e-01 2.202621e-01
v -4.230079e-01 1.403745e-01 2.298858e-01
v -4.120764e-01 1.422422e-01 2.395096e-01
v -4.012846e-01 1.441208e-01 2.491333e-01
v -3.907985e-01 1.457508e-01 2.577948e-01
v -3.801198e-01 1.479109e-01 2.683809e-01
v -3.691380e-01 1.508652e-01 2.818540e-01
v -3.580613e-01 1.543574e-01 2.972521e-01
v -3.472080e-01 1.578671e-01 3.126501e-01
v -3.369718e-01 1.606073e-01 3.251608e-01
v -3.271656e-01 1.628361e-01 3.357469e-01
v -3.177475e-01 1.645500e-01 3.444084e-01
v -3.084550e-01 1.662737e-01 3.530696e-01
v -2.990816e-01 1.685365e-01 3.636558e-01
v -2.891874e-01 1.726669e-01 3.809786e-01
v -5.540868e-01 1.300800e-01 1.919719e-01
v -5.462913e-01 1.277908e-01 1.862087e-01
v -5.370903e-01 1.267884e-01 1.852482e-01
v -5.263306e-01 1.273401e-01 1.900508e-01
v -5.158912e-01 1.276376e-01 1.938929e-01
v -5.057513e-01 1.276791e-01 1.967745e-01
v -4.961260e-01 1.272022e-01 1.977349e-01
v -4.860558e-01 1.272492e-01 2.006164e-01
v -4.755824e-01 1.278234e-01 2.054190e-01
v -4.649632e-01 1.286656e-01 2.111823e-01
v -4.542194e-01 1.297773e-01 2.179058e-01
v -4.431700e-01 1.314240e-01 2.265505e-01
v -4.324411e-01 1.328164e-01 2.342346e-01
v -4.216360e-01 1.344823e-01 2.428793e-01
v -4.105954e-01 1.366885e-01 2.534450e-01
v -3.997084e-01 1.389067e-01 2.640106e-01
v -3.891416e-01 1.408708e-01 2.736158e-01
v -3.785548e-01 1.431126e-01 2.841814e-01
v -3.670525e-01 1.472386e-01 3.014709e-01
v -3.556558e-01 1.516523e-01 3.197207e-01
v -3.446632e-01 1.558183e-01 3.370100e-01
v -3.343171e-01 1.591968e-01 3.514178e-01
v -3.240557e-01 1.628614e-01 3.667859e-01
v -3.148422e-01 1.646523e-01 3.754307e-01
v -3.059760e-01 1.659116e-01 3.821542e-01
v -2.975192e-01 1.663649e-01 3.859964e-01
v -2.891181e-01 1.668225e-01 3.898385e-01
v -5.545219e-01 1.212577e-01 1.954361e-01
v -5.464647e-01 1.191936e-01 1.906428e-01
v -5.359535e-01 1.195125e-01 1.944775e-01
v -5.249822e-01 1.203676e-01 2.002294e-01
v -5.145965e-01 1.206963e-01 2.040641e-01
v -5.045107e-01 1.207625e-01 2.069401e-01
v -4.942298e-01 1.210994e-01 2.107747e-01
v -4.835447e-01 1.219770e-01 2.165267e-01
v -4.729434e-01 1.228612e-01 2.222786e-01
v -4.624258e-01 1.237520e-01 2.280307e-01
v -4.517829e-01 1.249191e-01 2.347412e-01
v -4.412377e-01 1.260940e-01 2.414518e-01
v -4.309855e-01 1.270056e-01 2.472038e-01
v -4.206287e-01 1.281952e-01 2.539144e-01
v -4.094640e-01 1.307524e-01 2.654185e-01
v -3.986410e-01 1.330502e-01 2.759636e-01
v -3.881387e-01 1.350870e-01 2.855502e-01
v -3.771352e-01 1.382293e-01 2.989716e-01
v -3.649479e-01 1.438543e-01 3.210208e-01
v -3.532281e-01 1.492298e-01 3.421112e-01
v -3.425118e-01 1.532533e-01 3.584086e-01
v -3.322974e-01 1.567437e-01 3.727885e-01
v -3.227937e-01 1.591452e-01 3.833338e-01
v -3.137986e-01 1.607280e-01 3.910030e-01
v -3.053605e-01 1.612098e-01 3.948377e-01
v -2.972914e-01 1.608619e-01 3.957963e-01
v -5.566324e-01 1.108227e-01 1.931558e-01
v -5.463635e-01 1.108947e-01 1.960263e-01
v -5.340129e-01 1.131470e-01 2.065512e-01
v -5.225913e-01 1.145934e-01 2.142057e-01
v -5.120358e-01 1.152288e-01 2.189897e-01
v -5.017947e-01 1.155960e-01 2.228168e-01
v -4.911343e-01 1.165162e-01 2.285577e-01
v -4.807883e-01 1.171681e-01 2.333418e-01
v -4.709592e-01 1.172747e-01 2.362122e-01
v -4.607387e-01 1.179365e-01 2.409962e-01
v -4.499594e-01 1.194333e-01 2.486507e-01
v -4.390890e-01 1.212159e-01 2.572619e-01
v -4.291270e-01 1.218980e-01 2.620458e-01
v -4.196119e-01 1.220293e-01 2.649163e-01
v -4.085037e-01 1.246721e-01 2.763979e-01
v -3.977377e-01 1.270490e-01 2.869229e-01
v -3.872929e-01 1.291580e-01 2.964909e-01
v -3.742552e-01 1.360439e-01 3.223245e-01
v -3.496039e-01 1.493416e-01 3.720785e-01
v -3.401995e-01 1.512394e-01 3.806896e-01
v -3.313192e-01 1.522995e-01 3.864305e-01
v -3.226485e-01 1.530831e-01 3.912145e-01
v -3.138098e-01 1.544394e-01 3.979121e-01
v -3.054045e-01 1.549509e-01 4.017395e-01
v -2.974747e-01 1.543278e-01 4.017395e-01
v -5.551090e-01 1.039312e-01 2.033085e-01
v -5.440755e-01 1.048628e-01 2.090383e-01
v -5.315299e-01 1.074739e-01 2.204976e-01
v -5.201878e-01 1.089807e-01 2.281373e-01
v -5.094613e-01 1.099364e-01 2.338670e-01
v -4.990639e-01 1.106181e-01 2.386417e-01
v -4.889742e-01 1.110243e-01 2.424614e-01
v -4.791715e-01 1.111533e-01 2.453264e-01
v -4.696346e-01 1.110034e-01 2.472361e-01
v -4.599086e-01 1.111384e-01 2.501011e-01
v -4.485435e-01 1.135426e-01 2.606055e-01
v -4.373318e-01 1.159588e-01 2.711099e-01
v -4.276471e-01 1.163969e-01 2.749298e-01
v -4.180181e-01 1.168392e-01 2.787495e-01
v -4.071694e-01 1.192840e-01 2.892540e-01
v -3.966496e-01 1.214549e-01 2.988035e-01
v -3.650622e-01 1.453507e-01 3.828389e-01
v -3.557444e-01 1.470165e-01 3.904785e-01
v -3.474222e-01 1.469621e-01 3.923885e-01
v -3.388473e-01 1.474873e-01 3.962083e-01
v -3.304616e-01 1.477276e-01 3.990732e-01
v -3.222441e-01 1.476814e-01 4.009831e-01
v -3.139352e-01 1.479278e-01 4.038479e-01
v -3.056681e-01 1.481774e-01 4.067128e-01
v -5.513333e-01 9.942336e-02 2.210563e-01
v -5.406818e-01 1.001190e-01 2.258218e-01
v -5.295671e-01 1.013913e-01 2.324933e-01
v -5.188097e-01 1.023851e-01 2.382120e-01
v -5.078834e-01 1.036722e-01 2.448835e-01
v -4.977917e-01 1.041053e-01 2.486959e-01
v -4.877557e-01 1.045428e-01 2.525084e-01
v -4.775440e-01 1.052730e-01 2.572738e-01
v -4.678512e-01 1.054310e-01 2.601331e-01
v -4.577652e-01 1.061710e-01 2.648986e-01
v -4.469063e-01 1.080764e-01 2.734763e-01
v -4.359693e-01 1.102822e-01 2.830072e-01
v -4.261555e-01 1.110437e-01 2.877727e-01
v -4.162217e-01 1.121023e-01 2.934912e-01
v -4.061890e-01 1.134596e-01 3.001629e-01
v -3.955509e-01 1.159954e-01 3.106470e-01
v -3.640566e-01 1.404946e-01 3.945192e-01
v -3.551141e-01 1.416310e-01 4.002377e-01
v -3.464031e-01 1.424791e-01 4.050031e-01
v -3.381846e-01 1.424464e-01 4.069093e-01
v -3.299940e-01 1.424158e-01 4.088156e-01
v -3.219582e-01 1.420909e-01 4.097686e-01
v -3.141762e-01 1.411729e-01 4.088156e-01
v -6.266536e-01 1.044802e-01 2.482570e-01
v -6.192354e-01 1.023308e-01 2.435008e-01
v -6.100979e-01 1.016128e-01 2.435008e-01
v -6.009604e-01 1.008948e-01 2.435008e-01
v -5.934026e-01 9.873451e-02 2.387446e-01
v -5.481028e-01 9.454837e-02 2.368420e-01
v -5.372723e-01 9.557711e-02 2.425494e-01
v -5.265256e-01 9.661246e-02 2.482570e-01
v -5.166429e-01 9.677576e-02 2.511105e-01
v -5.065490e-01 9.723581e-02 2.549156e-01
v -4.960188e-01 9.828814e-02 2.606230e-01
v -4.860505e-01 9.875804e-02 2.644280e-01
v -4.756738e-01 9.982243e-02 2.701354e-01
v -4.653809e-01 1.008934e-01 2.758427e-01
v -4.551716e-01 1.019710e-01 2.815502e-01
v -4.450463e-01 1.030551e-01 2.872577e-01
v -4.352088e-01 1.038486e-01 2.920139e-01
v -4.250468e-01 1.052431e-01 2.986725e-01
v -3.648261e-01 1.324671e-01 3.956987e-01
v -3.536985e-01 1.378585e-01 4.147233e-01
v -3.452240e-01 1.384458e-01 4.185284e-01
v -3.299212e-01 1.363035e-01 4.156747e-01
v -3.219198e-01 1.359881e-01 4.166258e-01
v -6.256216e-01 9.716831e-02 2.554241e-01
v -6.165539e-01 9.645580e-02 2.554241e-01
v -6.074863e-01 9.574329e-02 2.554241e-01
v -5.980953e-01 9.532540e-02 2.563734e-01
v -5.884017e-01 9.520389e-02 2.582722e-01
v -5.790456e-01 9.478873e-02 2.592215e-01
v -5.687960e-01 9.526365e-02 2.630192e-01
v -5.580112e-01 9.633658e-02 2.687153e-01
v -5.493297e-01 9.533438e-02 2.677661e-01
v -5.423237e-01 9.254338e-02 2.611203e-01
v -5.332978e-01 9.183416e-02 2.611203e-01
v -5.232018e-01 9.232114e-02 2.649179e-01
v -5.134222e-01 9.251288e-02 2.677661e-01
v -5.041917e-01 9.210761e-02 2.687153e-01
v -4.947286e-01 9.200416e-02 2.706141e-01
v -4.848140e-01 9.250540e-02 2.744117e-01
v -4.742573e-01 9.391631e-02 2.810573e-01
v -4.633470e-01 9.593964e-02 2.896018e-01
v -4.532184e-01 9.706412e-02 2.952980e-01
v -4.435970e-01 9.758841e-02 2.990956e-01
v -4.307556e-01 1.029807e-01 3.180833e-01
v -3.799378e-01 1.425165e-01 4.471991e-01
v -3.698048e-01 1.462012e-01 4.604903e-01
v -6.245842e-01 8.992371e-02 2.625727e-01
v -6.142000e-01 9.041507e-02 2.663627e-01
v -6.042023e-01 9.061004e-02 2.692054e-01
v -5.945705e-01 9.050684e-02 2.711003e-01
v -5.846498e-01 9.070781e-02 2.739429e-01
v -5.750808e-01 9.060959e-02 2.758379e-01
v -5.646308e-01 9.142265e-02 2.805756e-01
v -5.548426e-01 9.163404e-02 2.834181e-01
v -5.453854e-01 9.154460e-02 2.853132e-01
v -5.373663e-01 8.993400e-02 2.824707e-01
v -5.293053e-01 8.832008e-02 2.796281e-01
v -5.201302e-01 8.792594e-02 2.805756e-01
v -5.107078e-01 8.783926e-02 2.824707e-01
v -5.015675e-01 8.744785e-02 2.834181e-01
v -4.924412e-01 8.705762e-02 2.843658e-01
v -4.828485e-01 8.728436e-02 2.872083e-01
v -4.723649e-01 8.874845e-02 2.938410e-01
v -4.606217e-01 9.207461e-02 3.061588e-01
v -3.982127e-01 1.326011e-01 4.378647e-01
v -3.874103e-01 1.369818e-01 4.530252e-01
v -3.777530e-01 1.398181e-01 4.634480e-01
v -3.691361e-01 1.411021e-01 4.691330e-01
v -6.221599e-01 8.397228e-02 2.734853e-01
v -6.101442e-01 8.603064e-02 2.819964e-01
v -5.989169e-01 8.748372e-02 2.886161e-01
v -5.894097e-01 8.740385e-02 2.905073e-01
v -5.805654e-01 8.670889e-02 2.905073e-01
v -5.717211e-01 8.601394e-02 2.905073e-01
v -5.613593e-01 8.686780e-02 2.952357e-01
v -5.516603e-01 8.710650e-02 2.980727e-01
v -5.428718e-01 8.641593e-02 2.980727e-01
v -5.343660e-01 8.541396e-02 2.971270e-01
v -5.255705e-01 8.472284e-02 2.971270e-01
v -5.167752e-01 8.403173e-02 2.971270e-01
v -5.082414e-01 8.302760e-02 2.961815e-01
v -4.989296e-01 8.296310e-02 2.980727e-01
v -4.896459e-01 8.290083e-02 2.999640e-01
v -4.808714e-01 8.221136e-02 2.999640e-01
v -4.716295e-01 8.215238e-02 3.018554e-01
v -4.153458e-01 1.247688e-01 4.351947e-01
v -4.040709e-01 1.295543e-01 4.512712e-01
v -3.946240e-01 1.318145e-01 4.597822e-01
v -3.854945e-01 1.337660e-01 4.673476e-01
v -6.293390e-01 7.821661e-02 2.824770e-01
v -6.190341e-01 7.876846e-02 2.862523e-01
v -6.060736e-01 8.183461e-02 2.975780e-01
v -5.932805e-01 8.491399e-02 3.089038e-01
v -5.829298e-01 8.580258e-02 3.136229e-01
v -5.742392e-01 8.511969e-02 3.136229e-01
v -5.655484e-01 8.443680e-02 3.136229e-01
v -5.565537e-01 8.407038e-02 3.145666e-01
v -5.478700e-01 8.338804e-02 3.145666e-01
v -5.394763e-01 8.238814e-02 3.136229e-01
v -5.310688e-01 8.138712e-02 3.126791e-01
v -5.218188e-01 8.134102e-02 3.145666e-01
v -5.125969e-01 8.129714e-02 3.164542e-01
v -5.047136e-01 7.965659e-02 3.136229e-01
v -4.967883e-01 7.801271e-02 3.107915e-01
v -4.883250e-01 7.700727e-02 3.098475e-01
v -4.283057e-01 1.230082e-01 4.504758e-01
v -4.195257e-01 1.240202e-01 4.551949e-01
v -4.106023e-01 1.253613e-01 4.608576e-01
v -4.015562e-01 1.270332e-01 4.674644e-01
v -3.932059e-01 1.277385e-01 4.712396e-01
v -3.839496e-01 1.300747e-01 4.797340e-01
v -6.286012e-01 7.089219e-02 2.886169e-01
v -6.148574e-01 7.467236e-02 3.018042e-01
v -5.839663e-01 8.613128e-02 3.394826e-01
v -5.751246e-01 8.578364e-02 3.404244e-01
v -5.675711e-01 8.414868e-02 3.375987e-01
v -5.596640e-01 8.283303e-02 3.357146e-01
v -5.511199e-01 8.216167e-02 3.357146e-01
v -5.419806e-01 8.213786e-02 3.375987e-01
v -5.340316e-01 8.081892e-02 3.357146e-01
v -5.260549e-01 7.949782e-02 3.338307e-01
v -4.271748e-01 1.293559e-01 4.901956e-01
v -4.225091e-01 1.248234e-01 4.788922e-01
v -4.159093e-01 1.229162e-01 4.751243e-01
v -4.081845e-01 1.226564e-01 4.760664e-01
v -4.000598e-01 1.230594e-01 4.788922e-01
v -3.925768e-01 1.224714e-01 4.788922e-01
v -3.845150e-01 1.228794e-01 4.817181e-01
v -5.756196e-01 8.676917e-02 3.671295e-01
v -5.672918e-01 8.611480e-02 3.671295e-01
v -4.284414e-01 1.212149e-01 4.893427e-01
v -4.203361e-01 1.216398e-01 4.921630e-01
v -4.136008e-01 1.200488e-01 4.893427e-01
v -4.063950e-01 1.191287e-01 4.884027e-01
v -3.991751e-01 1.182075e-01 4.874626e-01
v -5.240691e-01 1.060200e-01 4.509711e-01
v -5.163488e-01 1.054133e-01 4.509711e-01
v -5.083297e-01 1.051440e-01 4.519094e-01
v -4.976994e-01 1.079157e-01 4.612919e-01
v -4.054534e-01 1.143739e-01 4.969452e-01
v -3.993226e-01 1.117279e-01 4.913156e-01
v -5.830964e-01 1.064752e-01 4.614515e-01
v -5.772489e-01 1.041784e-01 4.567695e-01
v -5.480322e-01 1.084971e-01 4.736244e-01
v -5.424699e-01 1.058552e-01 4.680062e-01
v -5.335527e-01 1.066244e-01 4.717516e-01
v -5.246913e-01 1.073980e-01 4.754973e-01
v -5.161990e-01 1.078331e-01 4.783065e-01
v -5.083609e-01 1.075847e-01 4.792427e-01
v -5.005368e-01 1.073374e-01 4.801792e-01
v -4.936032e-01 1.060576e-01 4.783065e-01
v -5.873719e-01 9.563948e-02 4.541422e-01
v -5.731187e-01 1.012559e-01 4.709636e-01
v -5.448478e-01 1.050224e-01 4.859162e-01
v -5.370232e-01 1.047818e-01 4.868508e-01
v -5.292124e-01 1.045422e-01 4.877852e-01
v -5.214157e-01 1.043039e-01 4.887199e-01
v -5.133192e-01 1.044162e-01 4.905888e-01
v -5.046372e-01 1.052310e-01 4.943271e-01
v -4.966106e-01 1.053487e-01 4.961962e-01
v -5.342386e-01 1.011132e-01 4.981672e-01
v -5.264971e-01 1.008859e-01 4.990998e-01
v -5.187697e-01 1.006597e-01 5.000325e-01
v -5.104277e-01 1.011473e-01 5.028306e-01
v -5.021277e-01 1.016382e-01 5.056287e-01
v -4.944700e-01 1.014174e-01 5.065612e-01
v -5.327861e-01 9.613360e-02 5.057233e-01
v -5.170782e-01 9.606265e-02 5.085156e-01
v -5.087836e-01 9.657423e-02 5.113081e-01
v -5.005308e-01 9.708918e-02 5.141006e-01
v -4.932222e-01 9.651489e-02 5.141006e-01
v -3.085892e-01 1.916540e-01 2.727854e-01
v -3.028870e-01 1.889563e-01 2.780664e-01
v -2.964360e-01 1.857864e-01 2.828799e-01
v -2.965593e-01 1.868063e-01 2.922275e-01
v -2.930319e-01 1.854991e-01 2.990527e-01
v -3.176308e-01 1.863387e-01 2.584653e-01
v -3.155341e-01 1.859659e-01 2.663408e-01
v -3.127300e-01 1.851289e-01 2.736758e-01
v -3.092090e-01 1.838241e-01 2.804887e-01
v -3.056880e-01 1.825193e-01 2.873016e-01
v -3.021669e-01 1.812145e-01 2.941146e-01
v -2.986458e-01 1.799096e-01 3.009276e-01
v -2.943888e-01 1.781299e-01 3.072551e-01
v -3.182449e-01 1.763914e-01 2.471914e-01
v -3.196528e-01 1.783786e-01 2.577759e-01
v -3.203920e-01 1.799087e-01 2.677533e-01
v -3.183036e-01 1.795535e-01 2.755964e-01
v -3.155085e-01 1.787270e-01 2.829061e-01
v -3.119970e-01 1.774257e-01 2.897006e-01
v -3.084854e-01 1.761244e-01 2.964952e-01
v -3.057029e-01 1.753027e-01 3.037804e-01
v -3.014623e-01 1.735218e-01 3.100842e-01
v -2.972154e-01 1.717386e-01 3.164004e-01
v -2.886566e-01 1.710792e-01 3.557759e-01
v -2.904607e-01 1.732132e-01 3.655939e-01
v -2.900364e-01 1.738934e-01 3.740197e-01
v -2.888767e-01 1.740917e-01 3.819671e-01
v -3.239844e-01 1.686315e-01 2.299470e-01
v -3.231968e-01 1.692061e-01 2.390442e-01
v -3.231375e-01 1.702672e-01 2.486250e-01
v -3.245225e-01 1.722967e-01 2.591977e-01
v -3.252424e-01 1.738631e-01 2.691642e-01
v -3.238624e-01 1.740016e-01 2.775139e-01
v -3.203540e-01 1.727015e-01 2.843024e-01
v -3.175646e-01 1.718843e-01 2.915927e-01
v -3.155037e-01 1.715538e-01 2.993669e-01
v -3.127302e-01 1.707427e-01 3.066268e-01
v -3.092345e-01 1.694472e-01 3.133906e-01
v -3.050071e-01 1.676640e-01 3.196769e-01
v -2.993038e-01 1.649007e-01 3.250327e-01
v -2.950575e-01 1.631105e-01 3.313559e-01
v -2.964829e-01 1.671044e-01 3.588895e-01
v -2.960247e-01 1.678011e-01 3.673489e-01
v -2.955918e-01 1.685071e-01 3.757592e-01
v -2.959414e-01 1.697197e-01 3.845490e-01
v -3.317912e-01 1.633126e-01 2.239125e-01
v -3.288967e-01 1.624639e-01 2.313985e-01
v -3.287935e-01 1.635450e-01 2.410243e-01
v -3.301206e-01 1.656038e-01 2.516527e-01
v -3.307897e-01 1.671950e-01 2.616696e-01
v -3.307910e-01 1.683147e-01 2.710931e-01
v -3.279884e-01 1.675000e-01 2.784012e-01
v -3.266162e-01 1.676631e-01 2.867117e-01
v -3.252631e-01 1.678332e-01 2.949854e-01
v -3.232106e-01 1.675203e-01 3.027274e-01
v -3.204492e-01 1.667209e-01 3.099558e-01
v -3.176941e-01 1.659238e-01 3.171718e-01
v -3.134895e-01 1.641418e-01 3.234222e-01
v -3.092785e-01 1.623574e-01 3.296847e-01
v -3.065298e-01 1.615627e-01 3.368886e-01
v -3.052623e-01 1.617646e-01 3.449968e-01
v -3.054950e-01 1.629701e-01 3.539727e-01
v -3.050154e-01 1.636878e-01 3.624411e-01
v -3.038144e-01 1.639144e-01 3.704206e-01
v -3.026326e-01 1.641480e-01 3.783633e-01
v -3.014697e-01 1.643886e-01 3.862691e-01
v -3.010820e-01 1.651404e-01 3.945597e-01
v -3.618102e-01 1.701542e-01 2.068119e-01
v -3.465848e-01 1.617385e-01 2.137453e-01
v -3.430130e-01 1.604149e-01 2.206564e-01
v -3.401275e-01 1.595767e-01 2.281169e-01
v -3.379375e-01 1.592273e-01 2.361086e-01
v -3.371453e-01 1.598583e-01 2.451503e-01
v -3.377697e-01 1.614764e-01 2.552052e-01
v -3.377334e-01 1.626185e-01 2.646615e-01
v -3.363247e-01 1.627898e-01 2.730188e-01
v -3.349351e-01 1.629683e-01 2.813393e-01
v -3.342728e-01 1.636472e-01 2.901295e-01
v -3.329243e-01 1.638409e-01 2.983702e-01
v -3.301655e-01 1.630497e-01 3.055855e-01
v -3.281309e-01 1.627579e-01 3.132768e-01
v -3.246670e-01 1.614742e-01 3.199793e-01
v -3.219272e-01 1.606901e-01 3.271578e-01
v -3.191936e-01 1.599081e-01 3.343240e-01
v -3.171971e-01 1.596305e-01 3.419416e-01
v -3.159468e-01 1.598605e-01 3.499922e-01
v -3.154526e-01 1.606019e-01 3.584575e-01
v -3.142436e-01 1.608472e-01 3.664284e-01
v -3.123104e-01 1.605930e-01 3.739234e-01
v -3.103898e-01 1.603435e-01 3.813939e-01
v -3.077324e-01 1.595899e-01 3.884130e-01
v -3.050813e-01 1.588385e-01 3.954197e-01
v -3.047043e-01 1.596233e-01 4.036581e-01
v -3.805286e-01 1.704324e-01 1.907430e-01
v -3.756871e-01 1.681616e-01 1.963727e-01
v -3.721661e-01 1.668568e-01 2.031856e-01
v -3.679752e-01 1.650653e-01 2.094252e-01
v -3.617593e-01 1.618083e-01 2.139759e-01
v -3.555181e-01 1.585420e-01 2.185755e-01
v -3.519685e-01 1.572266e-01 2.254436e-01
v -3.504662e-01 1.573850e-01 2.339579e-01
v -3.489829e-01 1.575504e-01 2.424353e-01
v -3.475188e-01 1.577230e-01 2.508761e-01
v -3.460736e-01 1.579025e-01 2.592800e-01
v -3.453424e-01 1.585850e-01 2.681713e-01
v -3.439384e-01 1.587798e-01 2.764955e-01
v -3.432550e-01 1.594801e-01 2.852948e-01
v -3.418921e-01 1.596901e-01 2.935393e-01
v -3.398406e-01 1.594067e-01 3.012473e-01
v -3.378016e-01 1.591278e-01 3.089308e-01
v -3.357755e-01 1.588537e-01 3.165898e-01
v -3.330446e-01 1.580800e-01 3.237429e-01
v -3.310405e-01 1.578141e-01 3.313589e-01
v -3.290491e-01 1.575528e-01 3.389503e-01
v -3.256168e-01 1.562809e-01 3.455916e-01
v -3.243745e-01 1.565357e-01 3.536031e-01
v -3.238842e-01 1.573075e-01 3.620283e-01
v -3.226830e-01 1.575775e-01 3.699600e-01
v -3.200219e-01 1.568297e-01 3.769783e-01
v -3.173671e-01 1.560842e-01 3.839842e-01
v -3.139728e-01 1.548264e-01 3.905519e-01
v -3.105786e-01 1.535685e-01 3.971195e-01
v -3.022794e-01 1.500163e-01 4.094394e-01
v -4.077348e-01 1.759082e-01 1.730445e-01
v -4.062056e-01 1.760784e-01 1.815871e-01
v -4.020946e-01 1.743093e-01 1.876803e-01
v -3.953638e-01 1.705869e-01 1.913980e-01
v -3.879447e-01 1.663637e-01 1.945860e-01
v -3.831264e-01 1.640869e-01 2.001866e-01
v -3.796212e-01 1.627880e-01 2.069689e-01
v -3.754501e-01 1.609966e-01 2.131787e-01
v -3.699341e-01 1.582156e-01 2.182682e-01
v -3.650714e-01 1.559223e-01 2.239545e-01
v -3.622229e-01 1.551124e-01 2.313277e-01
v -3.600591e-01 1.548018e-01 2.392365e-01
v -3.585900e-01 1.549942e-01 2.476625e-01
v -3.571401e-01 1.551939e-01 2.560518e-01
v -3.550207e-01 1.548997e-01 2.638745e-01
v -3.529142e-01 1.546103e-01 2.716730e-01
v -3.515148e-01 1.548286e-01 2.799642e-01
v -3.508323e-01 1.555582e-01 2.887296e-01
v -3.494741e-01 1.557917e-01 2.969410e-01
v -3.481350e-01 1.560323e-01 3.051156e-01
v -3.454004e-01 1.552646e-01 3.122680e-01
v -3.433825e-01 1.550080e-01 3.198947e-01
v -3.413774e-01 1.547562e-01 3.274968e-01
v -3.393850e-01 1.545092e-01 3.350745e-01
v -3.374052e-01 1.542668e-01 3.426276e-01
v -3.339919e-01 1.530019e-01 3.492320e-01
v -3.327574e-01 1.532813e-01 3.572043e-01
v -3.315418e-01 1.535676e-01 3.651397e-01
v -3.296128e-01 1.533440e-01 3.725947e-01
v -3.276963e-01 1.531251e-01 3.800252e-01
v -3.250536e-01 1.523914e-01 3.869996e-01
v -3.209332e-01 1.506188e-01 3.931114e-01
v -3.160611e-01 1.483220e-01 3.988162e-01
v -3.104278e-01 1.454976e-01 4.041326e-01
v -3.062787e-01 1.437144e-01 4.102994e-01
v -4.171974e-01 1.722300e-01 1.690694e-01
v -4.150167e-01 1.719276e-01 1.769950e-01
v -4.115622e-01 1.706475e-01 1.836791e-01
v -4.068149e-01 1.683824e-01 1.891586e-01
v -4.014051e-01 1.656190e-01 1.940665e-01
v -3.959764e-01 1.628486e-01 1.990112e-01
v -3.918405e-01 1.610630e-01 2.051604e-01
v -3.890167e-01 1.602695e-01 2.124776e-01
v -3.848745e-01 1.584816e-01 2.186390e-01
v -3.793951e-01 1.556924e-01 2.236819e-01
v -3.752339e-01 1.538975e-01 2.298803e-01
v -3.730818e-01 1.536057e-01 2.377505e-01
v -3.702675e-01 1.528157e-01 2.450494e-01
v -3.681376e-01 1.525321e-01 2.528768e-01
v -3.660203e-01 1.522532e-01 2.606797e-01
v -3.625468e-01 1.509661e-01 2.674006e-01
v -3.604487e-01 1.506943e-01 2.751668e-01
v -3.583632e-01 1.504273e-01 2.829085e-01
v -3.576784e-01 1.511850e-01 2.916462e-01
v -3.563217e-01 1.514409e-01 2.998306e-01
v -3.542837e-01 1.511914e-01 3.074802e-01
v -3.515550e-01 1.504331e-01 3.146134e-01
v -3.495392e-01 1.501918e-01 3.222201e-01
v -3.489557e-01 1.509871e-01 3.307615e-01
v -3.476846e-01 1.512747e-01 3.387804e-01
v -3.450003e-01 1.505328e-01 3.458278e-01
v -3.423222e-01 1.497932e-01 3.528627e-01
v -3.410954e-01 1.500973e-01 3.607958e-01
v -3.398878e-01 1.504084e-01 3.686921e-01
v -3.379702e-01 1.502035e-01 3.761086e-01
v -3.353334e-01 1.494793e-01 3.830640e-01
v -3.327028e-01 1.487573e-01 3.900070e-01
v -3.286019e-01 1.469847e-01 3.960889e-01
v -3.230115e-01 1.441544e-01 4.013463e-01
v -3.166574e-01 1.407882e-01 4.062283e-01
v -4.259883e-01 1.680862e-01 1.645002e-01
v -4.238004e-01 1.677957e-01 1.724242e-01
v -4.209886e-01 1.670138e-01 1.797098e-01
v -4.162644e-01 1.647428e-01 1.851602e-01
v -4.121704e-01 1.629656e-01 1.912368e-01
v -4.080699e-01 1.611859e-01 1.973255e-01
v -4.033142e-01 1.589033e-01 2.028373e-01
v -3.991979e-01 1.571177e-01 2.089567e-01
v -3.963862e-01 1.563359e-01 2.162425e-01
v -3.929222e-01 1.550522e-01 2.229450e-01
v -3.881347e-01 1.527578e-01 2.285181e-01
v -3.833345e-01 1.504587e-01 2.341157e-01
v -3.811940e-01 1.501857e-01 2.419477e-01
v -3.783949e-01 1.494085e-01 2.492088e-01
v -3.756022e-01 1.486338e-01 2.564577e-01
v -3.728159e-01 1.478613e-01 2.636944e-01
v -3.707165e-01 1.476036e-01 2.714466e-01
v -3.679459e-01 1.468370e-01 2.786525e-01
v -3.658688e-01 1.465876e-01 2.863619e-01
v -3.638044e-01 1.463428e-01 2.940467e-01
v -3.617526e-01 1.461027e-01 3.017069e-01
v -3.597135e-01 1.458673e-01 3.093426e-01
v -3.569874e-01 1.451172e-01 3.164628e-01
v -3.556735e-01 1.454107e-01 3.245406e-01
v -3.564968e-01 1.472767e-01 3.340182e-01
v -3.552303e-01 1.475877e-01 3.420040e-01
v -3.525581e-01 1.468576e-01 3.490199e-01
v -3.498921e-01 1.461297e-01 3.560234e-01
v -3.493889e-01 1.469839e-01 3.643778e-01
v -3.481891e-01 1.473196e-01 3.722349e-01
v -3.462831e-01 1.471336e-01 3.796131e-01
v -3.436615e-01 1.464222e-01 3.865307e-01
v -3.403148e-01 1.451820e-01 3.930064e-01
v -3.354987e-01 1.428769e-01 3.986346e-01
v -3.306700e-01 1.405672e-01 4.042875e-01
v -3.250876e-01 1.377181e-01 4.095535e-01
v -4.328822e-01 1.624663e-01 1.580582e-01
v -4.306773e-01 1.621840e-01 1.659990e-01
v -4.291144e-01 1.624070e-01 1.745343e-01
v -4.256726e-01 1.611315e-01 1.811940e-01
v -4.215950e-01 1.593531e-01 1.872468e-01
v -4.181501e-01 1.580765e-01 1.939125e-01
v -4.140629e-01 1.562945e-01 1.999837e-01
v -4.099694e-01 1.545100e-01 2.060670e-01
v -4.065180e-01 1.532310e-01 2.127451e-01
v -4.030667e-01 1.519520e-01 2.194231e-01
v -3.996154e-01 1.506731e-01 2.261011e-01
v -3.955061e-01 1.488829e-01 2.322153e-01
v -3.907293e-01 1.465779e-01 2.377839e-01
v -3.872684e-01 1.452954e-01 2.444803e-01
v -3.844750e-01 1.445276e-01 2.517222e-01
v -3.816881e-01 1.437623e-01 2.589519e-01
v -3.795814e-01 1.435163e-01 2.667025e-01
v -3.774872e-01 1.432750e-01 2.744286e-01
v -3.747257e-01 1.425191e-01 2.816093e-01
v -3.726537e-01 1.422860e-01 2.892925e-01
v -3.705945e-01 1.420577e-01 2.969511e-01
v -3.678584e-01 1.413111e-01 3.040827e-01
v -3.651285e-01 1.405669e-01 3.112020e-01
v -3.631009e-01 1.403503e-01 3.187994e-01
v -3.624844e-01 1.411913e-01 3.273405e-01
v -3.625958e-01 1.425696e-01 3.363107e-01
v -3.613277e-01 1.429019e-01 3.442758e-01
v -3.586612e-01 1.421811e-01 3.512725e-01
v -3.574248e-01 1.425250e-01 3.591761e-01
v -3.569225e-01 1.434085e-01 3.674966e-01
v -3.557274e-01 1.437678e-01 3.753206e-01
v -3.538298e-01 1.435993e-01 3.826665e-01
v -3.512203e-01 1.428997e-01 3.895528e-01
v -3.478894e-01 1.416653e-01 3.959978e-01
v -3.438276e-01 1.398927e-01 4.020199e-01
v -3.390254e-01 1.375783e-01 4.076375e-01
v -3.349476e-01 1.357998e-01 4.136903e-01
v -3.308638e-01 1.340190e-01 4.197553e-01
v -3.290042e-01 1.338647e-01 4.270277e-01
v -4.375681e-01 1.565630e-01 1.595632e-01
v -4.353589e-01 1.562935e-01 1.674963e-01
v -4.337880e-01 1.565354e-01 1.760230e-01
v -4.309782e-01 1.557687e-01 1.832886e-01
v -4.269107e-01 1.539868e-01 1.893300e-01
v -4.241073e-01 1.532225e-01 1.965834e-01
v -4.206718e-01 1.519494e-01 2.032307e-01
v -4.165948e-01 1.501639e-01 2.092904e-01
v -4.138009e-01 1.494032e-01 2.165254e-01
v -4.110133e-01 1.486448e-01 2.237481e-01
v -4.082323e-01 1.478889e-01 2.309587e-01
v -4.034944e-01 1.455838e-01 2.364675e-01
v -3.980867e-01 1.427559e-01 2.414439e-01
v -3.946417e-01 1.414792e-01 2.481097e-01
v -3.905329e-01 1.396820e-01 2.542308e-01
v -3.877517e-01 1.389260e-01 2.614412e-01
v -3.856470e-01 1.386953e-01 2.691719e-01
v -3.835549e-01 1.384692e-01 2.768779e-01
v -3.814755e-01 1.382480e-01 2.845595e-01
v -3.787293e-01 1.375050e-01 2.917026e-01
v -3.766720e-01 1.372918e-01 2.993412e-01
v -3.739417e-01 1.365547e-01 3.064536e-01
v -3.719067e-01 1.363499e-01 3.140494e-01
v -3.705767e-01 1.366809e-01 3.221102e-01
v -3.699612e-01 1.375514e-01 3.306174e-01
v -3.686725e-01 1.378978e-01 3.385985e-01
v -3.674027e-01 1.382512e-01 3.465428e-01
v -3.654469e-01 1.380756e-01 3.539851e-01
v -3.642121e-01 1.384420e-01 3.618620e-01
v -3.637075e-01 1.393535e-01 3.701546e-01
v -3.632284e-01 1.402746e-01 3.783983e-01
v -3.613392e-01 1.401238e-01 3.857120e-01
v -3.594626e-01 1.399776e-01 3.930011e-01
v -3.561507e-01 1.387503e-01 3.994093e-01
v -3.528389e-01 1.375230e-01 4.058175e-01
v -3.495269e-01 1.362957e-01 4.122257e-01
v -3.462151e-01 1.350683e-01 4.186339e-01
v -3.443766e-01 1.349363e-01 4.258494e-01
v -3.425509e-01 1.348091e-01 4.330405e-01
v -3.444529e-01 1.374365e-01 4.421640e-01
v -4.420225e-01 1.488969e-01 1.505732e-01
v -4.410150e-01 1.496511e-01 1.598070e-01
v -4.394141e-01 1.499035e-01 1.683682e-01
v -4.372099e-01 1.496505e-01 1.762750e-01
v -4.350186e-01 1.494022e-01 1.841574e-01
v -4.328399e-01 1.491587e-01 1.920153e-01
v -4.294108e-01 1.478879e-01 1.986504e-01
v -4.259817e-01 1.466172e-01 2.052855e-01
v -4.225525e-01 1.453464e-01 2.119205e-01
v -4.197643e-01 1.445950e-01 2.191363e-01
v -4.169827e-01 1.438461e-01 2.263399e-01
v -4.142073e-01 1.430995e-01 2.335311e-01
v -4.094864e-01 1.407862e-01 2.390232e-01
v -4.047530e-01 1.384683e-01 2.445398e-01
v -4.013207e-01 1.371964e-01 2.511810e-01
v -3.972283e-01 1.353979e-01 2.572784e-01
v -3.944561e-01 1.346525e-01 2.644634e-01
v -3.916903e-01 1.339095e-01 2.716364e-01
v -3.896003e-01 1.336988e-01 2.793225e-01
v -3.868503e-01 1.329615e-01 2.864647e-01
v -3.841064e-01 1.322266e-01 2.935947e-01
v -3.820482e-01 1.320277e-01 3.012195e-01
v -3.800027e-01 1.318335e-01 3.088198e-01
v -3.786551e-01 1.321798e-01 3.168903e-01
v -3.773266e-01 1.325331e-01 3.249241e-01
v -3.760172e-01 1.328936e-01 3.329212e-01
v -3.747268e-01 1.332611e-01 3.408814e-01
v -3.741534e-01 1.341762e-01 3.492751e-01
v -3.729041e-01 1.345589e-01 3.571556e-01
v -3.716740e-01 1.349488e-01 3.649994e-01
v -3.711703e-01 1.358897e-01 3.732582e-01
v -3.699813e-01 1.362948e-01 3.810222e-01
v -3.688114e-01 1.367070e-01 3.887494e-01
v -3.683774e-01 1.376737e-01 3.968733e-01
v -3.665284e-01 1.375523e-01 4.040934e-01
v -3.632450e-01 1.363356e-01 4.104465e-01
v -3.606882e-01 1.356699e-01 4.172146e-01
v -3.588677e-01 1.355591e-01 4.243795e-01
v -3.585257e-01 1.365600e-01 4.323257e-01
v -3.604175e-01 1.392343e-01 4.414128e-01
v -3.660502e-01 1.447045e-01 4.523673e-01
v -3.717590e-01 1.502028e-01 4.631746e-01
v -4.467126e-01 1.429806e-01 1.520858e-01
v -4.444695e-01 1.427276e-01 1.600524e-01
v -4.428540e-01 1.429964e-01 1.686173e-01
v -4.412577e-01 1.432723e-01 1.771454e-01
v -4.403019e-01 1.440747e-01 1.862474e-01
v -4.387467e-01 1.443659e-01 1.946958e-01
v -4.353271e-01 1.430986e-01 2.013124e-01
v -4.312764e-01 1.413084e-01 2.073370e-01
v -4.278537e-01 1.400400e-01 2.139598e-01
v -4.250682e-01 1.392969e-01 2.211625e-01
v -4.222889e-01 1.385561e-01 2.283530e-01
v -4.188725e-01 1.372900e-01 2.349635e-01
v -4.154560e-01 1.360240e-01 2.415741e-01
v -4.107396e-01 1.336979e-01 2.470739e-01
v -4.073168e-01 1.324295e-01 2.536968e-01
v -4.045504e-01 1.316934e-01 2.608627e-01
v -4.004713e-01 1.298926e-01 2.669424e-01
v -3.977111e-01 1.291589e-01 2.740961e-01
v -3.949573e-01 1.284275e-01 2.812375e-01
v -3.928789e-01 1.282357e-01 2.888852e-01
v -3.908132e-01 1.280485e-01 2.965085e-01
v -3.887602e-01 1.278659e-01 3.041071e-01
v -3.860412e-01 1.271475e-01 3.111810e-01
v -3.840104e-01 1.269733e-01 3.187368e-01
v -3.826770e-01 1.273465e-01 3.267559e-01
v -3.820508e-01 1.282712e-01 3.352202e-01
v -3.814498e-01 1.292050e-01 3.436351e-01
v -3.801799e-01 1.296018e-01 3.515316e-01
v -3.796266e-01 1.305535e-01 3.598548e-01
v -3.783978e-01 1.309655e-01 3.676715e-01
v -3.778920e-01 1.319347e-01 3.759026e-01
v -3.767045e-01 1.323621e-01 3.836398e-01
v -3.762462e-01 1.333489e-01 3.917789e-01
v -3.765265e-01 1.348985e-01 4.003016e-01
v -3.754057e-01 1.353506e-01 4.079100e-01
v -3.728643e-01 1.346980e-01 4.146405e-01
v -3.717749e-01 1.351617e-01 4.221874e-01
v -3.721567e-01 1.367490e-01 4.305140e-01
v -3.732996e-01 1.389074e-01 4.391813e-01
v -3.752129e-01 1.416405e-01 4.481711e-01
v -3.764348e-01 1.438283e-01 4.566850e-01
v -3.762174e-01 1.449043e-01 4.643581e-01
v -3.745415e-01 1.448615e-01 4.712271e-01
v -4.491477e-01 1.368360e-01 1.615557e-01
v -4.475244e-01 1.371236e-01 1.701122e-01
v -4.471491e-01 1.384665e-01 1.798635e-01
v -4.455702e-01 1.387707e-01 1.883341e-01
v -4.433891e-01 1.385552e-01 1.961641e-01
v -4.405969e-01 1.378169e-01 2.033722e-01
v -4.371836e-01 1.365520e-01 2.099766e-01
v -4.337703e-01 1.352871e-01 2.165810e-01
v -4.309905e-01 1.345534e-01 2.237646e-01
v -4.282173e-01 1.338220e-01 2.309359e-01
v -4.248104e-01 1.325595e-01 2.375280e-01
v -4.214034e-01 1.312970e-01 2.441202e-01
v -4.167039e-01 1.289626e-01 2.496032e-01
v -4.132906e-01 1.276977e-01 2.562076e-01
v -4.105298e-01 1.269710e-01 2.633544e-01
v -4.071197e-01 1.257073e-01 2.699526e-01
v -4.037096e-01 1.244436e-01 2.765510e-01
v -4.009617e-01 1.237217e-01 2.836732e-01
v -3.995506e-01 1.240880e-01 2.918188e-01
v -3.974901e-01 1.239172e-01 2.994159e-01
v -3.947707e-01 1.232059e-01 3.064828e-01
v -3.913827e-01 1.219504e-01 3.130382e-01
v -3.893507e-01 1.217902e-01 3.205800e-01
v -3.886936e-01 1.227323e-01 3.290716e-01
v -3.887463e-01 1.242338e-01 3.379951e-01
v -3.881432e-01 1.251960e-01 3.463825e-01
v -3.861841e-01 1.250628e-01 3.537834e-01
v -3.856253e-01 1.260413e-01 3.620848e-01
v -3.850919e-01 1.270293e-01 3.703373e-01
v -3.852840e-01 1.285825e-01 3.789910e-01
v -3.848044e-01 1.295904e-01 3.871392e-01
v -3.843503e-01 1.306078e-01 3.952384e-01
v -3.839214e-01 1.316344e-01 4.032883e-01
v -3.835180e-01 1.326706e-01 4.112894e-01
v -3.831398e-01 1.337161e-01 4.192414e-01
v -3.835062e-01 1.353339e-01 4.275578e-01
v -3.831820e-01 1.363994e-01 4.354055e-01
v -3.828831e-01 1.374742e-01 4.432042e-01
v -3.826095e-01 1.385584e-01 4.509537e-01
v -3.816295e-01 1.390845e-01 4.582653e-01
v -3.799335e-01 1.390488e-01 4.651572e-01
v -3.775119e-01 1.384478e-01 4.716477e-01
v -3.750967e-01 1.378492e-01 4.781261e-01
v -4.544232e-01 1.314837e-01 1.636848e-01
v -4.540103e-01 1.328490e-01 1.734690e-01
v -4.530183e-01 1.336961e-01 1.825768e-01
v -4.502096e-01 1.329589e-01 1.898086e-01
v -4.480243e-01 1.327564e-01 1.976310e-01
v -4.458518e-01 1.325586e-01 2.054288e-01
v -4.436919e-01 1.323655e-01 2.132020e-01
v -4.415447e-01 1.321771e-01 2.209508e-01
v -4.387803e-01 1.314564e-01 2.280968e-01
v -4.353892e-01 1.301997e-01 2.346583e-01
v -4.319981e-01 1.289431e-01 2.412198e-01
v -4.286070e-01 1.276864e-01 2.477813e-01
v -4.239308e-01 1.253461e-01 2.532352e-01
v -4.198876e-01 1.235441e-01 2.592613e-01
v -4.164869e-01 1.222839e-01 2.658412e-01
v -4.130863e-01 1.210237e-01 2.724211e-01
v -4.090306e-01 1.192171e-01 2.784719e-01
v -4.069436e-01 1.190510e-01 2.861041e-01
v -4.048693e-01 1.188897e-01 2.937119e-01
v -4.021430e-01 1.181830e-01 3.007842e-01
v -3.994228e-01 1.174786e-01 3.078442e-01
v -3.967092e-01 1.167767e-01 3.148921e-01
v -3.946761e-01 1.166306e-01 3.224201e-01
v -3.946879e-01 1.181532e-01 3.313825e-01
v -3.947314e-01 1.196876e-01 3.402837e-01
v -3.941230e-01 1.206769e-01 3.486495e-01
v -3.935397e-01 1.216754e-01 3.569661e-01
v -3.929818e-01 1.226832e-01 3.652337e-01
v -3.924494e-01 1.237006e-01 3.734523e-01
v -3.926387e-01 1.252891e-01 3.820713e-01
v -3.928597e-01 1.268893e-01 3.906291e-01
v -3.924096e-01 1.279371e-01 3.986881e-01
v -3.919849e-01 1.289944e-01 4.066983e-01
v -3.915855e-01 1.300610e-01 4.146593e-01
v -3.919238e-01 1.317047e-01 4.229901e-01
v -3.922938e-01 1.333601e-01 4.312596e-01
v -3.919767e-01 1.344573e-01 4.390612e-01
v -3.902416e-01 1.344215e-01 4.460128e-01
v -3.885190e-01 1.343905e-01 4.529398e-01
v -3.860811e-01 1.337908e-01 4.594542e-01
v -3.836494e-01 1.331933e-01 4.659562e-01
v -3.819587e-01 1.331740e-01 4.728219e-01
v -3.788052e-01 1.320054e-01 4.789235e-01
v -4.637263e-01 1.279640e-01 1.597777e-01
v -4.608853e-01 1.272222e-01 1.670638e-01
v -4.604665e-01 1.286216e-01 1.768196e-01
v -4.588652e-01 1.289609e-01 1.852852e-01
v -4.554519e-01 1.276960e-01 1.918896e-01
v -4.532655e-01 1.275076e-01 1.996982e-01
v -4.523251e-01 1.284027e-01 2.086739e-01
v -4.507902e-01 1.287667e-01 2.170108e-01
v -4.486514e-01 1.285959e-01 2.247273e-01
v -4.452730e-01 1.273439e-01 2.312642e-01
v -4.418945e-01 1.260919e-01 2.378012e-01
v -4.378837e-01 1.242947e-01 2.437731e-01
v -4.345021e-01 1.230416e-01 2.503161e-01
v -4.298429e-01 1.206931e-01 2.557533e-01
v -4.258129e-01 1.188888e-01 2.617619e-01
v -4.224218e-01 1.176321e-01 2.683234e-01
v -4.190307e-01 1.163754e-01 2.748849e-01
v -4.149880e-01 1.145664e-01 2.809179e-01
v -4.122485e-01 1.138621e-01 2.880079e-01
v -4.101730e-01 1.137148e-01 2.956016e-01
v -4.074493e-01 1.130164e-01 3.026610e-01
v -4.047319e-01 1.123202e-01 3.097080e-01
v -4.026882e-01 1.121847e-01 3.172406e-01
v -4.019981e-01 1.131726e-01 3.257318e-01
v -4.006598e-01 1.136095e-01 3.336887e-01
v -4.000173e-01 1.146150e-01 3.420880e-01
v -3.994002e-01 1.156300e-01 3.504382e-01
v -4.008581e-01 1.183467e-01 3.601408e-01
v -4.003012e-01 1.193839e-01 3.683746e-01
v -3.997696e-01 1.204307e-01 3.765593e-01
v -3.992634e-01 1.214867e-01 3.846949e-01
v -3.994784e-01 1.231209e-01 3.932240e-01
v -4.004242e-01 1.253369e-01 4.021285e-01
v -4.000036e-01 1.264247e-01 4.100985e-01
v -3.996083e-01 1.275219e-01 4.180196e-01
v -3.992385e-01 1.286285e-01 4.258915e-01
v -4.003173e-01 1.308938e-01 4.345383e-01
v -3.992896e-01 1.314457e-01 4.418941e-01
v -3.968447e-01 1.308506e-01 4.484137e-01
v -3.944062e-01 1.302578e-01 4.549210e-01
v -3.912496e-01 1.290881e-01 4.610288e-01
v -3.888206e-01 1.284989e-01 4.675178e-01
v -3.863979e-01 1.279120e-01 4.739945e-01
v -3.825138e-01 1.261617e-01 4.797210e-01
v -3.786233e-01 1.244090e-01 4.854597e-01
v -3.739862e-01 1.220688e-01 4.908539e-01
v -4.771231e-01 1.282321e-01 1.603687e-01
v -4.719314e-01 1.253536e-01 1.650713e-01
v -4.697059e-01 1.251653e-01 1.729395e-01
v -4.680933e-01 1.255222e-01 1.814029e-01
v -4.664997e-01 1.258861e-01 1.898292e-01
v -4.637120e-01 1.251713e-01 1.970044e-01
v -4.609307e-01 1.244587e-01 2.041671e-01
v -4.593815e-01 1.248391e-01 2.125076e-01
v -4.572352e-01 1.246801e-01 2.202227e-01
v -4.532439e-01 1.228828e-01 2.261645e-01
v -4.504911e-01 1.221809e-01 2.332721e-01
v -4.477445e-01 1.214812e-01 2.403674e-01
v -4.443756e-01 1.202327e-01 2.468859e-01
v -4.397429e-01 1.178796e-01 2.522879e-01
v -4.350974e-01 1.155218e-01 2.577144e-01
v -4.310774e-01 1.137139e-01 2.637114e-01
v -4.276927e-01 1.124596e-01 2.702606e-01
v -4.249526e-01 1.117623e-01 2.773437e-01
v -4.209232e-01 1.099509e-01 2.833591e-01
v -4.175384e-01 1.086966e-01 2.899083e-01
v -4.154619e-01 1.085634e-01 2.974884e-01
v -4.133981e-01 1.084350e-01 3.050440e-01
v -4.113469e-01 1.083112e-01 3.125749e-01
v -4.099720e-01 1.087562e-01 3.205783e-01
v -4.086162e-01 1.092083e-01 3.285448e-01
v -4.066094e-01 1.091009e-01 3.359899e-01
v -4.059614e-01 1.101334e-01 3.443676e-01
v -4.060152e-01 1.117442e-01 3.531687e-01
v -4.074597e-01 1.145067e-01 3.628411e-01
v -4.069005e-01 1.155722e-01 3.710472e-01
v -4.056810e-01 1.160748e-01 3.787502e-01
v -4.065473e-01 1.183048e-01 3.877600e-01
v -4.074517e-01 1.205490e-01 3.966963e-01
v -4.083942e-01 1.228073e-01 4.055591e-01
v -4.079776e-01 1.239256e-01 4.134891e-01
v -4.075865e-01 1.250534e-01 4.213702e-01
v -4.079256e-01 1.267698e-01 4.296194e-01
v -4.068802e-01 1.273370e-01 4.369850e-01
v -4.051428e-01 1.273294e-01 4.439089e-01
v -4.027037e-01 1.267438e-01 4.504094e-01
v -3.995535e-01 1.255764e-01 4.565048e-01
v -3.971239e-01 1.249942e-01 4.629868e-01
v -3.954245e-01 1.250007e-01 4.698370e-01
v -3.930108e-01 1.244244e-01 4.762885e-01
v -3.884128e-01 1.220842e-01 4.816230e-01
v -3.838023e-01 1.197393e-01 4.869821e-01
v -3.799155e-01 1.179807e-01 4.927216e-01
v -4.962205e-01 1.340120e-01 1.674998e-01
v -4.881777e-01 1.284281e-01 1.688778e-01
v -4.824448e-01 1.250019e-01 1.728780e-01
v -4.796535e-01 1.242930e-01 1.800522e-01
v -4.768683e-01 1.235862e-01 1.872141e-01
v -4.746894e-01 1.234297e-01 1.949766e-01
v -4.719200e-01 1.227288e-01 2.021078e-01
v -4.691572e-01 1.220304e-01 2.092269e-01
v -4.664006e-01 1.213342e-01 2.163335e-01
v -4.636503e-01 1.206404e-01 2.234279e-01
v -4.596754e-01 1.188420e-01 2.293461e-01
v -4.569315e-01 1.181506e-01 2.364283e-01
v -4.541941e-01 1.174616e-01 2.434984e-01
v -4.508378e-01 1.162179e-01 2.499924e-01
v -4.468532e-01 1.144158e-01 2.559289e-01
v -4.409685e-01 1.109334e-01 2.602236e-01
v -4.363272e-01 1.085625e-01 2.656578e-01
v -4.329488e-01 1.073105e-01 2.721948e-01
v -4.302113e-01 1.066216e-01 2.792648e-01
v -4.268361e-01 1.053707e-01 2.857957e-01
v -4.234608e-01 1.041200e-01 2.923265e-01
v -4.213862e-01 1.040020e-01 2.998865e-01
v -4.206316e-01 1.050241e-01 3.084389e-01
v -4.185888e-01 1.049179e-01 3.159376e-01
v -4.165586e-01 1.048164e-01 3.234116e-01
v -4.145412e-01 1.047196e-01 3.308613e-01
v -4.125366e-01 1.046276e-01 3.382864e-01
v -4.125527e-01 1.062607e-01 3.471203e-01
v -4.132730e-01 1.084801e-01 3.563645e-01
v -4.140315e-01 1.107138e-01 3.655352e-01
v -4.141490e-01 1.123845e-01 3.741729e-01
v -4.136161e-01 1.134887e-01 3.822959e-01
v -4.144792e-01 1.157611e-01 3.912642e-01
v -4.153803e-01 1.180476e-01 4.001590e-01
v -4.156278e-01 1.197664e-01 4.085453e-01
v -4.152122e-01 1.209140e-01 4.164414e-01
v -4.155199e-01 1.226552e-01 4.247112e-01
v -4.158593e-01 1.244081e-01 4.329196e-01
v -4.141175e-01 1.244135e-01 4.398357e-01
v -4.109736e-01 1.232484e-01 4.459189e-01
v -4.092510e-01 1.232609e-01 4.527982e-01
v -4.075409e-01 1.232780e-01 4.596530e-01
v -4.036928e-01 1.215266e-01 4.653259e-01
v -4.012785e-01 1.209573e-01 4.717703e-01
v -3.988706e-01 1.203904e-01 4.782025e-01
v -3.942896e-01 1.180420e-01 4.835203e-01
v -3.889663e-01 1.150930e-01 4.885012e-01
v -3.843569e-01 1.127340e-01 4.938742e-01
v -5.036370e-01 1.310959e-01 1.722014e-01
v -4.985594e-01 1.282162e-01 1.767310e-01
v -4.940492e-01 1.258795e-01 1.819277e-01
v -4.901162e-01 1.240893e-01 1.877731e-01
v -4.867694e-01 1.228491e-01 1.942487e-01
v -4.834227e-01 1.216088e-01 2.007244e-01
v -4.806750e-01 1.209232e-01 2.078058e-01
v -4.773314e-01 1.196842e-01 2.142753e-01
v -4.739878e-01 1.184451e-01 2.207448e-01
v -4.706443e-01 1.172061e-01 2.272144e-01
v -4.673008e-01 1.159670e-01 2.336838e-01
v -4.639571e-01 1.147280e-01 2.401534e-01
v -4.606136e-01 1.134889e-01 2.466229e-01
v -4.572700e-01 1.122499e-01 2.530925e-01
v -4.526776e-01 1.098827e-01 2.584486e-01
v -4.468171e-01 1.063801e-01 2.627280e-01
v -4.421928e-01 1.040011e-01 2.681455e-01
v -4.400919e-01 1.038879e-01 2.757407e-01
v -4.367293e-01 1.026418e-01 2.822470e-01
v -4.333667e-01 1.013957e-01 2.887533e-01
v -4.306476e-01 1.007207e-01 2.957795e-01
v -4.279350e-01 1.000482e-01 3.027936e-01
v -4.265282e-01 1.005249e-01 3.108106e-01
v -4.238344e-01 9.985928e-02 3.177876e-01
v -4.218031e-01 9.977191e-02 3.252479e-01
v -4.204440e-01 1.002662e-01 3.331728e-01
v -4.191039e-01 1.007677e-01 3.410612e-01
v -4.197797e-01 1.030142e-01 3.503436e-01
v -4.204935e-01 1.052748e-01 3.595523e-01
v -4.205734e-01 1.069678e-01 3.682227e-01
v -4.206850e-01 1.086725e-01 3.768318e-01
v -4.208283e-01 1.103890e-01 3.853797e-01
v -4.216848e-01 1.127025e-01 3.943125e-01
v -4.218946e-01 1.144437e-01 4.027316e-01
v -4.228241e-01 1.167842e-01 4.115234e-01
v -4.231005e-01 1.185500e-01 4.198137e-01
v -4.241027e-01 1.209175e-01 4.284644e-01
v -4.237483e-01 1.221169e-01 4.362102e-01
v -4.220182e-01 1.221411e-01 4.430879e-01
v -4.195970e-01 1.215765e-01 4.495377e-01
v -4.178890e-01 1.216089e-01 4.563725e-01
v -4.161937e-01 1.216460e-01 4.631827e-01
v -4.130847e-01 1.204939e-01 4.691984e-01
v -4.092593e-01 1.187436e-01 4.748353e-01
v -4.054275e-01 1.169909e-01 4.804845e-01
v -4.008667e-01 1.146354e-01 4.857792e-01
v -3.955672e-01 1.116736e-01 4.907381e-01
v -3.887908e-01 1.074989e-01 4.950251e-01
v -5.074390e-01 1.228481e-01 1.627168e-01
v -5.127380e-01 1.299108e-01 1.788188e-01
v -5.088593e-01 1.281335e-01 1.845668e-01
v -5.043915e-01 1.257980e-01 1.896976e-01
v -5.004968e-01 1.240147e-01 1.954763e-01
v -4.965959e-01 1.222292e-01 2.012673e-01
v -4.920964e-01 1.198819e-01 2.064594e-01
v -4.881797e-01 1.180905e-01 2.122811e-01
v -4.848551e-01 1.168585e-01 2.187139e-01
v -4.815306e-01 1.156265e-01 2.251466e-01
v -4.776010e-01 1.138304e-01 2.309927e-01
v -4.736654e-01 1.120320e-01 2.368512e-01
v -4.703344e-01 1.107976e-01 2.432962e-01
v -4.663891e-01 1.089956e-01 2.491730e-01
v -4.624374e-01 1.071913e-01 2.550620e-01
v -4.584795e-01 1.053846e-01 2.609634e-01
v -4.532674e-01 1.024333e-01 2.657775e-01
v -4.492903e-01 1.006195e-01 2.717156e-01
v -4.465675e-01 9.995051e-02 2.787411e-01
v -4.432176e-01 9.870910e-02 2.852229e-01
v -4.398678e-01 9.746770e-02 2.917047e-01
v -4.371576e-01 9.680329e-02 2.987055e-01
v -4.344537e-01 9.614118e-02 3.056941e-01
v -4.311101e-01 9.490212e-02 3.121637e-01
v -4.290651e-01 9.482419e-02 3.196346e-01
v -4.270329e-01 9.475093e-02 3.270811e-01
v -4.263245e-01 9.584813e-02 3.354798e-01
v -4.256413e-01 9.695467e-02 3.438295e-01
v -4.269695e-01 9.982644e-02 3.535587e-01
v -4.276768e-01 1.021281e-01 3.627320e-01
v -4.270857e-01 1.032688e-01 3.709040e-01
v -4.271913e-01 1.050076e-01 3.794845e-01
v -4.273286e-01 1.067582e-01 3.880038e-01
v -4.288532e-01 1.097027e-01 3.973528e-01
v -4.297412e-01 1.120714e-01 4.061766e-01
v -4.306672e-01 1.144541e-01 4.149267e-01
v -4.316313e-01 1.168510e-01 4.236033e-01
v -4.326334e-01 1.192620e-01 4.322063e-01
v -4.322863e-01 1.204930e-01 4.399060e-01
v -4.312677e-01 1.211354e-01 4.471479e-01
v -4.295681e-01 1.211854e-01 4.539505e-01
v -4.278812e-01 1.212402e-01 4.607285e-01
v -4.262070e-01 1.212996e-01 4.674819e-01
v -4.245455e-01 1.213638e-01 4.742109e-01
v -4.221839e-01 1.208285e-01 4.805372e-01
v -4.191130e-01 1.196905e-01 4.864794e-01
v -4.146039e-01 1.173397e-01 4.916899e-01
v -4.093601e-01 1.143766e-01 4.965653e-01
v -4.098999e-01 1.162763e-01 5.043058e-01
v -5.322774e-01 1.351549e-01 1.773371e-01
v -5.256121e-01 1.306018e-01 1.797402e-01
v -5.206266e-01 1.277127e-01 1.841397e-01
v -5.167737e-01 1.259377e-01 1.898456e-01
v -5.129146e-01 1.241604e-01 1.955638e-01
v -5.084669e-01 1.218178e-01 2.006716e-01
v -5.040065e-01 1.194705e-01 2.058041e-01
v -5.001221e-01 1.176838e-01 2.115714e-01
v -4.962312e-01 1.158948e-01 2.173509e-01
v -4.929288e-01 1.146710e-01 2.237408e-01
v -4.896264e-01 1.134472e-01 2.301305e-01
v -4.857229e-01 1.116534e-01 2.359345e-01
v -4.812086e-01 1.092861e-01 2.411712e-01
v -4.772893e-01 1.074866e-01 2.470059e-01
v -4.721422e-01 1.045376e-01 2.517183e-01
v -4.675899e-01 1.021563e-01 2.570285e-01
v -4.636420e-01 1.003460e-01 2.629184e-01
v -4.590676e-01 9.795648e-02 2.682715e-01
v -4.557272e-01 9.671859e-02 2.747349e-01
v -4.523868e-01 9.548069e-02 2.811983e-01
v -4.490464e-01 9.424281e-02 2.876617e-01
v -4.457060e-01 9.300494e-02 2.941251e-01
v -4.423656e-01 9.176706e-02 3.005884e-01
v -4.396644e-01 9.111316e-02 3.075640e-01
v -4.369696e-01 9.046172e-02 3.145274e-01
v -4.349265e-01 9.039898e-02 3.219782e-01
v -4.341937e-01 9.151621e-02 3.303923e-01
v -4.334862e-01 9.264281e-02 3.387571e-01
v -4.328040e-01 9.377870e-02 3.470730e-01
v -4.334636e-01 9.610623e-02 3.562905e-01
v -4.341614e-01 9.844798e-02 3.654345e-01
v -4.342325e-01 1.002103e-01 3.740417e-01
v -4.336676e-01 1.013897e-01 3.821307e-01
v -4.331281e-01 1.025785e-01 3.901706e-01
v -4.353103e-01 1.061647e-01 3.999403e-01
v -4.375430e-01 1.097696e-01 4.096119e-01
v -4.391462e-01 1.127940e-01 4.187530e-01
v -4.401101e-01 1.152343e-01 4.273818e-01
v -4.411120e-01 1.176887e-01 4.359370e-01
v -4.407721e-01 1.189515e-01 4.435906e-01
v -4.397645e-01 1.196197e-01 4.507872e-01
v -4.387759e-01 1.202949e-01 4.579470e-01
v -4.371069e-01 1.203708e-01 4.646744e-01
v -4.361532e-01 1.210589e-01 4.717667e-01
v -4.359242e-01 1.223628e-01 4.792056e-01
v -4.350118e-01 1.230662e-01 4.862182e-01
v -4.334061e-01 1.231656e-01 4.928229e-01
v -4.303826e-01 1.220451e-01 4.986731e-01
v -4.266407e-01 1.203113e-01 5.041644e-01
v -4.265005e-01 1.216481e-01 5.114316e-01
v -4.271104e-01 1.236100e-01 5.189964e-01
v -5.366605e-01 1.296979e-01 1.788111e-01
v -5.322836e-01 1.273671e-01 1.837979e-01
v -5.273252e-01 1.244663e-01 1.881692e-01
v -5.229198e-01 1.221249e-01 1.932112e-01
v -5.196523e-01 1.209140e-01 1.995336e-01
v -5.152279e-01 1.185655e-01 2.046124e-01
v -5.107908e-01 1.162123e-01 2.097157e-01
v -5.069260e-01 1.144256e-01 2.154531e-01
v -5.042304e-01 1.137812e-01 2.224095e-01
v -5.003592e-01 1.119921e-01 2.281592e-01
v -4.964816e-01 1.102008e-01 2.339211e-01
v -4.920001e-01 1.078312e-01 2.391103e-01
v -4.881066e-01 1.060338e-01 2.449028e-01
v -4.842069e-01 1.042342e-01 2.507078e-01
v -4.803007e-01 1.024322e-01 2.565248e-01
v -4.757781e-01 1.000474e-01 2.617938e-01
v -4.712428e-01 9.765778e-02 2.670873e-01
v -4.666948e-01 9.526346e-02 2.724052e-01
v -4.627538e-01 9.344862e-02 2.782898e-01
v -4.594292e-01 9.221661e-02 2.847226e-01
v -4.561047e-01 9.098458e-02 2.911553e-01
v -4.527801e-01 8.975256e-02 2.975880e-01
v -4.488232e-01 8.793175e-02 3.035031e-01
v -4.454955e-01 8.669858e-02 3.099420e-01
v -4.434451e-01 8.664760e-02 3.173914e-01
v -4.420492e-01 8.719363e-02 3.253153e-01
v -4.413173e-01 8.834023e-02 3.336955e-01
v -4.406108e-01 8.949617e-02 3.420265e-01
v -4.405808e-01 9.125723e-02 3.507891e-01
v -4.405826e-01 9.303012e-02 3.594905e-01
v -4.406161e-01 9.481476e-02 3.681305e-01
v -4.413422e-01 9.721046e-02 3.771716e-01
v -4.414422e-01 9.901975e-02 3.856829e-01
v -4.415739e-01 1.008408e-01 3.941328e-01
v -4.430781e-01 1.038793e-01 4.034093e-01
v -4.446265e-01 1.069342e-01 4.125999e-01
v -4.468962e-01 1.106108e-01 4.221363e-01
v -4.478567e-01 1.130934e-01 4.307235e-01
v -4.488553e-01 1.155901e-01 4.392372e-01
v -4.485195e-01 1.168835e-01 4.468508e-01
v -4.488985e-01 1.187961e-01 4.548224e-01
v -4.479240e-01 1.194983e-01 4.619307e-01
v -4.469687e-01 1.202076e-01 4.690023e-01
v -4.453334e-01 1.203105e-01 4.756483e-01
v -4.451149e-01 1.216473e-01 4.830349e-01
v -4.449218e-01 1.229935e-01 4.903725e-01
v -4.440456e-01 1.237321e-01 4.972908e-01
v -4.417654e-01 1.232416e-01 5.034438e-01
v -4.402062e-01 1.233726e-01 5.099427e-01
v -4.393776e-01 1.241289e-01 5.167689e-01
v -4.385679e-01 1.248922e-01 5.235584e-01
v -5.410359e-01 1.242527e-01 1.802833e-01
v -5.372317e-01 1.224812e-01 1.859111e-01
v -5.328560e-01 1.201363e-01 1.909118e-01
v -5.284676e-01 1.177866e-01 1.959371e-01
v -5.246381e-01 1.160058e-01 2.016141e-01
v -5.213769e-01 1.147973e-01 2.079241e-01
v -5.169600e-01 1.124371e-01 2.130046e-01
v -5.136925e-01 1.112262e-01 2.193269e-01
v -5.110092e-01 1.105934e-01 2.262517e-01
v -5.077448e-01 1.093837e-01 2.325680e-01
v -5.027089e-01 1.064325e-01 2.371134e-01
v -4.976539e-01 1.034741e-01 2.416954e-01
v -4.931767e-01 1.010915e-01 2.468924e-01
v -4.898870e-01 9.987242e-02 2.532576e-01
v -4.872006e-01 9.923867e-02 2.601888e-01
v -4.833076e-01 9.743426e-02 2.659882e-01
v -4.787988e-01 9.503997e-02 2.712465e-01
v -4.742774e-01 9.264108e-02 2.765293e-01
v -4.703590e-01 9.082727e-02 2.823779e-01
v -4.670535e-01 8.960232e-02 2.887739e-01
v -4.631258e-01 8.778513e-02 2.946408e-01
v -4.598171e-01 8.655899e-02 3.010429e-01
v -4.565083e-01 8.533286e-02 3.074449e-01
v -4.531996e-01 8.410671e-02 3.138470e-01
v -4.505258e-01 8.347750e-02 3.207535e-01
v -4.484965e-01 8.344892e-02 3.281461e-01
v -4.477624e-01 8.462365e-02 3.364985e-01
v -4.476979e-01 8.640823e-02 3.452877e-01
v -4.470177e-01 8.760295e-02 3.535359e-01
v -4.470136e-01 8.940990e-02 3.622087e-01
v -4.476951e-01 9.183259e-02 3.712878e-01
v -4.490716e-01 9.487465e-02 3.807550e-01
v -4.504926e-01 9.793310e-02 3.901362e-01
v -4.506311e-01 9.979291e-02 3.985331e-01
v -4.514678e-01 1.022731e-01 4.073117e-01
v -4.530125e-01 1.053774e-01 4.164537e-01
v -4.546014e-01 1.084981e-01 4.255100e-01
v -4.562347e-01 1.116353e-01 4.344804e-01
v -4.572331e-01 1.141754e-01 4.429463e-01
v -4.575871e-01 1.161151e-01 4.509262e-01
v -4.579727e-01 1.180665e-01 4.588448e-01
v -4.577013e-01 1.194127e-01 4.663018e-01
v -4.560713e-01 1.195320e-01 4.729217e-01
v -4.544540e-01 1.196561e-01 4.795171e-01
v -4.535476e-01 1.204052e-01 4.864696e-01
v -4.533618e-01 1.217832e-01 4.937611e-01
v -4.524965e-01 1.225477e-01 5.006341e-01
v -4.516504e-01 1.233192e-01 5.074702e-01
v -4.494014e-01 1.228474e-01 5.135549e-01
v -4.493011e-01 1.242570e-01 5.206809e-01
v -4.485088e-01 1.250485e-01 5.274127e-01
v -5.448488e-01 1.182444e-01 1.811031e-01
v -5.410484e-01 1.164671e-01 1.867319e-01
v -5.372415e-01 1.146874e-01 1.923726e-01
v -5.334284e-01 1.129054e-01 1.980259e-01
v -5.296089e-01 1.111210e-01 2.036912e-01
v -5.257832e-01 1.093344e-01 2.093689e-01
v -5.225252e-01 1.081270e-01 2.156729e-01
v -5.192672e-01 1.069197e-01 2.219768e-01
v -5.165895e-01 1.062963e-01 2.288824e-01
v -5.133347e-01 1.050901e-01 2.351803e-01
v -5.094932e-01 1.032976e-01 2.408887e-01
v -5.050551e-01 1.009150e-01 2.460259e-01
v -5.000114e-01 9.793912e-02 2.506104e-01
v -4.961412e-01 9.613595e-02 2.563740e-01
v -4.922646e-01 9.433037e-02 2.621498e-01
v -4.889844e-01 9.311482e-02 2.684966e-01
v -4.850985e-01 9.130582e-02 2.742909e-01
v -4.805971e-01 8.889976e-02 2.795506e-01
v -4.773074e-01 8.768065e-02 2.859159e-01
v -4.734024e-01 8.586465e-02 2.917470e-01
v -4.694909e-01 8.404615e-02 2.975901e-01
v -4.668167e-01 8.342412e-02 3.044898e-01
v -4.641487e-01 8.280431e-02 3.113770e-01
v -4.614871e-01 8.218695e-02 3.182521e-01
v -4.582005e-01 8.096907e-02 3.246113e-01
v -4.555484e-01 8.035516e-02 3.314679e-01
v -4.548150e-01 8.155917e-02 3.397863e-01
v -4.541073e-01 8.277273e-02 3.480558e-01
v -4.540687e-01 8.460314e-02 3.567553e-01
v -4.547087e-01 8.705405e-02 3.658665e-01
v -4.553868e-01 8.951906e-02 3.749040e-01
v -4.567564e-01 9.260921e-02 3.843287e-01
v -4.581702e-01 9.571587e-02 3.936675e-01
v -4.589688e-01 9.822545e-02 4.024720e-01
v -4.598055e-01 1.007492e-01 4.112029e-01
v -4.606801e-01 1.032870e-01 4.198603e-01
v -4.636004e-01 1.076898e-01 4.297342e-01
v -4.652330e-01 1.108775e-01 4.386499e-01
v -4.662344e-01 1.134623e-01 4.470620e-01
v -4.659164e-01 1.148202e-01 4.545771e-01
v -4.656237e-01 1.161875e-01 4.620433e-01
v -4.653563e-01 1.175643e-01 4.694603e-01
v -4.644261e-01 1.183264e-01 4.764350e-01
v -4.628235e-01 1.184704e-01 4.829859e-01
v -4.619281e-01 1.192454e-01 4.898932e-01
v -4.617496e-01 1.206551e-01 4.971385e-01
v -4.608954e-01 1.214454e-01 5.039661e-01
v -4.600602e-01 1.222428e-01 5.107569e-01
v -4.585369e-01 1.224161e-01 5.171544e-01
v -4.570261e-01 1.225942e-01 5.235274e-01
v -4.562417e-01 1.234104e-01 5.302201e-01
v -5.486618e-01 1.122362e-01 1.819231e-01
v -5.448650e-01 1.104530e-01 1.875525e-01
v -5.410619e-01 1.086674e-01 1.931941e-01
v -5.378134e-01 1.074636e-01 1.994796e-01
v -5.345649e-01 1.062598e-01 2.057652e-01
v -5.307492e-01 1.044696e-01 2.114315e-01
v -5.274975e-01 1.032646e-01 2.177232e-01
v -5.242459e-01 1.020596e-01 2.240148e-01
v -5.215710e-01 1.014445e-01 2.309074e-01
v -5.183224e-01 1.002406e-01 2.371930e-01
v -5.144909e-01 9.844461e-02 2.428899e-01
v -5.106529e-01 9.664611e-02 2.485990e-01
v -5.068088e-01 9.484538e-02 2.543205e-01
v -5.029581e-01 9.304219e-02 2.600541e-01
v -5.002927e-01 9.243065e-02 2.669284e-01
v -4.964358e-01 9.062515e-02 2.726743e-01
v -4.925725e-01 8.881723e-02 2.784324e-01
v -4.887030e-01 8.700710e-02 2.842029e-01
v -4.848269e-01 8.519444e-02 2.899856e-01
v -4.809447e-01 8.337962e-02 2.957807e-01
v -4.770561e-01 8.156240e-02 3.015879e-01
v -4.743970e-01 8.095318e-02 3.084499e-01
v -4.717442e-01 8.034629e-02 3.152995e-01
v -4.684735e-01 7.913423e-02 3.216280e-01
v -4.658304e-01 7.853103e-02 3.284594e-01
v -4.631934e-01 7.792997e-02 3.352784e-01
v -4.618305e-01 7.855351e-02 3.430662e-01
v -4.617607e-01 8.040862e-02 3.517863e-01
v -4.623626e-01 8.288891e-02 3.609233e-01
v -4.630025e-01 8.538334e-02 3.699868e-01
v -4.643269e-01 8.850756e-02 3.794426e-01
v -4.656957e-01 9.164822e-02 3.888126e-01
v -4.664561e-01 9.418722e-02 3.976430e-01
v -4.659425e-01 9.550171e-02 4.055045e-01
v -4.667725e-01 9.806657e-02 4.142000e-01
v -4.696277e-01 1.025105e-01 4.241279e-01
v -4.725398e-01 1.069755e-01 4.339456e-01
v -4.735030e-01 1.095897e-01 4.423836e-01
v -4.738323e-01 1.115927e-01 4.503308e-01
v -4.735184e-01 1.129813e-01 4.578060e-01
v -4.732299e-01 1.143791e-01 4.652321e-01
v -4.722852e-01 1.151576e-01 4.722106e-01
v -4.706752e-01 1.153134e-01 4.787599e-01
v -4.704532e-01 1.167360e-01 4.860572e-01
v -4.702565e-01 1.181679e-01 4.933054e-01
v -4.686971e-01 1.183424e-01 4.997566e-01
v -4.685448e-01 1.197908e-01 5.069191e-01
v -4.677175e-01 1.206128e-01 5.136706e-01
v -4.662057e-01 1.208050e-01 5.200297e-01
v -4.639998e-01 1.203637e-01 5.260147e-01
v -5.530223e-01 1.068144e-01 1.833921e-01
v -5.492325e-01 1.050265e-01 1.890163e-01
v -5.448822e-01 1.026475e-01 1.940156e-01
v -5.416338e-01 1.014436e-01 2.003011e-01
v -5.389457e-01 1.008310e-01 2.072115e-01
v -5.362639e-01 1.002206e-01 2.141094e-01
v -5.330217e-01 9.901915e-02 2.203827e-01
v -5.303495e-01 9.841231e-02 2.272622e-01
v -5.276835e-01 9.780784e-02 2.341296e-01
v -5.244477e-01 9.660869e-02 2.403906e-01
v -5.212119e-01 9.540960e-02 2.466516e-01
v -5.173935e-01 9.361110e-02 2.523309e-01
v -5.135689e-01 9.181030e-02 2.580224e-01
v -5.103267e-01 9.060883e-02 2.642957e-01
v -5.082686e-01 9.061307e-02 2.716958e-01
v -5.044376e-01 8.880990e-02 2.773995e-01
v -5.006003e-01 8.700442e-02 2.831156e-01
v -4.973582e-01 8.580293e-02 2.893888e-01
v -4.929065e-01 8.338625e-02 2.945844e-01
v -4.884421e-01 8.096501e-02 2.998046e-01
v -4.851873e-01 7.975885e-02 3.061024e-01
v -4.825468e-01 7.916379e-02 3.129207e-01
v -4.792952e-01 7.795880e-02 3.192124e-01
v -4.760435e-01 7.675378e-02 3.255041e-01
v -4.734155e-01 7.616332e-02 3.322978e-01
v -4.720478e-01 7.680689e-02 3.400710e-01
v -4.706990e-01 7.745747e-02 3.478075e-01
v -4.706359e-01 7.935134e-02 3.564744e-01
v -4.712408e-01 8.187627e-02 3.655576e-01
v -4.725232e-01 8.503571e-02 3.750386e-01
v -4.744929e-01 8.883333e-02 3.848988e-01
v -4.752213e-01 9.140401e-02 3.937428e-01
v -4.753388e-01 9.336481e-02 4.020602e-01
v -4.748355e-01 9.471220e-02 4.098694e-01
v -4.763241e-01 9.794806e-02 4.189517e-01
v -4.791742e-01 1.024554e-01 4.288173e-01
v -4.807577e-01 1.057264e-01 4.377157e-01
v -4.817208e-01 1.083840e-01 4.461059e-01
v -4.820537e-01 1.104247e-01 4.540063e-01
v -4.817470e-01 1.118449e-01 4.614353e-01
v -4.807912e-01 1.126411e-01 4.684114e-01
v -4.791769e-01 1.128098e-01 4.749529e-01
v -4.782560e-01 1.136189e-01 4.818615e-01
v -4.773541e-01 1.144351e-01 4.887333e-01
v -4.764713e-01 1.152583e-01 4.955683e-01
v -4.756074e-01 1.160885e-01 5.023666e-01
v -4.740691e-01 1.162854e-01 5.087609e-01
v -4.732401e-01 1.171285e-01 5.154917e-01
v -4.717304e-01 1.173360e-01 5.218308e-01
v -4.688273e-01 1.162602e-01 5.274479e-01
v -5.573755e-01 1.014043e-01 1.848596e-01
v -5.530454e-01 9.901826e-02 1.898361e-01
v -5.492530e-01 9.722218e-02 1.954733e-01
v -5.465612e-01 9.661534e-02 2.023827e-01
v -5.449889e-01 9.720478e-02 2.105276e-01
v -5.423160e-01 9.660501e-02 2.174003e-01
v -5.396495e-01 9.600761e-02 2.242607e-01
v -5.369894e-01 9.541249e-02 2.311087e-01
v -5.343356e-01 9.481975e-02 2.379446e-01
v -5.311156e-01 9.362647e-02 2.441749e-01
v -5.284712e-01 9.303722e-02 2.509923e-01
v -5.246756e-01 9.123996e-02 2.566357e-01
v -5.214557e-01 9.004673e-02 2.628659e-01
v -5.182357e-01 8.885346e-02 2.690964e-01
v -5.161923e-01 8.887767e-02 2.764518e-01
v -5.129787e-01 8.768678e-02 2.826699e-01
v -5.091705e-01 8.588477e-02 2.883378e-01
v -5.047581e-01 8.346821e-02 2.934737e-01
v -5.003329e-01 8.104692e-02 2.986341e-01
v -4.964992e-01 7.923548e-02 3.043510e-01
v -4.932666e-01 7.803756e-02 3.106059e-01
v -4.906444e-01 7.745658e-02 3.173804e-01
v -4.880287e-01 7.687798e-02 3.241427e-01
v -4.848024e-01 7.568238e-02 3.303853e-01
v -4.821960e-01 7.510721e-02 3.371292e-01
v -4.802193e-01 7.515606e-02 3.443558e-01
v -4.801343e-01 7.707821e-02 3.530250e-01
v -4.807104e-01 7.963594e-02 3.621155e-01
v -4.806920e-01 8.158267e-02 3.706558e-01
v -4.819769e-01 8.479383e-02 3.800759e-01
v -4.839452e-01 8.864900e-02 3.898746e-01
v -4.840376e-01 9.063680e-02 3.982003e-01
v -4.841618e-01 9.263640e-02 4.064646e-01
v -4.849661e-01 9.527874e-02 4.151137e-01
v -4.864603e-01 9.856746e-02 4.241291e-01
v -4.886536e-01 1.025059e-01 4.334923e-01
v -4.895816e-01 1.051941e-01 4.419023e-01
v -4.905476e-01 1.078964e-01 4.502386e-01
v -4.908872e-01 1.099758e-01 4.580859e-01
v -4.905910e-01 1.114289e-01 4.654627e-01
v -4.896495e-01 1.122521e-01 4.723873e-01
v -4.880530e-01 1.124419e-01 4.788781e-01
v -4.857922e-01 1.119948e-01 4.849536e-01
v -4.842179e-01 1.121928e-01 4.914015e-01
v -4.826563e-01 1.123955e-01 4.978248e-01
v -4.804208e-01 1.119579e-01 5.038512e-01
v -4.781917e-01 1.115225e-01 5.098654e-01
v -4.780476e-01 1.130320e-01 5.169478e-01
v -4.758406e-01 1.126049e-01 5.229190e-01
v -5.628017e-01 9.720237e-02 1.876207e-01
v -5.574017e-01 9.360938e-02 1.912975e-01
v -5.541627e-01 9.240908e-02 1.975646e-01
v -5.520232e-01 9.241214e-02 2.050902e-01
v -5.504493e-01 9.302278e-02 2.132143e-01
v -5.483383e-01 9.303640e-02 2.206846e-01
v -5.456807e-01 9.244957e-02 2.275197e-01
v -5.430296e-01 9.186509e-02 2.343425e-01
v -5.409502e-01 9.189042e-02 2.417516e-01
v -5.377461e-01 9.070305e-02 2.479513e-01
v -5.351139e-01 9.012563e-02 2.547373e-01
v -5.324880e-01 8.955048e-02 2.615109e-01
v -5.292903e-01 8.836542e-02 2.676984e-01
v -5.266740e-01 8.779390e-02 2.744538e-01
v -5.240639e-01 8.722459e-02 2.811968e-01
v -5.208724e-01 8.604191e-02 2.873720e-01
v -5.170901e-01 8.424230e-02 2.929977e-01
v -5.115191e-01 8.058587e-02 2.970055e-01
v -5.077146e-01 7.877805e-02 3.026742e-01
v -5.051045e-01 7.820874e-02 3.094172e-01
v -5.018972e-01 7.702019e-02 3.156230e-01
v -4.992967e-01 7.645448e-02 3.223477e-01
v -4.967026e-01 7.589117e-02 3.290601e-01
v -4.941147e-01 7.533009e-02 3.357602e-01
v -4.915332e-01 7.477145e-02 3.424482e-01
v -4.901970e-01 7.547017e-02 3.501123e-01
v -4.901250e-01 7.743332e-02 3.587161e-01
v -4.907105e-01 8.003808e-02 3.677405e-01
v -4.907051e-01 8.202591e-02 3.762155e-01
v -4.919956e-01 8.528992e-02 3.855687e-01
v -4.933305e-01 8.857043e-02 3.948360e-01
v -4.940713e-01 9.123269e-02 4.035599e-01
v -4.948501e-01 9.390916e-02 4.122103e-01
v -4.950222e-01 9.596277e-02 4.203419e-01
v -4.965219e-01 9.930432e-02 4.292903e-01
v -4.974148e-01 1.020230e-01 4.377199e-01
v -4.983458e-01 1.047558e-01 4.460760e-01
v -4.986573e-01 1.068611e-01 4.539377e-01
v -4.996611e-01 1.096209e-01 4.621527e-01
v -4.987116e-01 1.104629e-01 4.690688e-01
v -4.971140e-01 1.106668e-01 4.755457e-01
v -4.948589e-01 1.102291e-01 4.816020e-01
v -4.926102e-01 1.097938e-01 4.876460e-01
v -4.903678e-01 1.093607e-01 4.936777e-01
v -4.881318e-01 1.089301e-01 4.996971e-01
v -4.852192e-01 1.078508e-01 5.053327e-01
v -4.829927e-01 1.074236e-01 5.113337e-01
v -4.821508e-01 1.083056e-01 5.180413e-01
v -4.792510e-01 1.072309e-01 5.236523e-01
v -5.628299e-01 8.942267e-02 1.940386e-01
v -5.590576e-01 8.761950e-02 1.996527e-01
v -5.569170e-01 8.763671e-02 2.071645e-01
v -5.547890e-01 8.765855e-02 2.146517e-01
v -5.532261e-01 8.829508e-02 2.227305e-01
v -5.511266e-01 8.832748e-02 2.301625e-01
v -5.501573e-01 8.958913e-02 2.387776e-01
v -5.480895e-01 8.963333e-02 2.461483e-01
v -5.454694e-01 8.906755e-02 2.529028e-01
v -5.434239e-01 8.911997e-02 2.602305e-01
v -5.408196e-01 8.856014e-02 2.669545e-01
v -5.382218e-01 8.800266e-02 2.736661e-01
v -5.350525e-01 8.682821e-02 2.797983e-01
v -5.318833e-01 8.565373e-02 2.859306e-01
v -5.287140e-01 8.447928e-02 2.920628e-01
v -5.243703e-01 8.205907e-02 2.970976e-01
v -5.206043e-01 8.025835e-02 3.026996e-01
v -5.180191e-01 7.970547e-02 3.093867e-01
v -5.154402e-01 7.915502e-02 3.160615e-01
v -5.110681e-01 7.672438e-02 3.211515e-01
v -5.078893e-01 7.554639e-02 3.273022e-01
v -5.053167e-01 7.499823e-02 3.339647e-01
v -5.033600e-01 7.508358e-02 3.411208e-01
v -5.020283e-01 7.580576e-02 3.487519e-01
v -5.013315e-01 7.716842e-02 3.568397e-01
v -5.012789e-01 7.917504e-02 3.653658e-01
v -5.006360e-01 8.055769e-02 3.733494e-01
v -5.012688e-01 8.322352e-02 3.822342e-01
v -5.025681e-01 8.654157e-02 3.915143e-01
v -5.032802e-01 8.923681e-02 4.002457e-01
v -5.046651e-01 9.258656e-02 4.093603e-01
v -5.048185e-01 9.466952e-02 4.174878e-01
v -5.050037e-01 9.676424e-02 4.255540e-01
v -5.058647e-01 9.951466e-02 4.339972e-01
v -5.061164e-01 1.016340e-01 4.419347e-01
v -5.063997e-01 1.037651e-01 4.498108e-01
v -5.073685e-01 1.065555e-01 4.580455e-01
v -5.070615e-01 1.080627e-01 4.653791e-01
v -5.054597e-01 1.082795e-01 4.718484e-01
v -5.038705e-01 1.085010e-01 4.782930e-01
v -5.016276e-01 1.080750e-01 4.843178e-01
v -4.987214e-01 1.069980e-01 4.899411e-01
v -4.964879e-01 1.065756e-01 4.959474e-01
v -4.935849e-01 1.054998e-01 5.015646e-01
v -4.913610e-01 1.050809e-01 5.075526e-01
v -4.891434e-01 1.046643e-01 5.135284e-01
v -4.862466e-01 1.035908e-01 5.191332e-01
v -4.833500e-01 1.025174e-01 5.247381e-01
v -5.671639e-01 8.404907e-02 1.954951e-01
v -5.639377e-01 8.285348e-02 2.017378e-01
v -5.623381e-01 8.349811e-02 2.098631e-01
v -5.607576e-01 8.414985e-02 2.179518e-01
v -5.597449e-01 8.542452e-02 2.266191e-01
v -5.582056e-01 8.609151e-02 2.346280e-01
v -5.572403e-01 8.738364e-02 2.432031e-01
v -5.557422e-01 8.806600e-02 2.511324e-01
v -5.542632e-01 8.875528e-02 2.590248e-01
v -5.522387e-01 8.883003e-02 2.662957e-01
v -5.496592e-01 8.828656e-02 2.729636e-01
v -5.465154e-01 8.712150e-02 2.790468e-01
v -5.439454e-01 8.658165e-02 2.856962e-01
v -5.402275e-01 8.479136e-02 2.912132e-01
v -5.365033e-01 8.299883e-02 2.967423e-01
v -5.333563e-01 8.183259e-02 3.028317e-01
v -5.296226e-01 8.003649e-02 3.083793e-01
v -5.270621e-01 7.950011e-02 3.150103e-01
v -5.245080e-01 7.896605e-02 3.216291e-01
v -5.207680e-01 7.716762e-02 3.271889e-01
v -5.182202e-01 7.663590e-02 3.337955e-01
v -5.162813e-01 7.674237e-02 3.409008e-01
v -5.137494e-01 7.621659e-02 3.474768e-01
v -5.118327e-01 7.633122e-02 3.545392e-01
v -5.105407e-01 7.708984e-02 3.620698e-01
v -5.111131e-01 7.977683e-02 3.710234e-01
v -5.111053e-01 8.183631e-02 3.794227e-01
v -5.117506e-01 8.455036e-02 3.882353e-01
v -5.124340e-01 8.727850e-02 3.969742e-01
v -5.131555e-01 9.002065e-02 4.056395e-01
v -5.145460e-01 9.342329e-02 4.146870e-01
v -5.147124e-01 9.554742e-02 4.227493e-01
v -5.142733e-01 9.703455e-02 4.303066e-01
v -5.151405e-01 9.983077e-02 4.386898e-01
v -5.160457e-01 1.026411e-01 4.469994e-01
v -5.156952e-01 1.041611e-01 4.543850e-01
v -5.153702e-01 1.056906e-01 4.617215e-01
v -5.137640e-01 1.059203e-01 4.681829e-01
v -5.128269e-01 1.068105e-01 4.750267e-01
v -5.112493e-01 1.070508e-01 4.814330e-01
v -5.083590e-01 1.059797e-01 4.870257e-01
v -5.054686e-01 1.049086e-01 4.926182e-01
v -5.032473e-01 1.044978e-01 4.985931e-01
v -4.996878e-01 1.027664e-01 5.038034e-01
v -4.967975e-01 1.016952e-01 5.093961e-01
v -4.945857e-01 1.012880e-01 5.153526e-01
v -4.910168e-01 9.955302e-02 5.205813e-01
v -4.853868e-01 9.581678e-02 5.247673e-01
v -5.693380e-01 7.872894e-02 2.044523e-01
v -5.682753e-01 8.001413e-02 2.131838e-01
v -5.677798e-01 8.192917e-02 2.224869e-01
v -5.678609e-01 8.447762e-02 2.323432e-01
v -5.685281e-01 8.766296e-02 2.427343e-01
v -5.675860e-01 8.899278e-02 2.512327e-01
v -5.661147e-01 8.970671e-02 2.590859e-01
v -5.635474e-01 8.917503e-02 2.657223e-01
v -5.609864e-01 8.864576e-02 2.723464e-01
v -5.584317e-01 8.811875e-02 2.789583e-01
v -5.558835e-01 8.759417e-02 2.855579e-01
v -5.533415e-01 8.707189e-02 2.921452e-01
v -5.496590e-01 8.528751e-02 2.976017e-01
v -5.459702e-01 8.350077e-02 3.030703e-01
v -5.422751e-01 8.171172e-02 3.085513e-01
v -5.379908e-01 7.928454e-02 3.135034e-01
v -5.348658e-01 7.812648e-02 3.195499e-01
v -5.329195e-01 7.824472e-02 3.266536e-01
v -5.298010e-01 7.708905e-02 3.326878e-01
v -5.278736e-01 7.721427e-02 3.397548e-01
v -5.265576e-01 7.798579e-02 3.473075e-01
v -5.246588e-01 7.812159e-02 3.543193e-01
v -5.221676e-01 7.761811e-02 3.608086e-01
v -5.215075e-01 7.905241e-02 3.687611e-01
v -5.208727e-01 8.049612e-02 3.766647e-01
v -5.214926e-01 8.324423e-02 3.854785e-01
v -5.221505e-01 8.600641e-02 3.942188e-01
v -5.222253e-01 8.813285e-02 4.024180e-01
v -5.235803e-01 9.157299e-02 4.114784e-01
v -5.243522e-01 9.437753e-02 4.199979e-01
v -5.245318e-01 9.654268e-02 4.279948e-01
v -5.234757e-01 9.741051e-02 4.350446e-01
v -5.243492e-01 1.002526e-01 4.433679e-01
v -5.246206e-01 1.024518e-01 4.511869e-01
v -5.249237e-01 1.046628e-01 4.589446e-01
v -5.239659e-01 1.055671e-01 4.658044e-01
v -5.223777e-01 1.058179e-01 4.722152e-01
v -5.208021e-01 1.060735e-01 4.786015e-01
v -5.185834e-01 1.056711e-01 4.845634e-01
v -5.157120e-01 1.046070e-01 4.901192e-01
v -5.121786e-01 1.028778e-01 4.952874e-01
v -5.099694e-01 1.024789e-01 5.012309e-01
v -5.070980e-01 1.014149e-01 5.067866e-01
v -5.042266e-01 1.003508e-01 5.123425e-01
v -5.013553e-01 9.928671e-02 5.178983e-01
v -4.964499e-01 9.620966e-02 5.223831e-01
v -5.837542e-01 8.524788e-02 2.179085e-01
v -5.822052e-01 8.595481e-02 2.258882e-01
v -5.812132e-01 8.729519e-02 2.344508e-01
v -5.802467e-01 8.864497e-02 2.429644e-01
v -5.798498e-01 9.063279e-02 2.520366e-01
v -5.783897e-01 9.137261e-02 2.598445e-01
v -5.763977e-01 9.148844e-02 2.670203e-01
v -5.733109e-01 9.034450e-02 2.729930e-01
v -5.696670e-01 8.856722e-02 2.783828e-01
v -5.676974e-01 8.869121e-02 2.855156e-01
v -5.646137e-01 8.754851e-02 2.914823e-01
v -5.620965e-01 8.704264e-02 2.980136e-01
v -5.590160e-01 8.590106e-02 3.039742e-01
v -5.553626e-01 8.412021e-02 3.093823e-01
v -5.517029e-01 8.233703e-02 3.148027e-01
v -5.474577e-01 7.990984e-02 3.196952e-01
v -5.449469e-01 7.940642e-02 3.262143e-01
v -5.424423e-01 7.890522e-02 3.327211e-01
v -5.399442e-01 7.840647e-02 3.392156e-01
v -5.374524e-01 7.791005e-02 3.456980e-01
v -5.355620e-01 7.806350e-02 3.526775e-01
v -5.342824e-01 7.887022e-02 3.601358e-01
v -5.330218e-01 7.968406e-02 3.675575e-01
v -5.323849e-01 8.115593e-02 3.754333e-01
v -5.317732e-01 8.263727e-02 3.832601e-01
v -5.317979e-01 8.478130e-02 3.915166e-01
v -5.318541e-01 8.693708e-02 3.997118e-01
v -5.325594e-01 8.976031e-02 4.083124e-01
v -5.333027e-01 9.259775e-02 4.168393e-01
v -5.334604e-01 9.479111e-02 4.248383e-01
v -5.336499e-01 9.699620e-02 4.327761e-01
v -5.326111e-01 9.789225e-02 4.397683e-01
v -5.328576e-01 1.001185e-01 4.475956e-01
v -5.324995e-01 1.016937e-01 4.549318e-01
v -5.321668e-01 1.032784e-01 4.622190e-01
v -5.312168e-01 1.042073e-01 4.690395e-01
v -5.302859e-01 1.051433e-01 4.758234e-01
v -5.280762e-01 1.047514e-01 4.817599e-01
v -5.252207e-01 1.036932e-01 4.872851e-01
v -5.223652e-01 1.026350e-01 4.928102e-01
v -5.195097e-01 1.015768e-01 4.983354e-01
v -5.166542e-01 1.005186e-01 5.038605e-01
v -5.131339e-01 9.878707e-02 5.090111e-01
v -5.096073e-01 9.705318e-02 5.141739e-01
v -5.060743e-01 9.531699e-02 5.193490e-01
v -5.996050e-01 9.389131e-02 2.332266e-01
v -5.981178e-01 9.464289e-02 2.410628e-01
v -5.950468e-01 9.350482e-02 2.470049e-01
v -5.930507e-01 9.363360e-02 2.541729e-01
v -5.905266e-01 9.313252e-02 2.607097e-01
v -5.874651e-01 9.199799e-02 2.666334e-01
v -5.849505e-01 9.150035e-02 2.731517e-01
v -5.813421e-01 8.972894e-02 2.784809e-01
v -5.782805e-01 8.859438e-02 2.844047e-01
v -5.757755e-01 8.810027e-02 2.909045e-01
v -5.732768e-01 8.760858e-02 2.973922e-01
v -5.702216e-01 8.647636e-02 3.033037e-01
v -5.666005e-01 8.470019e-02 3.086574e-01
v -5.641113e-01 8.421202e-02 3.151266e-01
v -5.616284e-01 8.372612e-02 3.215836e-01
v -5.568501e-01 8.065269e-02 3.258709e-01
v -5.543672e-01 8.016679e-02 3.323278e-01
v -5.518907e-01 7.968329e-02 3.387726e-01
v -5.494205e-01 7.920211e-02 3.452050e-01
v -5.469566e-01 7.872329e-02 3.516252e-01
v -5.456817e-01 7.955357e-02 3.590505e-01
v -5.456148e-01 8.169996e-02 3.674441e-01
v -5.443843e-01 8.254670e-02 3.747835e-01
v -5.437736e-01 8.405737e-02 3.825764e-01
v -5.431883e-01 8.557741e-02 3.903203e-01
v -5.432355e-01 8.776612e-02 3.984932e-01
v -5.427040e-01 8.930612e-02 4.061328e-01
v -5.428114e-01 9.151710e-02 4.141891e-01
v -5.429506e-01 9.373984e-02 4.221841e-01
v -5.431213e-01 9.597431e-02 4.301178e-01
v -5.427008e-01 9.755549e-02 4.375428e-01
v -5.423056e-01 9.914591e-02 4.449187e-01
v -5.431945e-01 1.020808e-01 4.531158e-01
v -5.415913e-01 1.023551e-01 4.595234e-01
v -5.406365e-01 1.033041e-01 4.663294e-01
v -5.397008e-01 1.042600e-01 4.730985e-01
v -5.387840e-01 1.052230e-01 4.798308e-01
v -5.365959e-01 1.048464e-01 4.857175e-01
v -5.344141e-01 1.044721e-01 4.915919e-01
v -5.309356e-01 1.027488e-01 4.966697e-01
v -5.281054e-01 1.017000e-01 5.021458e-01
v -5.246174e-01 9.997314e-02 5.072420e-01
v -5.211231e-01 9.824396e-02 5.123504e-01
v -5.156297e-01 9.447129e-02 5.163682e-01
v -5.127806e-01 9.341544e-02 5.218811e-01
v -6.100425e-01 9.644743e-02 2.422025e-01
v -6.085852e-01 9.723190e-02 2.499566e-01
v -6.066165e-01 9.738527e-02 2.570555e-01
v -6.030593e-01 9.562560e-02 2.622936e-01
v -5.989589e-01 9.322309e-02 2.669379e-01
v -5.948459e-01 9.081587e-02 2.716066e-01
v -5.918065e-01 8.968955e-02 2.774875e-01
v -5.887672e-01 8.856324e-02 2.833683e-01
v -5.857279e-01 8.743694e-02 2.892491e-01
v -5.832413e-01 8.695696e-02 2.957054e-01
v -5.802052e-01 8.583185e-02 3.015800e-01
v -5.777281e-01 8.535538e-02 3.080178e-01
v -5.752574e-01 8.488127e-02 3.144433e-01
v -5.727929e-01 8.440947e-02 3.208565e-01
v -5.697663e-01 8.328786e-02 3.267128e-01
v -5.661679e-01 8.151289e-02 3.320306e-01
v -5.625632e-01 7.973558e-02 3.373606e-01
v -5.601083e-01 7.926733e-02 3.437555e-01
v -5.588222e-01 8.011523e-02 3.511783e-01
v -5.575552e-01 8.097012e-02 3.585644e-01
v -5.568947e-01 8.249135e-02 3.664215e-01
v -5.562596e-01 8.402200e-02 3.742297e-01
v -5.556499e-01 8.556206e-02 3.819888e-01
v -5.544684e-01 8.644864e-02 3.892093e-01
v -5.533059e-01 8.734237e-02 3.963930e-01
v -5.527659e-01 8.890819e-02 4.040172e-01
v -5.522512e-01 9.048347e-02 4.115923e-01
v -5.523717e-01 9.273557e-02 4.195833e-01
v -5.525238e-01 9.499942e-02 4.275129e-01
v -5.527076e-01 9.727499e-02 4.353812e-01
v -5.529232e-01 9.956237e-02 4.431883e-01
v -5.525480e-01 1.011893e-01 4.504936e-01
v -5.521981e-01 1.028256e-01 4.577498e-01
v -5.506160e-01 1.031223e-01 4.641006e-01
v -5.490466e-01 1.034237e-01 4.704270e-01
v -5.481250e-01 1.044066e-01 4.771446e-01
v -5.465842e-01 1.047187e-01 4.834157e-01
v -5.456974e-01 1.057145e-01 4.900659e-01
v -5.441851e-01 1.060371e-01 4.962819e-01
v -5.318744e-01 9.882598e-02 5.102331e-01
v -5.270881e-01 9.572782e-02 5.145596e-01
v -6.152903e-01 9.547388e-02 2.544643e-01
v -6.133332e-01 9.564614e-02 2.615249e-01
v -6.097987e-01 9.388758e-02 2.667269e-01
v -6.051917e-01 9.083409e-02 2.707309e-01
v -6.011019e-01 8.842094e-02 2.753705e-01
v -5.980784e-01 8.730049e-02 2.812207e-01
v -5.955976e-01 8.682996e-02 2.876578e-01
v -5.925773e-01 8.571070e-02 2.935018e-01
v -5.901060e-01 8.524363e-02 2.999204e-01
v -5.870889e-01 8.412559e-02 3.057582e-01
v -5.846270e-01 8.366202e-02 3.121584e-01
v -5.827301e-01 8.385649e-02 3.191025e-01
v -5.814075e-01 8.471262e-02 3.265720e-01
v -5.789742e-01 8.425966e-02 3.329170e-01
v -5.754113e-01 8.249055e-02 3.381741e-01
v -5.724131e-01 8.137949e-02 3.439753e-01
v -5.705637e-01 8.159161e-02 3.508274e-01
v -5.693045e-01 8.247124e-02 3.581743e-01
v -5.686450e-01 8.402182e-02 3.659976e-01
v -5.668431e-01 8.425161e-02 3.727577e-01
v -5.650539e-01 8.448608e-02 3.794933e-01
v -5.644578e-01 8.606018e-02 3.871940e-01
v -5.632936e-01 8.697497e-02 3.943568e-01
v -5.627450e-01 8.856668e-02 4.019655e-01
v -5.616222e-01 8.949682e-02 4.090487e-01
v -5.611210e-01 9.110612e-02 4.165654e-01
v -5.612514e-01 9.339815e-02 4.244973e-01
v -5.608042e-01 9.502745e-02 4.319097e-01
v -5.616071e-01 9.801746e-02 4.401769e-01
v -5.618325e-01 1.003448e-01 4.479247e-01
v -5.608523e-01 1.013278e-01 4.547319e-01
v -5.605128e-01 1.029969e-01 4.619359e-01
v -5.589486e-01 1.033148e-01 4.682360e-01
v -5.573971e-01 1.036373e-01 4.745117e-01
v -5.564897e-01 1.046473e-01 4.811779e-01
v -5.549667e-01 1.049803e-01 4.873984e-01
v -5.384362e-01 9.705954e-02 5.128364e-01
v -5.323698e-01 9.256767e-02 5.163902e-01
v -6.179127e-01 9.137807e-02 2.635180e-01
v -6.143884e-01 8.961607e-02 2.687085e-01
v -6.108577e-01 8.785162e-02 2.739114e-01
v -6.073206e-01 8.608485e-02 2.791265e-01
v -6.043129e-01 8.497032e-02 2.849460e-01
v -6.013053e-01 8.385574e-02 2.907656e-01
v -5.988398e-01 8.339807e-02 2.971649e-01
v -5.963806e-01 8.294277e-02 3.035520e-01
v -5.933794e-01 8.183058e-02 3.093592e-01
v -5.909296e-01 8.137871e-02 3.157279e-01
v -5.895959e-01 8.225250e-02 3.231951e-01
v -5.888390e-01 8.379600e-02 3.311746e-01
v -5.869853e-01 8.402105e-02 3.380190e-01
v -5.845800e-01 8.358572e-02 3.443018e-01
v -5.827485e-01 8.381904e-02 3.511033e-01
v -5.809297e-01 8.405695e-02 3.578801e-01
v -5.796973e-01 8.496833e-02 3.651510e-01
v -5.784839e-01 8.588668e-02 3.723851e-01
v -5.767095e-01 8.614111e-02 3.790762e-01
v -5.749477e-01 8.640024e-02 3.857427e-01
v -5.737850e-01 8.733736e-02 3.928787e-01
v -5.726414e-01 8.828157e-02 3.999778e-01
v -5.715168e-01 8.923281e-02 4.070402e-01
v -5.710072e-01 9.086796e-02 4.145414e-01
v -5.699237e-01 9.183456e-02 4.215241e-01
v -5.688593e-01 9.280803e-02 4.284700e-01
v -5.696304e-01 9.582984e-02 4.367509e-01
v -5.710482e-01 9.954721e-02 4.454091e-01
v -5.706748e-01 1.012329e-01 4.526466e-01
v -5.697118e-01 1.022440e-01 4.593963e-01
v -5.687678e-01 1.032622e-01 4.661092e-01
v -5.678429e-01 1.042875e-01 4.727852e-01
v -5.663125e-01 1.046323e-01 4.790041e-01
v -5.647947e-01 1.049819e-01 4.851984e-01
v -5.632896e-01 1.053361e-01 4.913682e-01
v -6.224773e-01 8.713354e-02 2.655079e-01
v -6.189630e-01 8.536800e-02 2.706870e-01
v -6.154424e-01 8.360001e-02 2.758783e-01
v -6.124442e-01 8.248897e-02 2.816794e-01
v -6.094461e-01 8.137795e-02 2.874806e-01
v -6.069832e-01 8.092852e-02 2.938669e-01
v -6.045266e-01 8.048138e-02 3.002409e-01
v -6.015349e-01 7.937268e-02 3.060298e-01
v -5.996325e-01 7.959425e-02 3.129522e-01
v -5.977429e-01 7.982049e-02 3.198501e-01
v -5.969679e-01 8.138634e-02 3.278326e-01
v -5.956642e-01 8.229298e-02 3.352176e-01
v -5.938220e-01 8.253681e-02 3.420236e-01
v -5.919926e-01 8.278543e-02 3.488050e-01
v -5.913032e-01 8.438295e-02 3.566219e-01
v -5.895054e-01 8.464325e-02 3.633420e-01
v -5.877204e-01 8.490824e-02 3.700376e-01
v -5.865212e-01 8.585363e-02 3.772201e-01
v -5.853410e-01 8.680612e-02 3.843660e-01
v -5.836003e-01 8.708750e-02 3.909757e-01
v -5.824550e-01 8.805285e-02 3.980541e-01
v -5.807428e-01 8.834484e-02 4.046086e-01
v -5.790432e-01 8.864158e-02 4.111387e-01
v -5.779487e-01 8.962570e-02 4.181189e-01
v -5.762777e-01 8.993297e-02 4.245937e-01
v -5.758165e-01 9.161512e-02 4.319691e-01
v -5.771860e-01 9.536541e-02 4.406647e-01
v -5.792048e-01 9.981963e-02 4.497247e-01
v -5.800580e-01 1.029153e-01 4.577983e-01
v -5.785044e-01 1.032661e-01 4.640462e-01
v -5.769632e-01 1.036215e-01 4.702696e-01
v -5.754349e-01 1.039816e-01 4.764684e-01
v -5.745399e-01 1.050397e-01 4.830624e-01
v -6.235228e-01 8.114341e-02 2.726622e-01
v -6.205342e-01 8.003588e-02 2.784449e-01
v -6.175456e-01 7.892838e-02 2.842276e-01
v -6.150852e-01 7.848714e-02 2.906008e-01
v -6.126313e-01 7.804827e-02 2.969619e-01
v -6.101837e-01 7.761171e-02 3.033105e-01
v -6.077424e-01 7.717755e-02 3.096471e-01
v -6.058484e-01 7.741673e-02 3.165372e-01
v -6.050556e-01 7.900490e-02 3.245226e-01
v -6.037405e-01 7.992912e-02 3.319052e-01
v -6.024446e-01 8.086045e-02 3.392510e-01
v -6.006140e-01 8.112306e-02 3.460186e-01
v -5.987961e-01 8.139044e-02 3.527616e-01
v -5.969909e-01 8.166246e-02 3.594801e-01
v -5.957615e-01 8.261843e-02 3.666971e-01
v -5.945511e-01 8.358146e-02 3.738773e-01
v -5.933598e-01 8.455147e-02 3.810208e-01
v -5.921875e-01 8.552854e-02 3.881273e-01
v -5.904583e-01 8.582877e-02 3.946987e-01
v -5.893208e-01 8.681881e-02 4.017379e-01
v -5.870380e-01 8.644332e-02 4.077677e-01
v -5.853469e-01 8.675768e-02 4.142655e-01
v -5.830799e-01 8.638809e-02 4.202647e-01
v -5.820026e-01 8.740045e-02 4.271874e-01
v -5.821341e-01 8.980172e-02 4.349968e-01
v -5.834933e-01 9.359896e-02 4.436561e-01
v -5.867006e-01 9.949259e-02 4.535780e-01
v -5.881581e-01 1.033263e-01 4.620472e-01
v -5.866222e-01 1.036982e-01 4.682445e-01
v -5.857097e-01 1.047716e-01 4.748482e-01
v -5.811331e-01 1.016640e-01 4.788655e-01
v -5.802396e-01 1.027445e-01 4.854325e-01
v -6.280677e-01 7.694234e-02 2.746343e-01
v -6.250854e-01 7.583718e-02 2.804047e-01
v -6.226246e-01 7.540295e-02 2.867710e-01
v -6.201701e-01 7.497115e-02 2.931250e-01
v -6.177218e-01 7.454169e-02 2.994669e-01
v -6.152800e-01 7.411452e-02 3.057963e-01
v -6.128445e-01 7.368975e-02 3.121135e-01
v -6.114899e-01 7.462108e-02 3.195489e-01
v -6.106946e-01 7.623745e-02 3.275067e-01
v -6.093812e-01 7.718396e-02 3.348623e-01
v -6.080867e-01 7.813760e-02 3.421812e-01
v -6.068113e-01 7.909826e-02 3.494633e-01
v -6.050018e-01 7.938319e-02 3.561740e-01
v -6.032050e-01 7.967288e-02 3.628602e-01
v -6.025397e-01 8.133737e-02 3.705665e-01
v -6.013371e-01 8.232503e-02 3.777075e-01
v -6.001536e-01 8.331981e-02 3.848118e-01
v -5.989892e-01 8.432146e-02 3.918792e-01
v -5.978437e-01 8.533034e-02 3.989099e-01
v -5.967172e-01 8.634623e-02 4.059038e-01
v -5.938744e-01 8.529273e-02 4.114044e-01
v -5.916132e-01 8.493250e-02 4.173843e-01
v -5.899431e-01 8.526912e-02 4.238253e-01
v -5.882858e-01 8.561052e-02 4.302417e-01
v -5.884144e-01 8.804701e-02 4.380164e-01
v -5.897634e-01 9.189123e-02 4.466394e-01
v -5.929492e-01 9.784949e-02 4.565227e-01
v -6.291072e-01 7.098620e-02 2.817600e-01
v -6.271635e-01 7.123603e-02 2.887145e-01
v -6.247116e-01 7.081232e-02 2.950554e-01
v -6.222660e-01 7.039110e-02 3.013842e-01
v -6.198268e-01 6.997217e-02 3.077006e-01
v -6.184546e-01 7.091870e-02 3.151458e-01
v -6.176350e-01 7.255508e-02 3.231187e-01
v -6.163040e-01 7.351692e-02 3.304843e-01
v -6.149920e-01 7.448577e-02 3.378130e-01
v -6.142421e-01 7.614799e-02 3.456509e-01
v -6.129714e-01 7.713214e-02 3.529000e-01
v -6.117197e-01 7.812331e-02 3.601122e-01
v -6.099344e-01 7.843176e-02 3.667600e-01
v -6.087175e-01 7.943587e-02 3.739047e-01
v -6.080785e-01 8.113914e-02 3.815280e-01
v -6.074649e-01 8.285181e-02 3.891023e-01
v -6.068766e-01 8.457394e-02 3.966275e-01
v -6.063136e-01 8.630538e-02 4.041036e-01
v -6.040614e-01 8.595577e-02 4.100583e-01
v -6.012408e-01 8.491049e-02 4.155160e-01
v -5.989980e-01 8.456440e-02 4.214523e-01
v -5.961806e-01 8.352035e-02 4.269038e-01
v -5.945316e-01 8.387930e-02 4.332880e-01
v -5.940701e-01 8.564837e-02 4.405679e-01
v -6.336324e-01 6.682864e-02 2.837142e-01
v -6.316875e-01 6.709243e-02 2.906547e-01
v -6.292382e-01 6.667705e-02 2.969826e-01
v -6.273155e-01 6.694910e-02 3.038803e-01
v -6.254055e-01 6.722583e-02 3.107534e-01
v -6.240349e-01 6.819469e-02 3.181718e-01
v -6.226833e-01 6.917064e-02 3.255533e-01
v -6.218836e-01 7.084343e-02 3.334555e-01
v -6.216454e-01 7.321649e-02 3.418599e-01
v -6.208996e-01 7.490921e-02 3.496579e-01
v -6.196366e-01 7.591804e-02 3.568676e-01
v -6.173014e-01 7.554495e-02 3.629748e-01
v -6.155214e-01 7.586988e-02 3.695965e-01
v -6.143060e-01 7.689622e-02 3.767144e-01
v -6.147751e-01 8.002380e-02 3.853390e-01
v -6.147239e-01 8.246616e-02 3.933817e-01
v -6.141429e-01 8.421989e-02 4.008607e-01
v -6.130226e-01 8.528157e-02 4.077946e-01
v -6.107856e-01 8.494492e-02 4.137117e-01
v -6.074130e-01 8.320277e-02 4.186487e-01
v -6.046082e-01 8.216337e-02 4.240757e-01
v -6.018034e-01 8.112399e-02 4.295028e-01
v -6.001597e-01 8.149942e-02 4.358608e-01
v -5.996959e-01 8.329661e-02 4.431130e-01
v -6.010180e-01 8.723255e-02 4.516757e-01
v -6.356865e-01 6.228373e-02 2.919983e-01
v -6.332366e-01 6.187547e-02 2.983194e-01
v -6.313096e-01 6.216037e-02 3.052092e-01
v -6.304348e-01 6.383430e-02 3.132247e-01
v -6.295853e-01 6.551765e-02 3.211912e-01
v -6.287613e-01 6.721042e-02 3.291086e-01
v -6.290210e-01 7.030380e-02 3.380902e-01
v -6.293188e-01 7.341131e-02 3.469983e-01
v -6.280478e-01 7.443890e-02 3.541995e-01
v -6.262572e-01 7.477438e-02 3.608258e-01
v -6.233953e-01 7.371385e-02 3.663632e-01
v -6.210786e-01 7.335482e-02 3.724267e-01
v -6.204130e-01 7.510629e-02 3.800374e-01
v -6.214269e-01 7.897878e-02 3.891403e-01
v -6.224853e-01 8.286771e-02 3.981574e-01
v -6.213570e-01 8.394816e-02 4.050827e-01
v -6.196868e-01 8.432820e-02 4.114760e-01
v -6.169010e-01 8.329587e-02 4.168662e-01
v -6.129807e-01 8.084403e-02 4.212903e-01
v -6.101885e-01 7.980934e-02 4.266928e-01
v -6.068228e-01 7.806259e-02 4.316245e-01
v -6.046043e-01 7.773995e-02 4.374978e-01
v -6.047119e-01 8.027745e-02 4.451931e-01
v -6.066007e-01 8.497362e-02 4.541843e-01
v -6.372274e-01 5.708555e-02 2.996544e-01
v -6.358090e-01 5.808027e-02 3.071170e-01
v -6.359577e-01 6.117606e-02 3.162655e-01
v -6.356252e-01 6.358679e-02 3.247724e-01
v -6.358467e-01 6.670959e-02 3.337798e-01
v -6.361063e-01 6.984647e-02 3.427138e-01
v -6.364038e-01 7.299748e-02 3.515742e-01
v -6.346121e-01 7.334699e-02 3.581864e-01
v -6.322979e-01 7.299626e-02 3.642369e-01
v -6.289138e-01 7.123533e-02 3.692122e-01
v -6.271473e-01 7.159433e-02 3.757756e-01
v -6.270272e-01 7.408372e-02 3.838716e-01
v -6.280341e-01 7.800432e-02 3.929321e-01
v -6.290854e-01 8.194138e-02 4.019068e-01
v -6.285189e-01 8.375866e-02 4.092936e-01
v -6.268634e-01 8.415869e-02 4.156422e-01
v -6.235395e-01 8.242013e-02 4.205012e-01
v -6.190821e-01 7.924792e-02 4.244078e-01
v -6.151724e-01 7.678553e-02 4.288273e-01
v -6.123898e-01 7.575431e-02 4.342114e-01
v -6.101802e-01 7.544229e-02 4.400594e-01
v -6.091295e-01 7.657331e-02 4.468107e-01
v -6.429118e-01 7.195722e-02 3.555898e-01
v -6.411316e-01 7.232560e-02 3.621637e-01
v -6.377702e-01 7.056586e-02 3.671032e-01
v -6.349368e-01 6.951592e-02 3.725854e-01
v -6.331788e-01 6.989250e-02 3.791164e-01
v -6.330558e-01 7.241710e-02 3.871778e-01
v -6.345465e-01 7.965201e-02 4.046345e-01
v -6.339778e-01 8.149738e-02 4.119935e-01
v -6.323275e-01 8.191390e-02 4.183161e-01
v -6.295766e-01 8.089448e-02 4.236389e-01
v -6.257060e-01 7.843206e-02 4.279987e-01
v -6.218228e-01 7.596493e-02 4.323830e-01
v -6.179269e-01 7.349315e-02 4.367919e-01
v -6.509387e-01 7.313081e-02 3.612403e-01
v -6.481308e-01 7.209024e-02 3.666734e-01
v -6.432125e-01 6.818248e-02 3.699632e-01
v -6.403919e-01 6.713723e-02 3.754208e-01
v -6.386391e-01 6.753021e-02 3.819258e-01
v -6.385102e-01 7.008895e-02 3.899586e-01
