v -4.317422e-01 1.815312e-01 2.022010e-01
v -4.223155e-01 1.810293e-01 2.031727e-01
v -4.130803e-01 1.803036e-01 2.031727e-01
v -3.740462e-01 1.805796e-01 2.167759e-01
v -3.634832e-01 1.821376e-01 2.264925e-01
v -3.191885e-01 1.953729e-01 2.945081e-01
v -3.101788e-01 1.956201e-01 2.983948e-01
v -4.436738e-01 1.710465e-01 1.949604e-01
v -4.324424e-01 1.726197e-01 2.046584e-01
v -4.219055e-01 1.735107e-01 2.114471e-01
v -4.123562e-01 1.732515e-01 2.133867e-01
v -4.023219e-01 1.736909e-01 2.182356e-01
v -3.918652e-01 1.748338e-01 2.259941e-01
v -3.818344e-01 1.755190e-01 2.318128e-01
v -3.724876e-01 1.752757e-01 2.337524e-01
v -3.628825e-01 1.755032e-01 2.376315e-01
v -3.189172e-01 1.889929e-01 3.045475e-01
v -3.097450e-01 1.897456e-01 3.103664e-01
v -3.013649e-01 1.888415e-01 3.093965e-01
v -4.431826e-01 1.634876e-01 2.032440e-01
v -4.319878e-01 1.651314e-01 2.129234e-01
v -4.211181e-01 1.665484e-01 2.216350e-01
v -4.109095e-01 1.672603e-01 2.274425e-01
v -4.007848e-01 1.679788e-01 2.332503e-01
v -3.902501e-01 1.694221e-01 2.419617e-01
v -3.803139e-01 1.701553e-01 2.477693e-01
v -3.712143e-01 1.696927e-01 2.487374e-01
v -3.616978e-01 1.699543e-01 2.526090e-01
v -3.182904e-01 1.834504e-01 3.174612e-01
v -3.096266e-01 1.832743e-01 3.193970e-01
v -3.009907e-01 1.831004e-01 3.213328e-01
v -2.923828e-01 1.829287e-01 3.232687e-01
v -4.404853e-01 1.586869e-01 2.221322e-01
v -4.305619e-01 1.589437e-01 2.259967e-01
v -4.203222e-01 1.596937e-01 2.317931e-01
v -4.096292e-01 1.611856e-01 2.404880e-01
v -3.992339e-01 1.624417e-01 2.482167e-01
v -3.889504e-01 1.637065e-01 2.559454e-01
v -3.790947e-01 1.644868e-01 2.617417e-01
v -3.690205e-01 1.657681e-01 2.694704e-01
v -3.589138e-01 1.673060e-01 2.781653e-01
v -3.485214e-01 1.695988e-01 2.897583e-01
v -3.364740e-01 1.753891e-01 3.148766e-01
v -3.270072e-01 1.767181e-01 3.226052e-01
v -3.177682e-01 1.778060e-01 3.293678e-01
v -3.090638e-01 1.778993e-01 3.322661e-01
v -3.008105e-01 1.769917e-01 3.312999e-01
v -2.926384e-01 1.758313e-01 3.293678e-01
v -5.322315e-01 1.482433e-01 1.927459e-01
v -4.947043e-01 1.452945e-01 1.927459e-01
v -4.853226e-01 1.445573e-01 1.927459e-01
v -4.505375e-01 1.503324e-01 2.236014e-01
v -4.399755e-01 1.513637e-01 2.303509e-01
v -4.295114e-01 1.524026e-01 2.371005e-01
v -4.191448e-01 1.534493e-01 2.438502e-01
v -4.085168e-01 1.550071e-01 2.525281e-01
v -3.978420e-01 1.568272e-01 2.621704e-01
v -3.874723e-01 1.584054e-01 2.708486e-01
v -3.772283e-01 1.599934e-01 2.795266e-01
v -3.662000e-01 1.631152e-01 2.939900e-01
v -3.558152e-01 1.654898e-01 3.055607e-01
v -3.458733e-01 1.673675e-01 3.152032e-01
v -3.351560e-01 1.710454e-01 3.315950e-01
v -3.261608e-01 1.716681e-01 3.364162e-01
v -3.173521e-01 1.720394e-01 3.402730e-01
v -3.085993e-01 1.724152e-01 3.441300e-01
v -3.004163e-01 1.715063e-01 3.431657e-01
v -5.415115e-01 1.406884e-01 1.981275e-01
v -5.316230e-01 1.404567e-01 2.000523e-01
v -5.220192e-01 1.399748e-01 2.010148e-01
v -5.116796e-01 1.402529e-01 2.048641e-01
v -5.016390e-01 1.402820e-01 2.077513e-01
v -4.928198e-01 1.390437e-01 2.058265e-01
v -4.835148e-01 1.383125e-01 2.058265e-01
v -4.715461e-01 1.406439e-01 2.173750e-01
v -4.595298e-01 1.432443e-01 2.298858e-01
v -4.497753e-01 1.432958e-01 2.327730e-01
v -4.394594e-01 1.441212e-01 2.385473e-01
v -4.288394e-01 1.454680e-01 2.462463e-01
v -4.179568e-01 1.473395e-01 2.558700e-01
v -4.070336e-01 1.494804e-01 2.664560e-01
v -3.955717e-01 1.526696e-01 2.808916e-01
v -3.851498e-01 1.545773e-01 2.905155e-01
v -3.751859e-01 1.559756e-01 2.982143e-01
v -3.644205e-01 1.589470e-01 3.116877e-01
v -3.538506e-01 1.619336e-01 3.251608e-01
v -3.436144e-01 1.646739e-01 3.376716e-01
v -3.331659e-01 1.682154e-01 3.530696e-01
v -3.240592e-01 1.694084e-01 3.598062e-01
v -3.156365e-01 1.692920e-01 3.617311e-01
v -3.075726e-01 1.683857e-01 3.607687e-01
v -5.521383e-01 1.318829e-01 1.986955e-01
v -5.414065e-01 1.324368e-01 2.034981e-01
v -5.307447e-01 1.329961e-01 2.083006e-01
v -5.209250e-01 1.327834e-01 2.102216e-01
v -5.098809e-01 1.338716e-01 2.169452e-01
v -4.994215e-01 1.344469e-01 2.217479e-01
v -4.899777e-01 1.339843e-01 2.227083e-01
v -4.800890e-01 1.340456e-01 2.255900e-01
v -4.691296e-01 1.354199e-01 2.332742e-01
v -4.584973e-01 1.365404e-01 2.399977e-01
v -4.481714e-01 1.374057e-01 2.457609e-01
v -4.381308e-01 1.380139e-01 2.505635e-01
v -4.275763e-01 1.394200e-01 2.582476e-01
v -4.167582e-01 1.413642e-01 2.678528e-01
v -4.057184e-01 1.438499e-01 2.793789e-01
v -3.938044e-01 1.479435e-01 2.966683e-01
v -3.834749e-01 1.499262e-01 3.062733e-01
v -3.739238e-01 1.508523e-01 3.120366e-01
v -3.621659e-01 1.557964e-01 3.322073e-01
v -3.517212e-01 1.588878e-01 3.456547e-01
v -3.417495e-01 1.614574e-01 3.571808e-01
v -3.315500e-01 1.648474e-01 3.715885e-01
v -3.220591e-01 1.671754e-01 3.821542e-01
v -3.133108e-01 1.681646e-01 3.879174e-01
v -3.053111e-01 1.675360e-01 3.879174e-01
v -5.520119e-01 1.236363e-01 2.040641e-01
v -5.407547e-01 1.247552e-01 2.107747e-01
v -5.298603e-01 1.256164e-01 2.165267e-01
v -5.193074e-01 1.262182e-01 2.213200e-01
v -5.085734e-01 1.270919e-01 2.270719e-01
v -4.979233e-01 1.279723e-01 2.328239e-01
v -4.878308e-01 1.283241e-01 2.366585e-01
v -4.775642e-01 1.289484e-01 2.414518e-01
v -4.675904e-01 1.293095e-01 2.452866e-01
v -4.574564e-01 1.299442e-01 2.500799e-01
v -4.467650e-01 1.313938e-01 2.577492e-01
v -4.365895e-01 1.323114e-01 2.635010e-01
v -4.264978e-01 1.332357e-01 2.692530e-01
v -4.159253e-01 1.349808e-01 2.778811e-01
v -4.043915e-01 1.383675e-01 2.922610e-01
v -3.930673e-01 1.417708e-01 3.066409e-01
v -3.832900e-01 1.430059e-01 3.133514e-01
v -3.591250e-01 1.542725e-01 3.574498e-01
v -3.495717e-01 1.560977e-01 3.660779e-01
v -3.398656e-01 1.584832e-01 3.766230e-01
v -3.307099e-01 1.600534e-01 3.842923e-01
v -3.217912e-01 1.613560e-01 3.910030e-01
v -3.129702e-01 1.626664e-01 3.977137e-01
v -5.504853e-01 1.167852e-01 2.142057e-01
v -5.395527e-01 1.176840e-01 2.199464e-01
v -5.281730e-01 1.191336e-01 2.276008e-01
v -5.169050e-01 1.205920e-01 2.352553e-01
v -5.067545e-01 1.209663e-01 2.390825e-01
v -4.966600e-01 1.213451e-01 2.429098e-01
v -4.861462e-01 1.222768e-01 2.486507e-01
v -4.757163e-01 1.232150e-01 2.543914e-01
v -4.660407e-01 1.233337e-01 2.572619e-01
v -4.561904e-01 1.237316e-01 2.610890e-01
v -4.451384e-01 1.257930e-01 2.706572e-01
v -4.346312e-01 1.273111e-01 2.783115e-01
v -4.246271e-01 1.282829e-01 2.840523e-01
v -4.145180e-01 1.295394e-01 2.907500e-01
v -4.032348e-01 1.327545e-01 3.041454e-01
v -3.919724e-01 1.362641e-01 3.184974e-01
v -3.815902e-01 1.386711e-01 3.290223e-01
v -3.563663e-01 1.525098e-01 3.806896e-01
v -3.475489e-01 1.532818e-01 3.854738e-01
v -3.385219e-01 1.546234e-01 3.921714e-01
v -3.298581e-01 1.554075e-01 3.969555e-01
v -3.215159e-01 1.556309e-01 3.998259e-01
v -3.128589e-01 1.567085e-01 4.055666e-01
v -3.041738e-01 1.580769e-01 4.122643e-01
v -5.567578e-01 1.121540e-01 2.290922e-01
v -5.483904e-01 1.105973e-01 2.262274e-01
v -5.375244e-01 1.115419e-01 2.319570e-01
v -5.259443e-01 1.133298e-01 2.405516e-01
v -5.150078e-01 1.145686e-01 2.472361e-01
v -5.046730e-01 1.152553e-01 2.520109e-01
v -4.948982e-01 1.153865e-01 2.548758e-01
v -4.844510e-01 1.163641e-01 2.606055e-01
v -4.743188e-01 1.170667e-01 2.653803e-01
v -4.642563e-01 1.177748e-01 2.701550e-01
v -4.542636e-01 1.184883e-01 2.749298e-01
v -4.437103e-01 1.200570e-01 2.825694e-01
v -4.330655e-01 1.219183e-01 2.911638e-01
v -4.229388e-01 1.232208e-01 2.978484e-01
v -4.130990e-01 1.242462e-01 3.035783e-01
v -4.026140e-01 1.264197e-01 3.131276e-01
v -3.901659e-01 1.320361e-01 3.341365e-01
v -3.649009e-01 1.456378e-01 3.837939e-01
v -3.557444e-01 1.470165e-01 3.904785e-01
v -3.468329e-01 1.481148e-01 3.962083e-01
v -3.378650e-01 1.495083e-01 4.028928e-01
v -3.291280e-01 1.506203e-01 4.086227e-01
v -3.209804e-01 1.505796e-01 4.105324e-01
v -3.126219e-01 1.511218e-01 4.143524e-01
v -3.039819e-01 1.525412e-01 4.210370e-01
v -5.574554e-01 1.032761e-01 2.315403e-01
v -5.465653e-01 1.042595e-01 2.372588e-01
v -5.354855e-01 1.055346e-01 2.439304e-01
v -5.253030e-01 1.059606e-01 2.477429e-01
v -5.146572e-01 1.069632e-01 2.534614e-01
v -5.035901e-01 1.085457e-01 2.610861e-01
v -4.933714e-01 1.092753e-01 2.658515e-01
v -4.836997e-01 1.094349e-01 2.687108e-01
v -4.731434e-01 1.107511e-01 2.753826e-01
v -4.624603e-01 1.123638e-01 2.830072e-01
v -4.521064e-01 1.136959e-01 2.896790e-01
v -4.420610e-01 1.147457e-01 2.953974e-01
v -4.318956e-01 1.160926e-01 3.020692e-01
v -4.214346e-01 1.180293e-01 3.106470e-01
v -4.116683e-01 1.191010e-01 3.163656e-01
v -3.719014e-01 1.414175e-01 3.954722e-01
v -3.634094e-01 1.416698e-01 3.983316e-01
v -3.546496e-01 1.425141e-01 4.030971e-01
v -3.459596e-01 1.433638e-01 4.078624e-01
v -3.371986e-01 1.445146e-01 4.135811e-01
v -3.287891e-01 1.450798e-01 4.173933e-01
v -3.208161e-01 1.447599e-01 4.183466e-01
v -3.128571e-01 1.444410e-01 4.192995e-01
v -3.045732e-01 1.450162e-01 4.231120e-01
v -5.826856e-01 9.945887e-02 2.435008e-01
v -5.552731e-01 9.730488e-02 2.435008e-01
v -5.441688e-01 9.862539e-02 2.501594e-01
v -5.334360e-01 9.966181e-02 2.558668e-01
v -5.233212e-01 1.001202e-01 2.596718e-01
v -5.127421e-01 1.011687e-01 2.653792e-01
v -5.017405e-01 1.028105e-01 2.729890e-01
v -4.915890e-01 1.035793e-01 2.777453e-01
v -4.819855e-01 1.037646e-01 2.805989e-01
v -4.717275e-01 1.048383e-01 2.863064e-01
v -4.611029e-01 1.065098e-01 2.939163e-01
v -4.508081e-01 1.078939e-01 3.005749e-01
v -4.408224e-01 1.089891e-01 3.062824e-01
v -4.305119e-01 1.106852e-01 3.138923e-01
v -3.694604e-01 1.390971e-01 4.147233e-01
v -3.615795e-01 1.384778e-01 4.147233e-01
v -3.532324e-01 1.387618e-01 4.175772e-01
v -3.452240e-01 1.384458e-01 4.185284e-01
v -3.369468e-01 1.387353e-01 4.213820e-01
v -3.287115e-01 1.390281e-01 4.242357e-01
v -3.206455e-01 1.390209e-01 4.261382e-01
v -3.129687e-01 1.381044e-01 4.251871e-01
v -6.214894e-01 1.006844e-01 2.668167e-01
v -6.138550e-01 9.880425e-02 2.630192e-01
v -6.038520e-01 9.897842e-02 2.658672e-01
v -5.948611e-01 9.827194e-02 2.658672e-01
v -5.868196e-01 9.667990e-02 2.630192e-01
v -5.778078e-01 9.597177e-02 2.630192e-01
v -5.657713e-01 9.822663e-02 2.725130e-01
v -5.562383e-01 9.811770e-02 2.744117e-01
v -5.493297e-01 9.533438e-02 2.677661e-01
v -5.400714e-01 9.492692e-02 2.687153e-01
v -5.300032e-01 9.541609e-02 2.725130e-01
v -5.194559e-01 9.650768e-02 2.782091e-01
v -5.095134e-01 9.700673e-02 2.820068e-01
v -4.993731e-01 9.781027e-02 2.867537e-01
v -4.900427e-01 9.771724e-02 2.886524e-01
v -4.807400e-01 9.762636e-02 2.905511e-01
v -4.707674e-01 9.844307e-02 2.952980e-01
v -4.606387e-01 9.956763e-02 3.009944e-01
v -4.503752e-01 1.010016e-01 3.076399e-01
v -4.399977e-01 1.027467e-01 3.152351e-01
v -4.297319e-01 1.045006e-01 3.228302e-01
v -3.675099e-01 1.360988e-01 4.310595e-01
v -3.603852e-01 1.342587e-01 4.272621e-01
v -3.525809e-01 1.336455e-01 4.272621e-01
v -3.447767e-01 1.330323e-01 4.272621e-01
v -3.362630e-01 1.339636e-01 4.320090e-01
v -3.282238e-01 1.339721e-01 4.339077e-01
v -3.200846e-01 1.342927e-01 4.367559e-01
v -3.118663e-01 1.349272e-01 4.405533e-01
v -6.265798e-01 9.661729e-02 2.815232e-01
v -6.197559e-01 9.412002e-02 2.758379e-01
v -6.121725e-01 9.221682e-02 2.720479e-01
v -6.018859e-01 9.271585e-02 2.758379e-01
v -5.910072e-01 9.382210e-02 2.815232e-01
v -5.814802e-01 9.372714e-02 2.834181e-01
v -5.719810e-01 9.363440e-02 2.853132e-01
v -5.616009e-01 9.445294e-02 2.900508e-01
v -5.518824e-01 9.466983e-02 2.928934e-01
v -5.424950e-01 9.458586e-02 2.947884e-01
v -5.345458e-01 9.298076e-02 2.919460e-01
v -5.262795e-01 9.167750e-02 2.900508e-01
v -5.166450e-01 9.190098e-02 2.928934e-01
v -5.073133e-01 9.182139e-02 2.947884e-01
v -4.980096e-01 9.174405e-02 2.966836e-01
v -4.884868e-01 9.197626e-02 2.995261e-01
v -4.790057e-01 9.221177e-02 3.023686e-01
v -4.691002e-01 9.306763e-02 3.071063e-01
v -4.592645e-01 9.392895e-02 3.118439e-01
v -4.494985e-01 9.479576e-02 3.165815e-01
v -4.398024e-01 9.566807e-02 3.213191e-01
v -6.265488e-01 8.865407e-02 2.857790e-01
v -6.193966e-01 8.642403e-02 2.810506e-01
v -6.101442e-01 8.603064e-02 2.819964e-01
v -5.982540e-01 8.809880e-02 2.905073e-01
v -5.868139e-01 8.986876e-02 2.980727e-01
v -5.761206e-01 9.103022e-02 3.037468e-01
v -5.670635e-01 9.065211e-02 3.046924e-01
v -5.583240e-01 8.996538e-02 3.046924e-01
v -5.495844e-01 8.927866e-02 3.046924e-01
v -5.393969e-01 9.014621e-02 3.094207e-01
v -5.304098e-01 8.977367e-02 3.103665e-01
v -5.228145e-01 8.784242e-02 3.065838e-01
v -5.143576e-01 8.684429e-02 3.056381e-01
v -5.051017e-01 8.678418e-02 3.075294e-01
v -4.956190e-01 8.703992e-02 3.103665e-01
v -4.864260e-01 8.698476e-02 3.122577e-01
v -4.765387e-01 8.787589e-02 3.169861e-01
v -4.667214e-01 8.877253e-02 3.217144e-01
v -4.574272e-01 8.904305e-02 3.245514e-01
v -4.481749e-01 8.931691e-02 3.273885e-01
v -4.030419e-01 1.311415e-01 4.559995e-01
v -3.930335e-01 1.343584e-01 4.673476e-01
v -3.839598e-01 1.363143e-01 4.749129e-01
v -3.753676e-01 1.376408e-01 4.805868e-01
v -6.258098e-01 8.134316e-02 2.919152e-01
v -6.169586e-01 8.064766e-02 2.919152e-01
v -6.064126e-01 8.152090e-02 2.966343e-01
v -5.942763e-01 8.397110e-02 3.060724e-01
v -5.829298e-01 8.580258e-02 3.136229e-01
v -5.736031e-01 8.575049e-02 3.155105e-01
v -5.639933e-01 8.601652e-02 3.183420e-01
v -5.550334e-01 8.565284e-02 3.192857e-01
v -5.466816e-01 8.465623e-02 3.183420e-01
v -5.365753e-01 8.556402e-02 3.230610e-01
v -5.268221e-01 8.615914e-02 3.268362e-01
v -5.190575e-01 8.452786e-02 3.240047e-01
v -5.115201e-01 8.257411e-02 3.202296e-01
v -5.023540e-01 8.253463e-02 3.221172e-01
v -4.927053e-01 8.313796e-02 3.258924e-01
v -4.838572e-01 8.278309e-02 3.268362e-01
v -4.750229e-01 8.242935e-02 3.277801e-01
v -4.633917e-01 8.594037e-02 3.400497e-01
v -4.267148e-01 1.252659e-01 4.570825e-01
v -4.190851e-01 1.246663e-01 4.570825e-01
v -4.021752e-01 1.260607e-01 4.646330e-01
v -3.928073e-01 1.283880e-01 4.731272e-01
v -3.837573e-01 1.303999e-01 4.806777e-01
v -3.753752e-01 1.314432e-01 4.853968e-01
v -6.190580e-01 7.951546e-02 3.140496e-01
v -6.100069e-01 7.915144e-02 3.149917e-01
v -5.989328e-01 8.071133e-02 3.215853e-01
v -5.879564e-01 8.227891e-02 3.281790e-01
v -5.793565e-01 8.160316e-02 3.281790e-01
v -5.717122e-01 7.996106e-02 3.253532e-01
v -5.612218e-01 8.121966e-02 3.310049e-01
v -5.514245e-01 8.183848e-02 3.347728e-01
v -5.428734e-01 8.116656e-02 3.347728e-01
v -5.334504e-01 8.146759e-02 3.375987e-01
v -5.246367e-01 8.112216e-02 3.385405e-01
v -5.172201e-01 7.915080e-02 3.347728e-01
v -5.092085e-01 7.782692e-02 3.328888e-01
v -5.001179e-01 7.780697e-02 3.347728e-01
v -4.913111e-01 7.746208e-02 3.357146e-01
v -4.807771e-01 7.941158e-02 3.432503e-01
v -4.360965e-01 1.168651e-01 4.544013e-01
v -4.256983e-01 1.202138e-01 4.657047e-01
v -4.176759e-01 1.202777e-01 4.675886e-01
v -4.094675e-01 1.206742e-01 4.704145e-01
v -4.006804e-01 1.220667e-01 4.760664e-01
v -3.917773e-01 1.237972e-01 4.826599e-01
v -3.831647e-01 1.252034e-01 4.883118e-01
v -3.753796e-01 1.252860e-01 4.901956e-01
v -6.133459e-01 7.699221e-02 3.332859e-01
v -6.026849e-01 7.827810e-02 3.389266e-01
v -5.921077e-01 7.957055e-02 3.445672e-01
v -5.829464e-01 7.955852e-02 3.464474e-01
v -5.747912e-01 7.856374e-02 3.455072e-01
v -5.659838e-01 7.822566e-02 3.464474e-01
v -5.568783e-01 7.821803e-02 3.483276e-01
v -5.474957e-01 7.854256e-02 3.511479e-01
v -5.390493e-01 7.787887e-02 3.511479e-01
v -5.303117e-01 7.754619e-02 3.520879e-01
v -5.218724e-01 7.688306e-02 3.520879e-01
v -5.139873e-01 7.555561e-02 3.502077e-01
v -5.058042e-01 7.455871e-02 3.492677e-01
v -4.390114e-01 1.174444e-01 4.771214e-01
v -4.322063e-01 1.158480e-01 4.743012e-01
v -4.237611e-01 1.166001e-01 4.780616e-01
v -4.153716e-01 1.173565e-01 4.818219e-01
v -4.074668e-01 1.174433e-01 4.837022e-01
v -3.993825e-01 1.178698e-01 4.865224e-01
v -3.909393e-01 1.189760e-01 4.912229e-01
v -3.819856e-01 1.211038e-01 4.987437e-01
v -5.953386e-01 7.771437e-02 3.627762e-01
v -5.893460e-01 7.471859e-02 3.562085e-01
v -5.615127e-01 7.541714e-02 3.637144e-01
v -5.525179e-01 7.543174e-02 3.655909e-01
v -5.441623e-01 7.477519e-02 3.655909e-01
v -4.499804e-01 1.175119e-01 4.960068e-01
v -4.425951e-01 1.169316e-01 4.960068e-01
v -4.354525e-01 1.160097e-01 4.950687e-01
v -4.287678e-01 1.144023e-01 4.922540e-01
v -4.213544e-01 1.138198e-01 4.922540e-01
v -4.139412e-01 1.132373e-01 4.922540e-01
v -4.065279e-01 1.126548e-01 4.922540e-01
v -3.989067e-01 1.124166e-01 4.931921e-01
v -4.889278e-01 1.115698e-01 4.932886e-01
v -4.872122e-01 1.040855e-01 4.745608e-01
v -4.571325e-01 1.120112e-01 5.007797e-01
v -4.479669e-01 1.138633e-01 5.073344e-01
v -4.401507e-01 1.139841e-01 5.092073e-01
v -4.321191e-01 1.144554e-01 5.120163e-01
v -4.250748e-01 1.135344e-01 5.110801e-01
v -4.189341e-01 1.112145e-01 5.063981e-01
v -4.125012e-01 1.092391e-01 5.026524e-01
v -4.055816e-01 1.079605e-01 5.007797e-01
v -3.982172e-01 1.073818e-01 5.007797e-01
v -5.246223e-01 1.008134e-01 4.793746e-01
v -5.167696e-01 1.005706e-01 4.803091e-01
v -5.070908e-01 1.024298e-01 4.868508e-01
v -4.981091e-01 1.035953e-01 4.915235e-01
v -4.897827e-01 1.040637e-01 4.943271e-01
v -4.812125e-01 1.048873e-01 4.980651e-01
v -4.537182e-01 1.102117e-01 5.167558e-01
v -4.456849e-01 1.107033e-01 5.195595e-01
v -4.376936e-01 1.111981e-01 5.223631e-01
v -4.232580e-01 1.100638e-01 5.223631e-01
v -4.160402e-01 1.094966e-01 5.223631e-01
v -4.110517e-01 1.053622e-01 5.130177e-01
v -4.044120e-01 1.037177e-01 5.102142e-01
v -3.964764e-01 1.042169e-01 5.130177e-01
v -5.697009e-01 9.780342e-02 4.832443e-01
v -5.621759e-01 9.721213e-02 4.832443e-01
v -5.375901e-01 9.756641e-02 4.888405e-01
v -5.301070e-01 9.697841e-02 4.888405e-01
v -5.226239e-01 9.639042e-02 4.888405e-01
v -5.145125e-01 9.651507e-02 4.907058e-01
v -5.055072e-01 9.771255e-02 4.953692e-01
v -4.968720e-01 9.855804e-02 4.990998e-01
v -4.891724e-01 9.833404e-02 5.000325e-01
v -5.770548e-01 9.185628e-02 4.871067e-01
v -5.688165e-01 9.198455e-02 4.889685e-01
v -5.602497e-01 9.247471e-02 4.917608e-01
v -5.517246e-01 9.296822e-02 4.945533e-01
v -5.442696e-01 9.238243e-02 4.945533e-01
v -5.361430e-01 9.251942e-02 4.964149e-01
v -5.283731e-01 9.229672e-02 4.973459e-01
v -5.196521e-01 9.316258e-02 5.010690e-01
v -5.113015e-01 9.366977e-02 5.038615e-01
v -5.029929e-01 9.418030e-02 5.066540e-01
v -4.944253e-01 9.505827e-02 5.103774e-01
v -5.480874e-01 9.018428e-02 5.076832e-01
v -5.410593e-01 8.923748e-02 5.067543e-01
v -5.333446e-01 8.902584e-02 5.076832e-01
v -5.249856e-01 8.955266e-02 5.104700e-01
v -5.166685e-01 9.008280e-02 5.132569e-01
v -5.087083e-01 9.024645e-02 5.151148e-01
v -5.001597e-01 9.115302e-02 5.188308e-01
v -5.312093e-01 8.491710e-02 5.170599e-01
v -5.232342e-01 8.509315e-02 5.189143e-01
v -5.149643e-01 8.564727e-02 5.216955e-01
v -5.070520e-01 8.582827e-02 5.235498e-01
v -4.985501e-01 8.676554e-02 5.272583e-01
v -5.290654e-01 8.091607e-02 5.264071e-01
v -5.231269e-01 7.881705e-02 5.227062e-01
v -5.135761e-01 8.092332e-02 5.291829e-01
v -3.168803e-01 1.988183e-01 2.970052e-01
v -3.126924e-01 1.970715e-01 3.031909e-01
v -3.077619e-01 1.948546e-01 3.088968e-01
v -3.216693e-01 1.928878e-01 2.983823e-01
v -3.182180e-01 1.916088e-01 3.050604e-01
v -3.147667e-01 1.903298e-01 3.117384e-01
v -3.105795e-01 1.885761e-01 3.179312e-01
v -2.989947e-01 1.820599e-01 3.193447e-01
v -3.295933e-01 1.849934e-01 2.651595e-01
v -3.303767e-01 1.865398e-01 2.750510e-01
v -3.297655e-01 1.871507e-01 2.838386e-01
v -3.284601e-01 1.872950e-01 2.920682e-01
v -3.278963e-01 1.879235e-01 3.007638e-01
v -3.251804e-01 1.871264e-01 3.079202e-01
v -3.210126e-01 1.853725e-01 3.140830e-01
v -3.175709e-01 1.840971e-01 3.207427e-01
v -3.133938e-01 1.823398e-01 3.269240e-01
v -3.084716e-01 1.800970e-01 3.326452e-01
v -3.042787e-01 1.783339e-01 3.388572e-01
v -3.008241e-01 1.770537e-01 3.455414e-01
v -2.942019e-01 1.775306e-01 3.849721e-01
v -2.907918e-01 1.762669e-01 3.915703e-01
v -3.336961e-01 1.763461e-01 2.471272e-01
v -3.343876e-01 1.779020e-01 2.571488e-01
v -3.344106e-01 1.789936e-01 2.665701e-01
v -3.351748e-01 1.805764e-01 2.764506e-01
v -3.338393e-01 1.807313e-01 2.847146e-01
v -3.332385e-01 1.813751e-01 2.934499e-01
v -3.326631e-01 1.820284e-01 3.021362e-01
v -3.306686e-01 1.817224e-01 3.097815e-01
v -3.279618e-01 1.809360e-01 3.169127e-01
v -3.252610e-01 1.801517e-01 3.240314e-01
v -3.218351e-01 1.788821e-01 3.306604e-01
v -3.162047e-01 1.761458e-01 3.358751e-01
v -3.098173e-01 1.729123e-01 3.406614e-01
v -3.056279e-01 1.711432e-01 3.468740e-01
v -3.014323e-01 1.693718e-01 3.530991e-01
v -3.009677e-01 1.700660e-01 3.615708e-01
v -2.997779e-01 1.702749e-01 3.695526e-01
v -3.019974e-01 1.736968e-01 3.879768e-01
v -3.008837e-01 1.739338e-01 3.958115e-01
v -2.990256e-01 1.736785e-01 4.031932e-01
v -3.442093e-01 1.719441e-01 2.338184e-01
v -3.406787e-01 1.706357e-01 2.406497e-01
v -3.399332e-01 1.712549e-01 2.496334e-01
v -3.406117e-01 1.728495e-01 2.596317e-01
v -3.406256e-01 1.739740e-01 2.690306e-01
v -3.406713e-01 1.751103e-01 2.783684e-01
v -3.393309e-01 1.752851e-01 2.866175e-01
v -3.387216e-01 1.759548e-01 2.953376e-01
v -3.388529e-01 1.771228e-01 3.045096e-01
v -3.368605e-01 1.768322e-01 3.121350e-01
v -3.341593e-01 1.760550e-01 3.192468e-01
v -3.314644e-01 1.752802e-01 3.263464e-01
v -3.280479e-01 1.740141e-01 3.329569e-01
v -3.231694e-01 1.717585e-01 3.386263e-01
v -3.182780e-01 1.694982e-01 3.443202e-01
v -3.141114e-01 1.677302e-01 3.504968e-01
v -3.121603e-01 1.674549e-01 3.580425e-01
v -3.109656e-01 1.676837e-01 3.660097e-01
v -3.097901e-01 1.679197e-01 3.739402e-01
v -3.101337e-01 1.691664e-01 3.827014e-01
v -3.090024e-01 1.694187e-01 3.905460e-01
v -3.078902e-01 1.696782e-01 3.983537e-01
v -3.060373e-01 1.694393e-01 4.057093e-01
v -3.019087e-01 1.676854e-01 4.118124e-01
v -3.800909e-01 1.820132e-01 2.127386e-01
v -3.779738e-01 1.816909e-01 2.205891e-01
v -3.731629e-01 1.794459e-01 2.261436e-01
v -3.690191e-01 1.776791e-01 2.322843e-01
v -3.628200e-01 1.744574e-01 2.367704e-01
v -3.559093e-01 1.707408e-01 2.407561e-01
v -3.510349e-01 1.684723e-01 2.464331e-01
v -3.489179e-01 1.681500e-01 2.542838e-01
v -3.482048e-01 1.688102e-01 2.631720e-01
v -3.482160e-01 1.699699e-01 2.725364e-01
v -3.475569e-01 1.706502e-01 2.813206e-01
v -3.462181e-01 1.708473e-01 2.895429e-01
v -3.463148e-01 1.720388e-01 2.987417e-01
v -3.457317e-01 1.727471e-01 3.073786e-01
v -3.437446e-01 1.724730e-01 3.149779e-01
v -3.417703e-01 1.722036e-01 3.225526e-01
v -3.390874e-01 1.714405e-01 3.296206e-01
v -3.356868e-01 1.701803e-01 3.362005e-01
v -3.315589e-01 1.684195e-01 3.423107e-01
v -3.266940e-01 1.661544e-01 3.479694e-01
v -3.240177e-01 1.653937e-01 3.550252e-01
v -3.228213e-01 1.656438e-01 3.629717e-01
v -3.209039e-01 1.653955e-01 3.704360e-01
v -3.189992e-01 1.651518e-01 3.778757e-01
v -3.178537e-01 1.654207e-01 3.857240e-01
v -3.167270e-01 1.656965e-01 3.935355e-01
v -3.141140e-01 1.649593e-01 4.004686e-01
v -3.122632e-01 1.647357e-01 4.078043e-01
v -4.057271e-01 1.876368e-01 2.036691e-01
v -4.016569e-01 1.858901e-01 2.096758e-01
v -3.922726e-01 1.802671e-01 2.110106e-01
v -3.868310e-01 1.775354e-01 2.159320e-01
v -3.833797e-01 1.762565e-01 2.226100e-01
v -3.792555e-01 1.744898e-01 2.287210e-01
v -3.737727e-01 1.717428e-01 2.337221e-01
v -3.689502e-01 1.694790e-01 2.393150e-01
v -3.647973e-01 1.677016e-01 2.454811e-01
v -3.626951e-01 1.673993e-01 2.532871e-01
v -3.606055e-01 1.671018e-01 2.610688e-01
v -3.585286e-01 1.668088e-01 2.688259e-01
v -3.571595e-01 1.670165e-01 2.770826e-01
v -3.558092e-01 1.672313e-01 2.853025e-01
v -3.551797e-01 1.679515e-01 2.939976e-01
v -3.538707e-01 1.681815e-01 3.021379e-01
v -3.525809e-01 1.684187e-01 3.102413e-01
v -3.505989e-01 1.681609e-01 3.178144e-01
v -3.486298e-01 1.679079e-01 3.253630e-01
v -3.459560e-01 1.671555e-01 3.324057e-01
v -3.432884e-01 1.664053e-01 3.394362e-01
v -3.391801e-01 1.646444e-01 3.455165e-01
v -3.357922e-01 1.633889e-01 3.520718e-01
v -3.331341e-01 1.626423e-01 3.590838e-01
v -3.319489e-01 1.629182e-01 3.669850e-01
v -3.300462e-01 1.626898e-01 3.744048e-01
v -3.281562e-01 1.624662e-01 3.818000e-01
v -3.255363e-01 1.617337e-01 3.887386e-01
v -3.236686e-01 1.615183e-01 3.960909e-01
v -3.210646e-01 1.607917e-01 4.029988e-01
v -3.177146e-01 1.595503e-01 4.094806e-01
v -3.151201e-01 1.588271e-01 4.163700e-01
v -3.117733e-01 1.575869e-01 4.228457e-01
v -4.170489e-01 1.855005e-01 2.015520e-01
v -4.110444e-01 1.822928e-01 2.057256e-01
v -4.069841e-01 1.805425e-01 2.117206e-01
v -4.009383e-01 1.773196e-01 2.159740e-01
v -3.948671e-01 1.740872e-01 2.202763e-01
v -3.921010e-01 1.733078e-01 2.274900e-01
v -3.873334e-01 1.710497e-01 2.329924e-01
v -3.818808e-01 1.682922e-01 2.379593e-01
v -3.770847e-01 1.660236e-01 2.435168e-01
v -3.729547e-01 1.642475e-01 2.496471e-01
v -3.715459e-01 1.644623e-01 2.579565e-01
v -3.708410e-01 1.651836e-01 2.667649e-01
v -3.680970e-01 1.644124e-01 2.739357e-01
v -3.653592e-01 1.636434e-01 2.810941e-01
v -3.640169e-01 1.638829e-01 2.892749e-01
v -3.633914e-01 1.646336e-01 2.979300e-01
v -3.613894e-01 1.643829e-01 3.055260e-01
v -3.594001e-01 1.641370e-01 3.130975e-01
v -3.574234e-01 1.638957e-01 3.206444e-01
v -3.547491e-01 1.631503e-01 3.276804e-01
v -3.520810e-01 1.624072e-01 3.347038e-01
v -3.501362e-01 1.621777e-01 3.421896e-01
v -3.467641e-01 1.609281e-01 3.487143e-01
v -3.433920e-01 1.596785e-01 3.552390e-01
v -3.407460e-01 1.589436e-01 3.622195e-01
v -3.395654e-01 1.592429e-01 3.700875e-01
v -3.376712e-01 1.590322e-01 3.774751e-01
v -3.350539e-01 1.583080e-01 3.844006e-01
v -3.331818e-01 1.581054e-01 3.917451e-01
v -3.313225e-01 1.579076e-01 3.990652e-01
v -3.279852e-01 1.566709e-01 4.055224e-01
v -3.231510e-01 1.543882e-01 4.111537e-01
v -3.190560e-01 1.526251e-01 4.172164e-01
v -3.157093e-01 1.513849e-01 4.236920e-01
v -3.123625e-01 1.501446e-01 4.301676e-01
v -4.282879e-01 1.834205e-01 1.994986e-01
v -4.236228e-01 1.811860e-01 2.048186e-01
v -4.182955e-01 1.784532e-01 2.095672e-01
v -4.142548e-01 1.767029e-01 2.155325e-01
v -4.095517e-01 1.744543e-01 2.209262e-01
v -4.041768e-01 1.717038e-01 2.257666e-01
v -4.001076e-01 1.699429e-01 2.317871e-01
v -3.960321e-01 1.681797e-01 2.378199e-01
v -3.899441e-01 1.649121e-01 2.421867e-01
v -3.865181e-01 1.636425e-01 2.488157e-01
v -3.830921e-01 1.623729e-01 2.554447e-01
v -3.803444e-01 1.616076e-01 2.626146e-01
v -3.776030e-01 1.608445e-01 2.697723e-01
v -3.755523e-01 1.605904e-01 2.774464e-01
v -3.735143e-01 1.603409e-01 2.850960e-01
v -3.714889e-01 1.600961e-01 2.927211e-01
v -3.701704e-01 1.603661e-01 3.008320e-01
v -3.674765e-01 1.596207e-01 3.078978e-01
v -3.654892e-01 1.593900e-01 3.154492e-01
v -3.628110e-01 1.586504e-01 3.224842e-01
v -3.601394e-01 1.579132e-01 3.295071e-01
v -3.588937e-01 1.582103e-01 3.374769e-01
v -3.576670e-01 1.585143e-01 3.454099e-01
v -3.550268e-01 1.577887e-01 3.523713e-01
v -3.509545e-01 1.560268e-01 3.583980e-01
v -3.483207e-01 1.553036e-01 3.653471e-01
v -3.464191e-01 1.551047e-01 3.727331e-01
v -3.452588e-01 1.554333e-01 3.805374e-01
v -3.426537e-01 1.547208e-01 3.874314e-01
v -3.407900e-01 1.545359e-01 3.947437e-01
v -3.389390e-01 1.543557e-01 4.020315e-01
v -3.348761e-01 1.525973e-01 4.080398e-01
v -3.300622e-01 1.503076e-01 4.136481e-01
v -3.244877e-01 1.474831e-01 4.188748e-01
v -3.188941e-01 1.446517e-01 4.241384e-01
v -3.132815e-01 1.418130e-01 4.294387e-01
v -4.375348e-01 1.799090e-01 1.956679e-01
v -4.328930e-01 1.776686e-01 2.009590e-01
v -4.282387e-01 1.754236e-01 2.062746e-01
v -4.248635e-01 1.741728e-01 2.128054e-01
v -4.208391e-01 1.724212e-01 2.187469e-01
v -4.168084e-01 1.706675e-01 2.247009e-01
v -4.114607e-01 1.679053e-01 2.295131e-01
v -4.067524e-01 1.656402e-01 2.349329e-01
v -4.026931e-01 1.638758e-01 2.409418e-01
v -3.979628e-01 1.616026e-01 2.464046e-01
v -3.938876e-01 1.598323e-01 2.524443e-01
v -3.911488e-01 1.590774e-01 2.595890e-01
v -3.877419e-01 1.578149e-01 2.661811e-01
v -3.850125e-01 1.570636e-01 2.733074e-01
v -3.829703e-01 1.568271e-01 2.809492e-01
v -3.816247e-01 1.571088e-01 2.890884e-01
v -3.782367e-01 1.558533e-01 2.956437e-01
v -3.755389e-01 1.551137e-01 3.027085e-01
v -3.728477e-01 1.543765e-01 3.097613e-01
v -3.701627e-01 1.536416e-01 3.168015e-01
v -3.667843e-01 1.523896e-01 3.233385e-01
v -3.655146e-01 1.526995e-01 3.313306e-01
v -3.656763e-01 1.540601e-01 3.402434e-01
v -3.644511e-01 1.543865e-01 3.481496e-01
v -3.611075e-01 1.531475e-01 3.546191e-01
v -3.584797e-01 1.524338e-01 3.615491e-01
v -3.565769e-01 1.522489e-01 3.689211e-01
v -3.546867e-01 1.520687e-01 3.762686e-01
v -3.528092e-01 1.518932e-01 3.835916e-01
v -3.502162e-01 1.511924e-01 3.904542e-01
v -3.483609e-01 1.510251e-01 3.977342e-01
v -3.457837e-01 1.503303e-01 4.045661e-01
v -3.417371e-01 1.485705e-01 4.105507e-01
v -3.369434e-01 1.462738e-01 4.161361e-01
v -3.313926e-01 1.434364e-01 4.213406e-01
v -3.243283e-01 1.395178e-01 4.257838e-01
v -3.172323e-01 1.355875e-01 4.302882e-01
v -4.435929e-01 1.739224e-01 1.887737e-01
v -4.408567e-01 1.731758e-01 1.959053e-01
v -4.374909e-01 1.719286e-01 2.024178e-01
v -4.328473e-01 1.696729e-01 2.077288e-01
v -4.301172e-01 1.689286e-01 2.148481e-01
v -4.261031e-01 1.671737e-01 2.207782e-01
v -4.220824e-01 1.654163e-01 2.267206e-01
v -4.180554e-01 1.636565e-01 2.326752e-01
v -4.140222e-01 1.618946e-01 2.386422e-01
v -4.099825e-01 1.601301e-01 2.446213e-01
v -4.052755e-01 1.578510e-01 2.500551e-01
v -4.018843e-01 1.565943e-01 2.566166e-01
v -3.991608e-01 1.558524e-01 2.637236e-01
v -3.951021e-01 1.540810e-01 2.697396e-01
v -3.923849e-01 1.533414e-01 2.768343e-01
v -3.896739e-01 1.526042e-01 2.839168e-01
v -3.869694e-01 1.518693e-01 2.909871e-01
v -3.842711e-01 1.511367e-01 2.980450e-01
v -3.815794e-01 1.504067e-01 3.050907e-01
v -3.788938e-01 1.496789e-01 3.121242e-01
v -3.755218e-01 1.484292e-01 3.186489e-01
v -3.728456e-01 1.477048e-01 3.256639e-01
v -3.715743e-01 1.480359e-01 3.336350e-01
v -3.717268e-01 1.494294e-01 3.425255e-01
v -3.697944e-01 1.492481e-01 3.499389e-01
v -3.664572e-01 1.480114e-01 3.563962e-01
v -3.645439e-01 1.478371e-01 3.637728e-01
v -3.633581e-01 1.481998e-01 3.715783e-01
v -3.614733e-01 1.480361e-01 3.788998e-01
v -3.596010e-01 1.478771e-01 3.861967e-01
v -3.570169e-01 1.471868e-01 3.930339e-01
v -3.544391e-01 1.464990e-01 3.998588e-01
v -3.525985e-01 1.463516e-01 4.070943e-01
v -3.493025e-01 1.451302e-01 4.134719e-01
v -3.445320e-01 1.428277e-01 4.190282e-01
v -3.397488e-01 1.405203e-01 4.246091e-01
v -3.319785e-01 1.360364e-01 4.286210e-01
v -3.256638e-01 1.326268e-01 4.334911e-01
v -3.208235e-01 1.302983e-01 4.391823e-01
v -4.446978e-01 1.638740e-01 1.768627e-01
v -4.475549e-01 1.676792e-01 1.896256e-01
v -4.454439e-01 1.674462e-01 1.973686e-01
v -4.420813e-01 1.662001e-01 2.038749e-01
v -4.380835e-01 1.644440e-01 2.097813e-01
v -4.347177e-01 1.631967e-01 2.162938e-01
v -4.307103e-01 1.614370e-01 2.222185e-01
v -4.273414e-01 1.601885e-01 2.287371e-01
v -4.239724e-01 1.589401e-01 2.352558e-01
v -4.206035e-01 1.576916e-01 2.417743e-01
v -4.165804e-01 1.559261e-01 2.477298e-01
v -4.118934e-01 1.536399e-01 2.531405e-01
v -4.078543e-01 1.518685e-01 2.591267e-01
v -4.044727e-01 1.506153e-01 2.656698e-01
v -4.010911e-01 1.493622e-01 2.722129e-01
v -3.983796e-01 1.486319e-01 2.792884e-01
v -3.950012e-01 1.473800e-01 2.858253e-01
v -3.929758e-01 1.471787e-01 2.934028e-01
v -3.902832e-01 1.464555e-01 3.004415e-01
v -3.875973e-01 1.457348e-01 3.074681e-01
v -3.849174e-01 1.450163e-01 3.144823e-01
v -3.822440e-01 1.443003e-01 3.214842e-01
v -3.802692e-01 1.441178e-01 3.289634e-01
v -3.783072e-01 1.439400e-01 3.364182e-01
v -3.763578e-01 1.437669e-01 3.438484e-01
v -3.744211e-01 1.435984e-01 3.512540e-01
v -3.724969e-01 1.434347e-01 3.586351e-01
v -3.705856e-01 1.432756e-01 3.659917e-01
v -3.693982e-01 1.436595e-01 3.737765e-01
v -3.675154e-01 1.435111e-01 3.810779e-01
v -3.663629e-01 1.439079e-01 3.887952e-01
v -3.645085e-01 1.437700e-01 3.960414e-01
v -3.619429e-01 1.430940e-01 4.028350e-01
v -3.601107e-01 1.429643e-01 4.100382e-01
v -3.568305e-01 1.417487e-01 4.163851e-01
v -3.528169e-01 1.399867e-01 4.223222e-01
v -3.495336e-01 1.387699e-01 4.286752e-01
v -3.440306e-01 1.359067e-01 4.338356e-01
v -3.377656e-01 1.324864e-01 4.386413e-01
v -3.366986e-01 1.329150e-01 4.461930e-01
v -3.378989e-01 1.350077e-01 4.548455e-01
v -4.505538e-01 1.591059e-01 1.795937e-01
v -4.515170e-01 1.614361e-01 1.904776e-01
v -4.487733e-01 1.607013e-01 1.976076e-01
v -4.466642e-01 1.604834e-01 2.053304e-01
v -4.439365e-01 1.597545e-01 2.124298e-01
v -4.399454e-01 1.579935e-01 2.183308e-01
v -4.359481e-01 1.562304e-01 2.242441e-01
v -4.332266e-01 1.555037e-01 2.313311e-01
v -4.298672e-01 1.542588e-01 2.378314e-01
v -4.258604e-01 1.524921e-01 2.437631e-01
v -4.218473e-01 1.507230e-01 2.497072e-01
v -4.178278e-01 1.489515e-01 2.556633e-01
v -4.138020e-01 1.471778e-01 2.616320e-01
v -4.104299e-01 1.459282e-01 2.681567e-01
v -4.070579e-01 1.446786e-01 2.746814e-01
v -4.036857e-01 1.434289e-01 2.812061e-01
v -4.009831e-01 1.427093e-01 2.882563e-01
v -3.989597e-01 1.425232e-01 2.958136e-01
v -3.969491e-01 1.423419e-01 3.033465e-01
v -3.935928e-01 1.410982e-01 3.098405e-01
v -3.909187e-01 1.403891e-01 3.168355e-01
v -3.889366e-01 1.402184e-01 3.243132e-01
v -3.869671e-01 1.400523e-01 3.317663e-01
v -3.850102e-01 1.398909e-01 3.391949e-01
v -3.816762e-01 1.386554e-01 3.456460e-01
v -3.804364e-01 1.390417e-01 3.535082e-01
v -3.792157e-01 1.394350e-01 3.613334e-01
v -3.766050e-01 1.387494e-01 3.682058e-01
v -3.754161e-01 1.391545e-01 3.759698e-01
v -3.742460e-01 1.395667e-01 3.836970e-01
v -3.738089e-01 1.405322e-01 3.918271e-01
v -3.726801e-01 1.409596e-01 3.994745e-01
v -3.694094e-01 1.397475e-01 4.058030e-01
v -3.668623e-01 1.390856e-01 4.125528e-01
v -3.635949e-01 1.378747e-01 4.188752e-01
v -3.603273e-01 1.366638e-01 4.251975e-01
v -3.577927e-01 1.360064e-01 4.319226e-01
v -3.545284e-01 1.347967e-01 4.382389e-01
v -3.497854e-01 1.324753e-01 4.437739e-01
v -3.465147e-01 1.312632e-01 4.501023e-01
v -3.439898e-01 1.306095e-01 4.568092e-01
v -4.536492e-01 1.504667e-01 1.694869e-01
v -4.563873e-01 1.543730e-01 1.823197e-01
v -4.554790e-01 1.551929e-01 1.913295e-01
v -4.527316e-01 1.544640e-01 1.984587e-01
v -4.512398e-01 1.547786e-01 2.067845e-01
v -4.497671e-01 1.551003e-01 2.150734e-01
v -4.457893e-01 1.533371e-01 2.209570e-01
v -4.424394e-01 1.520957e-01 2.274387e-01
v -4.403640e-01 1.519049e-01 2.350803e-01
v -4.370205e-01 1.506658e-01 2.415498e-01
v -4.330334e-01 1.488991e-01 2.474517e-01
v -4.290397e-01 1.471301e-01 2.533659e-01
v -4.250398e-01 1.453585e-01 2.592921e-01
v -4.197272e-01 1.425224e-01 2.641324e-01
v -4.157083e-01 1.407439e-01 2.700957e-01
v -4.123426e-01 1.394966e-01 2.766081e-01
v -4.089768e-01 1.382494e-01 2.831206e-01
v -4.069427e-01 1.380738e-01 2.906823e-01
v -4.055904e-01 1.384402e-01 2.987384e-01
v -4.029127e-01 1.377371e-01 3.057326e-01
v -3.988906e-01 1.359574e-01 3.117019e-01
v -3.962193e-01 1.352566e-01 3.186839e-01
v -3.935541e-01 1.345581e-01 3.256535e-01
v -3.922653e-01 1.349479e-01 3.335869e-01
v -3.909953e-01 1.353448e-01 3.414834e-01
v -3.883620e-01 1.346580e-01 3.483917e-01
v -3.864294e-01 1.345202e-01 3.557574e-01
v -3.852069e-01 1.349346e-01 3.635619e-01
v -3.826022e-01 1.342585e-01 3.704151e-01
v -3.821153e-01 1.352347e-01 3.786094e-01
v -3.809467e-01 1.356691e-01 3.863097e-01
v -3.797972e-01 1.361105e-01 3.939731e-01
v -3.793802e-01 1.371127e-01 4.020326e-01
v -3.775553e-01 1.370147e-01 4.091897e-01
v -3.750234e-01 1.363655e-01 4.159018e-01
v -3.724979e-01 1.357188e-01 4.226018e-01
v -3.692525e-01 1.345162e-01 4.288812e-01
v -3.660072e-01 1.333135e-01 4.351607e-01
v -3.634943e-01 1.326714e-01 4.418360e-01
v -3.609877e-01 1.320316e-01 4.484991e-01
v -3.592262e-01 1.319572e-01 4.555335e-01
v -3.611871e-01 1.347079e-01 4.644313e-01
v -3.713881e-01 1.436930e-01 4.773287e-01
v -4.637458e-01 1.493595e-01 1.766317e-01
v -4.615871e-01 1.491523e-01 1.844189e-01
v -4.600556e-01 1.494740e-01 1.927974e-01
v -4.573075e-01 1.487520e-01 1.999195e-01
v -4.558077e-01 1.490854e-01 2.082368e-01
v -4.543270e-01 1.494259e-01 2.165172e-01
v -4.516107e-01 1.487158e-01 2.235781e-01
v -4.482704e-01 1.474779e-01 2.300415e-01
v -4.461971e-01 1.473024e-01 2.376631e-01
v -4.434998e-01 1.465993e-01 2.446873e-01
v -4.401690e-01 1.453649e-01 2.511322e-01
v -4.355518e-01 1.430610e-01 2.564558e-01
v -4.302758e-01 1.402166e-01 2.612493e-01
v -4.256301e-01 1.379022e-01 2.666280e-01
v -4.216244e-01 1.361214e-01 2.725737e-01
v -4.182683e-01 1.348777e-01 2.790678e-01
v -4.155709e-01 1.341744e-01 2.860918e-01
v -4.128800e-01 1.334737e-01 2.931037e-01
v -4.101954e-01 1.327753e-01 3.001032e-01
v -4.075170e-01 1.320791e-01 3.070905e-01
v -4.041734e-01 1.308400e-01 3.135600e-01
v -4.008299e-01 1.296010e-01 3.200296e-01
v -3.981644e-01 1.289096e-01 3.269923e-01
v -3.975485e-01 1.298670e-01 3.354042e-01
v -3.969581e-01 1.308338e-01 3.437671e-01
v -3.950180e-01 1.307077e-01 3.511311e-01
v -3.930906e-01 1.305863e-01 3.584706e-01
v -3.911758e-01 1.304695e-01 3.657855e-01
v -3.892738e-01 1.303574e-01 3.730760e-01
v -3.887848e-01 1.313619e-01 3.812427e-01
v -3.876178e-01 1.318187e-01 3.889160e-01
v -3.864698e-01 1.322824e-01 3.965525e-01
v -3.860505e-01 1.333127e-01 4.045842e-01
v -3.849436e-01 1.337917e-01 4.121410e-01
v -3.831398e-01 1.337161e-01 4.192414e-01
v -3.806296e-01 1.330822e-01 4.259037e-01
v -3.774033e-01 1.318866e-01 4.321463e-01
v -3.749025e-01 1.312563e-01 4.387902e-01
v -3.738653e-01 1.317612e-01 4.462120e-01
v -3.735791e-01 1.328408e-01 4.539863e-01
v -3.747883e-01 1.350673e-01 4.624770e-01
v -3.760355e-01 1.373080e-01 4.708943e-01
v -3.773207e-01 1.395626e-01 4.792379e-01
v -3.734324e-01 1.378253e-01 4.849566e-01
v -4.689318e-01 1.441482e-01 1.787416e-01
v -4.667718e-01 1.439551e-01 1.865148e-01
v -4.652355e-01 1.442967e-01 1.948786e-01
v -4.631042e-01 1.441142e-01 2.025968e-01
v -4.609856e-01 1.439365e-01 2.102904e-01
v -4.594999e-01 1.442969e-01 2.185561e-01
v -4.567863e-01 1.435949e-01 2.256040e-01
v -4.540789e-01 1.428953e-01 2.326395e-01
v -4.520078e-01 1.427351e-01 2.402412e-01
v -4.486832e-01 1.415031e-01 2.466739e-01
v -4.447224e-01 1.397316e-01 2.525405e-01
v -4.401160e-01 1.374173e-01 2.578596e-01
v -4.348542e-01 1.345563e-01 2.626494e-01
v -4.315106e-01 1.333173e-01 2.691189e-01
v -4.275182e-01 1.315342e-01 2.750470e-01
v -4.241715e-01 1.302939e-01 2.815226e-01
v -4.208248e-01 1.290537e-01 2.879982e-01
v -4.181364e-01 1.283611e-01 2.949969e-01
v -4.147927e-01 1.271220e-01 3.014665e-01
v -4.121141e-01 1.264330e-01 3.084469e-01
v -4.094415e-01 1.257463e-01 3.154150e-01
v -4.061042e-01 1.245095e-01 3.218722e-01
v -4.034414e-01 1.238264e-01 3.288219e-01
v -4.021395e-01 1.242550e-01 3.367321e-01
v -4.022179e-01 1.258023e-01 3.455658e-01
v -4.009605e-01 1.262473e-01 3.533900e-01
v -3.997220e-01 1.266993e-01 3.611774e-01
v -3.985026e-01 1.271584e-01 3.689280e-01
v -3.959158e-01 1.265035e-01 3.757306e-01
v -3.947281e-01 1.269743e-01 3.834199e-01
v -3.942589e-01 1.280151e-01 3.915158e-01
v -3.938152e-01 1.290653e-01 3.995627e-01
v -3.926908e-01 1.295596e-01 4.071294e-01
v -3.915855e-01 1.300610e-01 4.146593e-01
v -3.904992e-01 1.305695e-01 4.221524e-01
v -3.887165e-01 1.305161e-01 4.291959e-01
v -3.869464e-01 1.304675e-01 4.362150e-01
v -3.859109e-01 1.309947e-01 4.436100e-01
v -3.856192e-01 1.321013e-01 4.513625e-01
v -3.853530e-01 1.332173e-01 4.590659e-01
v -3.851120e-01 1.343426e-01 4.667204e-01
v -3.848964e-01 1.354774e-01 4.743257e-01
v -3.832310e-01 1.354675e-01 4.811424e-01
v -3.800966e-01 1.343060e-01 4.872072e-01
v -3.762183e-01 1.325651e-01 4.929144e-01
v -4.804598e-01 1.428708e-01 1.774930e-01
v -4.759051e-01 1.405611e-01 1.827278e-01
v -4.731498e-01 1.398509e-01 1.898485e-01
v -4.722220e-01 1.407508e-01 1.987997e-01
v -4.700991e-01 1.405859e-01 2.064855e-01
v -4.673754e-01 1.398875e-01 2.135449e-01
v -4.646580e-01 1.391914e-01 2.205919e-01
v -4.619468e-01 1.384976e-01 2.276266e-01
v -4.598651e-01 1.383479e-01 2.352327e-01
v -4.577961e-01 1.382031e-01 2.428144e-01
v -4.544810e-01 1.369746e-01 2.492287e-01
v -4.499009e-01 1.346554e-01 2.545125e-01
v -4.453082e-01 1.323316e-01 2.598209e-01
v -4.407029e-01 1.300032e-01 2.651538e-01
v -4.367268e-01 1.282188e-01 2.710581e-01
v -4.340348e-01 1.275321e-01 2.780562e-01
v -4.307008e-01 1.262966e-01 2.845072e-01
v -4.260637e-01 1.239564e-01 2.899015e-01
v -4.227233e-01 1.227185e-01 2.963648e-01
v -4.200406e-01 1.220353e-01 3.033444e-01
v -4.167034e-01 1.207985e-01 3.098017e-01
v -4.140305e-01 1.201189e-01 3.167628e-01
v -4.120310e-01 1.199998e-01 3.242095e-01
v -4.100444e-01 1.198854e-01 3.316316e-01
v -4.080705e-01 1.197758e-01 3.390294e-01
v -4.067859e-01 1.202324e-01 3.468818e-01
v -4.062005e-01 1.212592e-01 3.551708e-01
v -4.063236e-01 1.228594e-01 3.638778e-01
v -4.044193e-01 1.227755e-01 3.711405e-01
v -4.004592e-01 1.209971e-01 3.770142e-01
v -4.006489e-01 1.226220e-01 3.855924e-01
v -4.001744e-01 1.236898e-01 3.936667e-01
v -4.004242e-01 1.253369e-01 4.021285e-01
v -3.993014e-01 1.258536e-01 4.096681e-01
v -3.981977e-01 1.263773e-01 4.171711e-01
v -3.971128e-01 1.269081e-01 4.246373e-01
v -3.967587e-01 1.280205e-01 4.324785e-01
v -3.971449e-01 1.297182e-01 4.406766e-01
v -3.961267e-01 1.302736e-01 4.480141e-01
v -3.951274e-01 1.308360e-01 4.553146e-01
v -3.941472e-01 1.314055e-01 4.625784e-01
v -3.931860e-01 1.319821e-01 4.698054e-01
v -3.907823e-01 1.314022e-01 4.762453e-01
v -3.883850e-01 1.308248e-01 4.826730e-01
v -3.837829e-01 1.284975e-01 4.879998e-01
v -3.806485e-01 1.273359e-01 4.940646e-01
v -3.782574e-01 1.267608e-01 5.004800e-01
v -4.924821e-01 1.421962e-01 1.769572e-01
v -4.885606e-01 1.404249e-01 1.827643e-01
v -4.852297e-01 1.391905e-01 1.892093e-01
v -4.818988e-01 1.379562e-01 1.956543e-01
v -4.791712e-01 1.372635e-01 2.027126e-01
v -4.764501e-01 1.365733e-01 2.097590e-01
v -4.737353e-01 1.358854e-01 2.167928e-01
v -4.716398e-01 1.357452e-01 2.244097e-01
v -4.689408e-01 1.350632e-01 2.314130e-01
v -4.662482e-01 1.343836e-01 2.384040e-01
v -4.641844e-01 1.342551e-01 2.459595e-01
v -4.608820e-01 1.330313e-01 2.523493e-01
v -4.563221e-01 1.307052e-01 2.576102e-01
v -4.523814e-01 1.289266e-01 2.634540e-01
v -4.465292e-01 1.254852e-01 2.676535e-01
v -4.425663e-01 1.236985e-01 2.735402e-01
v -4.398801e-01 1.230212e-01 2.805190e-01
v -4.359109e-01 1.212321e-01 2.864178e-01
v -4.312877e-01 1.188825e-01 2.918015e-01
v -4.273026e-01 1.170875e-01 2.977310e-01
v -4.246196e-01 1.164115e-01 3.047037e-01
v -4.226000e-01 1.162994e-01 3.121733e-01
v -4.199328e-01 1.156291e-01 3.191153e-01
v -4.179355e-01 1.155254e-01 3.265421e-01
v -4.159508e-01 1.154262e-01 3.339441e-01
v -4.133090e-01 1.147653e-01 3.408371e-01
v -4.113465e-01 1.146744e-01 3.481963e-01
v -4.107493e-01 1.157258e-01 3.564759e-01
v -4.108571e-01 1.173566e-01 3.651728e-01
v -4.089485e-01 1.172857e-01 3.724278e-01
v -4.063667e-01 1.166471e-01 3.792042e-01
v -4.072363e-01 1.188783e-01 3.882080e-01
v -4.074517e-01 1.205490e-01 3.966963e-01
v -4.076988e-01 1.222314e-01 4.051234e-01
v -4.065806e-01 1.227716e-01 4.126301e-01
v -4.054816e-01 1.233188e-01 4.201000e-01
v -4.051062e-01 1.244523e-01 4.279503e-01
v -4.047563e-01 1.255954e-01 4.357517e-01
v -4.037204e-01 1.261660e-01 4.430989e-01
v -4.027037e-01 1.267438e-01 4.504094e-01
v -4.017060e-01 1.273285e-01 4.576829e-01
v -4.007273e-01 1.279203e-01 4.649198e-01
v -3.983199e-01 1.273464e-01 4.713589e-01
v -3.951918e-01 1.261872e-01 4.774115e-01
v -3.920638e-01 1.250279e-01 4.834640e-01
v -3.889357e-01 1.238688e-01 4.895165e-01
v -3.850711e-01 1.221185e-01 4.952131e-01
v -3.826796e-01 1.215504e-01 5.016216e-01
v -3.840087e-01 1.239519e-01 5.097361e-01
v -5.046138e-01 1.436309e-01 1.867199e-01
v -4.977894e-01 1.391494e-01 1.892864e-01
v -4.950804e-01 1.384709e-01 1.963011e-01
v -4.917812e-01 1.372483e-01 2.026849e-01
v -4.878824e-01 1.354780e-01 2.084558e-01
v -4.845800e-01 1.342542e-01 2.148456e-01
v -4.818836e-01 1.335804e-01 2.218359e-01
v -4.791935e-01 1.329089e-01 2.288138e-01
v -4.765099e-01 1.322399e-01 2.357795e-01
v -4.738326e-01 1.315731e-01 2.427328e-01
v -4.705428e-01 1.303540e-01 2.490982e-01
v -4.666313e-01 1.285791e-01 2.548938e-01
v -4.633385e-01 1.273589e-01 2.612651e-01
v -4.587893e-01 1.250221e-01 2.665215e-01
v -4.542272e-01 1.226807e-01 2.718024e-01
v -4.496526e-01 1.203345e-01 2.771079e-01
v -4.444276e-01 1.174220e-01 2.818988e-01
v -4.404654e-01 1.156283e-01 2.877924e-01
v -4.364967e-01 1.138321e-01 2.936982e-01
v -4.331690e-01 1.125990e-01 3.001371e-01
v -4.304918e-01 1.119323e-01 3.070906e-01
v -4.284743e-01 1.118355e-01 3.145402e-01
v -4.264695e-01 1.117434e-01 3.219652e-01
v -4.238176e-01 1.110861e-01 3.288697e-01
v -4.205088e-01 1.098599e-01 3.352717e-01
v -4.185327e-01 1.097785e-01 3.426416e-01
v -4.172385e-01 1.102751e-01 3.504648e-01
v -4.166359e-01 1.113535e-01 3.587227e-01
v -4.160588e-01 1.124413e-01 3.669318e-01
v -4.155068e-01 1.135385e-01 3.750916e-01
v -4.136161e-01 1.134887e-01 3.822959e-01
v -4.137939e-01 1.151817e-01 3.908171e-01
v -4.140034e-01 1.168864e-01 3.992769e-01
v -4.142446e-01 1.186030e-01 4.076755e-01
v -4.131279e-01 1.191654e-01 4.151552e-01
v -4.127282e-01 1.203190e-01 4.230208e-01
v -4.123538e-01 1.214819e-01 4.308373e-01
v -4.120048e-01 1.226543e-01 4.386047e-01
v -4.109736e-01 1.232484e-01 4.459189e-01
v -4.099616e-01 1.238497e-01 4.531963e-01
v -4.075409e-01 1.232780e-01 4.596530e-01
v -4.051267e-01 1.227088e-01 4.660974e-01
v -4.027188e-01 1.221419e-01 4.725296e-01
v -4.003171e-01 1.215773e-01 4.789496e-01
v -3.971954e-01 1.204205e-01 4.849898e-01
v -3.933440e-01 1.186678e-01 4.906688e-01
v -3.894864e-01 1.169128e-01 4.963601e-01
v -3.863583e-01 1.157536e-01 5.024126e-01
v -3.839694e-01 1.151937e-01 5.088080e-01
v -5.227806e-01 1.491685e-01 1.934057e-01
v -5.166410e-01 1.452299e-01 1.964601e-01
v -5.104697e-01 1.412796e-01 1.995758e-01
v -5.054461e-01 1.384199e-01 2.040011e-01
v -5.009962e-01 1.361055e-01 2.090813e-01
v -4.959377e-01 1.332328e-01 2.135740e-01
v -4.926575e-01 1.320173e-01 2.199210e-01
v -4.899796e-01 1.313577e-01 2.268675e-01
v -4.867026e-01 1.301433e-01 2.332082e-01
v -4.828169e-01 1.283706e-01 2.389617e-01
v -4.801486e-01 1.277145e-01 2.458897e-01
v -4.768716e-01 1.265001e-01 2.522305e-01
v -4.729763e-01 1.247239e-01 2.580023e-01
v -4.684537e-01 1.223825e-01 2.632235e-01
v -4.645426e-01 1.206004e-01 2.690259e-01
v -4.599976e-01 1.182508e-01 2.742900e-01
v -4.560709e-01 1.164630e-01 2.801232e-01
v -4.515036e-01 1.141051e-01 2.854302e-01
v -4.462867e-01 1.111738e-01 2.902296e-01
v -4.423313e-01 1.093753e-01 2.961180e-01
v -4.396566e-01 1.087168e-01 3.030583e-01
v -4.376349e-01 1.086329e-01 3.105001e-01
v -4.349759e-01 1.079802e-01 3.174099e-01
v -4.323235e-01 1.073300e-01 3.243073e-01
v -4.290211e-01 1.061062e-01 3.306972e-01
v -4.263781e-01 1.054594e-01 3.375762e-01
v -4.244039e-01 1.053932e-01 3.449261e-01
v -4.237737e-01 1.064904e-01 3.532054e-01
v -4.231690e-01 1.075970e-01 3.614357e-01
v -4.219175e-01 1.081313e-01 3.691522e-01
v -4.206850e-01 1.086725e-01 3.768318e-01
v -4.201500e-01 1.098050e-01 3.849272e-01
v -4.196403e-01 1.109468e-01 3.929735e-01
v -4.205253e-01 1.132709e-01 4.018512e-01
v -4.200726e-01 1.144338e-01 4.097871e-01
v -4.196453e-01 1.156062e-01 4.176740e-01
v -4.199376e-01 1.173779e-01 4.259336e-01
v -4.195641e-01 1.185702e-01 4.337163e-01
v -4.192160e-01 1.197719e-01 4.414498e-01
v -4.188933e-01 1.209830e-01 4.491343e-01
v -4.171822e-01 1.210143e-01 4.559752e-01
v -4.147736e-01 1.204544e-01 4.624005e-01
v -4.109451e-01 1.187030e-01 4.680434e-01
v -4.085429e-01 1.181454e-01 4.744564e-01
v -4.061471e-01 1.175903e-01 4.808572e-01
v -4.030348e-01 1.164369e-01 4.868791e-01
v -3.977450e-01 1.134786e-01 4.918195e-01
v -3.931651e-01 1.111160e-01 4.971511e-01
v -3.900371e-01 1.099568e-01 5.032036e-01
v -3.876444e-01 1.094028e-01 5.095983e-01
v -5.294530e-01 1.459631e-01 1.974295e-01
v -5.262458e-01 1.447746e-01 2.036354e-01
v -5.212903e-01 1.419184e-01 2.079527e-01
v -5.157300e-01 1.384981e-01 2.116835e-01
v -5.107333e-01 1.356266e-01 2.160806e-01
v -5.057176e-01 1.327481e-01 2.205144e-01
v -5.012783e-01 1.304231e-01 2.255901e-01
v -4.974250e-01 1.286553e-01 2.312892e-01
v -4.935653e-01 1.268850e-01 2.370005e-01
v -4.896991e-01 1.251123e-01 2.427239e-01
v -4.870430e-01 1.244680e-01 2.496206e-01
v -4.837817e-01 1.232594e-01 2.559307e-01
v -4.786772e-01 1.203480e-01 2.605362e-01
v -4.741715e-01 1.179984e-01 2.657406e-01
v -4.696530e-01 1.156441e-01 2.709696e-01
v -4.644979e-01 1.127139e-01 2.756733e-01
v -4.618321e-01 1.120659e-01 2.825883e-01
v -4.585424e-01 1.108468e-01 2.889536e-01
v -4.533525e-01 1.079038e-01 2.937248e-01
v -4.487800e-01 1.055294e-01 2.990580e-01
v -4.461144e-01 1.048815e-01 3.059730e-01
v -4.434549e-01 1.042359e-01 3.128758e-01
v -4.408017e-01 1.035926e-01 3.197663e-01
v -4.375057e-01 1.023712e-01 3.261438e-01
v -4.348622e-01 1.017315e-01 3.330160e-01
v -4.322249e-01 1.010941e-01 3.398757e-01
v -4.302528e-01 1.010432e-01 3.472057e-01
v -4.302792e-01 1.027527e-01 3.559397e-01
v -4.290071e-01 1.033010e-01 3.636721e-01
v -4.277539e-01 1.038563e-01 3.713678e-01
v -4.265198e-01 1.044188e-01 3.790267e-01
v -4.259794e-01 1.055783e-01 3.871005e-01
v -4.261421e-01 1.073383e-01 3.955707e-01
v -4.270174e-01 1.097022e-01 4.044190e-01
v -4.272465e-01 1.114868e-01 4.127605e-01
v -4.275075e-01 1.132832e-01 4.210406e-01
v -4.271097e-01 1.144955e-01 4.288384e-01
v -4.267372e-01 1.157172e-01 4.365871e-01
v -4.263900e-01 1.169483e-01 4.442868e-01
v -4.253682e-01 1.175894e-01 4.515349e-01
v -4.243655e-01 1.182376e-01 4.587461e-01
v -4.226754e-01 1.182912e-01 4.655302e-01
v -4.195791e-01 1.171438e-01 4.715214e-01
v -4.164827e-01 1.159963e-01 4.775126e-01
v -4.133863e-01 1.148489e-01 4.835039e-01
v -4.088519e-01 1.124886e-01 4.887635e-01
v -4.035828e-01 1.095162e-01 4.936880e-01
v -3.997452e-01 1.077541e-01 4.993563e-01
v -3.951729e-01 1.053798e-01 5.046894e-01
v -3.913194e-01 1.036119e-01 5.103885e-01
v -5.366609e-01 1.433759e-01 2.020862e-01
v -5.334726e-01 1.421944e-01 2.082553e-01
v -5.285473e-01 1.393277e-01 2.125383e-01
v -5.236031e-01 1.364538e-01 2.168580e-01
v -5.186398e-01 1.335730e-01 2.212146e-01
v -5.148345e-01 1.318157e-01 2.268286e-01
v -5.098395e-01 1.289231e-01 2.312465e-01
v -5.048256e-01 1.260234e-01 2.357012e-01
v -4.997925e-01 1.231167e-01 2.401926e-01
v -4.965440e-01 1.219128e-01 2.464782e-01
v -4.938999e-01 1.212803e-01 2.533434e-01
v -4.900470e-01 1.195052e-01 2.590493e-01
v -4.843559e-01 1.160075e-01 2.630655e-01
v -4.798670e-01 1.136496e-01 2.682531e-01
v -4.753655e-01 1.112871e-01 2.734653e-01
v -4.708512e-01 1.089197e-01 2.787018e-01
v -4.675710e-01 1.077042e-01 2.850487e-01
v -4.649174e-01 1.070681e-01 2.919324e-01
v -4.603810e-01 1.046926e-01 2.972119e-01
v -4.558319e-01 1.023123e-01 3.025161e-01
v -4.519061e-01 1.005104e-01 3.083630e-01
v -4.479740e-01 9.870600e-02 3.142223e-01
v -4.453204e-01 9.806986e-02 3.211059e-01
v -4.426731e-01 9.743595e-02 3.279771e-01
v -4.400322e-01 9.680452e-02 3.348363e-01
v -4.387013e-01 9.735291e-02 3.426583e-01
v -4.367343e-01 9.731832e-02 3.499620e-01
v -4.354384e-01 9.787966e-02 3.577168e-01
v -4.341614e-01 9.844798e-02 3.654345e-01
v -4.335680e-01 9.961680e-02 3.735786e-01
v -4.329999e-01 1.007951e-01 3.816738e-01
v -4.317863e-01 1.013868e-01 3.892689e-01
v -4.326139e-01 1.037767e-01 3.981615e-01
v -4.334796e-01 1.061806e-01 4.069804e-01
v -4.343833e-01 1.085986e-01 4.157258e-01
v -4.346414e-01 1.104302e-01 4.239712e-01
v -4.342444e-01 1.116719e-01 4.317351e-01
v -4.338730e-01 1.129230e-01 4.394501e-01
v -4.328337e-01 1.135794e-01 4.467079e-01
v -4.318133e-01 1.142428e-01 4.539291e-01
v -4.301127e-01 1.143070e-01 4.607178e-01
v -4.284247e-01 1.143758e-01 4.674819e-01
v -4.260436e-01 1.138406e-01 4.738380e-01
v -4.243777e-01 1.139177e-01 4.805592e-01
v -4.213004e-01 1.127772e-01 4.865137e-01
v -4.167925e-01 1.104123e-01 4.917381e-01
v -4.122719e-01 1.080428e-01 4.969871e-01
v -4.084603e-01 1.062830e-01 5.026133e-01
v -4.024681e-01 1.026737e-01 5.072119e-01
v -3.971783e-01 9.967182e-02 5.122001e-01
v -5.432550e-01 1.402939e-01 2.060933e-01
v -5.383663e-01 1.374189e-01 2.103296e-01
v -5.346091e-01 1.356722e-01 2.158586e-01
v -5.302672e-01 1.333542e-01 2.207779e-01
v -5.253309e-01 1.304617e-01 2.251063e-01
v -5.203757e-01 1.275620e-01 2.294713e-01
v -5.171653e-01 1.263723e-01 2.356833e-01
v -5.121814e-01 1.234620e-01 2.401036e-01
v -5.065843e-01 1.199701e-01 2.439695e-01
v -5.033517e-01 1.187721e-01 2.502245e-01
v -5.007197e-01 1.181512e-01 2.570582e-01
v -4.968864e-01 1.163762e-01 2.627342e-01
v -4.918329e-01 1.134402e-01 2.672895e-01
v -4.873705e-01 1.110776e-01 2.724419e-01
v -4.828953e-01 1.087103e-01 2.776188e-01
v -4.777911e-01 1.057555e-01 2.822721e-01
v -4.739072e-01 1.039618e-01 2.880464e-01
v -4.700168e-01 1.021656e-01 2.938328e-01
v -4.661203e-01 1.003673e-01 2.996316e-01
v -4.622173e-01 9.856645e-02 3.054426e-01
v -4.589403e-01 9.735204e-02 3.117833e-01
v -4.556633e-01 9.613766e-02 3.181240e-01
v -4.523863e-01 9.492326e-02 3.244648e-01
v -4.491092e-01 9.370887e-02 3.308055e-01
v -4.471221e-01 9.368130e-02 3.381322e-01
v -4.444997e-01 9.306399e-02 3.449475e-01
v -4.425349e-01 9.304473e-02 3.522313e-01
v -4.405826e-01 9.303012e-02 3.594905e-01
v -4.406161e-01 9.481476e-02 3.681305e-01
v -4.406813e-01 9.661114e-02 3.767093e-01
v -4.407782e-01 9.841921e-02 3.852267e-01
v -4.395724e-01 9.903576e-02 3.927827e-01
v -4.390561e-01 1.002622e-01 4.007458e-01
v -4.399120e-01 1.027060e-01 4.095354e-01
v -4.408060e-01 1.051640e-01 4.182515e-01
v -4.410582e-01 1.070296e-01 4.264683e-01
v -4.413420e-01 1.089070e-01 4.346239e-01
v -4.409714e-01 1.101874e-01 4.423049e-01
v -4.399368e-01 1.108674e-01 4.495298e-01
v -4.389212e-01 1.115543e-01 4.567179e-01
v -4.372289e-01 1.116361e-01 4.634742e-01
v -4.348504e-01 1.111091e-01 4.698174e-01
v -4.338824e-01 1.118136e-01 4.769134e-01
v -4.329333e-01 1.125253e-01 4.839727e-01
v -4.305865e-01 1.120100e-01 4.902545e-01
v -4.261114e-01 1.096428e-01 4.954315e-01
v -4.230531e-01 1.085094e-01 5.013491e-01
v -4.185590e-01 1.061351e-01 5.065628e-01
v -4.133312e-01 1.031345e-01 5.114553e-01
v -4.095328e-01 1.013724e-01 5.170639e-01
v -5.540926e-01 1.395804e-01 2.052756e-01
v -5.486816e-01 1.361284e-01 2.088136e-01
v -5.432451e-01 1.326669e-01 2.124007e-01
v -5.394980e-01 1.309167e-01 2.179182e-01
v -5.357446e-01 1.291640e-01 2.234478e-01
v -5.314069e-01 1.268331e-01 2.283749e-01
v -5.264755e-01 1.239206e-01 2.327179e-01
v -5.232777e-01 1.227356e-01 2.389054e-01
v -5.189051e-01 1.203918e-01 2.439000e-01
v -5.145200e-01 1.180433e-01 2.489191e-01
v -5.101220e-01 1.156901e-01 2.539627e-01
v -5.063084e-01 1.139152e-01 2.596089e-01
v -5.024883e-01 1.121379e-01 2.652674e-01
v -4.986619e-01 1.103582e-01 2.709382e-01
v -4.942228e-01 1.079897e-01 2.760615e-01
v -4.891615e-01 1.050291e-01 2.806560e-01
v -4.834684e-01 1.014725e-01 2.847397e-01
v -4.789818e-01 9.908648e-02 2.899552e-01
v -4.751015e-01 9.728678e-02 2.957301e-01
v -4.718371e-01 9.607711e-02 3.020463e-01
v -4.685728e-01 9.486741e-02 3.083625e-01
v -4.653085e-01 9.365770e-02 3.146787e-01
v -4.626759e-01 9.304387e-02 3.215056e-01
v -4.581449e-01 9.064140e-02 3.268068e-01
v -4.555154e-01 9.002861e-02 3.336274e-01
v -4.528925e-01 8.941833e-02 3.404359e-01
v -4.502757e-01 8.881032e-02 3.472319e-01
v -4.483129e-01 8.880633e-02 3.544957e-01
v -4.476643e-01 9.001269e-02 3.626825e-01
v -4.470411e-01 9.122860e-02 3.708202e-01
v -4.477575e-01 9.366419e-02 3.798319e-01
v -4.485118e-01 9.611392e-02 3.887700e-01
v -4.473139e-01 9.675510e-02 3.962868e-01
v -4.461350e-01 9.740333e-02 4.037669e-01
v -4.463146e-01 9.927833e-02 4.120840e-01
v -4.478718e-01 1.023873e-01 4.212015e-01
v -4.487974e-01 1.049005e-01 4.298085e-01
v -4.484023e-01 1.062008e-01 4.375047e-01
v -4.480326e-01 1.075107e-01 4.451518e-01
v -4.476884e-01 1.088299e-01 4.527499e-01
v -4.473693e-01 1.101584e-01 4.602990e-01
v -4.463838e-01 1.108782e-01 4.674049e-01
v -4.440269e-01 1.103666e-01 4.736982e-01
v -4.416764e-01 1.098572e-01 4.799792e-01
v -4.414367e-01 1.112152e-01 4.873750e-01
v -4.391083e-01 1.107140e-01 4.936131e-01
v -4.360785e-01 1.095912e-01 4.994755e-01
v -4.323377e-01 1.078433e-01 5.049806e-01
v -4.293047e-01 1.067193e-01 5.108492e-01
v -4.262718e-01 1.055954e-01 5.167178e-01
v -4.254002e-01 1.063574e-01 5.236028e-01
v -4.274424e-01 1.096462e-01 5.317822e-01
v -4.266216e-01 1.104270e-01 5.385692e-01
v -5.566808e-01 1.325908e-01 2.047828e-01
v -5.524013e-01 1.302670e-01 2.096134e-01
v -5.481092e-01 1.279385e-01 2.144687e-01
v -5.443720e-01 1.261846e-01 2.199746e-01
v -5.400576e-01 1.238479e-01 2.248726e-01
v -5.363047e-01 1.220882e-01 2.304092e-01
v -5.325455e-01 1.203262e-01 2.359581e-01
v -5.293604e-01 1.191459e-01 2.421211e-01
v -5.250080e-01 1.167950e-01 2.470928e-01
v -5.212298e-01 1.150260e-01 2.526784e-01
v -5.168551e-01 1.126669e-01 2.576930e-01
v -5.124678e-01 1.103031e-01 2.627321e-01
v -5.080678e-01 1.079347e-01 2.677957e-01
v -5.042547e-01 1.061526e-01 2.734489e-01
v -4.998326e-01 1.037760e-01 2.785555e-01
v -4.947919e-01 1.008012e-01 2.831339e-01
v -4.891233e-01 9.722475e-02 2.872025e-01
v -4.846536e-01 9.483043e-02 2.924011e-01
v -4.801712e-01 9.243151e-02 2.976242e-01
v -4.775317e-01 9.182226e-02 3.044562e-01
v -4.748986e-01 9.121547e-02 3.112762e-01
v -4.710220e-01 8.940992e-02 3.170519e-01
v -4.671392e-01 8.760213e-02 3.228400e-01
v -4.638812e-01 8.639476e-02 3.291440e-01
v -4.618920e-01 8.639546e-02 3.364429e-01
v -4.586403e-01 8.519049e-02 3.427347e-01
v -4.573108e-01 8.580462e-02 3.504820e-01
v -4.560002e-01 8.642576e-02 3.581926e-01
v -4.547087e-01 8.705405e-02 3.658665e-01
v -4.540865e-01 8.829926e-02 3.739703e-01
v -4.547962e-01 9.077596e-02 3.829465e-01
v -4.542310e-01 9.204233e-02 3.909400e-01
v -4.536911e-01 9.331807e-02 3.988844e-01
v -4.525137e-01 9.398858e-02 4.063375e-01
v -4.533535e-01 9.651346e-02 4.150623e-01
v -4.549004e-01 9.966939e-02 4.241436e-01
v -4.558195e-01 1.022237e-01 4.327151e-01
v -4.554254e-01 1.035534e-01 4.403774e-01
v -4.550566e-01 1.048926e-01 4.479907e-01
v -4.553951e-01 1.068628e-01 4.559605e-01
v -4.557653e-01 1.088447e-01 4.638689e-01
v -4.554789e-01 1.102144e-01 4.713228e-01
v -4.538352e-01 1.103431e-01 4.779533e-01
v -4.515095e-01 1.098503e-01 4.841783e-01
v -4.498878e-01 1.099872e-01 4.907659e-01
v -4.482789e-01 1.101289e-01 4.973290e-01
v -4.452744e-01 1.090155e-01 5.031424e-01
v -4.422699e-01 1.079021e-01 5.089557e-01
v -4.399759e-01 1.074210e-01 5.151194e-01
v -4.369747e-01 1.063087e-01 5.209267e-01
v -4.354068e-01 1.064656e-01 5.274100e-01
v -4.338518e-01 1.066273e-01 5.338689e-01
v -4.315862e-01 1.061567e-01 5.399774e-01
v -5.598385e-01 1.261595e-01 2.049372e-01
v -5.561210e-01 1.244056e-01 2.104133e-01
v -5.518364e-01 1.220654e-01 2.152700e-01
v -5.481029e-01 1.203056e-01 2.207768e-01
v -5.449305e-01 1.191300e-01 2.269152e-01
v -5.406172e-01 1.167792e-01 2.318271e-01
v -5.374385e-01 1.156012e-01 2.379777e-01
v -5.348364e-01 1.150131e-01 2.447293e-01
v -5.305010e-01 1.126541e-01 2.496842e-01
v -5.267361e-01 1.108827e-01 2.552523e-01
v -5.229646e-01 1.091089e-01 2.608327e-01
v -5.191869e-01 1.073327e-01 2.664252e-01
v -5.154029e-01 1.055543e-01 2.720302e-01
v -5.110167e-01 1.031764e-01 2.770832e-01
v -5.060190e-01 1.001957e-01 2.816026e-01
v -5.016042e-01 9.780725e-02 2.867108e-01
v -4.965716e-01 9.481373e-02 2.912978e-01
v -4.921283e-01 9.241470e-02 2.964611e-01
v -4.876725e-01 9.001100e-02 3.016490e-01
v -4.844335e-01 8.881071e-02 3.079162e-01
v -4.818125e-01 8.821567e-02 3.147046e-01
v -4.779556e-01 8.641014e-02 3.204504e-01
v -4.728436e-01 8.338713e-02 3.251908e-01
v -4.702227e-01 8.279210e-02 3.319792e-01
v -4.682386e-01 8.280923e-02 3.392519e-01
v -4.656334e-01 8.222004e-02 3.460098e-01
v -4.636716e-01 8.224542e-02 3.532396e-01
v -4.623626e-01 8.288891e-02 3.609233e-01
v -4.617159e-01 8.415407e-02 3.690424e-01
v -4.617410e-01 8.604442e-02 3.775784e-01
v -4.617978e-01 8.794646e-02 3.860531e-01
v -4.612335e-01 8.924226e-02 3.940128e-01
v -4.593825e-01 8.930871e-02 4.010280e-01
v -4.588626e-01 9.062083e-02 4.089018e-01
v -4.603550e-01 9.380731e-02 4.180326e-01
v -4.625573e-01 9.763310e-02 4.275069e-01
v -4.621356e-01 9.898163e-02 4.351905e-01
v -4.617392e-01 1.003396e-01 4.428251e-01
v -4.620433e-01 1.023333e-01 4.508216e-01
v -4.623790e-01 1.043387e-01 4.587567e-01
v -4.627464e-01 1.063559e-01 4.666304e-01
v -4.624610e-01 1.077549e-01 4.740504e-01
v -4.622009e-01 1.091634e-01 4.814213e-01
v -4.605846e-01 1.093168e-01 4.879828e-01
v -4.589808e-01 1.094749e-01 4.945197e-01
v -4.566925e-01 1.090031e-01 5.006643e-01
v -4.544106e-01 1.085337e-01 5.067965e-01
v -4.521351e-01 1.080666e-01 5.129165e-01
v -4.498658e-01 1.076019e-01 5.190242e-01
v -4.476029e-01 1.071395e-01 5.251196e-01
v -4.453464e-01 1.066795e-01 5.312028e-01
v -4.438124e-01 1.068635e-01 5.376049e-01
v -5.598408e-01 1.185443e-01 2.112131e-01
v -5.555635e-01 1.161923e-01 2.160715e-01
v -5.518338e-01 1.144266e-01 2.215791e-01
v -5.486614e-01 1.132510e-01 2.277174e-01
v -5.454890e-01 1.120754e-01 2.338558e-01
v -5.423165e-01 1.108997e-01 2.399941e-01
v -5.391441e-01 1.097241e-01 2.461326e-01
v -5.359717e-01 1.085484e-01 2.522710e-01
v -5.322199e-01 1.067746e-01 2.578214e-01
v -5.284618e-01 1.049985e-01 2.633842e-01
v -5.246974e-01 1.032200e-01 2.689592e-01
v -5.215154e-01 1.020409e-01 2.751160e-01
v -5.177414e-01 1.002589e-01 2.807094e-01
v -5.133659e-01 9.787043e-02 2.857578e-01
v -5.089776e-01 9.547732e-02 2.908309e-01
v -5.051784e-01 9.368597e-02 2.964733e-01
v -5.001632e-01 9.067705e-02 3.010504e-01
v -4.957369e-01 8.826981e-02 3.061970e-01
v -4.919091e-01 8.646786e-02 3.118946e-01
v -4.893033e-01 8.588565e-02 3.186454e-01
v -4.854692e-01 8.408134e-02 3.243553e-01
v -4.810081e-01 8.166125e-02 3.295694e-01
v -4.765342e-01 7.923637e-02 3.348080e-01
v -4.745555e-01 7.927008e-02 3.420547e-01
v -4.719592e-01 7.869137e-02 3.487871e-01
v -4.693694e-01 7.811507e-02 3.555072e-01
v -4.680587e-01 7.877978e-02 3.631701e-01
v -4.686857e-01 8.131285e-02 3.722103e-01
v -4.693507e-01 8.386009e-02 3.811769e-01
v -4.687620e-01 8.517579e-02 3.891517e-01
v -4.675496e-01 8.587684e-02 3.966245e-01
v -4.657039e-01 8.595975e-02 4.036136e-01
v -4.658371e-01 8.792643e-02 4.119004e-01
v -4.679779e-01 9.178743e-02 4.214295e-01
v -4.688458e-01 9.440985e-02 4.300037e-01
v -4.690868e-01 9.641646e-02 4.380820e-01
v -4.700277e-01 9.906587e-02 4.465151e-01
v -4.696640e-01 1.004649e-01 4.540545e-01
v -4.700001e-01 1.025068e-01 4.619487e-01
v -4.696903e-01 1.039258e-01 4.693839e-01
v -4.694057e-01 1.053542e-01 4.767700e-01
v -4.691466e-01 1.067920e-01 4.841071e-01
v -4.675387e-01 1.069630e-01 4.906363e-01
v -4.666336e-01 1.077780e-01 4.975142e-01
v -4.650541e-01 1.079596e-01 5.039883e-01
v -4.627907e-01 1.075043e-01 5.100768e-01
v -4.605335e-01 1.070513e-01 5.161530e-01
v -4.582828e-01 1.066006e-01 5.222171e-01
v -4.567445e-01 1.067975e-01 5.286113e-01
v -4.552188e-01 1.069991e-01 5.349812e-01
v -4.551309e-01 1.085003e-01 5.419871e-01
v -5.624600e-01 1.114935e-01 2.107407e-01
v -5.598442e-01 1.109148e-01 2.175029e-01
v -5.566781e-01 1.097416e-01 2.236291e-01
v -5.535120e-01 1.085683e-01 2.297551e-01
v -5.503459e-01 1.073950e-01 2.358813e-01
v -5.477460e-01 1.068222e-01 2.426129e-01
v -5.440138e-01 1.050484e-01 2.481335e-01
v -5.408476e-01 1.038751e-01 2.542596e-01
v -5.376815e-01 1.027018e-01 2.603857e-01
v -5.339367e-01 1.009234e-01 2.659310e-01
v -5.307675e-01 9.974890e-02 2.720631e-01
v -5.270130e-01 9.796685e-02 2.776267e-01
v -5.232522e-01 9.618247e-02 2.832025e-01
v -5.200766e-01 9.500566e-02 2.893470e-01
v -5.163064e-01 9.321781e-02 2.949413e-01
v -5.113341e-01 9.020305e-02 2.994594e-01
v -5.069439e-01 8.779471e-02 3.045524e-01
v -5.037493e-01 8.661086e-02 3.107338e-01
v -4.999473e-01 8.481117e-02 3.163892e-01
v -4.961390e-01 8.300924e-02 3.220571e-01
v -4.941655e-01 8.305928e-02 3.292776e-01
v -4.897372e-01 8.063682e-02 3.344442e-01
v -4.840561e-01 7.696864e-02 3.386329e-01
v -4.814657e-01 7.639944e-02 3.453460e-01
v -4.795079e-01 7.645530e-02 3.525360e-01
v -4.775628e-01 7.651596e-02 3.597013e-01
v -4.762631e-01 7.720645e-02 3.673189e-01
v -4.768901e-01 7.978307e-02 3.763114e-01
v -4.762768e-01 8.111867e-02 3.843013e-01
v -4.756891e-01 8.246370e-02 3.922423e-01
v -4.744813e-01 8.318828e-02 3.996820e-01
v -4.732925e-01 8.391985e-02 4.070849e-01
v -4.740778e-01 8.655520e-02 4.157708e-01
v -4.762110e-01 9.047136e-02 4.252506e-01
v -4.764207e-01 9.250263e-02 4.333493e-01
v -4.773233e-01 9.518148e-02 4.418083e-01
v -4.775996e-01 9.723738e-02 4.497783e-01
v -4.779075e-01 9.930508e-02 4.576870e-01
v -4.782472e-01 1.013845e-01 4.655343e-01
v -4.779446e-01 1.028352e-01 4.729234e-01
v -4.776675e-01 1.042954e-01 4.802634e-01
v -4.760551e-01 1.044793e-01 4.867848e-01
v -4.744555e-01 1.046680e-01 4.932818e-01
v -4.735551e-01 1.055064e-01 5.001267e-01
v -4.712943e-01 1.050593e-01 5.062021e-01
v -4.697326e-01 1.052620e-01 5.126255e-01
v -4.674876e-01 1.048208e-01 5.186703e-01
v -4.659483e-01 1.050317e-01 5.250508e-01
v -4.644215e-01 1.052474e-01 5.314066e-01
v -4.636130e-01 1.061200e-01 5.380737e-01
v -4.628236e-01 1.069995e-01 5.447039e-01
v -5.661872e-01 1.056204e-01 2.115422e-01
v -5.641173e-01 1.056493e-01 2.189328e-01
v -5.609544e-01 1.044772e-01 2.250528e-01
v -5.583476e-01 1.039091e-01 2.317897e-01
v -5.557470e-01 1.033433e-01 2.385143e-01
v -5.537153e-01 1.033864e-01 2.458314e-01
v -5.499995e-01 1.016114e-01 2.513283e-01
v -5.468461e-01 1.004428e-01 2.574300e-01
v -5.436926e-01 9.927423e-02 2.635315e-01
v -5.411144e-01 9.871673e-02 2.702133e-01
v -5.373859e-01 9.693705e-02 2.757347e-01
v -5.336510e-01 9.515500e-02 2.812684e-01
v -5.299098e-01 9.337067e-02 2.868144e-01
v -5.261623e-01 9.158394e-02 2.923726e-01
v -5.235903e-01 9.102877e-02 2.990420e-01
v -5.186484e-01 8.800347e-02 3.035258e-01
v -5.142844e-01 8.559035e-02 3.085836e-01
v -5.111089e-01 8.441352e-02 3.147281e-01
v -5.073297e-01 8.261512e-02 3.203477e-01
v -5.035441e-01 8.081427e-02 3.259795e-01
v -5.009722e-01 8.025916e-02 3.326490e-01
v -4.971803e-01 7.845596e-02 3.382931e-01
v -4.933820e-01 7.665049e-02 3.439494e-01
v -4.908164e-01 7.609764e-02 3.506066e-01
v -4.882571e-01 7.554719e-02 3.572516e-01
v -4.869558e-01 7.625887e-02 3.648483e-01
v -4.856733e-01 7.697750e-02 3.724082e-01
v -4.850422e-01 7.833550e-02 3.804012e-01
v -4.844363e-01 7.970285e-02 3.883451e-01
v -4.844943e-01 8.171418e-02 3.966974e-01
v -4.839422e-01 8.310147e-02 4.045370e-01
v -4.827708e-01 8.386125e-02 4.118823e-01
v -4.835623e-01 8.654240e-02 4.205082e-01
v -4.843918e-01 8.923760e-02 4.290604e-01
v -4.839508e-01 9.066605e-02 4.366855e-01
v -4.841926e-01 9.274547e-02 4.446821e-01
v -4.857874e-01 9.612222e-02 4.534465e-01
v -4.860989e-01 9.822752e-02 4.613083e-01
v -4.864421e-01 1.003445e-01 4.691087e-01
v -4.861468e-01 1.018270e-01 4.764516e-01
v -4.852035e-01 1.026713e-01 4.833554e-01
v -4.829263e-01 1.022254e-01 4.894546e-01
v -4.806554e-01 1.017818e-01 4.955415e-01
v -4.790736e-01 1.019916e-01 5.019878e-01
v -4.775046e-01 1.022060e-01 5.084096e-01
v -4.766373e-01 1.030786e-01 5.151662e-01
v -4.737121e-01 1.019946e-01 5.208263e-01
v -4.714825e-01 1.015663e-01 5.268334e-01
v -4.706565e-01 1.024541e-01 5.335103e-01
v -4.705514e-01 1.040070e-01 5.404853e-01
v -4.690616e-01 1.042508e-01 5.467537e-01
v -5.715428e-01 1.015664e-01 2.142472e-01
v -5.689291e-01 1.010030e-01 2.209894e-01
v -5.663217e-01 1.004420e-01 2.277194e-01
v -5.637206e-01 9.988337e-02 2.344372e-01
v -5.605703e-01 9.871592e-02 2.405327e-01
v -5.585375e-01 9.877301e-02 2.478358e-01
v -5.559554e-01 9.822137e-02 2.545166e-01
v -5.533797e-01 9.767206e-02 2.611854e-01
v -5.508103e-01 9.712519e-02 2.678418e-01
v -5.476760e-01 9.596361e-02 2.739066e-01
v -5.445416e-01 9.480208e-02 2.799714e-01
v -5.414072e-01 9.364052e-02 2.860362e-01
v -5.376919e-01 9.185847e-02 2.915401e-01
v -5.345543e-01 9.069578e-02 2.976109e-01
v -5.308295e-01 8.891022e-02 3.031332e-01
v -5.265081e-01 8.649839e-02 3.081251e-01
v -5.227675e-01 8.470695e-02 3.136781e-01
v -5.196172e-01 8.353953e-02 3.197736e-01
v -5.152672e-01 8.111702e-02 3.248206e-01
v -5.109046e-01 7.868989e-02 3.298924e-01
v -5.077417e-01 7.751779e-02 3.360123e-01
v -5.051881e-01 7.697668e-02 3.426380e-01
v -5.026409e-01 7.643795e-02 3.492515e-01
v -4.994843e-01 7.526820e-02 3.553592e-01
v -4.963277e-01 7.409844e-02 3.614669e-01
v -4.950374e-01 7.483598e-02 3.690183e-01
v -4.943912e-01 7.621740e-02 3.770081e-01
v -4.937705e-01 7.760820e-02 3.849487e-01
v -4.931751e-01 7.900844e-02 3.928403e-01
v -4.932397e-01 8.105853e-02 4.011396e-01
v -4.920602e-01 8.183714e-02 4.084764e-01
v -4.915409e-01 8.326555e-02 4.162208e-01
v -4.916912e-01 8.534734e-02 4.243545e-01
v -4.918731e-01 8.744088e-02 4.324268e-01
v -4.914362e-01 8.889984e-02 4.400118e-01
v -4.923321e-01 9.166318e-02 4.483876e-01
v -4.932660e-01 9.444065e-02 4.566898e-01
v -4.929178e-01 9.593247e-02 4.641031e-01
v -4.932583e-01 9.808476e-02 4.718688e-01
v -4.936304e-01 1.002488e-01 4.795733e-01
v -4.920253e-01 1.004644e-01 4.860486e-01
v -4.897602e-01 1.000302e-01 4.921163e-01
v -4.875014e-01 9.959836e-02 4.981718e-01
v -4.852490e-01 9.916889e-02 5.042150e-01
v -4.836851e-01 9.939979e-02 5.106106e-01
v -4.814485e-01 9.897620e-02 5.166231e-01
v -4.785296e-01 9.789451e-02 5.222709e-01
v -4.769943e-01 9.813602e-02 5.286113e-01
v -4.761667e-01 9.904496e-02 5.352674e-01
v -4.753580e-01 9.996094e-02 5.418867e-01
v -5.752588e-01 9.571087e-02 2.150462e-01
v -5.731836e-01 9.576683e-02 2.224153e-01
v -5.705757e-01 9.521286e-02 2.291384e-01
v -5.679741e-01 9.466124e-02 2.358491e-01
v -5.653788e-01 9.411191e-02 2.425477e-01
v -5.633448e-01 9.418313e-02 2.498370e-01
v -5.613234e-01 9.425901e-02 2.571018e-01
v -5.598761e-01 9.496007e-02 2.649329e-01
v -5.578833e-01 9.504652e-02 2.721425e-01
v -5.547679e-01 9.389202e-02 2.781705e-01
v -5.516526e-01 9.273751e-02 2.841984e-01
v -5.491111e-01 9.220825e-02 2.907928e-01
v -5.465761e-01 9.168128e-02 2.973748e-01
v -5.428868e-01 8.990162e-02 3.028365e-01
v -5.380241e-01 8.686218e-02 3.072147e-01
v -5.331424e-01 8.381570e-02 3.116297e-01
v -5.300112e-01 8.265535e-02 3.176884e-01
v -5.274730e-01 8.212717e-02 3.242765e-01
v -5.237487e-01 8.033461e-02 3.298057e-01
v -5.200182e-01 7.853965e-02 3.353472e-01
v -5.162813e-01 7.674237e-02 3.409008e-01
v -5.131437e-01 7.557964e-02 3.469718e-01
v -5.093973e-01 7.377884e-02 3.525439e-01
v -5.062566e-01 7.261494e-02 3.586209e-01
v -5.043462e-01 7.273196e-02 3.656712e-01
v -5.036852e-01 7.413689e-02 3.736576e-01
v -5.030495e-01 7.555120e-02 3.815951e-01
v -5.024391e-01 7.697496e-02 3.894835e-01
v -5.012264e-01 7.776295e-02 3.968608e-01
v -5.012946e-01 7.985056e-02 4.051131e-01
v -5.007603e-01 8.130250e-02 4.128543e-01
v -4.996141e-01 8.211519e-02 4.201029e-01
v -4.997679e-01 8.423457e-02 4.281897e-01
v -5.005970e-01 8.701666e-02 4.366464e-01
v -5.001705e-01 8.850856e-02 4.441792e-01
v -5.004194e-01 9.066316e-02 4.520819e-01
v -5.007000e-01 9.282948e-02 4.599234e-01
v -5.016686e-01 9.566331e-02 4.681104e-01
v -5.020158e-01 9.785436e-02 4.758230e-01
v -5.010691e-01 9.874097e-02 4.826853e-01
v -4.988098e-01 9.831620e-02 4.887338e-01
v -4.965568e-01 9.789376e-02 4.947700e-01
v -4.943101e-01 9.747369e-02 5.007940e-01
v -4.920698e-01 9.705595e-02 5.068057e-01
v -4.898358e-01 9.664052e-02 5.128052e-01
v -4.869264e-01 9.556235e-02 5.184346e-01
v -4.847019e-01 9.515047e-02 5.244156e-01
v -4.824838e-01 9.474099e-02 5.303844e-01
v -4.809632e-01 9.500241e-02 5.366803e-01
v -4.794553e-01 9.526858e-02 5.429517e-01
v -5.758150e-01 8.868447e-02 2.219591e-01
v -5.748223e-01 8.999547e-02 2.305557e-01
v -5.733098e-01 9.069417e-02 2.384886e-01
v -5.712683e-01 9.077710e-02 2.457763e-01
v -5.697909e-01 9.148874e-02 2.536417e-01
v -5.688867e-01 9.283264e-02 2.620666e-01
v -5.680079e-01 9.418587e-02 2.704424e-01
v -5.654723e-01 9.366598e-02 2.770175e-01
v -5.618152e-01 9.189097e-02 2.824248e-01
v -5.587188e-01 9.074353e-02 2.884159e-01
v -5.561927e-01 9.022712e-02 2.949727e-01
v -5.542463e-01 9.034530e-02 3.020765e-01
v -5.511595e-01 8.920139e-02 3.080493e-01
v -5.469132e-01 8.678832e-02 3.129280e-01
v -5.420711e-01 8.373477e-02 3.172901e-01
v -5.377963e-01 8.131116e-02 3.222239e-01
v -5.335087e-01 7.888279e-02 3.271823e-01
v -5.303933e-01 7.772830e-02 3.332103e-01
v -5.278736e-01 7.721427e-02 3.397548e-01
v -5.247614e-01 7.606094e-02 3.457766e-01
v -5.210472e-01 7.426479e-02 3.512943e-01
v -5.173267e-01 7.246638e-02 3.568243e-01
v -5.148164e-01 7.195580e-02 3.633503e-01
v -5.135354e-01 7.274030e-02 3.708356e-01
v -5.128880e-01 7.417929e-02 3.787637e-01
v -5.122659e-01 7.562768e-02 3.866428e-01
v -5.110483e-01 7.643563e-02 3.940054e-01
v -5.104737e-01 7.790167e-02 4.017925e-01
v -5.099246e-01 7.937712e-02 4.095306e-01
v -5.087702e-01 8.020852e-02 4.167706e-01
v -5.076350e-01 8.104700e-02 4.239737e-01
v -5.077924e-01 8.320394e-02 4.320135e-01
v -5.086214e-01 8.602955e-02 4.404226e-01
v -5.088453e-01 8.821120e-02 4.483336e-01
v -5.091009e-01 9.040458e-02 4.561834e-01
v -5.093882e-01 9.260973e-02 4.639718e-01
v -5.097072e-01 9.482656e-02 4.716989e-01
v -5.087462e-01 9.572966e-02 4.785648e-01
v -5.071453e-01 9.597583e-02 4.850001e-01
v -5.055570e-01 9.622669e-02 4.914109e-01
v -5.033161e-01 9.581601e-02 4.974157e-01
v -5.010816e-01 9.540772e-02 5.034083e-01
v -4.988533e-01 9.500167e-02 5.093885e-01
v -4.959567e-01 9.392822e-02 5.149934e-01
v -4.923820e-01 9.218384e-02 5.202413e-01
v -4.894821e-01 9.110921e-02 5.258523e-01
v -4.865822e-01 9.003455e-02 5.314633e-01
v -4.843699e-01 8.963436e-02 5.374128e-01
v -4.828545e-01 8.991229e-02 5.436827e-01
v -5.811355e-01 8.470448e-02 2.246362e-01
v -5.812132e-01 8.729519e-02 2.344508e-01
v -5.802467e-01 8.864497e-02 2.429644e-01
v -5.798498e-01 9.063279e-02 2.520366e-01
v -5.789371e-01 9.200253e-02 2.604460e-01
v -5.780498e-01 9.338158e-02 2.688062e-01
v -5.760801e-01 9.350562e-02 2.759390e-01
v -5.741231e-01 9.363439e-02 2.830474e-01
v -5.710585e-01 9.249867e-02 2.889772e-01
v -5.674304e-01 9.072724e-02 2.943363e-01
v -5.637960e-01 8.895340e-02 2.997077e-01
v -5.612947e-01 8.845349e-02 3.062084e-01
v -5.587998e-01 8.795585e-02 3.126967e-01
v -5.551590e-01 8.617974e-02 3.180804e-01
v -5.503536e-01 8.311797e-02 3.223959e-01
v -5.466939e-01 8.133475e-02 3.278164e-01
v -5.418568e-01 7.826131e-02 3.321933e-01
v -5.381781e-01 7.647104e-02 3.376504e-01
v -5.350849e-01 7.532477e-02 3.436355e-01
v -5.313967e-01 7.353100e-02 3.491110e-01
v -5.283003e-01 7.238354e-02 3.551022e-01
v -5.264067e-01 7.253581e-02 3.620880e-01
v -5.239212e-01 7.204168e-02 3.685580e-01
v -5.226575e-01 7.285433e-02 3.759857e-01
v -5.220237e-01 7.432740e-02 3.838553e-01
v -5.208012e-01 7.515534e-02 3.912034e-01
v -5.195977e-01 7.599035e-02 3.985146e-01
v -5.190337e-01 7.748922e-02 4.062494e-01
v -5.184949e-01 7.899751e-02 4.139351e-01
v -5.179815e-01 8.051520e-02 4.215718e-01
v -5.168636e-01 8.138188e-02 4.287174e-01
v -5.163977e-01 8.291719e-02 4.362621e-01
v -5.172298e-01 8.578744e-02 4.446173e-01
v -5.168209e-01 8.734386e-02 4.520516e-01
v -5.170801e-01 8.957485e-02 4.598545e-01
v -5.180167e-01 9.248386e-02 4.680073e-01
v -5.170445e-01 9.340455e-02 4.748708e-01
v -5.160914e-01 9.433235e-02 4.816975e-01
v -5.138468e-01 9.392745e-02 4.877015e-01
v -5.122669e-01 9.419596e-02 4.940801e-01
v -5.106998e-01 9.446921e-02 5.004341e-01
v -5.078158e-01 9.340046e-02 5.060145e-01
v -5.042639e-01 9.165711e-02 5.112263e-01
v -5.007055e-01 8.991153e-02 5.164505e-01
v -4.978152e-01 8.884042e-02 5.220431e-01
v -4.949248e-01 8.776931e-02 5.276357e-01
v -4.913538e-01 8.601900e-02 5.328844e-01
v -4.877765e-01 8.426631e-02 5.381454e-01
v -4.869407e-01 8.523752e-02 5.447452e-01
v -5.939782e-01 9.224037e-02 2.457668e-01
v -5.925132e-01 9.300022e-02 2.535600e-01
v -5.910672e-01 9.376706e-02 2.613164e-01
v -5.896402e-01 9.454094e-02 2.690360e-01
v -5.876852e-01 9.468495e-02 2.761244e-01
v -5.851929e-01 9.419556e-02 2.825997e-01
v -5.821536e-01 9.306926e-02 2.884805e-01
v -5.802271e-01 9.322387e-02 2.955137e-01
v -5.766345e-01 9.145827e-02 3.008122e-01
v -5.719100e-01 8.840478e-02 3.049953e-01
v -5.688644e-01 8.727612e-02 3.108884e-01
v -5.658188e-01 8.614747e-02 3.167815e-01
v -5.627731e-01 8.501879e-02 3.226746e-01
v -5.585765e-01 8.259511e-02 3.274889e-01
v -5.549458e-01 8.081548e-02 3.328611e-01
v -5.513088e-01 7.903344e-02 3.382455e-01
v -5.470806e-01 7.659801e-02 3.431212e-01
v -5.434277e-01 7.481016e-02 3.485363e-01
v -5.397686e-01 7.301988e-02 3.539636e-01
v -5.372921e-01 7.253638e-02 3.604083e-01
v -5.354196e-01 7.271097e-02 3.673372e-01
v -5.335597e-01 7.289021e-02 3.742415e-01
v -5.323165e-01 7.373223e-02 3.816055e-01
v -5.304852e-01 7.392202e-02 3.884546e-01
v -5.292769e-01 7.477696e-02 3.957511e-01
v -5.280875e-01 7.563893e-02 4.030108e-01
v -5.275339e-01 7.717074e-02 4.106933e-01
v -5.276254e-01 7.937584e-02 4.187804e-01
v -5.271257e-01 8.092761e-02 4.263587e-01
v -5.260251e-01 8.182247e-02 4.334467e-01
v -5.262022e-01 8.405933e-02 4.413681e-01
v -5.257785e-01 8.563925e-02 4.487992e-01
v -5.247445e-01 8.655877e-02 4.557585e-01
v -5.256461e-01 8.949834e-02 4.639311e-01
v -5.259436e-01 9.177979e-02 4.716194e-01
v -5.249825e-01 9.272632e-02 4.784376e-01
v -5.233919e-01 9.300542e-02 4.848207e-01
v -5.218142e-01 9.328923e-02 4.911792e-01
v -5.195944e-01 9.290086e-02 4.971273e-01
v -5.173808e-01 9.251478e-02 5.030630e-01
v -5.145127e-01 9.145189e-02 5.086126e-01
v -5.103162e-01 8.902827e-02 5.134270e-01
v -5.067742e-01 8.728147e-02 5.186275e-01
v -5.038966e-01 8.621505e-02 5.241956e-01
v -5.003451e-01 8.446473e-02 5.294144e-01
v -4.961106e-01 8.202696e-02 5.343023e-01
v -6.071470e-01 9.802341e-02 2.576738e-01
v -6.046605e-01 9.754344e-02 2.641300e-01
v -6.016433e-01 9.642533e-02 2.699679e-01
v -5.986262e-01 9.530726e-02 2.758057e-01
v -5.966955e-01 9.547473e-02 2.828311e-01
v -5.942311e-01 9.500298e-02 2.892444e-01
v -5.906739e-01 9.324324e-02 2.944823e-01
v -5.871103e-01 9.148123e-02 2.997327e-01
v -5.835406e-01 8.971683e-02 3.049952e-01
v -5.794053e-01 8.730134e-02 3.097069e-01
v -5.763818e-01 8.618090e-02 3.155572e-01
v -5.733584e-01 8.506046e-02 3.214073e-01
v -5.697663e-01 8.328786e-02 3.267128e-01
v -5.661679e-01 8.151289e-02 3.320306e-01
v -5.625632e-01 7.973558e-02 3.373606e-01
v -5.589521e-01 7.795587e-02 3.427029e-01
v -5.553347e-01 7.617385e-02 3.480574e-01
v -5.522954e-01 7.504754e-02 3.539382e-01
v -5.498437e-01 7.458046e-02 3.603269e-01
v -5.479891e-01 7.477617e-02 3.672051e-01
v -5.455531e-01 7.431494e-02 3.735632e-01
v -5.431236e-01 7.385608e-02 3.799089e-01
v -5.413007e-01 7.406361e-02 3.867259e-01
v -5.394904e-01 7.427568e-02 3.935182e-01
v -5.382995e-01 7.515890e-02 4.007571e-01
v -5.377372e-01 7.671650e-02 4.084242e-01
v -5.378133e-01 7.895219e-02 4.165011e-01
v -5.373050e-01 8.052979e-02 4.240640e-01
v -5.362027e-01 8.144572e-02 4.311311e-01
v -5.351195e-01 8.236879e-02 4.381615e-01
v -5.353065e-01 8.464560e-02 4.460238e-01
v -5.342676e-01 8.558513e-02 4.529683e-01
v -5.332478e-01 8.653162e-02 4.598761e-01
v -5.328821e-01 8.816207e-02 4.671629e-01
v -5.325417e-01 8.980193e-02 4.744007e-01
v -5.315852e-01 9.077198e-02 4.811859e-01
v -5.300031e-01 9.106866e-02 4.875367e-01
v -5.284337e-01 9.137004e-02 4.938631e-01
v -5.262261e-01 9.099345e-02 4.997796e-01
v -5.233705e-01 8.993524e-02 5.053048e-01
v -5.205150e-01 8.887706e-02 5.108299e-01
v -5.163386e-01 8.644634e-02 5.156213e-01
v -5.134767e-01 8.538579e-02 5.211588e-01
v -5.099481e-01 8.363665e-02 5.263416e-01
v -5.057431e-01 8.119542e-02 5.311882e-01
v -5.015255e-01 7.874941e-02 5.360594e-01
v -6.149136e-01 9.757808e-02 2.633774e-01
v -6.135086e-01 9.840365e-02 2.710062e-01
v -6.105231e-01 9.729730e-02 2.767828e-01
v -6.075377e-01 9.619096e-02 2.825594e-01
v -6.045522e-01 9.508461e-02 2.883360e-01
v -6.015668e-01 9.397825e-02 2.941126e-01
v -5.974897e-01 9.156986e-02 2.987278e-01
v -5.939489e-01 8.980900e-02 3.039421e-01
v -5.904018e-01 8.804574e-02 3.091687e-01
v -5.868484e-01 8.628020e-02 3.144075e-01
v -5.832886e-01 8.451223e-02 3.196586e-01
v -5.802842e-01 8.339886e-02 3.254719e-01
v -5.772797e-01 8.228544e-02 3.312853e-01
v -5.737072e-01 8.051280e-02 3.365610e-01
v -5.701284e-01 7.873780e-02 3.418488e-01
v -5.682663e-01 7.894528e-02 3.487254e-01
v -5.646844e-01 7.716912e-02 3.540195e-01
v -5.616767e-01 7.605453e-02 3.598390e-01
v -5.586691e-01 7.493999e-02 3.656585e-01
v -5.562485e-01 7.449173e-02 3.719789e-01
v -5.544244e-01 7.471325e-02 3.787820e-01
v -5.520196e-01 7.427087e-02 3.850717e-01
v -5.502178e-01 7.450064e-02 3.918319e-01
v -5.490283e-01 7.540605e-02 3.990438e-01
v -5.484607e-01 7.699070e-02 4.066893e-01
v -5.479184e-01 7.858476e-02 4.142857e-01
v -5.474015e-01 8.018821e-02 4.218331e-01
v -5.462976e-01 8.112535e-02 4.288795e-01
v -5.445971e-01 8.139270e-02 4.354433e-01
v -5.435281e-01 8.234278e-02 4.424223e-01
v -5.431000e-01 8.397907e-02 4.497979e-01
v -5.420720e-01 8.494445e-02 4.566972e-01
v -5.416914e-01 8.659834e-02 4.639808e-01
v -5.407048e-01 8.757902e-02 4.708004e-01
v -5.397372e-01 8.856666e-02 4.775831e-01
v -5.381508e-01 8.887629e-02 4.839262e-01
v -5.359362e-01 8.850435e-02 4.898480e-01
v -5.343720e-01 8.882217e-02 4.961483e-01
v -5.328205e-01 8.914472e-02 5.024239e-01
v -5.299808e-01 8.809239e-02 5.079184e-01
v -5.264876e-01 8.634919e-02 5.130407e-01
v -5.229880e-01 8.460353e-02 5.181753e-01
v -5.201420e-01 8.354886e-02 5.236821e-01
v -5.159698e-01 8.110522e-02 5.284813e-01
v -5.117850e-01 7.865687e-02 5.333050e-01
v -6.207034e-01 9.742829e-02 2.760350e-01
v -6.182695e-01 9.698241e-02 2.823731e-01
v -6.153095e-01 9.588546e-02 2.881005e-01
v -6.112778e-01 9.347940e-02 2.926438e-01
v -6.072336e-01 9.106868e-02 2.972116e-01
v -6.037187e-01 8.931010e-02 3.023837e-01
v -6.001975e-01 8.754919e-02 3.075682e-01
v -5.966700e-01 8.578601e-02 3.127649e-01
v -5.931360e-01 8.402041e-02 3.179738e-01
v -5.901505e-01 8.291406e-02 3.237504e-01
v -5.877231e-01 8.247050e-02 3.300762e-01
v -5.847408e-01 8.136531e-02 3.358467e-01
v -5.811943e-01 7.959505e-02 3.410801e-01
v -5.787763e-01 7.915498e-02 3.473876e-01
v -5.763647e-01 7.871726e-02 3.536827e-01
v -5.733856e-01 7.761324e-02 3.594470e-01
v -5.704065e-01 7.650927e-02 3.652113e-01
v -5.680075e-01 7.607629e-02 3.714819e-01
v -5.661982e-01 7.631779e-02 3.782404e-01
v -5.649880e-01 7.723738e-02 3.854684e-01
v -5.632072e-01 7.748938e-02 3.921716e-01
v -5.614391e-01 7.774618e-02 3.988504e-01
v -5.590876e-01 7.733083e-02 4.050290e-01
v -5.579408e-01 7.827382e-02 4.121343e-01
v -5.574153e-01 7.990309e-02 4.196662e-01
v -5.563098e-01 8.086141e-02 4.266919e-01
v -5.552232e-01 8.182671e-02 4.336806e-01
v -5.535437e-01 8.211636e-02 4.401877e-01
v -5.512620e-01 8.172684e-02 4.462314e-01
v -5.502231e-01 8.270977e-02 4.531282e-01
v -5.498243e-01 8.438610e-02 4.604149e-01
v -5.500755e-01 8.675917e-02 4.680729e-01
v -5.491029e-01 8.776679e-02 4.748409e-01
v -5.475187e-01 8.809166e-02 4.811640e-01
v -5.459470e-01 8.842122e-02 4.874625e-01
v -5.431137e-01 8.737125e-02 4.929448e-01
v -5.415611e-01 8.770795e-02 4.992066e-01
v -5.387341e-01 8.666032e-02 5.046765e-01
v -5.359072e-01 8.561270e-02 5.101465e-01
v -5.324303e-01 8.386824e-02 5.152450e-01
v -5.296002e-01 8.281945e-02 5.207211e-01
v -5.267700e-01 8.177063e-02 5.261972e-01
v -5.226211e-01 7.932115e-02 5.309673e-01
v -5.177971e-01 7.616544e-02 5.354152e-01
v -6.268009e-01 9.522140e-02 2.798329e-01
v -6.238535e-01 9.412915e-02 2.855359e-01
v -6.209061e-01 9.303692e-02 2.912389e-01
v -6.168946e-01 9.062381e-02 2.957592e-01
v -6.128704e-01 8.820605e-02 3.003042e-01
v -6.088336e-01 8.578355e-02 3.048735e-01
v -6.053256e-01 8.402028e-02 3.100404e-01
v -6.029008e-01 8.358495e-02 3.163530e-01
v -5.999344e-01 8.248566e-02 3.220928e-01
v -5.969679e-01 8.138634e-02 3.278326e-01
v -5.945558e-01 8.095570e-02 3.341208e-01
v -5.921499e-01 8.052741e-02 3.403968e-01
v -5.891898e-01 7.943046e-02 3.461243e-01
v -5.867934e-01 7.900567e-02 3.523818e-01
v -5.844034e-01 7.858320e-02 3.586271e-01
v -5.814496e-01 7.748863e-02 3.643423e-01
v -5.796423e-01 7.774541e-02 3.710808e-01
v -5.772714e-01 7.733003e-02 3.772892e-01
v -5.749067e-01 7.691698e-02 3.834855e-01
v -5.731311e-01 7.718550e-02 3.901626e-01
v -5.719541e-01 7.813910e-02 3.973024e-01
v -5.702071e-01 7.841819e-02 4.039243e-01
v -5.684727e-01 7.870200e-02 4.105218e-01
v -5.667509e-01 7.899045e-02 4.170946e-01
v -5.656405e-01 7.996869e-02 4.241056e-01
v -5.645491e-01 8.095402e-02 4.310797e-01
v -5.634767e-01 8.194637e-02 4.380171e-01
v -5.612071e-01 8.156856e-02 4.440294e-01
v -5.595551e-01 8.188287e-02 4.504674e-01
v -5.585303e-01 8.289285e-02 4.573127e-01
v -5.581420e-01 8.460207e-02 4.645471e-01
v -5.577791e-01 8.632058e-02 4.717324e-01
v -5.568176e-01 8.735401e-02 4.784551e-01
v -5.552480e-01 8.769890e-02 4.847336e-01
v -5.530608e-01 8.735162e-02 4.905864e-01
v -5.508800e-01 8.700672e-02 4.964270e-01
v -5.487054e-01 8.666413e-02 5.022552e-01
v -5.465373e-01 8.632391e-02 5.080712e-01
v -5.430895e-01 8.458298e-02 5.131216e-01
v -5.396355e-01 8.283976e-02 5.181842e-01
v -5.368243e-01 8.179800e-02 5.236235e-01
v -5.333607e-01 8.005114e-02 5.287045e-01
v -5.285795e-01 7.688955e-02 5.330934e-01
v -5.231205e-01 7.301352e-02 5.371730e-01
v -6.299296e-01 9.198685e-02 2.892953e-01
v -6.259478e-01 8.957024e-02 2.937743e-01
v -6.219533e-01 8.714894e-02 2.982778e-01
v -6.179461e-01 8.472291e-02 3.028059e-01
v -6.139262e-01 8.229223e-02 3.073584e-01
v -6.109693e-01 8.119645e-02 3.130798e-01
v -6.085533e-01 8.077164e-02 3.193672e-01
v -6.061438e-01 8.034924e-02 3.256423e-01
v -6.037405e-01 7.992912e-02 3.319052e-01
v -6.013436e-01 7.951146e-02 3.381558e-01
v -5.983994e-01 7.842036e-02 3.438527e-01
v -5.954552e-01 7.732930e-02 3.495495e-01
v -5.936308e-01 7.759424e-02 3.563048e-01
v -5.918193e-01 7.786392e-02 3.630356e-01
v -5.900204e-01 7.813832e-02 3.697418e-01
v -5.876647e-01 7.773587e-02 3.759126e-01
v -5.847427e-01 7.665302e-02 3.815666e-01
v -5.823965e-01 7.625407e-02 3.877191e-01
v -5.806356e-01 7.654255e-02 3.943517e-01
v -5.794696e-01 7.752201e-02 4.014460e-01
v -5.777373e-01 7.782103e-02 4.080235e-01
v -5.760176e-01 7.812483e-02 4.145764e-01
v -5.743107e-01 7.843326e-02 4.211048e-01
v -5.726163e-01 7.874638e-02 4.276087e-01
v -5.715327e-01 7.975633e-02 4.345436e-01
v -5.704681e-01 8.077337e-02 4.414418e-01
v -5.688182e-01 8.110297e-02 4.478598e-01
v -5.671810e-01 8.143728e-02 4.542533e-01
v -5.667778e-01 8.316992e-02 4.614844e-01
v -5.670139e-01 8.560999e-02 4.690914e-01
v -5.654305e-01 8.596425e-02 4.753807e-01
v -5.638598e-01 8.632318e-02 4.816453e-01
v -5.623018e-01 8.668684e-02 4.878855e-01
v -5.607565e-01 8.705520e-02 4.941011e-01
v -5.592238e-01 8.742821e-02 5.002922e-01
v -5.577038e-01 8.780594e-02 5.064589e-01
v -5.555604e-01 8.748218e-02 5.122189e-01
v -5.527841e-01 8.645333e-02 5.175907e-01
v -5.493654e-01 8.471595e-02 5.225928e-01
v -5.440037e-01 8.084698e-02 5.265162e-01
v -5.412116e-01 7.981230e-02 5.319187e-01
v -5.338562e-01 7.379289e-02 5.348616e-01
v -5.310418e-01 7.274997e-02 5.403070e-01
v -6.344137e-01 8.789385e-02 2.912407e-01
v -6.304458e-01 8.546781e-02 2.957089e-01
v -6.259404e-01 8.236494e-02 2.996121e-01
v -6.224716e-01 8.060177e-02 3.047192e-01
v -6.195274e-01 7.951070e-02 3.104161e-01
v -6.165831e-01 7.841961e-02 3.161130e-01
v -6.141761e-01 7.800537e-02 3.223750e-01
v -6.117755e-01 7.759349e-02 3.286248e-01
v -6.093812e-01 7.718396e-02 3.348623e-01
v -6.064465e-01 7.609643e-02 3.405407e-01
v -6.040617e-01 7.569039e-02 3.467599e-01
v -6.016832e-01 7.528680e-02 3.529668e-01
v -5.998673e-01 7.556940e-02 3.596898e-01
v -5.986236e-01 7.654182e-02 3.669106e-01
v -5.968363e-01 7.683498e-02 3.735783e-01
v -5.944959e-01 7.644543e-02 3.797116e-01
v -5.921618e-01 7.605829e-02 3.858327e-01
v -5.904061e-01 7.636315e-02 3.924391e-01
v -5.886632e-01 7.667279e-02 3.990211e-01
v -5.869329e-01 7.698708e-02 4.055786e-01
v -5.857969e-01 7.799949e-02 4.125908e-01
v -5.840952e-01 7.832437e-02 4.190931e-01
v -5.812301e-01 7.726266e-02 4.246367e-01
v -5.795474e-01 7.759457e-02 4.311021e-01
v -5.778773e-01 7.793121e-02 4.375430e-01
v -5.774150e-01 7.967092e-02 4.448568e-01
v -5.757766e-01 8.001929e-02 4.512365e-01
v -5.741509e-01 8.037241e-02 4.575915e-01
v -5.743588e-01 8.283827e-02 4.652130e-01
v -5.739883e-01 8.461204e-02 4.723488e-01
v -5.730298e-01 8.569009e-02 4.790177e-01
v -5.708573e-01 8.536280e-02 4.848260e-01
v -5.686912e-01 8.503786e-02 4.906220e-01
v -5.677771e-01 8.613238e-02 4.972050e-01
v -5.668819e-01 8.723399e-02 5.037512e-01
v -5.653767e-01 8.763171e-02 5.098733e-01
v -5.632518e-01 8.732203e-02 5.155896e-01
v -5.624042e-01 8.844119e-02 5.220438e-01
v -6.373395e-01 8.179725e-02 2.913792e-01
v -6.338934e-01 8.003519e-02 2.964503e-01
v -6.304409e-01 7.827074e-02 3.015337e-01
v -6.269822e-01 7.650399e-02 3.066294e-01
v -6.240443e-01 7.541530e-02 3.123139e-01
v -6.216368e-01 7.500809e-02 3.185691e-01
v -6.192356e-01 7.460331e-02 3.248119e-01
v -6.168407e-01 7.420083e-02 3.310425e-01
v -6.144521e-01 7.380070e-02 3.372609e-01
v -6.120700e-01 7.340296e-02 3.434669e-01
v -6.096942e-01 7.300751e-02 3.496607e-01
v -6.078740e-01 7.330309e-02 3.563760e-01
v -6.060665e-01 7.360325e-02 3.630667e-01
v -6.048275e-01 7.459915e-02 3.702545e-01
v -6.030486e-01 7.490998e-02 3.768900e-01
v -6.007202e-01 7.453215e-02 3.829918e-01
v -5.995287e-01 7.554568e-02 3.900875e-01
v -5.977878e-01 7.587062e-02 3.966495e-01
v -5.960596e-01 7.620020e-02 4.031870e-01
v -5.949188e-01 7.723250e-02 4.101846e-01
v -5.937969e-01 7.827184e-02 4.171454e-01
v -5.909510e-01 7.721714e-02 4.226521e-01
v -5.886892e-01 7.686408e-02 4.286252e-01
v -5.870211e-01 7.721589e-02 4.350460e-01
v -5.847753e-01 7.686864e-02 4.409884e-01
v -5.831295e-01 7.722881e-02 4.473665e-01
v -5.814963e-01 7.759359e-02 4.537199e-01
v -5.810760e-01 7.937793e-02 4.609201e-01
v -5.812843e-01 8.188020e-02 4.685007e-01
v -5.809179e-01 8.368449e-02 4.755967e-01
v -5.799672e-01 8.478731e-02 4.822264e-01
v -5.784228e-01 8.518501e-02 4.884081e-01
v -5.768911e-01 8.558739e-02 4.945654e-01
v -5.747530e-01 8.528009e-02 5.002993e-01
v -5.732434e-01 8.569069e-02 5.064136e-01
v -6.368270e-01 7.391978e-02 2.965973e-01
v -6.338924e-01 7.283224e-02 3.022758e-01
v -6.314779e-01 7.242976e-02 3.085363e-01
v -6.290698e-01 7.202969e-02 3.147845e-01
v -6.266680e-01 7.163187e-02 3.210204e-01
v -6.242726e-01 7.123648e-02 3.272440e-01
v -6.224165e-01 7.153323e-02 3.340129e-01
v -6.200370e-01 7.114366e-02 3.402060e-01
v -6.176637e-01 7.075643e-02 3.463866e-01
v -6.152968e-01 7.037155e-02 3.525551e-01
v -6.134819e-01 7.068360e-02 3.592443e-01
v -6.122285e-01 7.169590e-02 3.664357e-01
v -6.098901e-01 7.132160e-02 3.725490e-01
v -6.081132e-01 7.164769e-02 3.791645e-01
v -6.069073e-01 7.267769e-02 3.862639e-01
v -6.057205e-01 7.371461e-02 3.933266e-01
v -6.045526e-01 7.475870e-02 4.003525e-01
v -6.028359e-01 7.510708e-02 4.068516e-01
v -6.017030e-01 7.616403e-02 4.138099e-01
v -6.000148e-01 7.652302e-02 4.202537e-01
v -5.971847e-01 7.547421e-02 4.257299e-01
v -5.949351e-01 7.513284e-02 4.316714e-01
v -5.926917e-01 7.479373e-02 4.376007e-01
v -5.898679e-01 7.374729e-02 4.430646e-01
v -5.876341e-01 7.341180e-02 4.489755e-01
v -5.871862e-01 7.521492e-02 4.561970e-01
v -5.867637e-01 7.702748e-02 4.633695e-01
v -5.881651e-01 8.099268e-02 4.717789e-01
v -5.884055e-01 8.354313e-02 4.792575e-01
v -5.886776e-01 8.610532e-02 4.866747e-01
v -5.877632e-01 8.724329e-02 4.932099e-01
v -5.844191e-01 8.551179e-02 4.980917e-01
v -5.822995e-01 8.521854e-02 5.037819e-01
v -6.402784e-01 6.848123e-02 2.973394e-01
v -6.378572e-01 6.808344e-02 3.036053e-01
v -6.359587e-01 6.837898e-02 3.104400e-01
v -6.335532e-01 6.798712e-02 3.166751e-01
v -6.311541e-01 6.759759e-02 3.228980e-01
v -6.287613e-01 6.721042e-02 3.291086e-01
v -6.269040e-01 6.752117e-02 3.358636e-01
v -6.255919e-01 6.853357e-02 3.431446e-01
v -6.237632e-01 6.885492e-02 3.498443e-01
v -6.214084e-01 6.848178e-02 3.559814e-01
v -6.196019e-01 6.881140e-02 3.626383e-01
v -6.172629e-01 6.844416e-02 3.687446e-01
v -6.154786e-01 6.878193e-02 3.753586e-01
v -6.142584e-01 6.982837e-02 3.824617e-01
v -6.130572e-01 7.088182e-02 3.895281e-01
v -6.118750e-01 7.194232e-02 3.965577e-01
v -6.101509e-01 7.230243e-02 4.030551e-01
v -6.090035e-01 7.337584e-02 4.100173e-01
v -6.073079e-01 7.374656e-02 4.164595e-01
v -6.050545e-01 7.341103e-02 4.224003e-01
v -6.028076e-01 7.307789e-02 4.283288e-01
v -5.999901e-01 7.203377e-02 4.337803e-01
v -5.971726e-01 7.098966e-02 4.392319e-01
v -5.949383e-01 7.066113e-02 4.451359e-01
v -5.932965e-01 7.105182e-02 4.514739e-01
v -5.928465e-01 7.288321e-02 4.586678e-01
v -5.930142e-01 7.544300e-02 4.662464e-01
v -5.878516e-01 7.153173e-02 4.699129e-01
v -5.970389e-01 8.492692e-02 4.837505e-01
v -5.967187e-01 8.680636e-02 4.906929e-01
v -5.940027e-01 8.579985e-02 4.959482e-01
v -5.900697e-01 8.334336e-02 5.003968e-01
v -5.873473e-01 8.233447e-02 5.056644e-01
v -6.404246e-01 6.435175e-02 3.123406e-01
v -6.380217e-01 6.396812e-02 3.185626e-01
v -6.351060e-01 6.288764e-02 3.242043e-01
v -6.327127e-01 6.250748e-02 3.304079e-01
v -6.313767e-01 6.353269e-02 3.377110e-01
v -6.305883e-01 6.526768e-02 3.455271e-01
v -6.287617e-01 6.560437e-02 3.522069e-01
v -6.269477e-01 6.594571e-02 3.588622e-01
v -6.246083e-01 6.558552e-02 3.649615e-01
v -6.233578e-01 6.664250e-02 3.720991e-01
v -6.215818e-01 6.699789e-02 3.786809e-01
v -6.198186e-01 6.735808e-02 3.852380e-01
v -6.191698e-01 6.914475e-02 3.927843e-01
v -6.179923e-01 7.022870e-02 3.997807e-01
v -6.168337e-01 7.131976e-02 4.067404e-01
v -6.156942e-01 7.241783e-02 4.136634e-01
v -6.140101e-01 7.280731e-02 4.200672e-01
v -6.117721e-01 7.248471e-02 4.259704e-01
v -6.095404e-01 7.216449e-02 4.318614e-01
v -6.061689e-01 7.040826e-02 4.368122e-01
v -6.027909e-01 6.864971e-02 4.417755e-01
v -6.005656e-01 6.833182e-02 4.476541e-01
v -5.989291e-01 6.873898e-02 4.539660e-01
v -5.978910e-01 6.987457e-02 4.606927e-01
v -5.992275e-01 7.391741e-02 4.691154e-01
v -6.017926e-01 7.942900e-02 4.783065e-01
v -6.419631e-01 5.926871e-02 3.198734e-01
v -6.390505e-01 5.818938e-02 3.255089e-01
v -6.371751e-01 5.852249e-02 3.322667e-01
v -6.363561e-01 6.027511e-02 3.401103e-01
v -6.355623e-01 6.203711e-02 3.479048e-01
v -6.342660e-01 6.309882e-02 3.551074e-01
v -6.329885e-01 6.416751e-02 3.622732e-01
v -6.311956e-01 6.453119e-02 3.688717e-01
v -6.294153e-01 6.489952e-02 3.754457e-01
v -6.271069e-01 6.455818e-02 3.814769e-01
v -6.253490e-01 6.493477e-02 3.880079e-01
v -6.241507e-01 6.603282e-02 3.950203e-01
v -6.229715e-01 6.713797e-02 4.019960e-01
v -6.223648e-01 6.896926e-02 4.094287e-01
v -6.223401e-01 7.153026e-02 4.172999e-01
v -6.212275e-01 7.266010e-02 4.241469e-01
v -6.190078e-01 7.235157e-02 4.300064e-01
v -6.162284e-01 7.132156e-02 4.353843e-01
v -6.123103e-01 6.884149e-02 4.398362e-01
v -6.083795e-01 6.635677e-02 4.443125e-01
v -6.055874e-01 6.532209e-02 4.497150e-01
v -6.039530e-01 6.574444e-02 4.560069e-01
v -6.040772e-01 6.836073e-02 4.635899e-01
v -6.434992e-01 5.421378e-02 3.273785e-01
v -6.426526e-01 5.598526e-02 3.352432e-01
v -6.423493e-01 5.847932e-02 3.436134e-01
v -6.420778e-01 6.098512e-02 3.519221e-01
v -6.413136e-01 6.278710e-02 3.596275e-01
v -6.395195e-01 6.316491e-02 3.662121e-01
v -6.372075e-01 6.282936e-02 3.722424e-01
v -6.354357e-01 6.321531e-02 3.787842e-01
v -6.331394e-01 6.288569e-02 3.847838e-01
v -6.308495e-01 6.255841e-02 3.907713e-01
v -6.291093e-01 6.295612e-02 3.972517e-01
v -6.279285e-01 6.408240e-02 4.042066e-01
v -6.284159e-01 6.739073e-02 4.126035e-01
v -6.278354e-01 6.926083e-02 4.199532e-01
v -6.267243e-01 7.041297e-02 4.267732e-01
v -6.250729e-01 7.084354e-02 4.330819e-01
v -6.217469e-01 6.908974e-02 4.379608e-01
v -6.178489e-01 6.660261e-02 4.423897e-01
v -6.139382e-01 6.411078e-02 4.468431e-01
v -6.111588e-01 6.308080e-02 4.522211e-01
v -6.095296e-01 6.351963e-02 4.584868e-01
v -6.090696e-01 6.543437e-02 4.656036e-01
v -6.491225e-01 5.493087e-02 3.393325e-01
v -6.477909e-01 5.602313e-02 3.465549e-01
v -6.490660e-01 6.072399e-02 3.564771e-01
v -6.477884e-01 6.183619e-02 3.635951e-01
v -6.460059e-01 6.223271e-02 3.701414e-01
v -6.437091e-01 6.191012e-02 3.761341e-01
v -6.408884e-01 6.086485e-02 3.815918e-01
v -6.380678e-01 5.981960e-02 3.870495e-01
v -6.352472e-01 5.877432e-02 3.925072e-01
v -6.340457e-01 5.991468e-02 3.994781e-01
v -6.334060e-01 6.179180e-02 4.069105e-01
v -6.338836e-01 6.514011e-02 4.152781e-01
v -6.338501e-01 6.777044e-02 4.230861e-01
v -6.321914e-01 6.821278e-02 4.293932e-01
v -6.299896e-01 6.792547e-02 4.352020e-01
v -6.266769e-01 6.616923e-02 4.400633e-01
v -6.227958e-01 6.367392e-02 4.444754e-01
v -6.194672e-01 6.191190e-02 4.493674e-01
v -6.167005e-01 6.088658e-02 4.547208e-01
v -6.139337e-01 5.986128e-02 4.600743e-01
v -6.537015e-01 6.022829e-02 3.670128e-01
v -6.519274e-01 6.064246e-02 3.735268e-01
v -6.496428e-01 6.033162e-02 3.794880e-01
v -6.468380e-01 5.929219e-02 3.849151e-01
v -6.429739e-01 5.678870e-02 3.893104e-01
v -6.401628e-01 5.574698e-02 3.947497e-01
v -6.389595e-01 5.690845e-02 4.016998e-01
v -6.388536e-01 5.954817e-02 4.096080e-01
v -6.393216e-01 6.293645e-02 4.179464e-01
v -6.392822e-01 6.560086e-02 4.257259e-01
v -6.376286e-01 6.605962e-02 4.320067e-01
v -6.365394e-01 6.726340e-02 4.387360e-01
v -6.321394e-01 6.402545e-02 4.426277e-01
v -6.238437e-01 5.827221e-02 4.509762e-01
v -6.205187e-01 5.650430e-02 4.558689e-01
v -6.483835e-01 5.453102e-02 3.920816e-01
v -6.455851e-01 5.349397e-02 3.974963e-01
v -6.432005e-01 5.586863e-02 4.113058e-01
v -6.441911e-01 6.003707e-02 4.201176e-01
