v -3.998418e-01 1.716219e-01 1.720799e-01
v -3.903833e-01 1.708787e-01 1.720799e-01
v -4.217893e-01 1.609775e-01 1.619874e-01
v -4.110430e-01 1.618521e-01 1.687760e-01
v -4.002304e-01 1.629670e-01 1.765344e-01
v -3.900006e-01 1.633911e-01 1.813834e-01
v -3.698935e-01 1.640212e-01 1.901114e-01
v -3.598662e-01 1.644611e-01 1.949604e-01
v -3.059188e-01 1.781488e-01 2.657557e-01
v -2.966453e-01 1.786479e-01 2.706047e-01
v -2.875289e-01 1.789138e-01 2.744838e-01
v -4.219773e-01 1.524848e-01 1.674303e-01
v -4.107337e-01 1.541247e-01 1.771097e-01
v -3.999587e-01 1.552967e-01 1.848531e-01
v -3.897681e-01 1.557577e-01 1.896929e-01
v -3.796473e-01 1.562242e-01 1.945326e-01
v -3.694527e-01 1.569372e-01 2.003402e-01
v -3.596153e-01 1.571736e-01 2.042121e-01
v -3.500928e-01 1.569300e-01 2.061479e-01
v -3.055685e-01 1.721047e-01 2.777756e-01
v -2.964569e-01 1.723981e-01 2.816472e-01
v -2.888932e-01 1.685233e-01 2.690640e-01
v -2.783205e-01 1.732441e-01 2.903588e-01
v -4.333438e-01 1.425789e-01 1.641673e-01
v -4.205507e-01 1.462378e-01 1.815568e-01
v -4.093856e-01 1.479516e-01 1.912176e-01
v -3.990203e-01 1.486918e-01 1.970142e-01
v -3.885807e-01 1.496853e-01 2.037767e-01
v -3.782388e-01 1.506864e-01 2.105392e-01
v -3.678505e-01 1.519431e-01 2.182680e-01
v -3.575739e-01 1.532085e-01 2.259967e-01
v -3.475392e-01 1.542338e-01 2.327592e-01
v -3.371094e-01 1.562645e-01 2.433862e-01
v -3.139795e-01 1.666254e-01 2.887921e-01
v -3.052075e-01 1.661953e-01 2.897583e-01
v -2.962589e-01 1.662695e-01 2.926566e-01
v -2.872639e-01 1.665991e-01 2.965208e-01
v -2.786500e-01 1.659223e-01 2.965208e-01
v -5.094189e-01 1.406012e-01 1.715330e-01
v -4.998835e-01 1.398520e-01 1.715330e-01
v -4.926325e-01 1.366234e-01 1.618907e-01
v -4.294051e-01 1.396317e-01 1.908175e-01
v -4.187524e-01 1.406559e-01 1.975671e-01
v -4.075070e-01 1.426970e-01 2.081736e-01
v -3.970776e-01 1.437387e-01 2.149232e-01
v -3.864288e-01 1.452950e-01 2.236014e-01
v -3.756022e-01 1.473690e-01 2.342078e-01
v -3.653632e-01 1.486915e-01 2.419216e-01
v -3.549607e-01 1.505330e-01 2.515639e-01
v -3.448283e-01 1.521298e-01 2.602421e-01
v -3.344505e-01 1.545050e-01 2.718127e-01
v -3.234229e-01 1.586904e-01 2.901332e-01
v -3.132094e-01 1.616102e-01 3.036323e-01
v -3.042193e-01 1.619674e-01 3.074893e-01
v -2.955724e-01 1.615538e-01 3.084534e-01
v -2.872060e-01 1.603646e-01 3.065250e-01
v -5.302395e-01 1.318956e-01 1.702187e-01
v -5.196766e-01 1.321563e-01 1.740683e-01
v -5.098983e-01 1.316606e-01 1.750307e-01
v -5.003699e-01 1.309119e-01 1.750307e-01
v -4.910706e-01 1.299085e-01 1.740683e-01
v -4.815353e-01 1.291592e-01 1.740683e-01
v -4.719999e-01 1.284100e-01 1.740683e-01
v -4.628806e-01 1.271481e-01 1.721436e-01
v -4.282461e-01 1.331517e-01 2.029394e-01
v -4.174794e-01 1.344869e-01 2.106384e-01
v -4.059588e-01 1.371263e-01 2.231494e-01
v -3.951181e-01 1.390010e-01 2.327730e-01
v -3.844170e-01 1.408868e-01 2.423967e-01
v -3.737033e-01 1.430442e-01 2.529829e-01
v -3.635787e-01 1.444299e-01 2.606819e-01
v -3.532896e-01 1.463480e-01 2.703056e-01
v -3.430086e-01 1.485394e-01 2.808916e-01
v -3.332541e-01 1.499542e-01 2.885906e-01
v -3.230249e-01 1.526950e-01 3.011015e-01
v -3.120947e-01 1.575620e-01 3.213114e-01
v -3.032142e-01 1.579548e-01 3.251608e-01
v -2.949674e-01 1.567615e-01 3.232360e-01
v -5.418494e-01 1.221326e-01 1.679589e-01
v -5.312214e-01 1.224152e-01 1.718011e-01
v -5.198982e-01 1.234815e-01 1.785246e-01
v -5.094030e-01 1.237746e-01 1.823667e-01
v -4.992001e-01 1.238111e-01 1.852482e-01
v -4.888097e-01 1.241124e-01 1.890904e-01
v -4.786975e-01 1.241561e-01 1.919719e-01
v -4.688428e-01 1.239406e-01 1.938929e-01
v -4.585989e-01 1.242534e-01 1.977349e-01
v -4.469999e-01 1.264157e-01 2.083006e-01
v -4.359437e-01 1.280619e-01 2.169452e-01
v -4.263262e-01 1.278651e-01 2.188664e-01
v -4.149304e-01 1.303227e-01 2.303925e-01
v -4.038759e-01 1.325279e-01 2.409583e-01
v -3.936416e-01 1.336797e-01 2.476819e-01
v -3.830260e-01 1.356399e-01 2.572870e-01
v -3.722445e-01 1.381459e-01 2.688132e-01
v -3.616305e-01 1.406651e-01 2.803395e-01
v -3.513230e-01 1.429289e-01 2.909051e-01
v -3.402465e-01 1.470883e-01 3.081944e-01
v -3.091899e-01 1.580607e-01 3.542992e-01
v -3.009460e-01 1.574129e-01 3.542992e-01
v -5.417818e-01 1.136739e-01 1.733869e-01
v -5.303989e-01 1.147830e-01 1.800976e-01
v -5.181099e-01 1.169655e-01 1.906428e-01
v -5.069506e-01 1.180921e-01 1.973534e-01
v -4.963628e-01 1.186912e-01 2.021468e-01
v -4.858449e-01 1.192958e-01 2.069401e-01
v -4.760659e-01 1.190998e-01 2.088575e-01
v -4.660988e-01 1.191752e-01 2.117334e-01
v -4.555463e-01 1.200632e-01 2.174853e-01
v -4.450776e-01 1.209578e-01 2.232374e-01
v -4.346927e-01 1.218591e-01 2.289893e-01
v -4.245796e-01 1.224954e-01 2.337826e-01
v -4.132682e-01 1.250411e-01 2.452866e-01
v -4.024729e-01 1.270548e-01 2.548732e-01
v -3.921514e-01 1.285334e-01 2.625425e-01
v -3.814610e-01 1.308417e-01 2.730878e-01
v -3.704644e-01 1.339844e-01 2.865089e-01
v -3.602483e-01 1.360437e-01 2.960955e-01
v -3.490577e-01 1.403160e-01 3.133514e-01
v -3.367954e-01 1.473662e-01 3.401939e-01
v -3.270544e-01 1.497491e-01 3.507393e-01
v -3.175852e-01 1.518670e-01 3.603259e-01
v -3.084783e-01 1.534411e-01 3.679952e-01
v -2.997963e-01 1.541899e-01 3.727885e-01
v -5.395874e-01 1.074326e-01 1.864583e-01
v -5.277607e-01 1.091400e-01 1.950694e-01
v -5.158082e-01 1.111306e-01 2.046376e-01
v -5.044843e-01 1.125846e-01 2.122919e-01
v -4.937472e-01 1.134988e-01 2.180328e-01
v -4.835549e-01 1.138698e-01 2.218600e-01
v -4.738656e-01 1.136944e-01 2.237737e-01
v -4.635544e-01 1.143491e-01 2.285577e-01
v -4.535227e-01 1.147327e-01 2.323848e-01
v -4.435468e-01 1.151208e-01 2.362122e-01
v -4.334312e-01 1.157908e-01 2.409962e-01
v -4.233852e-01 1.164663e-01 2.457802e-01
v -4.123190e-01 1.188194e-01 2.563050e-01
v -4.015812e-01 1.209055e-01 2.658730e-01
v -3.904797e-01 1.238418e-01 2.783115e-01
v -3.798812e-01 1.262318e-01 2.888364e-01
v -3.698975e-01 1.277911e-01 2.964909e-01
v -3.421568e-01 1.472916e-01 3.672945e-01
v -3.342412e-01 1.460837e-01 3.653809e-01
v -3.257945e-01 1.460059e-01 3.672945e-01
v -3.167813e-01 1.473485e-01 3.739920e-01
v -3.078659e-01 1.486988e-01 3.806896e-01
v -2.995727e-01 1.486331e-01 3.826034e-01
v -2.914054e-01 1.482843e-01 3.835601e-01
v -5.476240e-01 1.012449e-01 1.966240e-01
v -5.371155e-01 1.016181e-01 2.004436e-01
v -5.251088e-01 1.036721e-01 2.099931e-01
v -5.134937e-01 1.054572e-01 2.185878e-01
v -5.017593e-01 1.075327e-01 2.281373e-01
v -4.913547e-01 1.082139e-01 2.329120e-01
v -4.817133e-01 1.080557e-01 2.348218e-01
v -4.720997e-01 1.078998e-01 2.367317e-01
v -4.618627e-01 1.085942e-01 2.415064e-01
v -4.516956e-01 1.092940e-01 2.462812e-01
v -4.413950e-01 1.102831e-01 2.520109e-01
v -4.313744e-01 1.109945e-01 2.567856e-01
v -4.218019e-01 1.111416e-01 2.596506e-01
v -4.113603e-01 1.127191e-01 2.672902e-01
v -4.005047e-01 1.151633e-01 2.777946e-01
v -3.894662e-01 1.181927e-01 2.902088e-01
v -3.768352e-01 1.243941e-01 3.131276e-01
v -3.413733e-01 1.422903e-01 3.790192e-01
v -3.331286e-01 1.419422e-01 3.799742e-01
v -3.250243e-01 1.413054e-01 3.799742e-01
v -3.163230e-01 1.421204e-01 3.847489e-01
v -3.076914e-01 1.429410e-01 3.895237e-01
v -2.996570e-01 1.423096e-01 3.895237e-01
v -2.920162e-01 1.405102e-01 3.857038e-01
v -5.442371e-01 9.641359e-02 2.134315e-01
v -5.338313e-01 9.682199e-02 2.172438e-01
v -5.221836e-01 9.866546e-02 2.258218e-01
v -5.109140e-01 1.002321e-01 2.334465e-01
v -4.997562e-01 1.018075e-01 2.410712e-01
v -4.899030e-01 1.019528e-01 2.439304e-01
v -4.800917e-01 1.021014e-01 2.467897e-01
v -4.698730e-01 1.028311e-01 2.515551e-01
v -4.597240e-01 1.035662e-01 2.563206e-01
v -4.496450e-01 1.043069e-01 2.610861e-01
v -4.394320e-01 1.053435e-01 2.668046e-01
v -4.294995e-01 1.060956e-01 2.715701e-01
v -4.200162e-01 1.062700e-01 2.744295e-01
v -4.100266e-01 1.073242e-01 2.801481e-01
v -3.995935e-01 1.092631e-01 2.887258e-01
v -3.889484e-01 1.117984e-01 2.992099e-01
v -3.401567e-01 1.383100e-01 3.935661e-01
v -3.321361e-01 1.376798e-01 3.935661e-01
v -3.241155e-01 1.370496e-01 3.935661e-01
v -3.160949e-01 1.364194e-01 3.935661e-01
v -3.077355e-01 1.366821e-01 3.964254e-01
v -2.996300e-01 1.363516e-01 3.973784e-01
v -2.922311e-01 1.339312e-01 3.916600e-01
v -6.133965e-01 9.873911e-02 2.339884e-01
v -6.025748e-01 9.945524e-02 2.387446e-01
v -5.918230e-01 1.001769e-01 2.435008e-01
v -5.842301e-01 9.801378e-02 2.387446e-01
v -5.380944e-01 9.470182e-02 2.396957e-01
v -5.299972e-01 9.281243e-02 2.358909e-01
v -5.189835e-01 9.414003e-02 2.425494e-01
v -5.078144e-01 9.576877e-02 2.501594e-01
v -4.972492e-01 9.681837e-02 2.558668e-01
v -4.879634e-01 9.640196e-02 2.568180e-01
v -4.784594e-01 9.628176e-02 2.587204e-01
v -4.685330e-01 9.675498e-02 2.625255e-01
v -4.584442e-01 9.752871e-02 2.672817e-01
v -4.486366e-01 9.801120e-02 2.710865e-01
v -4.382720e-01 9.938987e-02 2.777453e-01
v -4.282025e-01 1.004784e-01 2.834526e-01
v -4.191680e-01 1.000818e-01 2.844040e-01
v -4.095975e-01 1.005829e-01 2.882088e-01
v -3.995542e-01 1.019868e-01 2.948675e-01
v -3.315341e-01 1.326707e-01 4.042597e-01
v -3.235764e-01 1.320454e-01 4.042597e-01
v -3.158595e-01 1.308125e-01 4.023572e-01
v -3.076608e-01 1.307948e-01 4.042597e-01
v -3.001290e-01 1.289499e-01 4.004549e-01
v -6.165539e-01 9.645580e-02 2.554241e-01
v -6.081471e-01 9.515505e-02 2.535252e-01
v -5.984186e-01 9.503078e-02 2.554241e-01
v -5.884017e-01 9.520389e-02 2.582722e-01
v -5.793550e-01 9.449303e-02 2.582722e-01
v -5.694009e-01 9.467103e-02 2.611203e-01
v -5.386638e-01 9.641664e-02 2.734622e-01
v -5.321996e-01 9.302816e-02 2.649179e-01
v -5.248073e-01 9.052685e-02 2.592215e-01
v -5.147251e-01 9.101493e-02 2.630192e-01
v -5.046989e-01 9.150737e-02 2.668167e-01
v -4.952218e-01 9.140278e-02 2.687153e-01
v -4.855329e-01 9.160167e-02 2.715635e-01
v -4.761187e-01 9.150204e-02 2.734622e-01
v -4.671836e-01 9.079995e-02 2.734622e-01
v -4.578112e-01 9.070364e-02 2.753610e-01
v -4.446556e-01 9.607127e-02 2.943487e-01
v -4.338267e-01 9.842102e-02 3.038425e-01
v -4.280816e-01 9.316860e-02 2.896018e-01
v -4.179297e-01 9.461136e-02 2.962475e-01
v -6.263086e-01 8.842502e-02 2.578351e-01
v -6.165652e-01 8.831309e-02 2.597301e-01
v -6.068497e-01 8.820332e-02 2.616251e-01
v -5.961902e-01 8.899991e-02 2.663627e-01
v -5.856007e-01 8.980202e-02 2.711003e-01
v -5.757007e-01 9.000462e-02 2.739429e-01
v -5.652368e-01 9.081660e-02 2.786805e-01
v -5.548426e-01 9.163404e-02 2.834181e-01
v -5.453854e-01 9.154460e-02 2.853132e-01
v -5.376483e-01 8.962933e-02 2.815232e-01
v -5.301306e-01 8.740442e-02 2.767856e-01
v -5.220069e-01 8.578553e-02 2.739429e-01
v -5.125357e-01 8.569499e-02 2.758379e-01
v -5.028382e-01 8.591351e-02 2.786805e-01
v -4.931827e-01 8.613536e-02 2.815232e-01
v -4.833288e-01 8.666839e-02 2.853132e-01
v -4.737641e-01 8.689734e-02 2.881558e-01
v -4.658246e-01 8.496617e-02 2.843658e-01
v -4.580486e-01 8.272095e-02 2.796281e-01
v -3.818083e-01 1.329463e-01 4.426023e-01
v -3.726831e-01 1.348440e-01 4.501825e-01
v -6.273410e-01 7.937524e-02 2.593002e-01
v -6.165743e-01 8.019727e-02 2.640286e-01
v -6.052144e-01 8.163992e-02 2.706483e-01
v -5.926543e-01 8.432271e-02 2.810506e-01
v -5.796130e-01 8.763492e-02 2.933445e-01
v -5.695476e-01 8.817842e-02 2.971270e-01
v -5.595381e-01 8.872638e-02 3.009098e-01
v -5.501775e-01 8.865805e-02 3.028010e-01
v -5.425822e-01 8.672682e-02 2.990185e-01
v -5.352138e-01 8.447978e-02 2.942901e-01
v -5.274998e-01 8.253916e-02 2.905073e-01
v -5.189242e-01 8.153175e-02 2.895618e-01
v -5.074564e-01 8.396675e-02 2.990185e-01
v -4.968923e-01 8.547193e-02 3.056381e-01
v -4.908843e-01 8.133010e-02 2.952357e-01
v -4.820749e-01 8.063788e-02 2.952357e-01
v -4.048942e-01 1.282845e-01 4.474884e-01
v -3.964134e-01 1.289526e-01 4.512712e-01
v -3.889476e-01 1.280323e-01 4.503255e-01
v -3.807284e-01 1.283873e-01 4.531625e-01
v -3.702388e-01 1.329009e-01 4.682932e-01
v -5.519929e-01 8.881775e-02 3.287238e-01
v -5.440080e-01 8.750955e-02 3.268362e-01
v -5.365753e-01 8.556402e-02 3.230610e-01
v -5.293701e-01 8.329594e-02 3.183420e-01
v -5.212666e-01 8.197838e-02 3.164542e-01
v -4.280784e-01 1.233307e-01 4.514195e-01
v -4.252533e-01 1.156203e-01 4.306557e-01
v -4.135886e-01 1.208306e-01 4.476444e-01
v -4.025878e-01 1.254123e-01 4.627454e-01
v -3.951995e-01 1.244914e-01 4.618016e-01
v -3.876046e-01 1.238946e-01 4.618016e-01
v -3.790829e-01 1.249269e-01 4.665205e-01
v -5.456374e-01 8.797965e-02 3.526699e-01
v -5.375166e-01 8.699442e-02 3.517280e-01
v -4.286597e-01 1.159335e-01 4.534593e-01
v -4.214298e-01 1.146711e-01 4.515754e-01
v -4.079706e-01 1.229867e-01 4.770083e-01
v -4.006804e-01 1.220667e-01 4.760664e-01
v -3.935762e-01 1.208142e-01 4.741824e-01
v -3.860582e-01 1.202235e-01 4.741824e-01
v -3.764951e-01 1.232907e-01 4.845438e-01
v -4.068237e-01 1.184545e-01 4.865224e-01
v -4.000047e-01 1.168569e-01 4.837022e-01
v -3.925426e-01 1.162706e-01 4.837022e-01
v -3.850804e-01 1.156842e-01 4.837022e-01
v -5.333048e-01 1.135990e-01 4.687978e-01
v -5.273151e-01 1.113249e-01 4.641066e-01
v -5.171915e-01 1.134149e-01 4.716125e-01
v -5.096246e-01 1.128204e-01 4.716125e-01
v -5.014604e-01 1.129003e-01 4.734891e-01
v -4.921575e-01 1.143334e-01 4.791184e-01
v -4.835077e-01 1.150966e-01 4.828715e-01
v -5.299544e-01 1.103839e-01 4.820520e-01
v -5.221303e-01 1.101366e-01 4.829884e-01
v -5.140069e-01 1.102332e-01 4.848612e-01
v -5.062178e-01 1.099886e-01 4.857974e-01
v -4.978440e-01 1.104330e-01 4.886066e-01
v -4.889278e-01 1.115698e-01 4.932886e-01
v -4.806519e-01 1.120219e-01 4.960977e-01
v -5.201330e-01 1.057000e-01 4.924579e-01
v -5.126918e-01 1.051153e-01 4.924579e-01
v -5.034105e-01 1.066315e-01 4.980651e-01
v -4.954117e-01 1.067515e-01 4.999342e-01
v -4.874408e-01 1.068737e-01 5.018033e-01
v -2.984557e-01 1.851709e-01 2.655511e-01
v -2.948903e-01 1.838496e-01 2.724498e-01
v -3.062142e-01 1.798849e-01 2.595539e-01
v -3.026488e-01 1.785636e-01 2.664526e-01
v -2.990834e-01 1.772423e-01 2.733515e-01
v -2.962443e-01 1.763923e-01 2.807538e-01
v -2.934117e-01 1.755447e-01 2.881441e-01
v -2.898527e-01 1.742258e-01 2.950306e-01
v -2.818779e-01 1.700579e-01 2.990054e-01
v -2.782997e-01 1.687320e-01 3.059287e-01
v -3.104695e-01 1.712071e-01 2.413226e-01
v -3.111325e-01 1.727089e-01 2.514471e-01
v -3.104073e-01 1.732776e-01 2.604556e-01
v -3.075581e-01 1.724311e-01 2.678694e-01
v -3.047156e-01 1.715871e-01 2.752711e-01
v -3.018791e-01 1.707452e-01 2.826603e-01
v -2.990491e-01 1.699059e-01 2.900376e-01
v -2.962254e-01 1.690688e-01 2.974024e-01
v -2.904792e-01 1.663114e-01 3.028171e-01
v -2.840995e-01 1.641565e-01 3.170623e-01
v -2.799673e-01 1.634627e-01 3.326629e-01
v -2.764241e-01 1.621496e-01 3.395188e-01
v -2.781395e-01 1.642508e-01 3.495084e-01
v -2.829168e-01 1.683241e-01 3.611784e-01
v -2.817032e-01 1.685024e-01 3.692301e-01
v -3.154972e-01 1.639701e-01 2.331167e-01
v -3.146999e-01 1.645410e-01 2.422322e-01
v -3.160469e-01 1.665565e-01 2.528785e-01
v -3.160194e-01 1.676294e-01 2.623981e-01
v -3.131728e-01 1.667911e-01 2.697988e-01
v -3.096169e-01 1.654733e-01 2.766793e-01
v -3.074991e-01 1.651217e-01 2.845638e-01
v -3.061158e-01 1.652590e-01 2.929197e-01
v -3.047517e-01 1.654033e-01 3.012388e-01
v -3.004927e-01 1.636084e-01 3.075866e-01
v -2.947640e-01 1.608356e-01 3.129914e-01
v -2.897512e-01 1.585447e-01 3.189044e-01
v -2.884155e-01 1.586996e-01 3.271683e-01
v -2.885812e-01 1.598440e-01 3.363137e-01
v -2.872900e-01 1.600154e-01 3.444919e-01
v -2.867654e-01 1.606874e-01 3.530801e-01
v -2.870167e-01 1.618636e-01 3.620599e-01
v -3.191938e-01 1.557341e-01 2.237797e-01
v -3.197425e-01 1.572806e-01 2.340296e-01
v -3.210284e-01 1.593242e-01 2.447376e-01
v -3.223589e-01 1.613843e-01 2.553600e-01
v -3.209106e-01 1.615192e-01 2.638177e-01
v -3.187726e-01 1.611746e-01 2.717252e-01
v -3.173592e-01 1.613224e-01 2.801155e-01
v -3.159649e-01 1.614773e-01 2.884690e-01
v -3.145897e-01 1.616393e-01 2.967858e-01
v -3.117902e-01 1.608257e-01 3.040877e-01
v -3.089970e-01 1.600144e-01 3.113773e-01
v -3.047544e-01 1.582184e-01 3.177013e-01
v -3.012366e-01 1.569148e-01 3.245081e-01
v -2.984529e-01 1.561070e-01 3.317793e-01
v -2.978880e-01 1.567932e-01 3.404134e-01
v -2.980890e-01 1.579870e-01 3.494506e-01
v -2.975778e-01 1.586930e-01 3.579803e-01
v -2.963452e-01 1.589078e-01 3.660212e-01
v -2.958816e-01 1.596314e-01 3.744589e-01
v -2.946900e-01 1.598614e-01 3.824200e-01
v -2.912482e-01 1.585860e-01 3.890796e-01
v -3.595374e-01 1.660763e-01 1.849285e-01
v -3.559593e-01 1.647503e-01 1.918518e-01
v -3.298349e-01 1.522958e-01 2.198741e-01
v -3.282869e-01 1.524154e-01 2.285012e-01
v -3.281428e-01 1.535176e-01 2.381660e-01
v -3.287260e-01 1.551204e-01 2.483005e-01
v -3.293473e-01 1.567374e-01 2.583616e-01
v -3.286026e-01 1.573859e-01 2.673113e-01
v -3.271781e-01 1.575513e-01 2.756991e-01
v -3.257727e-01 1.577239e-01 2.840504e-01
v -3.243862e-01 1.579034e-01 2.923646e-01
v -3.223039e-01 1.575940e-01 3.001478e-01
v -3.195167e-01 1.567922e-01 3.074184e-01
v -3.174567e-01 1.564911e-01 3.151586e-01
v -3.146852e-01 1.556951e-01 3.223984e-01
v -3.111926e-01 1.544009e-01 3.291561e-01
v -3.084306e-01 1.536084e-01 3.363775e-01
v -3.086097e-01 1.548304e-01 3.454168e-01
v -3.088206e-01 1.560641e-01 3.543947e-01
v -3.083233e-01 1.568043e-01 3.628662e-01
v -3.063647e-01 1.565407e-01 3.704103e-01
v -3.036724e-01 1.557741e-01 3.774968e-01
v -3.002369e-01 1.545010e-01 3.841441e-01
v -2.975541e-01 1.537379e-01 3.912122e-01
v -2.918542e-01 1.509323e-01 3.966096e-01
v -3.673235e-01 1.607715e-01 1.789100e-01
v -3.637454e-01 1.594455e-01 1.858334e-01
v -3.608340e-01 1.586050e-01 1.933361e-01
v -3.572591e-01 1.572802e-01 2.002532e-01
v -3.503195e-01 1.535166e-01 2.043348e-01
v -3.433483e-01 1.497414e-01 2.084777e-01
v -3.411001e-01 1.493850e-01 2.165660e-01
v -3.402296e-01 1.500159e-01 2.257270e-01
v -3.400700e-01 1.511486e-01 2.353816e-01
v -3.385646e-01 1.513058e-01 2.439021e-01
v -3.384621e-01 1.524598e-01 2.534464e-01
v -3.376963e-01 1.531294e-01 2.624052e-01
v -3.369556e-01 1.538085e-01 2.713149e-01
v -3.355390e-01 1.539986e-01 2.796636e-01
v -3.341413e-01 1.541958e-01 2.879756e-01
v -3.320548e-01 1.538993e-01 2.957510e-01
v -3.299810e-01 1.536075e-01 3.035018e-01
v -3.279199e-01 1.533204e-01 3.112282e-01
v -3.258716e-01 1.530382e-01 3.189302e-01
v -3.238358e-01 1.527605e-01 3.266075e-01
v -3.210891e-01 1.519810e-01 3.337914e-01
v -3.183488e-01 1.512039e-01 3.409629e-01
v -3.170747e-01 1.514468e-01 3.490357e-01
v -3.172860e-01 1.527170e-01 3.579728e-01
v -3.167925e-01 1.534875e-01 3.664042e-01
v -3.133665e-01 1.522180e-01 3.730332e-01
v -3.091980e-01 1.504349e-01 3.792300e-01
v -3.057689e-01 1.491641e-01 3.858651e-01
v -3.023398e-01 1.478933e-01 3.925001e-01
v -2.959019e-01 1.445541e-01 3.974800e-01
v -3.932651e-01 1.663703e-01 1.694021e-01
v -3.871403e-01 1.631181e-01 1.738087e-01
v -3.803365e-01 1.593687e-01 1.776675e-01
v -3.754708e-01 1.570743e-01 1.833600e-01
v -3.725713e-01 1.562454e-01 1.908311e-01
v -3.690154e-01 1.549276e-01 1.977115e-01
v -3.654595e-01 1.536099e-01 2.045919e-01
v -3.592268e-01 1.503177e-01 2.092071e-01
v -3.536411e-01 1.475109e-01 2.144314e-01
v -3.520897e-01 1.476728e-01 2.230169e-01
v -3.519146e-01 1.488361e-01 2.326615e-01
v -3.504076e-01 1.490145e-01 2.411610e-01
v -3.482344e-01 1.487004e-01 2.490883e-01
v -3.467622e-01 1.488917e-01 2.575204e-01
v -3.453090e-01 1.490901e-01 2.659158e-01
v -3.438748e-01 1.492955e-01 2.742744e-01
v -3.431573e-01 1.500121e-01 2.831072e-01
v -3.417643e-01 1.502328e-01 2.913861e-01
v -3.396863e-01 1.499539e-01 2.991293e-01
v -3.376208e-01 1.496798e-01 3.068479e-01
v -3.355682e-01 1.494103e-01 3.145421e-01
v -3.342417e-01 1.496556e-01 3.226921e-01
v -3.329343e-01 1.499081e-01 3.308055e-01
v -3.309259e-01 1.496550e-01 3.384137e-01
v -3.274841e-01 1.483795e-01 3.450734e-01
v -3.262210e-01 1.486483e-01 3.531008e-01
v -3.257065e-01 1.494402e-01 3.615413e-01
v -3.244845e-01 1.497242e-01 3.694890e-01
v -3.203388e-01 1.479423e-01 3.756498e-01
v -3.154476e-01 1.456385e-01 3.813913e-01
v -3.120280e-01 1.443712e-01 3.880080e-01
v -3.071178e-01 1.420603e-01 3.937864e-01
v -4.070061e-01 1.644072e-01 1.591381e-01
v -4.041347e-01 1.635960e-01 1.665472e-01
v -3.999830e-01 1.618046e-01 1.727271e-01
v -3.945321e-01 1.590259e-01 1.777147e-01
v -3.890621e-01 1.562402e-01 1.827391e-01
v -3.842260e-01 1.539423e-01 1.883903e-01
v -3.813451e-01 1.531276e-01 1.958178e-01
v -3.784704e-01 1.523151e-01 2.032330e-01
v -3.749399e-01 1.510068e-01 2.100643e-01
v -3.700784e-01 1.486995e-01 2.157647e-01
v -3.665415e-01 1.473888e-01 2.226083e-01
v -3.643482e-01 1.470818e-01 2.305583e-01
v -3.621676e-01 1.467794e-01 2.384839e-01
v -3.599998e-01 1.464818e-01 2.463849e-01
v -3.571631e-01 1.456835e-01 2.537266e-01
v -3.550175e-01 1.453942e-01 2.615847e-01
v -3.528845e-01 1.451095e-01 2.694183e-01
v -3.514549e-01 1.453383e-01 2.777438e-01
v -3.500444e-01 1.455742e-01 2.860324e-01
v -3.486528e-01 1.458172e-01 2.942844e-01
v -3.465800e-01 1.455548e-01 3.020015e-01
v -3.438164e-01 1.447836e-01 3.092021e-01
v -3.424724e-01 1.450442e-01 3.173621e-01
v -3.425672e-01 1.463437e-01 3.264446e-01
v -3.419805e-01 1.471378e-01 3.349922e-01
v -3.399870e-01 1.469048e-01 3.425560e-01
v -3.372867e-01 1.461570e-01 3.496339e-01
v -3.360378e-01 1.464529e-01 3.576099e-01
v -3.348079e-01 1.467558e-01 3.655491e-01
v -3.321393e-01 1.460197e-01 3.725657e-01
v -3.280131e-01 1.442377e-01 3.786966e-01
v -3.238804e-01 1.424533e-01 3.848397e-01
v -3.197415e-01 1.406667e-01 3.909952e-01
v -3.141131e-01 1.378223e-01 3.963262e-01
v -3.077209e-01 1.344419e-01 4.012818e-01
v -4.165375e-01 1.606819e-01 1.551097e-01
v -4.143019e-01 1.603738e-01 1.631256e-01
v -4.108062e-01 1.590783e-01 1.698895e-01
v -4.066709e-01 1.572857e-01 1.760457e-01
v -4.018866e-01 1.549924e-01 1.816126e-01
v -3.964437e-01 1.521950e-01 1.866088e-01
v -3.929290e-01 1.508925e-01 1.934094e-01
v -3.900666e-01 1.500920e-01 2.007932e-01
v -3.865550e-01 1.487906e-01 2.075878e-01
v -3.830435e-01 1.474893e-01 2.143823e-01
v -3.795320e-01 1.461880e-01 2.211768e-01
v -3.760205e-01 1.448867e-01 2.279714e-01
v -3.725089e-01 1.435854e-01 2.347659e-01
v -3.696686e-01 1.427930e-01 2.421068e-01
v -3.668346e-01 1.420029e-01 2.494353e-01
v -3.640071e-01 1.412152e-01 2.567517e-01
v -3.618666e-01 1.409423e-01 2.645836e-01
v -3.604227e-01 1.411876e-01 2.729129e-01
v -3.583107e-01 1.409252e-01 2.806897e-01
v -3.562114e-01 1.406675e-01 2.884418e-01
v -3.548182e-01 1.409316e-01 2.966730e-01
v -3.527474e-01 1.406845e-01 3.043700e-01
v -3.506893e-01 1.404420e-01 3.120426e-01
v -3.500498e-01 1.412457e-01 3.206606e-01
v -3.494356e-01 1.420585e-01 3.292295e-01
v -3.488469e-01 1.428810e-01 3.377495e-01
v -3.475709e-01 1.431885e-01 3.457537e-01
v -3.455984e-01 1.429778e-01 3.532607e-01
v -3.450761e-01 1.438247e-01 3.616517e-01
v -3.424134e-01 1.430982e-01 3.686492e-01
v -3.397568e-01 1.423738e-01 3.756343e-01
v -3.363784e-01 1.411218e-01 3.821713e-01
v -3.330000e-01 1.398698e-01 3.887083e-01
v -3.288870e-01 1.380856e-01 3.948217e-01
v -3.240297e-01 1.357653e-01 4.005297e-01
v -3.176778e-01 1.323708e-01 4.054394e-01
v -4.241581e-01 1.554899e-01 1.492191e-01
v -4.219087e-01 1.551911e-01 1.572458e-01
v -4.203016e-01 1.553977e-01 1.658669e-01
v -4.168154e-01 1.541058e-01 1.726124e-01
v -4.120575e-01 1.518078e-01 1.781442e-01
v -4.085649e-01 1.505136e-01 1.849019e-01
v -4.044303e-01 1.487140e-01 1.910651e-01
v -4.009346e-01 1.474185e-01 1.978289e-01
v -3.974389e-01 1.461231e-01 2.045928e-01
v -3.939432e-01 1.448277e-01 2.113567e-01
v -3.904475e-01 1.435322e-01 2.181205e-01
v -3.869518e-01 1.422368e-01 2.248844e-01
v -3.827949e-01 1.404289e-01 2.310904e-01
v -3.792960e-01 1.391323e-01 2.378604e-01
v -3.764647e-01 1.383505e-01 2.451761e-01
v -3.736397e-01 1.375710e-01 2.524792e-01
v -3.708210e-01 1.367938e-01 2.597702e-01
v -3.686858e-01 1.365373e-01 2.675760e-01
v -3.672433e-01 1.368049e-01 2.758784e-01
v -3.644532e-01 1.360384e-01 2.831142e-01
v -3.630426e-01 1.363178e-01 2.913552e-01
v -3.616509e-01 1.366042e-01 2.995593e-01
v -3.595854e-01 1.363736e-01 3.072303e-01
v -3.582285e-01 1.366729e-01 3.153670e-01
v -3.575899e-01 1.375059e-01 3.239512e-01
v -3.569766e-01 1.383481e-01 3.324862e-01
v -3.556832e-01 1.386709e-01 3.405003e-01
v -3.544089e-01 1.390009e-01 3.484777e-01
v -3.531534e-01 1.393378e-01 3.564182e-01
v -3.519171e-01 1.396819e-01 3.643219e-01
v -3.499814e-01 1.394993e-01 3.717414e-01
v -3.480584e-01 1.393214e-01 3.791363e-01
v -3.454237e-01 1.386125e-01 3.860717e-01
v -3.427951e-01 1.379057e-01 3.929947e-01
v -3.387112e-01 1.361249e-01 3.990598e-01
v -3.353550e-01 1.348812e-01 4.055538e-01
v -3.319988e-01 1.336374e-01 4.120479e-01
v -3.279019e-01 1.318518e-01 4.181374e-01
v -3.245425e-01 1.306069e-01 4.246376e-01
v -4.317787e-01 1.502979e-01 1.433286e-01
v -4.288960e-01 1.495042e-01 1.507352e-01
v -4.272649e-01 1.497237e-01 1.593785e-01
v -4.256530e-01 1.499503e-01 1.679851e-01
v -4.228021e-01 1.491685e-01 1.753304e-01
v -4.180611e-01 1.468622e-01 1.808454e-01
v -4.152134e-01 1.460816e-01 1.881847e-01
v -4.117336e-01 1.447921e-01 1.949179e-01
v -4.082538e-01 1.435025e-01 2.016511e-01
v -4.047739e-01 1.422130e-01 2.083844e-01
v -4.019420e-01 1.414382e-01 2.156929e-01
v -3.991164e-01 1.406657e-01 2.229892e-01
v -3.949887e-01 1.388614e-01 2.291471e-01
v -3.908545e-01 1.370547e-01 2.353172e-01
v -3.867140e-01 1.352456e-01 2.414994e-01
v -3.832310e-01 1.339549e-01 2.482388e-01
v -3.804150e-01 1.331860e-01 2.555168e-01
v -3.776053e-01 1.324195e-01 2.627824e-01
v -3.754752e-01 1.321794e-01 2.705621e-01
v -3.733579e-01 1.319440e-01 2.783173e-01
v -3.712531e-01 1.317133e-01 2.860480e-01
v -3.691611e-01 1.314873e-01 2.937541e-01
v -3.684537e-01 1.323238e-01 3.024393e-01
v -3.670826e-01 1.326396e-01 3.105797e-01
v -3.657304e-01 1.329625e-01 3.186834e-01
v -3.650928e-01 1.338247e-01 3.272337e-01
v -3.644805e-01 1.346964e-01 3.357349e-01
v -3.624899e-01 1.345080e-01 3.432449e-01
v -3.612169e-01 1.348602e-01 3.511951e-01
v -3.599630e-01 1.352195e-01 3.591087e-01
v -3.594396e-01 1.361241e-01 3.674382e-01
v -3.582268e-01 1.364986e-01 3.752721e-01
v -3.570330e-01 1.368801e-01 3.830691e-01
v -3.551376e-01 1.367270e-01 3.903951e-01
v -3.525306e-01 1.360355e-01 3.972682e-01
v -3.492029e-01 1.348024e-01 4.037071e-01
v -3.473359e-01 1.346598e-01 4.109778e-01
v -3.469487e-01 1.356149e-01 4.190437e-01
v -3.451134e-01 1.354841e-01 4.262531e-01
v -3.462503e-01 1.375532e-01 4.350282e-01
v -3.622858e-01 1.506364e-01 4.515579e-01
v -3.590848e-01 1.494502e-01 4.577514e-01
v -4.365096e-01 1.443168e-01 1.448500e-01
v -4.336266e-01 1.435304e-01 1.522498e-01
v -4.313686e-01 1.432573e-01 1.602608e-01
v -4.303675e-01 1.440140e-01 1.694825e-01
v -4.287664e-01 1.442663e-01 1.780437e-01
v -4.246709e-01 1.424668e-01 1.841472e-01
v -4.218321e-01 1.416966e-01 1.914611e-01
v -4.183649e-01 1.404117e-01 1.981698e-01
v -4.142599e-01 1.386086e-01 2.042916e-01
v -4.107895e-01 1.373226e-01 2.110065e-01
v -4.086077e-01 1.370778e-01 2.188704e-01
v -4.057911e-01 1.363160e-01 2.261414e-01
v -4.016797e-01 1.345105e-01 2.322755e-01
v -3.969082e-01 1.321785e-01 2.378656e-01
v -3.927809e-01 1.303670e-01 2.440304e-01
v -3.886474e-01 1.285534e-01 2.502075e-01
v -3.858339e-01 1.277926e-01 2.574723e-01
v -3.836932e-01 1.275631e-01 2.652565e-01
v -3.822348e-01 1.278684e-01 2.735417e-01
v -3.801227e-01 1.276494e-01 2.812708e-01
v -3.780233e-01 1.274353e-01 2.889754e-01
v -3.759364e-01 1.272258e-01 2.966554e-01
v -3.738622e-01 1.270208e-01 3.043108e-01
v -3.731717e-01 1.278926e-01 3.129315e-01
v -3.725065e-01 1.287736e-01 3.215031e-01
v -3.718665e-01 1.296641e-01 3.300256e-01
v -3.705571e-01 1.300245e-01 3.380225e-01
v -3.685685e-01 1.298514e-01 3.455125e-01
v -3.679953e-01 1.307666e-01 3.539064e-01
v -3.674472e-01 1.316910e-01 3.622509e-01
v -3.669247e-01 1.326250e-01 3.705466e-01
v -3.664274e-01 1.335683e-01 3.787931e-01
v -3.652416e-01 1.339746e-01 3.865511e-01
v -3.647918e-01 1.349355e-01 3.947057e-01
v -3.629269e-01 1.348082e-01 4.019565e-01
v -3.603511e-01 1.341355e-01 4.087613e-01
v -3.592350e-01 1.345677e-01 4.163843e-01
v -3.603273e-01 1.366638e-01 4.251975e-01
v -3.614575e-01 1.387740e-01 4.339370e-01
v -3.640982e-01 1.420078e-01 4.433965e-01
v -3.660502e-01 1.447045e-01 4.523673e-01
v -3.650767e-01 1.451894e-01 4.597143e-01
v -4.412334e-01 1.383477e-01 1.463700e-01
v -4.377377e-01 1.370523e-01 1.531338e-01
v -4.354722e-01 1.367910e-01 1.611433e-01
v -4.350745e-01 1.380894e-01 1.709784e-01
v -4.334655e-01 1.383606e-01 1.795311e-01
v -4.306261e-01 1.375976e-01 1.868381e-01
v -4.271654e-01 1.363151e-01 1.935345e-01
v -4.237045e-01 1.350326e-01 2.002309e-01
v -4.202437e-01 1.337501e-01 2.069273e-01
v -4.174201e-01 1.329928e-01 2.142036e-01
v -4.146030e-01 1.322380e-01 2.214677e-01
v -4.117922e-01 1.314855e-01 2.287194e-01
v -4.076940e-01 1.296777e-01 2.348360e-01
v -4.029396e-01 1.273375e-01 2.404094e-01
v -3.994787e-01 1.260550e-01 2.471059e-01
v -3.953615e-01 1.242401e-01 2.532591e-01
v -3.925571e-01 1.234900e-01 2.604987e-01
v -3.904216e-01 1.232769e-01 2.682568e-01
v -3.889647e-01 1.236045e-01 2.765150e-01
v -3.868577e-01 1.234020e-01 2.842180e-01
v -3.840912e-01 1.226659e-01 2.913839e-01
v -3.820066e-01 1.224717e-01 2.990439e-01
v -3.799344e-01 1.222821e-01 3.066794e-01
v -3.785568e-01 1.226390e-01 3.147843e-01
v -3.785678e-01 1.240889e-01 3.238285e-01
v -3.772345e-01 1.244622e-01 3.318476e-01
v -3.752290e-01 1.242974e-01 3.393543e-01
v -3.753193e-01 1.257766e-01 3.482451e-01
v -3.754413e-01 1.272675e-01 3.570744e-01
v -3.748942e-01 1.282214e-01 3.653852e-01
v -3.743725e-01 1.291847e-01 3.736470e-01
v -3.738762e-01 1.301573e-01 3.818597e-01
v -3.734053e-01 1.311395e-01 3.900234e-01
v -3.729597e-01 1.321310e-01 3.981380e-01
v -3.725394e-01 1.331318e-01 4.062036e-01
v -3.714247e-01 1.335862e-01 4.137995e-01
v -3.717749e-01 1.351617e-01 4.221874e-01
v -3.728828e-01 1.373072e-01 4.309222e-01
v -3.732996e-01 1.389074e-01 4.391813e-01
v -3.722831e-01 1.393982e-01 4.465873e-01
v -3.712859e-01 1.398961e-01 4.539564e-01
v -3.688300e-01 1.392751e-01 4.605213e-01
v -3.656385e-01 1.380925e-01 4.666966e-01
v -4.424571e-01 1.310961e-01 1.546460e-01
v -4.414102e-01 1.318937e-01 1.638919e-01
v -4.403887e-01 1.327008e-01 1.730886e-01
v -4.381571e-01 1.324667e-01 1.810169e-01
v -4.359380e-01 1.322371e-01 1.889206e-01
v -4.331077e-01 1.314846e-01 1.962021e-01
v -4.296563e-01 1.302056e-01 2.028801e-01
v -4.268355e-01 1.294567e-01 2.101435e-01
v -4.233874e-01 1.281789e-01 2.168153e-01
v -4.199392e-01 1.269011e-01 2.234873e-01
v -4.184109e-01 1.272240e-01 2.318596e-01
v -4.149722e-01 1.259497e-01 2.385131e-01
v -4.095948e-01 1.230677e-01 2.435029e-01
v -4.067961e-01 1.223269e-01 2.507232e-01
v -4.040036e-01 1.215885e-01 2.579313e-01
v -3.999061e-01 1.197736e-01 2.640547e-01
v -3.977790e-01 1.195782e-01 2.717806e-01
v -3.956646e-01 1.193874e-01 2.794818e-01
v -3.922322e-01 1.181155e-01 2.861231e-01
v -3.894685e-01 1.173877e-01 2.932760e-01
v -3.880543e-01 1.177528e-01 3.014276e-01
v -3.859843e-01 1.175786e-01 3.090431e-01
v -3.846049e-01 1.179566e-01 3.171273e-01
v -3.839257e-01 1.188906e-01 3.256618e-01
v -3.825875e-01 1.192839e-01 3.336663e-01
v -3.819558e-01 1.202353e-01 3.421087e-01
v -3.827309e-01 1.223011e-01 3.514398e-01
v -3.828500e-01 1.238272e-01 3.602345e-01
v -3.823039e-01 1.248104e-01 3.685114e-01
v -3.817832e-01 1.258032e-01 3.767394e-01
v -3.819912e-01 1.273623e-01 3.853624e-01
v -3.822308e-01 1.289331e-01 3.939241e-01
v -3.817924e-01 1.299562e-01 4.019926e-01
v -3.813795e-01 1.309889e-01 4.100121e-01
v -3.817078e-01 1.325926e-01 4.184020e-01
v -3.820679e-01 1.342080e-01 4.267307e-01
v -3.817373e-01 1.352711e-01 4.345907e-01
v -3.807065e-01 1.357784e-01 4.420004e-01
v -3.782375e-01 1.351599e-01 4.485830e-01
v -3.757747e-01 1.345436e-01 4.551532e-01
v -3.725832e-01 1.333609e-01 4.613284e-01
v -3.701299e-01 1.327482e-01 4.678803e-01
v -3.684245e-01 1.327089e-01 4.747906e-01
v -4.483779e-01 1.262068e-01 1.574112e-01
v -4.479334e-01 1.275604e-01 1.672567e-01
v -4.456880e-01 1.273357e-01 1.751956e-01
v -4.428411e-01 1.265844e-01 1.825010e-01
v -4.418524e-01 1.274326e-01 1.916026e-01
v -4.402684e-01 1.277566e-01 2.000584e-01
v -4.374564e-01 1.270182e-01 2.072963e-01
v -4.346510e-01 1.262822e-01 2.145220e-01
v -4.312218e-01 1.250114e-01 2.211572e-01
v -4.271595e-01 1.232023e-01 2.272200e-01
v -4.249997e-01 1.230093e-01 2.349933e-01
v -4.215737e-01 1.217396e-01 2.416222e-01
v -4.168626e-01 1.193865e-01 2.471436e-01
v -4.134303e-01 1.181146e-01 2.537849e-01
v -4.106470e-01 1.173868e-01 2.609677e-01
v -4.078698e-01 1.166613e-01 2.681381e-01
v -4.037887e-01 1.148453e-01 2.742379e-01
v -4.003596e-01 1.135745e-01 2.808730e-01
v -3.975919e-01 1.128525e-01 2.880249e-01
v -3.948308e-01 1.121330e-01 2.951649e-01
v -3.934117e-01 1.125181e-01 3.033018e-01
v -3.926826e-01 1.134625e-01 3.119005e-01
v -3.919792e-01 1.144165e-01 3.204503e-01
v -3.906234e-01 1.148250e-01 3.284646e-01
v -3.899673e-01 1.157966e-01 3.369225e-01
v -3.900204e-01 1.173346e-01 3.458051e-01
v -3.907921e-01 1.194425e-01 3.550944e-01
v -3.909117e-01 1.210051e-01 3.638484e-01
v -3.889831e-01 1.208978e-01 3.711740e-01
v -3.891565e-01 1.224804e-01 3.798237e-01
v -3.893617e-01 1.240747e-01 3.884121e-01
v -3.903013e-01 1.262449e-01 3.973764e-01
v -3.905730e-01 1.278638e-01 4.058360e-01
v -3.901673e-01 1.289281e-01 4.138093e-01
v -3.904992e-01 1.305695e-01 4.221524e-01
v -3.901474e-01 1.316537e-01 4.300214e-01
v -3.891023e-01 1.321774e-01 4.374348e-01
v -3.873544e-01 1.321370e-01 4.444109e-01
v -3.834443e-01 1.303844e-01 4.501795e-01
v -3.809843e-01 1.297764e-01 4.567367e-01
v -3.785304e-01 1.291706e-01 4.632817e-01
v -3.760830e-01 1.285673e-01 4.698144e-01
v -3.729042e-01 1.273894e-01 4.759651e-01
v -3.667622e-01 1.238986e-01 4.806610e-01
v -4.589452e-01 1.237049e-01 1.547161e-01
v -4.560790e-01 1.229537e-01 1.620514e-01
v -4.544268e-01 1.232742e-01 1.706153e-01
v -4.521866e-01 1.230659e-01 1.785280e-01
v -4.493488e-01 1.223251e-01 1.858080e-01
v -4.483576e-01 1.232014e-01 1.948819e-01
v -4.473920e-01 1.240873e-01 2.039067e-01
v -4.445920e-01 1.233606e-01 2.111132e-01
v -4.417987e-01 1.226364e-01 2.183074e-01
v -4.390115e-01 1.219144e-01 2.254893e-01
v -4.343426e-01 1.195624e-01 2.309449e-01
v -4.309262e-01 1.182963e-01 2.375554e-01
v -4.268742e-01 1.164838e-01 2.436069e-01
v -4.221769e-01 1.141212e-01 2.491176e-01
v -4.187508e-01 1.128516e-01 2.557466e-01
v -4.166153e-01 1.126821e-01 2.634570e-01
v -4.138440e-01 1.119660e-01 2.706082e-01
v -4.097760e-01 1.101476e-01 2.766904e-01
v -4.057017e-01 1.083268e-01 2.827847e-01
v -4.029368e-01 1.076131e-01 2.899237e-01
v -4.001780e-01 1.069017e-01 2.970505e-01
v -3.987542e-01 1.073068e-01 3.051728e-01
v -3.993515e-01 1.093936e-01 3.147517e-01
v -3.986456e-01 1.103757e-01 3.232736e-01
v -3.972914e-01 1.108066e-01 3.312611e-01
v -3.973099e-01 1.123681e-01 3.401705e-01
v -3.966801e-01 1.133783e-01 3.485452e-01
v -3.974421e-01 1.155262e-01 3.578052e-01
v -3.968693e-01 1.165576e-01 3.660697e-01
v -3.956324e-01 1.170319e-01 3.738301e-01
v -3.964926e-01 1.192163e-01 3.829000e-01
v -3.973909e-01 1.214146e-01 3.918964e-01
v -3.976281e-01 1.230571e-01 4.003826e-01
v -3.985992e-01 1.252825e-01 4.092379e-01
v -3.981977e-01 1.263773e-01 4.171711e-01
v -3.978214e-01 1.274815e-01 4.250553e-01
v -3.974705e-01 1.285952e-01 4.328905e-01
v -3.964300e-01 1.291423e-01 4.402708e-01
v -3.939725e-01 1.285425e-01 4.468150e-01
v -3.908000e-01 1.273669e-01 4.529534e-01
v -3.876276e-01 1.261913e-01 4.590918e-01
v -3.859104e-01 1.261767e-01 4.659927e-01
v -3.827442e-01 1.250034e-01 4.721188e-01
v -3.788443e-01 1.232473e-01 4.778760e-01
v -3.727267e-01 1.197365e-01 4.825567e-01
v -4.688529e-01 1.207130e-01 1.514364e-01
v -4.683679e-01 1.221241e-01 1.612800e-01
v -4.655263e-01 1.213892e-01 1.685591e-01
v -4.626910e-01 1.206567e-01 1.758261e-01
v -4.610690e-01 1.210102e-01 1.843079e-01
v -4.582528e-01 1.202847e-01 1.915381e-01
v -4.566624e-01 1.206498e-01 1.999584e-01
v -4.550910e-01 1.210220e-01 2.083420e-01
v -4.523065e-01 1.203083e-01 2.155110e-01
v -4.495283e-01 1.195969e-01 2.226675e-01
v -4.461340e-01 1.183390e-01 2.292351e-01
v -4.427398e-01 1.170812e-01 2.358027e-01
v -4.393455e-01 1.158233e-01 2.423704e-01
v -4.346873e-01 1.134608e-01 2.478214e-01
v -4.293815e-01 1.105400e-01 2.527448e-01
v -4.259713e-01 1.092763e-01 2.593431e-01
v -4.232027e-01 1.085685e-01 2.664814e-01
v -4.204404e-01 1.078630e-01 2.736073e-01
v -4.150933e-01 1.049270e-01 2.786104e-01
v -4.110289e-01 1.031026e-01 2.846933e-01
v -4.089207e-01 1.029577e-01 2.923346e-01
v -4.068252e-01 1.028175e-01 2.999515e-01
v -4.054027e-01 1.032448e-01 3.080468e-01
v -4.053266e-01 1.048075e-01 3.170993e-01
v -4.046154e-01 1.058167e-01 3.255997e-01
v -4.039294e-01 1.068350e-01 3.340510e-01
v -4.025957e-01 1.072953e-01 3.419747e-01
v -4.026337e-01 1.089003e-01 3.508064e-01
v -4.040623e-01 1.116568e-01 3.605096e-01
v -4.041699e-01 1.132876e-01 3.692065e-01
v -4.036235e-01 1.143578e-01 3.773880e-01
v -4.044804e-01 1.165844e-01 3.864163e-01
v -4.053753e-01 1.188250e-01 3.953709e-01
v -4.063082e-01 1.210798e-01 4.042521e-01
v -4.065806e-01 1.227716e-01 4.126301e-01
v -4.061832e-01 1.238969e-01 4.205234e-01
v -4.065158e-01 1.256111e-01 4.287848e-01
v -4.054642e-01 1.261759e-01 4.361627e-01
v -4.030093e-01 1.255844e-01 4.426939e-01
v -3.998464e-01 1.244122e-01 4.488139e-01
v -3.974010e-01 1.238242e-01 4.553266e-01
v -3.942412e-01 1.226532e-01 4.614404e-01
v -3.918053e-01 1.220687e-01 4.679347e-01
v -3.886487e-01 1.208989e-01 4.740424e-01
v -3.840318e-01 1.185517e-01 4.794138e-01
v -3.786688e-01 1.156097e-01 4.844475e-01
v -4.962205e-01 1.340120e-01 1.674998e-01
v -4.858296e-01 1.262562e-01 1.663287e-01
v -4.794939e-01 1.222813e-01 1.697226e-01
v -4.760934e-01 1.210211e-01 1.763024e-01
v -4.732893e-01 1.203074e-01 1.835013e-01
v -4.704915e-01 1.195960e-01 1.906876e-01
v -4.677001e-01 1.188870e-01 1.978619e-01
v -4.655210e-01 1.187303e-01 2.056242e-01
v -4.633546e-01 1.185783e-01 2.133620e-01
v -4.599762e-01 1.173263e-01 2.198990e-01
v -4.565978e-01 1.160744e-01 2.264359e-01
v -4.532193e-01 1.148224e-01 2.329729e-01
v -4.498409e-01 1.135704e-01 2.395099e-01
v -4.464625e-01 1.123184e-01 2.460469e-01
v -4.424559e-01 1.105083e-01 2.520265e-01
v -4.365488e-01 1.070175e-01 2.563640e-01
v -4.331545e-01 1.057597e-01 2.629316e-01
v -4.303980e-01 1.050636e-01 2.700385e-01
v -4.263660e-01 1.032440e-01 2.760669e-01
v -4.216835e-01 1.008579e-01 2.815809e-01
v -4.176358e-01 9.903254e-02 2.876401e-01
v -4.161831e-01 9.947042e-02 2.957698e-01
v -4.147495e-01 9.991540e-02 3.038628e-01
v -4.133350e-01 1.003675e-01 3.119190e-01
v -4.119394e-01 1.008266e-01 3.199385e-01
v -4.105629e-01 1.012928e-01 3.279210e-01
v -4.098715e-01 1.023382e-01 3.363507e-01
v -4.092057e-01 1.033932e-01 3.447314e-01
v -4.099101e-01 1.056068e-01 3.540063e-01
v -4.113284e-01 1.084104e-01 3.636731e-01
v -4.121122e-01 1.106534e-01 3.727947e-01
v -4.115700e-01 1.117542e-01 3.809362e-01
v -4.124235e-01 1.140230e-01 3.899229e-01
v -4.133150e-01 1.163059e-01 3.988359e-01
v -4.135529e-01 1.180212e-01 4.072407e-01
v -4.138226e-01 1.197483e-01 4.155839e-01
v -4.141240e-01 1.214871e-01 4.238660e-01
v -4.144571e-01 1.232376e-01 4.320866e-01
v -4.127090e-01 1.232407e-01 4.390151e-01
v -4.095588e-01 1.220733e-01 4.451105e-01
v -4.078297e-01 1.220834e-01 4.520021e-01
v -4.053996e-01 1.215082e-01 4.584772e-01
v -4.015420e-01 1.197532e-01 4.641684e-01
v -3.983980e-01 1.185882e-01 4.702516e-01
v -3.959774e-01 1.180166e-01 4.767084e-01
v -5.086955e-01 1.339685e-01 1.677087e-01
v -4.937752e-01 1.217858e-01 1.612780e-01
v -4.968096e-01 1.265698e-01 1.748218e-01
v -4.911170e-01 1.231294e-01 1.787762e-01
v -4.865785e-01 1.207822e-01 1.840282e-01
v -4.832127e-01 1.195350e-01 1.905406e-01
v -4.804429e-01 1.188411e-01 1.976649e-01
v -4.776794e-01 1.181497e-01 2.047769e-01
v -4.749224e-01 1.174607e-01 2.118769e-01
v -4.709606e-01 1.156598e-01 2.177773e-01
v -4.669925e-01 1.138567e-01 2.236902e-01
v -4.630182e-01 1.120513e-01 2.296153e-01
v -4.596525e-01 1.108040e-01 2.361278e-01
v -4.556685e-01 1.089949e-01 2.420712e-01
v -4.522996e-01 1.077465e-01 2.485898e-01
v -4.483063e-01 1.059340e-01 2.545517e-01
v -4.430512e-01 1.029885e-01 2.594247e-01
v -4.384080e-01 1.006025e-01 2.648789e-01
v -4.356540e-01 9.991457e-02 2.719726e-01
v -4.322692e-01 9.866022e-02 2.785218e-01
v -4.282442e-01 9.683595e-02 2.845450e-01
v -4.254997e-01 9.615157e-02 2.916202e-01
v -4.234082e-01 9.604185e-02 2.991970e-01
v -4.213296e-01 9.593696e-02 3.067495e-01
v -4.199164e-01 9.641129e-02 3.147786e-01
v -4.178663e-01 9.631692e-02 3.222757e-01
v -4.171473e-01 9.738115e-02 3.307267e-01
v -4.164538e-01 9.845494e-02 3.391287e-01
v -4.171169e-01 1.006967e-01 3.484356e-01
v -4.184870e-01 1.035332e-01 3.581397e-01
v -4.192293e-01 1.058044e-01 3.672933e-01
v -4.193346e-01 1.075067e-01 3.759147e-01
v -4.194716e-01 1.092209e-01 3.844748e-01
v -4.203218e-01 1.115321e-01 3.934199e-01
v -4.205253e-01 1.132709e-01 4.018512e-01
v -4.207604e-01 1.150214e-01 4.102212e-01
v -4.217184e-01 1.173725e-01 4.189578e-01
v -4.234086e-01 1.203276e-01 4.280426e-01
v -4.230510e-01 1.215258e-01 4.357945e-01
v -4.220182e-01 1.221411e-01 4.430879e-01
v -4.203007e-01 1.221700e-01 4.499411e-01
v -4.185959e-01 1.222036e-01 4.567697e-01
v -4.169038e-01 1.222418e-01 4.635739e-01
v -4.130847e-01 1.204939e-01 4.691984e-01
v -4.099757e-01 1.193417e-01 4.752142e-01
v -4.083057e-01 1.193882e-01 4.819754e-01
v -4.073712e-01 1.200400e-01 4.890787e-01
v -5.233267e-01 1.362143e-01 1.706295e-01
v -5.166104e-01 1.316857e-01 1.730829e-01
v -5.110089e-01 1.282503e-01 1.768935e-01
v -5.077002e-01 1.270241e-01 1.832956e-01
v -5.026433e-01 1.241303e-01 1.878092e-01
v -4.975673e-01 1.212295e-01 1.923595e-01
v -4.930616e-01 1.188799e-01 1.975640e-01
v -4.891353e-01 1.170849e-01 2.034039e-01
v -4.863935e-01 1.164088e-01 2.104662e-01
v -4.824608e-01 1.146115e-01 2.163185e-01
v -4.779201e-01 1.122489e-01 2.215904e-01
v -4.739717e-01 1.104458e-01 2.274734e-01
v -4.706250e-01 1.092056e-01 2.339490e-01
v -4.666670e-01 1.073989e-01 2.398504e-01
v -4.627026e-01 1.055898e-01 2.457639e-01
v -4.587320e-01 1.037785e-01 2.516899e-01
v -4.528927e-01 1.002548e-01 2.559603e-01
v -4.482761e-01 9.786417e-02 2.613794e-01
v -4.449008e-01 9.661335e-02 2.679102e-01
v -4.421558e-01 9.593604e-02 2.749786e-01
v -4.387837e-01 9.468642e-02 2.815033e-01
v -4.347750e-01 9.286095e-02 2.875028e-01
v -4.326792e-01 9.276411e-02 2.950717e-01
v -4.299533e-01 9.209390e-02 3.021034e-01
v -4.272336e-01 9.142592e-02 3.091226e-01
v -4.258188e-01 9.192145e-02 3.171310e-01
v -4.244230e-01 9.242402e-02 3.251027e-01
v -4.230464e-01 9.293367e-02 3.330376e-01
v -4.236650e-01 9.520253e-02 3.423826e-01
v -4.256455e-01 9.865592e-02 3.526064e-01
v -4.270117e-01 1.015418e-01 3.622620e-01
v -4.264173e-01 1.026812e-01 3.704399e-01
v -4.265198e-01 1.044188e-01 3.790267e-01
v -4.259794e-01 1.055783e-01 3.871005e-01
v -4.274976e-01 1.085205e-01 3.964617e-01
v -4.290603e-01 1.114791e-01 4.057371e-01
v -4.299832e-01 1.138607e-01 4.144935e-01
v -4.316313e-01 1.168510e-01 4.236033e-01
v -4.333239e-01 1.198578e-01 4.326273e-01
v -4.322863e-01 1.204930e-01 4.399060e-01
v -4.312677e-01 1.211354e-01 4.471479e-01
v -4.309680e-01 1.223841e-01 4.547556e-01
v -4.299907e-01 1.230417e-01 4.619178e-01
v -4.290323e-01 1.237063e-01 4.690433e-01
v -4.273835e-01 1.237752e-01 4.757476e-01
v -4.250346e-01 1.232447e-01 4.820494e-01
v -4.241238e-01 1.239269e-01 4.890829e-01
v -5.355259e-01 1.363587e-01 1.710515e-01
v -5.288796e-01 1.318127e-01 1.734179e-01
v -5.233340e-01 1.283688e-01 1.771519e-01
v -5.194813e-01 1.265939e-01 1.828578e-01
v -5.150462e-01 1.242560e-01 1.879411e-01
v -5.105985e-01 1.219134e-01 1.930491e-01
v -5.061383e-01 1.195661e-01 1.981815e-01
v -5.010798e-01 1.166500e-01 2.027220e-01
v -4.965911e-01 1.142922e-01 2.079097e-01
v -4.932728e-01 1.130625e-01 2.143302e-01
v -4.887649e-01 1.106976e-01 2.195546e-01
v -4.842444e-01 1.083280e-01 2.248035e-01
v -4.803123e-01 1.065237e-01 2.306627e-01
v -4.781869e-01 1.064304e-01 2.382730e-01
v -4.748592e-01 1.051972e-01 2.447119e-01
v -4.709208e-01 1.033906e-01 2.505835e-01
v -4.663622e-01 1.010069e-01 2.559060e-01
v -4.605569e-01 9.746683e-02 2.601429e-01
v -4.553464e-01 9.449428e-02 2.649776e-01
v -4.513636e-01 9.267116e-02 2.709350e-01
v -4.486275e-01 9.200438e-02 2.779780e-01
v -4.458979e-01 9.134011e-02 2.850089e-01
v -4.425417e-01 9.009636e-02 2.915029e-01
v -4.398214e-01 8.943541e-02 2.985151e-01
v -4.371076e-01 8.877700e-02 3.055154e-01
v -4.337576e-01 8.753556e-02 3.119972e-01
v -4.316988e-01 8.746692e-02 3.194787e-01
v -4.309502e-01 8.857828e-02 3.279234e-01
v -4.308787e-01 9.028772e-02 3.368065e-01
v -4.308389e-01 9.200892e-02 3.456285e-01
v -4.321473e-01 9.492411e-02 3.553398e-01
v -4.328387e-01 9.726344e-02 3.644960e-01
v -4.329035e-01 9.902334e-02 3.731155e-01
v -4.323322e-01 1.002004e-01 3.812168e-01
v -4.324572e-01 1.019827e-01 3.897197e-01
v -4.353103e-01 1.061647e-01 3.999403e-01
v -4.368658e-01 1.091714e-01 4.091734e-01
v -4.391462e-01 1.127940e-01 4.187530e-01
v -4.414771e-01 1.164353e-01 4.282344e-01
v -4.424855e-01 1.188921e-01 4.367775e-01
v -4.421520e-01 1.201572e-01 4.444187e-01
v -4.411507e-01 1.208277e-01 4.516031e-01
v -4.408646e-01 1.221105e-01 4.591524e-01
v -4.406040e-01 1.234027e-01 4.666527e-01
v -4.389635e-01 1.234891e-01 4.733248e-01
v -4.380416e-01 1.241890e-01 4.803558e-01
v -4.371385e-01 1.248959e-01 4.873500e-01
v -4.362545e-01 1.256099e-01 4.943074e-01
v -4.353896e-01 1.263309e-01 5.012281e-01
v -4.331067e-01 1.258321e-01 5.073941e-01
v -4.301086e-01 1.247211e-01 5.131952e-01
v -5.344101e-01 1.274463e-01 1.762014e-01
v -5.305863e-01 1.256748e-01 1.818591e-01
v -5.256183e-01 1.227704e-01 1.862486e-01
v -5.206313e-01 1.198590e-01 1.906751e-01
v -5.162007e-01 1.175083e-01 1.957663e-01
v -5.123357e-01 1.157215e-01 2.015035e-01
v -5.084644e-01 1.139325e-01 2.072533e-01
v -5.040021e-01 1.115699e-01 2.124057e-01
v -5.007029e-01 1.103473e-01 2.187894e-01
v -4.962214e-01 1.079776e-01 2.239786e-01
v -4.917273e-01 1.056033e-01 2.291923e-01
v -4.878180e-01 1.038002e-01 2.350156e-01
v -4.857042e-01 1.037258e-01 2.425875e-01
v -4.823955e-01 1.024996e-01 2.489896e-01
v -4.784798e-01 1.006941e-01 2.548252e-01
v -4.745579e-01 9.888625e-02 2.606729e-01
v -4.706295e-01 9.707607e-02 2.665330e-01
v -4.648455e-01 9.351487e-02 2.707607e-01
v -4.584164e-01 8.936016e-02 2.744956e-01
v -4.544468e-01 8.753471e-02 2.804354e-01
v -4.523488e-01 8.746605e-02 2.879766e-01
v -4.496345e-01 8.681464e-02 2.949698e-01
v -4.469263e-01 8.616547e-02 3.019506e-01
v -4.435891e-01 8.492876e-02 3.084079e-01
v -4.402518e-01 8.369207e-02 3.148652e-01
v -4.388401e-01 8.423218e-02 3.228197e-01
v -4.387373e-01 8.596630e-02 3.317235e-01
v -4.386662e-01 8.771218e-02 3.405659e-01
v -4.386268e-01 8.946980e-02 3.493470e-01
v -4.392737e-01 9.183621e-02 3.585414e-01
v -4.393009e-01 9.361847e-02 3.671937e-01
v -4.400205e-01 9.601182e-02 3.762470e-01
v -4.407782e-01 9.841921e-02 3.852267e-01
v -4.409068e-01 1.002391e-01 3.936828e-01
v -4.430781e-01 1.038793e-01 4.034093e-01
v -4.453001e-01 1.075383e-01 4.130376e-01
v -4.475728e-01 1.112160e-01 4.225680e-01
v -4.498963e-01 1.149126e-01 4.320001e-01
v -4.509043e-01 1.174128e-01 4.404954e-01
v -4.505780e-01 1.187096e-01 4.480905e-01
v -4.502772e-01 1.200159e-01 4.556367e-01
v -4.500016e-01 1.213316e-01 4.631337e-01
v -4.490557e-01 1.220443e-01 4.701868e-01
v -4.474300e-01 1.221508e-01 4.768145e-01
v -4.465189e-01 1.228765e-01 4.838002e-01
v -4.470374e-01 1.248408e-01 4.915019e-01
v -4.468791e-01 1.261999e-01 4.987721e-01
v -4.460346e-01 1.269503e-01 5.056290e-01
v -4.444944e-01 1.270884e-01 5.120911e-01
v -4.415312e-01 1.259903e-01 5.178247e-01
v -5.393593e-01 1.225463e-01 1.783285e-01
v -5.355455e-01 1.207712e-01 1.839747e-01
v -5.300300e-01 1.172805e-01 1.877151e-01
v -5.256258e-01 1.149250e-01 1.927711e-01
v -5.212088e-01 1.125647e-01 1.978515e-01
v -5.185034e-01 1.119239e-01 2.048193e-01
v -5.146485e-01 1.101336e-01 2.105452e-01
v -5.102063e-01 1.077641e-01 2.156747e-01
v -5.069198e-01 1.065462e-01 2.220339e-01
v -5.036332e-01 1.053282e-01 2.283931e-01
v -4.997561e-01 1.035297e-01 2.341618e-01
v -4.952789e-01 1.011472e-01 2.393588e-01
v -4.919829e-01 9.992572e-02 2.457363e-01
v -4.892870e-01 9.928845e-02 2.526859e-01
v -4.859941e-01 9.806817e-02 2.590573e-01
v -4.814885e-01 9.567506e-02 2.643094e-01
v -4.775797e-01 9.386484e-02 2.701395e-01
v -4.724391e-01 9.087471e-02 2.748872e-01
v -4.666636e-01 8.728769e-02 2.791305e-01
v -4.627199e-01 8.546453e-02 2.850281e-01
v -4.593922e-01 8.423135e-02 2.914669e-01
v -4.566900e-01 8.359166e-02 2.984287e-01
v -4.539939e-01 8.295424e-02 3.053781e-01
v -4.500408e-01 8.112763e-02 3.112942e-01
v -4.473512e-01 8.049253e-02 3.182313e-01
v -4.459441e-01 8.105621e-02 3.261528e-01
v -4.458385e-01 8.282557e-02 3.350219e-01
v -4.464091e-01 8.520726e-02 3.443156e-01
v -4.463701e-01 8.700128e-02 3.530560e-01
v -4.463628e-01 8.880703e-02 3.617350e-01
v -4.470411e-01 9.122860e-02 3.708202e-01
v -4.490716e-01 9.487465e-02 3.807550e-01
v -4.504926e-01 9.793310e-02 3.901362e-01
v -4.506311e-01 9.979291e-02 3.985331e-01
v -4.521345e-01 1.028819e-01 4.077548e-01
v -4.536823e-01 1.059873e-01 4.168908e-01
v -4.566203e-01 1.103314e-01 4.268026e-01
v -4.582631e-01 1.134720e-01 4.357546e-01
v -4.592711e-01 1.160157e-01 4.442021e-01
v -4.589521e-01 1.173443e-01 4.517511e-01
v -4.586584e-01 1.186822e-01 4.592510e-01
v -4.583901e-01 1.200296e-01 4.667020e-01
v -4.574553e-01 1.207683e-01 4.737098e-01
v -4.558443e-01 1.208947e-01 4.802929e-01
v -4.549442e-01 1.216462e-01 4.872332e-01
v -4.547647e-01 1.230265e-01 4.945125e-01
v -4.546105e-01 1.244161e-01 5.017427e-01
v -4.537739e-01 1.251912e-01 5.085604e-01
v -4.501123e-01 1.234726e-01 5.139122e-01
v -4.450161e-01 1.204989e-01 5.185741e-01
v -5.437385e-01 1.170950e-01 1.798015e-01
v -5.393734e-01 1.147395e-01 1.847977e-01
v -5.349957e-01 1.123794e-01 1.898185e-01
v -5.306053e-01 1.100145e-01 1.948638e-01
v -5.273378e-01 1.088036e-01 2.011862e-01
v -5.240703e-01 1.075928e-01 2.075085e-01
v -5.208028e-01 1.063819e-01 2.138309e-01
v -5.169578e-01 1.045880e-01 2.195452e-01
v -5.125262e-01 1.022079e-01 2.246702e-01
v -5.104164e-01 1.021639e-01 2.322022e-01
v -5.077328e-01 1.015384e-01 2.391202e-01
v -5.038751e-01 9.973985e-02 2.448592e-01
v -4.988250e-01 9.676153e-02 2.494560e-01
v -4.943522e-01 9.436613e-02 2.546607e-01
v -4.916652e-01 9.373931e-02 2.615848e-01
v -4.877792e-01 9.193030e-02 2.673789e-01
v -4.832809e-01 8.952545e-02 2.726328e-01
v -4.787701e-01 8.711591e-02 2.779110e-01
v -4.748587e-01 8.529748e-02 2.837542e-01
v -4.709410e-01 8.347662e-02 2.896097e-01
v -4.676354e-01 8.225165e-02 2.960056e-01
v -4.643298e-01 8.102670e-02 3.024016e-01
v -4.616493e-01 8.040233e-02 3.093134e-01
v -4.583469e-01 7.917854e-02 3.157032e-01
v -4.550445e-01 7.795472e-02 3.220931e-01
v -4.536453e-01 7.854307e-02 3.299754e-01
v -4.541776e-01 8.095404e-02 3.392951e-01
v -4.541073e-01 8.277273e-02 3.480558e-01
v -4.540687e-01 8.460314e-02 3.567553e-01
v -4.540617e-01 8.644534e-02 3.653935e-01
v -4.553868e-01 8.951906e-02 3.749040e-01
v -4.574098e-01 9.322032e-02 3.847894e-01
v -4.588268e-01 9.632809e-02 3.941220e-01
v -4.596286e-01 9.883891e-02 4.029205e-01
v -4.611312e-01 1.019784e-01 4.120875e-01
v -4.626783e-01 1.051344e-01 4.211688e-01
v -4.662774e-01 1.101576e-01 4.314545e-01
v -4.679226e-01 1.133500e-01 4.403456e-01
v -4.675855e-01 1.147008e-01 4.478976e-01
v -4.672738e-01 1.160612e-01 4.554005e-01
v -4.669875e-01 1.174309e-01 4.628543e-01
v -4.667265e-01 1.188100e-01 4.702591e-01
v -4.664909e-01 1.201984e-01 4.776148e-01
v -4.648977e-01 1.203459e-01 4.841473e-01
v -4.633173e-01 1.204982e-01 4.906552e-01
v -4.624473e-01 1.212826e-01 4.975134e-01
v -4.615963e-01 1.220741e-01 5.043348e-01
v -4.607643e-01 1.228726e-01 5.111195e-01
v -4.564151e-01 1.205230e-01 5.160850e-01
v -5.475589e-01 1.110751e-01 1.806230e-01
v -5.432012e-01 1.087078e-01 1.856208e-01
v -5.393887e-01 1.069188e-01 1.912810e-01
v -5.361307e-01 1.057115e-01 1.975849e-01
v -5.323086e-01 1.039189e-01 2.032635e-01
v -5.290475e-01 1.027104e-01 2.095735e-01
v -5.263568e-01 1.020894e-01 2.164968e-01
v -5.236722e-01 1.014708e-01 2.234077e-01
v -5.198408e-01 9.967475e-02 2.291047e-01
v -5.171626e-01 9.905845e-02 2.360034e-01
v -5.139077e-01 9.785228e-02 2.423011e-01
v -5.100668e-01 9.605268e-02 2.480165e-01
v -5.056298e-01 9.365603e-02 2.531675e-01
v -5.005877e-01 9.065894e-02 2.577730e-01
v -4.979096e-01 9.004264e-02 2.646717e-01
v -4.940401e-01 8.823250e-02 2.704422e-01
v -4.901641e-01 8.641996e-02 2.762249e-01
v -4.862817e-01 8.460499e-02 2.820198e-01
v -4.836101e-01 8.399117e-02 2.889064e-01
v -4.797214e-01 8.217384e-02 2.947137e-01
v -4.764412e-01 8.095829e-02 3.010605e-01
v -4.731610e-01 7.974271e-02 3.074073e-01
v -4.698808e-01 7.852713e-02 3.137542e-01
v -4.666006e-01 7.731158e-02 3.201011e-01
v -4.639480e-01 7.670480e-02 3.269509e-01
v -4.625629e-01 7.732015e-02 3.347817e-01
v -4.624644e-01 7.916464e-02 3.435569e-01
v -4.617607e-01 8.040862e-02 3.517863e-01
v -4.623626e-01 8.288891e-02 3.609233e-01
v -4.636458e-01 8.599791e-02 3.704589e-01
v -4.649733e-01 8.912326e-02 3.799086e-01
v -4.669950e-01 9.288216e-02 3.897324e-01
v -4.684145e-01 9.604161e-02 3.990043e-01
v -4.685664e-01 9.797893e-02 4.072950e-01
v -4.700683e-01 1.011690e-01 4.164075e-01
v -4.722770e-01 1.049970e-01 4.258694e-01
v -4.758673e-01 1.100896e-01 4.360919e-01
v -4.761777e-01 1.120857e-01 4.440760e-01
v -4.758479e-01 1.134682e-01 4.515818e-01
v -4.755435e-01 1.148603e-01 4.590386e-01
v -4.752644e-01 1.162616e-01 4.664463e-01
v -4.750106e-01 1.176725e-01 4.738050e-01
v -4.734132e-01 1.178329e-01 4.803297e-01
v -4.718285e-01 1.179980e-01 4.868298e-01
v -4.702565e-01 1.181679e-01 4.933054e-01
v -4.693911e-01 1.189758e-01 5.001306e-01
v -4.685448e-01 1.197908e-01 5.069191e-01
v -4.670171e-01 1.199771e-01 5.133088e-01
v -4.640951e-01 1.188942e-01 5.189627e-01
v -5.513793e-01 1.050551e-01 1.814444e-01
v -5.470290e-01 1.026761e-01 1.864439e-01
v -5.432203e-01 1.008813e-01 1.921048e-01
v -5.405194e-01 1.002638e-01 1.990395e-01
v -5.378250e-01 9.964874e-02 2.059621e-01
v -5.345733e-01 9.844377e-02 2.122538e-01
v -5.313216e-01 9.723875e-02 2.185455e-01
v -5.292098e-01 9.722305e-02 2.260497e-01
v -5.265375e-01 9.661620e-02 2.329292e-01
v -5.238715e-01 9.601169e-02 2.397965e-01
v -5.200532e-01 9.421325e-02 2.454758e-01
v -5.156459e-01 9.181304e-02 2.505856e-01
v -5.112260e-01 8.940823e-02 2.557198e-01
v -5.079711e-01 8.820205e-02 2.620177e-01
v -5.053084e-01 8.759877e-02 2.688790e-01
v -5.014615e-01 8.578971e-02 2.746133e-01
v -4.976084e-01 8.397841e-02 2.803601e-01
v -4.943503e-01 8.277105e-02 2.866641e-01
v -4.923017e-01 8.277880e-02 2.940457e-01
v -4.890501e-01 8.157378e-02 3.003374e-01
v -4.857984e-01 8.036878e-02 3.066291e-01
v -4.813184e-01 7.794165e-02 3.118799e-01
v -4.786777e-01 7.734648e-02 3.186980e-01
v -4.754229e-01 7.614034e-02 3.249959e-01
v -4.727918e-01 7.554880e-02 3.317959e-01
v -4.720478e-01 7.680689e-02 3.400710e-01
v -4.719592e-01 7.869137e-02 3.487871e-01
v -4.719023e-01 8.058759e-02 3.574417e-01
v -4.718771e-01 8.249554e-02 3.660351e-01
v -4.738024e-01 8.627667e-02 3.759813e-01
v -4.757783e-01 9.007660e-02 3.858293e-01
v -4.778050e-01 9.389530e-02 3.955792e-01
v -4.779351e-01 9.586082e-02 4.038721e-01
v -4.774446e-01 9.721291e-02 4.116568e-01
v -4.796013e-01 1.010798e-01 4.211553e-01
v -4.824672e-01 1.055930e-01 4.309903e-01
v -4.840666e-01 1.088699e-01 4.398579e-01
v -4.843805e-01 1.109035e-01 4.477952e-01
v -4.847261e-01 1.129489e-01 4.556710e-01
v -4.844321e-01 1.143738e-01 4.630755e-01
v -4.834891e-01 1.151747e-01 4.700271e-01
v -4.818874e-01 1.153480e-01 4.765441e-01
v -4.789368e-01 1.142546e-01 4.822532e-01
v -4.766702e-01 1.137981e-01 4.883478e-01
v -4.757841e-01 1.146202e-01 4.951890e-01
v -4.756074e-01 1.160885e-01 5.023666e-01
v -4.740691e-01 1.162854e-01 5.087609e-01
v -4.718469e-01 1.158453e-01 5.147697e-01
v -4.703308e-01 1.160504e-01 5.211211e-01
v -5.557436e-01 9.962748e-02 1.829144e-01
v -5.514040e-01 9.723785e-02 1.879093e-01
v -5.476021e-01 9.543819e-02 1.935647e-01
v -5.449007e-01 9.482788e-02 2.004927e-01
v -5.427623e-01 9.481688e-02 2.080322e-01
v -5.400769e-01 9.421239e-02 2.149293e-01
v -5.373976e-01 9.361023e-02 2.218142e-01
v -5.352909e-01 9.361091e-02 2.292922e-01
v -5.326276e-01 9.301468e-02 2.361465e-01
v -5.299707e-01 9.242079e-02 2.429885e-01
v -5.267443e-01 9.122522e-02 2.492312e-01
v -5.229391e-01 8.942435e-02 2.548928e-01
v -5.202917e-01 8.883400e-02 2.617164e-01
v -5.176506e-01 8.824593e-02 2.685277e-01
v -5.144274e-01 8.705149e-02 2.747642e-01
v -5.106128e-01 8.524718e-02 2.804443e-01
v -5.067918e-01 8.344045e-02 2.861366e-01
v -5.029645e-01 8.163140e-02 2.918412e-01
v -4.991309e-01 7.982007e-02 2.975581e-01
v -4.958951e-01 7.862093e-02 3.038191e-01
v -4.926592e-01 7.742183e-02 3.100801e-01
v -4.894234e-01 7.622267e-02 3.163411e-01
v -4.874149e-01 7.625978e-02 3.236291e-01
v -4.848024e-01 7.568238e-02 3.303853e-01
v -4.821960e-01 7.510721e-02 3.371292e-01
v -4.814657e-01 7.639944e-02 3.453460e-01
v -4.820133e-01 7.894662e-02 3.544919e-01
v -4.825990e-01 8.150794e-02 3.635640e-01
v -4.825900e-01 8.345819e-02 3.720859e-01
v -4.838845e-01 8.667290e-02 3.814876e-01
v -4.865013e-01 9.115909e-02 3.917323e-01
v -4.872486e-01 9.378029e-02 4.004918e-01
v -4.873886e-01 9.578572e-02 4.087255e-01
v -4.875603e-01 9.780294e-02 4.168979e-01
v -4.897189e-01 1.017285e-01 4.263286e-01
v -4.925829e-01 1.063063e-01 4.360950e-01
v -4.941879e-01 1.096361e-01 4.448957e-01
v -4.938536e-01 1.110751e-01 4.523461e-01
v -4.935448e-01 1.125235e-01 4.597474e-01
v -4.919262e-01 1.127051e-01 4.662812e-01
v -4.903201e-01 1.128913e-01 4.727904e-01
v -4.887269e-01 1.130823e-01 4.792751e-01
v -4.857922e-01 1.119948e-01 4.849536e-01
v -4.835377e-01 1.115500e-01 4.910168e-01
v -4.819729e-01 1.117516e-01 4.974463e-01
v -4.797342e-01 1.113127e-01 5.034788e-01
v -4.781917e-01 1.115225e-01 5.098654e-01
v -4.759689e-01 1.110895e-01 5.158673e-01
v -4.744484e-01 1.113075e-01 5.222108e-01
v -5.606407e-01 9.480966e-02 1.850303e-01
v -5.563150e-01 9.241072e-02 1.900145e-01
v -5.525231e-01 9.060749e-02 1.956585e-01
v -5.498244e-01 9.000542e-02 2.025734e-01
v -5.476848e-01 9.000848e-02 2.100990e-01
v -5.461140e-01 9.062028e-02 2.182169e-01
v -5.440030e-01 9.063392e-02 2.256873e-01
v -5.419047e-01 9.065224e-02 2.331331e-01
v -5.398192e-01 9.067535e-02 2.405545e-01
v -5.371774e-01 9.009432e-02 2.473589e-01
v -5.345420e-01 8.951569e-02 2.541510e-01
v -5.319130e-01 8.893941e-02 2.609309e-01
v -5.292903e-01 8.836542e-02 2.676984e-01
v -5.266740e-01 8.779390e-02 2.744538e-01
v -5.228947e-01 8.599539e-02 2.800733e-01
v -5.191092e-01 8.419460e-02 2.857051e-01
v -5.159082e-01 8.300838e-02 2.918987e-01
v -5.115191e-01 8.058587e-02 2.970055e-01
v -5.077146e-01 7.877805e-02 3.026742e-01
v -5.051045e-01 7.820874e-02 3.094172e-01
v -5.018972e-01 7.702019e-02 3.156230e-01
v -4.980832e-01 7.520886e-02 3.213101e-01
v -4.954826e-01 7.464310e-02 3.280347e-01
v -4.941147e-01 7.533009e-02 3.357602e-01
v -4.927657e-01 7.602412e-02 3.434490e-01
v -4.926748e-01 7.798021e-02 3.520895e-01
v -4.932381e-01 8.057677e-02 3.611569e-01
v -4.938395e-01 8.318748e-02 3.701506e-01
v -4.932209e-01 8.455010e-02 3.781190e-01
v -4.945241e-01 8.781880e-02 3.874477e-01
v -4.965071e-01 9.173741e-02 3.971541e-01
v -4.979022e-01 9.504016e-02 4.063050e-01
v -4.987000e-01 9.772367e-02 4.149186e-01
v -4.995358e-01 1.004212e-01 4.234585e-01
v -5.010578e-01 1.037710e-01 4.323641e-01
v -5.026240e-01 1.071371e-01 4.411837e-01
v -5.029260e-01 1.092389e-01 4.490639e-01
v -5.019447e-01 1.100692e-01 4.560413e-01
v -5.009824e-01 1.109064e-01 4.629819e-01
v -4.993754e-01 1.111069e-01 4.694773e-01
v -4.971140e-01 1.106668e-01 4.755457e-01
v -4.955291e-01 1.108754e-01 4.819982e-01
v -4.939569e-01 1.110888e-01 4.884261e-01
v -4.910443e-01 1.100094e-01 4.940616e-01
v -4.874521e-01 1.082803e-01 4.993194e-01
v -4.852192e-01 1.078508e-01 5.053327e-01
v -4.829927e-01 1.074236e-01 5.113337e-01
v -4.807725e-01 1.069988e-01 5.173225e-01
v -4.771739e-01 1.052673e-01 5.225925e-01
v -5.601316e-01 8.639664e-02 1.908352e-01
v -5.574291e-01 8.580037e-02 1.977491e-01
v -5.552790e-01 8.581404e-02 2.052793e-01
v -5.531415e-01 8.583234e-02 2.127848e-01
v -5.521214e-01 8.707517e-02 2.214981e-01
v -5.505712e-01 8.771635e-02 2.295524e-01
v -5.495987e-01 8.897692e-02 2.381737e-01
v -5.480895e-01 8.963333e-02 2.461483e-01
v -5.460345e-01 8.968219e-02 2.534945e-01
v -5.439920e-01 8.973577e-02 2.608161e-01
v -5.408196e-01 8.856014e-02 2.669545e-01
v -5.382218e-01 8.800266e-02 2.736661e-01
v -5.356302e-01 8.744747e-02 2.803654e-01
v -5.318833e-01 8.565373e-02 2.859306e-01
v -5.281299e-01 8.385758e-02 2.915080e-01
v -5.249575e-01 8.268194e-02 2.976464e-01
v -5.211947e-01 8.088230e-02 3.032421e-01
v -5.186126e-01 8.033069e-02 3.099231e-01
v -5.154402e-01 7.915502e-02 3.160615e-01
v -5.110681e-01 7.672438e-02 3.211515e-01
v -5.078893e-01 7.554639e-02 3.273022e-01
v -5.059230e-01 7.562812e-02 3.344766e-01
v -5.051881e-01 7.697668e-02 3.426380e-01
v -5.044786e-01 7.833469e-02 3.507504e-01
v -5.044101e-01 8.033542e-02 3.593072e-01
v -5.043734e-01 8.234786e-02 3.678027e-01
v -5.043684e-01 8.437213e-02 3.762368e-01
v -5.043950e-01 8.640815e-02 3.846097e-01
v -5.057102e-01 8.973209e-02 3.938591e-01
v -5.070697e-01 9.307244e-02 4.030227e-01
v -5.091083e-01 9.706969e-02 4.125572e-01
v -5.099219e-01 9.980252e-02 4.210924e-01
v -5.101323e-01 1.019066e-01 4.291095e-01
v -5.116630e-01 1.053104e-01 4.379420e-01
v -5.112958e-01 1.067952e-01 4.453921e-01
v -5.109539e-01 1.082894e-01 4.527931e-01
v -5.099836e-01 1.091455e-01 4.597252e-01
v -5.090323e-01 1.100086e-01 4.666205e-01
v -5.074400e-01 1.102290e-01 4.730712e-01
v -5.051971e-01 1.098030e-01 4.790960e-01
v -5.029604e-01 1.093794e-01 4.851086e-01
v -5.007301e-01 1.089581e-01 4.911088e-01
v -4.978334e-01 1.078847e-01 4.967137e-01
v -4.942608e-01 1.061555e-01 5.019416e-01
v -4.913610e-01 1.050809e-01 5.075526e-01
v -4.884611e-01 1.040063e-01 5.131636e-01
v -4.862466e-01 1.035908e-01 5.191332e-01
v -5.623202e-01 8.101669e-02 1.998365e-01
v -5.612536e-01 8.227126e-02 2.086079e-01
v -5.602122e-01 8.353531e-02 2.173304e-01
v -5.597449e-01 8.542452e-02 2.266191e-01
v -5.587573e-01 8.670840e-02 2.352371e-01
v -5.577953e-01 8.800184e-02 2.438063e-01
v -5.563003e-01 8.868527e-02 2.517293e-01
v -5.548244e-01 8.937577e-02 2.596157e-01
v -5.528031e-01 8.945163e-02 2.668804e-01
v -5.496592e-01 8.828656e-02 2.729636e-01
v -5.470861e-01 8.774554e-02 2.796191e-01
v -5.445194e-01 8.720680e-02 2.862626e-01
v -5.413818e-01 8.604411e-02 2.923335e-01
v -5.376640e-01 8.425387e-02 2.978503e-01
v -5.339397e-01 8.246123e-02 3.033795e-01
v -5.296226e-01 8.003649e-02 3.083793e-01
v -5.264723e-01 7.886904e-02 3.144747e-01
v -5.233221e-01 7.770166e-02 3.205702e-01
v -5.201718e-01 7.653423e-02 3.266656e-01
v -5.176209e-01 7.600138e-02 3.332783e-01
v -5.168838e-01 7.737813e-02 3.414119e-01
v -5.155664e-01 7.812733e-02 3.489916e-01
v -5.142680e-01 7.888356e-02 3.565345e-01
v -5.142126e-01 8.092546e-02 3.650260e-01
v -5.148041e-01 8.361950e-02 3.739427e-01
v -5.154337e-01 8.632773e-02 3.827858e-01
v -5.161012e-01 8.904989e-02 3.915554e-01
v -5.168068e-01 9.178624e-02 4.002513e-01
v -5.175504e-01 9.453668e-02 4.088737e-01
v -5.189631e-01 9.794754e-02 4.178784e-01
v -5.197859e-01 1.007273e-01 4.263475e-01
v -5.200094e-01 1.028725e-01 4.342993e-01
v -5.202646e-01 1.050295e-01 4.421898e-01
v -5.199079e-01 1.065472e-01 4.495876e-01
v -5.195764e-01 1.080743e-01 4.569364e-01
v -5.186203e-01 1.089574e-01 4.638170e-01
v -5.163768e-01 1.085385e-01 4.698348e-01
v -5.147960e-01 1.087776e-01 4.762472e-01
v -5.132279e-01 1.090214e-01 4.826351e-01
v -5.103471e-01 1.079539e-01 4.882094e-01
v -5.074662e-01 1.068863e-01 4.937836e-01
v -5.052544e-01 1.064791e-01 4.997401e-01
v -5.023767e-01 1.054127e-01 5.053082e-01
v -4.981483e-01 1.030208e-01 5.101362e-01
v -5.677319e-01 7.687465e-02 2.025536e-01
v -5.693525e-01 8.125275e-02 2.144374e-01
v -5.704885e-01 8.503158e-02 2.255903e-01
v -5.705854e-01 8.758586e-02 2.354159e-01
v -5.701722e-01 8.953144e-02 2.445595e-01
v -5.686884e-01 9.024071e-02 2.524372e-01
v -5.666691e-01 9.033187e-02 2.596820e-01
v -5.646625e-01 9.042774e-02 2.669023e-01
v -5.621079e-01 8.990081e-02 2.735142e-01
v -5.589957e-01 8.874746e-02 2.795361e-01
v -5.558835e-01 8.759417e-02 2.855579e-01
v -5.533415e-01 8.707189e-02 2.921452e-01
v -5.502324e-01 8.591973e-02 2.981610e-01
v -5.465468e-01 8.413418e-02 3.036235e-01
v -5.428549e-01 8.234627e-02 3.090983e-01
v -5.385737e-01 7.992027e-02 3.140443e-01
v -5.348658e-01 7.812648e-02 3.195499e-01
v -5.317409e-01 7.696849e-02 3.255963e-01
v -5.292085e-01 7.644974e-02 3.321652e-01
v -5.284691e-01 7.785468e-02 3.402712e-01
v -5.277552e-01 7.926906e-02 3.483280e-01
v -5.270665e-01 8.069278e-02 3.563359e-01
v -5.257983e-01 8.148196e-02 3.637967e-01
v -5.251571e-01 8.292330e-02 3.717125e-01
v -5.257643e-01 8.566668e-02 3.805509e-01
v -5.264095e-01 8.842411e-02 3.893155e-01
v -5.277105e-01 9.184446e-02 3.984802e-01
v -5.278139e-01 9.398139e-02 4.066242e-01
v -5.285732e-01 9.678118e-02 4.151682e-01
v -5.299978e-01 1.002473e-01 4.240938e-01
v -5.302059e-01 1.024230e-01 4.320355e-01
v -5.291784e-01 1.033014e-01 4.390302e-01
v -5.288067e-01 1.048426e-01 4.464247e-01
v -5.291003e-01 1.070500e-01 4.542009e-01
v -5.287825e-01 1.086112e-01 4.614913e-01
v -5.265512e-01 1.082040e-01 4.674776e-01
v -5.243261e-01 1.077992e-01 4.734517e-01
v -5.221073e-01 1.073967e-01 4.794136e-01
v -5.205509e-01 1.076593e-01 4.857631e-01
v -5.176890e-01 1.065988e-01 4.913005e-01
v -5.148272e-01 1.055382e-01 4.968379e-01
v -5.126307e-01 1.051440e-01 5.027569e-01
v -5.091035e-01 1.034172e-01 5.079128e-01
v -5.055699e-01 1.016880e-01 5.130810e-01
v -5.870186e-01 9.158143e-02 2.315222e-01
v -5.849792e-01 9.167964e-02 2.387899e-01
v -5.834936e-01 9.241010e-02 2.466468e-01
v -5.814828e-01 9.251887e-02 2.538594e-01
v -5.789371e-01 9.200253e-02 2.604460e-01
v -5.769484e-01 9.211947e-02 2.676155e-01
v -5.738647e-01 9.097673e-02 2.735822e-01
v -5.707811e-01 8.983398e-02 2.795489e-01
v -5.676974e-01 8.869121e-02 2.855156e-01
v -5.651771e-01 8.818422e-02 2.920531e-01
v -5.620965e-01 8.704264e-02 2.980136e-01
v -5.595857e-01 8.653916e-02 3.045327e-01
v -5.559355e-01 8.475949e-02 3.099347e-01
v -5.522789e-01 8.297747e-02 3.153490e-01
v -5.491952e-01 8.183472e-02 3.213156e-01
v -5.449469e-01 7.940642e-02 3.262143e-01
v -5.418568e-01 7.826131e-02 3.321933e-01
v -5.405329e-01 7.905161e-02 3.397374e-01
v -5.398198e-01 8.049531e-02 3.477605e-01
v -5.397272e-01 8.259591e-02 3.562439e-01
v -5.390680e-01 8.405958e-02 3.641627e-01
v -5.378329e-01 8.488282e-02 3.715352e-01
v -5.366167e-01 8.571308e-02 3.788709e-01
v -5.366350e-01 8.785479e-02 3.871397e-01
v -5.372958e-01 9.066159e-02 3.958261e-01
v -5.379947e-01 9.348251e-02 4.044388e-01
v -5.381144e-01 9.566179e-02 4.125115e-01
v -5.388863e-01 9.850971e-02 4.209832e-01
v -5.390725e-01 1.007137e-01 4.289271e-01
v -5.392904e-01 1.029294e-01 4.368095e-01
v -5.382802e-01 1.038359e-01 4.437466e-01
v -5.379221e-01 1.054112e-01 4.510828e-01
v -5.375894e-01 1.069958e-01 4.583699e-01
v -5.372821e-01 1.085899e-01 4.656081e-01
v -5.357149e-01 1.088631e-01 4.719621e-01
v -5.341604e-01 1.091410e-01 4.782916e-01
v -5.319696e-01 1.087561e-01 4.841913e-01
v -5.284811e-01 1.070364e-01 4.892806e-01
v -5.256415e-01 1.059841e-01 4.947751e-01
v -5.234602e-01 1.056027e-01 5.006564e-01
v -5.206237e-01 1.045515e-01 5.061448e-01
v -5.164577e-01 1.021538e-01 5.108840e-01
v -6.007733e-01 9.779817e-02 2.441888e-01
v -5.982524e-01 9.729820e-02 2.507193e-01
v -5.946629e-01 9.553385e-02 2.560118e-01
v -5.916078e-01 9.440162e-02 2.619232e-01
v -5.880089e-01 9.263369e-02 2.672340e-01
v -5.849505e-01 9.150035e-02 2.731517e-01
v -5.813421e-01 8.972894e-02 2.784809e-01
v -5.777273e-01 8.795508e-02 2.838223e-01
v -5.752191e-01 8.745987e-02 2.903284e-01
v -5.732768e-01 8.760858e-02 2.973922e-01
v -5.702216e-01 8.647636e-02 3.033037e-01
v -5.677324e-01 8.598813e-02 3.097729e-01
v -5.652496e-01 8.550229e-02 3.162298e-01
v -5.622008e-01 8.437247e-02 3.221291e-01
v -5.585765e-01 8.259511e-02 3.274889e-01
v -5.555245e-01 8.146413e-02 3.333943e-01
v -5.530543e-01 8.098294e-02 3.398268e-01
v -5.523454e-01 8.245723e-02 3.478098e-01
v -5.516617e-01 8.394083e-02 3.557437e-01
v -5.515949e-01 8.608722e-02 3.641373e-01
v -5.509652e-01 8.759087e-02 3.719671e-01
v -5.491655e-01 8.779245e-02 3.787549e-01
v -5.479794e-01 8.865556e-02 3.860084e-01
v -5.486242e-01 9.150001e-02 3.946778e-01
v -5.480928e-01 9.304001e-02 4.023173e-01
v -5.475867e-01 9.458939e-02 4.099079e-01
v -5.477194e-01 9.680981e-02 4.179152e-01
v -5.478839e-01 9.904195e-02 4.258611e-01
v -5.480800e-01 1.012858e-01 4.337458e-01
v -5.483078e-01 1.035415e-01 4.415691e-01
v -5.479412e-01 1.051425e-01 4.488898e-01
v -5.475999e-01 1.067530e-01 4.561615e-01
v -5.472840e-01 1.083729e-01 4.633841e-01
v -5.457220e-01 1.086626e-01 4.697121e-01
v -5.448115e-01 1.096279e-01 4.764321e-01
v -5.445622e-01 1.112724e-01 4.835260e-01
v -5.430478e-01 1.115797e-01 4.897619e-01
v -5.383042e-01 1.085191e-01 4.939817e-01
v -6.091126e-01 9.786880e-02 2.505810e-01
v -6.066165e-01 9.738527e-02 2.570555e-01
v -6.030593e-01 9.562560e-02 2.622936e-01
v -5.989589e-01 9.322309e-02 2.669379e-01
v -5.948459e-01 9.081587e-02 2.716066e-01
v -5.912633e-01 8.904676e-02 2.768938e-01
v -5.882208e-01 8.791924e-02 2.827808e-01
v -5.846288e-01 8.614669e-02 2.880862e-01
v -5.821358e-01 8.566431e-02 2.945547e-01
v -5.802052e-01 8.583185e-02 3.015800e-01
v -5.777281e-01 8.535538e-02 3.080178e-01
v -5.758195e-01 8.553105e-02 3.150002e-01
v -5.739238e-01 8.571154e-02 3.219581e-01
v -5.709034e-01 8.459224e-02 3.278022e-01
v -5.673114e-01 8.281958e-02 3.331076e-01
v -5.642879e-01 8.169917e-02 3.389578e-01
v -5.635768e-01 8.320158e-02 3.469131e-01
v -5.628909e-01 8.471343e-02 3.548193e-01
v -5.616461e-01 8.557662e-02 3.621625e-01
v -5.615954e-01 8.776535e-02 3.704847e-01
v -5.609857e-01 8.930534e-02 3.782438e-01
v -5.598073e-01 9.019313e-02 3.854582e-01
v -5.586480e-01 9.108800e-02 3.926357e-01
v -5.581080e-01 9.265387e-02 4.002599e-01
v -5.569900e-01 9.356401e-02 4.073577e-01
v -5.564975e-01 9.514745e-02 4.148899e-01
v -5.566401e-01 9.740779e-02 4.228380e-01
v -5.574274e-01 1.003486e-01 4.311836e-01
v -5.582526e-01 1.033033e-01 4.394556e-01
v -5.584967e-01 1.056012e-01 4.472074e-01
v -5.581500e-01 1.072387e-01 4.544575e-01
v -5.578287e-01 1.088857e-01 4.616585e-01
v -5.562751e-01 1.091929e-01 4.679541e-01
v -5.547342e-01 1.095049e-01 4.742253e-01
v -5.532060e-01 1.098215e-01 4.804718e-01
v -5.523288e-01 1.108210e-01 4.871037e-01
v -5.501876e-01 1.104689e-01 4.928914e-01
v -6.128063e-01 9.500215e-02 2.609075e-01
v -6.087387e-01 9.259734e-02 2.655043e-01
v -6.046585e-01 9.018774e-02 2.701257e-01
v -6.005656e-01 8.777351e-02 2.747715e-01
v -5.975389e-01 8.665186e-02 2.806278e-01
v -5.945122e-01 8.553025e-02 2.864841e-01
v -5.920315e-01 8.505964e-02 2.929210e-01
v -5.895570e-01 8.459143e-02 2.993458e-01
v -5.870889e-01 8.412559e-02 3.057582e-01
v -5.851824e-01 8.431650e-02 3.127207e-01
v -5.838471e-01 8.516797e-02 3.202148e-01
v -5.825308e-01 8.602639e-02 3.276720e-01
v -5.801039e-01 8.557585e-02 3.340048e-01
v -5.776833e-01 8.512752e-02 3.403251e-01
v -5.752690e-01 8.468156e-02 3.466334e-01
v -5.745841e-01 8.622280e-02 3.545058e-01
v -5.733471e-01 8.711065e-02 3.618098e-01
v -5.715484e-01 8.734153e-02 3.685637e-01
v -5.703462e-01 8.824233e-02 3.758002e-01
v -5.697502e-01 8.981637e-02 3.835009e-01
v -5.685891e-01 9.073237e-02 3.906576e-01
v -5.674472e-01 9.165547e-02 3.977776e-01
v -5.663242e-01 9.258553e-02 4.048608e-01
v -5.652203e-01 9.352271e-02 4.119072e-01
v -5.647383e-01 9.513904e-02 4.193872e-01
v -5.648876e-01 9.743817e-02 4.272822e-01
v -5.656779e-01 1.004235e-01 4.355739e-01
v -5.677310e-01 1.047743e-01 4.446958e-01
v -5.686036e-01 1.077902e-01 4.528281e-01
v -5.676581e-01 1.087860e-01 4.595679e-01
v -5.667317e-01 1.097890e-01 4.662709e-01
v -5.645741e-01 1.094382e-01 4.720824e-01
v -5.624229e-01 1.090897e-01 4.778816e-01
v -5.594087e-01 1.097677e-01 4.902611e-01
v -5.553696e-01 1.073734e-01 4.948028e-01
v -6.179127e-01 9.137807e-02 2.635180e-01
v -6.138621e-01 8.896501e-02 2.680980e-01
v -6.103281e-01 8.719941e-02 2.733070e-01
v -6.067880e-01 8.543150e-02 2.785282e-01
v -6.032414e-01 8.366122e-02 2.837617e-01
v -6.013053e-01 8.385574e-02 2.907656e-01
v -5.982977e-01 8.274118e-02 2.965850e-01
v -5.958354e-01 8.228468e-02 3.029783e-01
v -5.939277e-01 8.248978e-02 3.099268e-01
v -5.920329e-01 8.269957e-02 3.168509e-01
v -5.912601e-01 8.423721e-02 3.248611e-01
v -5.899549e-01 8.512153e-02 3.322730e-01
v -5.886687e-01 8.601294e-02 3.396483e-01
v -5.862729e-01 8.558107e-02 3.459127e-01
v -5.855858e-01 8.715048e-02 3.537573e-01
v -5.843534e-01 8.806177e-02 3.610282e-01
v -5.825662e-01 8.831151e-02 3.677438e-01
v -5.807918e-01 8.856592e-02 3.744348e-01
v -5.796101e-01 8.949606e-02 3.816076e-01
v -5.784475e-01 9.043317e-02 3.887435e-01
v -5.767173e-01 9.070405e-02 3.953487e-01
v -5.755896e-01 9.165412e-02 4.024172e-01
v -5.744808e-01 9.261122e-02 4.094490e-01
v -5.727951e-01 9.289860e-02 4.159683e-01
v -5.717212e-01 9.386855e-02 4.229326e-01
v -5.718709e-01 9.620411e-02 4.307868e-01
v -5.738688e-01 1.005925e-01 4.399514e-01
v -5.771347e-01 1.063628e-01 4.499200e-01
v -5.764767e-01 1.097670e-01 4.642234e-01
v -5.749495e-01 1.101130e-01 4.704361e-01
v -5.734350e-01 1.104638e-01 4.766243e-01
v -5.681859e-01 1.066946e-01 4.802654e-01
v -6.224773e-01 8.713354e-02 2.655079e-01
v -6.184405e-01 8.471105e-02 2.700772e-01
v -6.149167e-01 8.294200e-02 2.752748e-01
v -6.119154e-01 8.182978e-02 2.810820e-01
v -6.089141e-01 8.071757e-02 2.868893e-01
v -6.069832e-01 8.092852e-02 2.938669e-01
v -6.045266e-01 8.048138e-02 3.002409e-01
v -6.015349e-01 7.937268e-02 3.060298e-01
v -5.996325e-01 7.959425e-02 3.129522e-01
v -5.988386e-01 8.115313e-02 3.209715e-01
v -5.980700e-01 8.272130e-02 3.289418e-01
v -5.967726e-01 8.363025e-02 3.363145e-01
v -5.954942e-01 8.454627e-02 3.436504e-01
v -5.936742e-01 8.479834e-02 3.504134e-01
v -5.924306e-01 8.572728e-02 3.576819e-01
v -5.912062e-01 8.666331e-02 3.649137e-01
v -5.900006e-01 8.760630e-02 3.721085e-01
v -5.888141e-01 8.855635e-02 3.792666e-01
v -5.876466e-01 8.951348e-02 3.863879e-01
v -5.859186e-01 8.979962e-02 3.929731e-01
v -5.847860e-01 9.076973e-02 4.000270e-01
v -5.830864e-01 9.106640e-02 4.065570e-01
v -5.813996e-01 9.136779e-02 4.130625e-01
v -5.791332e-01 9.099120e-02 4.190685e-01
v -5.780639e-01 9.198472e-02 4.259997e-01
v -5.788094e-01 9.504052e-02 4.342819e-01
v -5.820001e-01 1.008555e-01 4.443160e-01
v -6.230040e-01 8.048060e-02 2.720532e-01
v -6.194902e-01 7.870800e-02 2.772393e-01
v -6.164953e-01 7.759813e-02 2.830343e-01
v -6.140287e-01 7.715454e-02 2.894198e-01
v -6.120998e-01 7.738079e-02 2.963774e-01
v -6.101837e-01 7.761171e-02 3.033105e-01
v -6.077424e-01 7.717755e-02 3.096471e-01
v -6.058484e-01 7.741673e-02 3.165372e-01
v -6.050556e-01 7.900490e-02 3.245226e-01
v -6.042878e-01 8.060250e-02 3.324590e-01
v -6.029951e-01 8.153495e-02 3.397986e-01
v -6.022750e-01 8.315017e-02 3.476430e-01
v -6.004666e-01 8.342104e-02 3.543676e-01
v -5.986708e-01 8.369656e-02 3.610677e-01
v -5.974510e-01 8.465610e-02 3.682664e-01
v -5.962501e-01 8.562257e-02 3.754281e-01
v -5.956378e-01 8.727770e-02 3.830641e-01
v -5.944781e-01 8.825946e-02 3.901461e-01
v -5.933375e-01 8.924830e-02 3.971915e-01
v -5.916368e-01 8.955909e-02 4.037076e-01
v -5.893667e-01 8.918835e-02 4.097129e-01
v -5.871029e-01 8.881997e-02 4.157059e-01
v -5.854340e-01 8.914254e-02 4.221607e-01
v -5.843694e-01 9.015952e-02 4.290588e-01
v -5.851084e-01 9.325651e-02 4.373056e-01
v -5.882776e-01 9.913599e-02 4.473010e-01
v -5.921113e-01 1.057324e-01 4.576234e-01
v -6.265225e-01 7.493639e-02 2.728099e-01
v -6.235307e-01 7.382767e-02 2.785987e-01
v -6.210603e-01 7.339004e-02 2.849834e-01
v -6.191209e-01 7.362684e-02 2.919456e-01
v -6.171941e-01 7.386832e-02 2.988832e-01
v -6.147491e-01 7.344007e-02 3.052189e-01
v -6.128445e-01 7.368975e-02 3.121135e-01
v -6.114899e-01 7.462108e-02 3.195489e-01
v -6.112350e-01 7.691545e-02 3.280657e-01
v -6.099248e-01 7.786314e-02 3.354153e-01
v -6.091803e-01 7.949838e-02 3.432748e-01
v -6.079112e-01 8.046134e-02 3.505446e-01
v -6.061080e-01 8.074867e-02 3.572431e-01
v -6.043175e-01 8.104065e-02 3.639170e-01
v -6.036586e-01 8.270755e-02 3.716110e-01
v -6.035876e-01 8.507004e-02 3.797720e-01
v -6.029826e-01 8.675694e-02 3.873619e-01
v -6.018339e-01 8.776456e-02 3.943986e-01
v -6.007042e-01 8.877925e-02 4.013986e-01
v -5.990184e-01 8.911000e-02 4.078702e-01
v -5.961883e-01 8.806121e-02 4.133463e-01
v -5.933581e-01 8.701242e-02 4.188224e-01
v -5.911128e-01 8.665813e-02 4.247717e-01
v -5.900496e-01 8.769744e-02 4.316429e-01
v -5.907790e-01 9.083434e-02 4.398603e-01
v -5.933293e-01 9.607931e-02 4.493684e-01
v -6.007163e-01 1.069388e-01 4.623557e-01
v -6.280781e-01 6.963485e-02 2.805576e-01
v -6.261281e-01 6.988223e-02 2.875243e-01
v -6.241907e-01 7.013436e-02 2.944666e-01
v -6.217420e-01 6.971184e-02 3.008014e-01
v -6.192995e-01 6.929179e-02 3.071239e-01
v -6.179243e-01 7.023718e-02 3.145753e-01
v -6.176350e-01 7.255508e-02 3.231187e-01
v -6.168407e-01 7.420083e-02 3.310425e-01
v -6.166116e-01 7.654107e-02 3.394694e-01
v -6.158713e-01 7.820680e-02 3.472890e-01
v -6.146100e-01 7.919441e-02 3.545195e-01
v -6.128184e-01 7.950051e-02 3.611796e-01
v -6.110395e-01 7.981130e-02 3.678152e-01
v -6.103846e-01 8.150874e-02 3.754692e-01
v -6.108729e-01 8.459983e-02 3.841048e-01
v -6.102751e-01 8.631835e-02 3.916484e-01
v -6.102679e-01 8.874080e-02 3.996460e-01
v -6.091556e-01 8.978366e-02 4.065884e-01
v -6.063476e-01 8.874309e-02 4.120216e-01
v -6.029650e-01 8.700452e-02 4.169701e-01
v -6.001539e-01 8.596279e-02 4.224094e-01
v -5.973428e-01 8.492105e-02 4.278487e-01
v -5.957000e-01 8.528232e-02 4.342205e-01
v -5.958323e-01 8.775645e-02 4.419484e-01
v -5.977680e-01 9.235392e-02 4.509769e-01
v -6.050981e-01 1.033157e-01 4.639383e-01
v -6.306596e-01 6.572700e-02 2.894662e-01
v -6.287210e-01 6.599313e-02 2.963945e-01
v -6.262750e-01 6.557892e-02 3.027163e-01
v -6.248821e-01 6.653956e-02 3.101775e-01
v -6.240349e-01 6.819469e-02 3.181718e-01
v -6.237428e-01 7.054786e-02 3.266804e-01
v -6.240154e-01 7.360253e-02 3.356853e-01
v -6.237899e-01 7.598033e-02 3.440653e-01
v -6.230568e-01 7.767775e-02 3.518387e-01
v -6.212641e-01 7.799798e-02 3.584849e-01
v -6.183927e-01 7.693393e-02 3.640407e-01
v -6.171678e-01 7.795677e-02 3.711769e-01
v -6.165139e-01 7.968353e-02 3.787970e-01
v -6.169957e-01 8.281578e-02 3.873972e-01
v -6.175155e-01 8.596206e-02 3.959238e-01
v -6.175119e-01 8.842212e-02 4.038744e-01
v -6.158459e-01 8.878923e-02 4.102753e-01
v -6.124891e-01 8.705302e-02 4.151817e-01
v -6.091260e-01 8.531449e-02 4.201003e-01
v -6.063307e-01 8.427858e-02 4.255090e-01
v -6.035354e-01 8.324272e-02 4.309176e-01
v -6.019012e-01 8.362158e-02 4.372572e-01
v -6.014469e-01 8.542235e-02 4.444910e-01
v -6.010180e-01 8.723255e-02 4.516757e-01
v -6.313096e-01 6.216037e-02 3.052092e-01
v -6.309545e-01 6.452647e-02 3.137998e-01
v -6.316770e-01 6.829091e-02 3.234670e-01
v -6.313917e-01 7.068284e-02 3.319226e-01
v -6.316672e-01 7.378207e-02 3.408735e-01
v -6.314484e-01 7.619867e-02 3.492005e-01
v -6.307257e-01 7.792894e-02 3.569216e-01
v -6.278734e-01 7.687195e-02 3.624407e-01
v -6.244792e-01 7.511460e-02 3.674275e-01
v -6.227138e-01 7.545940e-02 3.740047e-01
v -6.220577e-01 7.721438e-02 3.815970e-01
v -6.230813e-01 8.109037e-02 3.906816e-01
v -6.252584e-01 8.639293e-02 4.006955e-01
v -6.208087e-01 8.574303e-02 4.124666e-01
v -6.180292e-01 8.471302e-02 4.178447e-01
v -6.113295e-01 8.123115e-02 4.276467e-01
v -6.079701e-01 7.948674e-02 4.325661e-01
v -6.057579e-01 7.916648e-02 4.384272e-01
v -6.385378e-01 6.466615e-02 3.191368e-01
v -6.371827e-01 6.568433e-02 3.264768e-01
v -6.389808e-01 7.091169e-02 3.371518e-01
v -6.392594e-01 7.405566e-02 3.460490e-01
v -6.333680e-01 7.440635e-02 3.653118e-01
v -6.299901e-01 7.264782e-02 3.702750e-01
v -6.287715e-01 7.371648e-02 3.773512e-01
v -6.281162e-01 7.550083e-02 3.849097e-01
v -6.302249e-01 8.084332e-02 3.949838e-01
v -6.388328e-01 7.198775e-02 3.681765e-01
v -6.354713e-01 7.022800e-02 3.731159e-01
