v -4.300875e-01 1.915279e-01 2.046113e-01
v -4.217998e-01 1.897165e-01 1.997437e-01
v -4.125576e-01 1.889903e-01 1.997437e-01
v -4.411827e-01 1.820342e-01 2.012295e-01
v -4.313593e-01 1.819788e-01 2.041445e-01
v -4.221311e-01 1.812536e-01 2.041445e-01
v -4.125480e-01 1.809782e-01 2.060878e-01
v -4.507208e-01 1.743015e-01 2.056282e-01
v -4.412867e-01 1.738058e-01 2.065981e-01
v -4.310988e-01 1.742331e-01 2.114471e-01
v -4.213506e-01 1.742038e-01 2.143565e-01
v -4.118222e-01 1.739462e-01 2.162961e-01
v -3.813634e-01 1.762187e-01 2.347221e-01
v -3.717373e-01 1.764446e-01 2.386014e-01
v -3.623101e-01 1.764406e-01 2.415108e-01
v -3.181111e-01 1.906485e-01 3.113361e-01
v -3.089877e-01 1.914051e-01 3.171549e-01
v -3.005553e-01 1.907425e-01 3.171549e-01
v -4.512141e-01 1.656328e-01 2.090518e-01
v -4.411881e-01 1.658543e-01 2.129234e-01
v -4.304480e-01 1.670292e-01 2.206669e-01
v -4.203761e-01 1.674994e-01 2.255066e-01
v -4.107310e-01 1.674986e-01 2.284106e-01
v -3.904147e-01 1.691827e-01 2.409938e-01
v -3.801563e-01 1.703953e-01 2.487374e-01
v -3.701601e-01 1.713763e-01 2.555129e-01
v -3.598309e-01 1.730881e-01 2.651924e-01
v -3.488215e-01 1.762604e-01 2.806794e-01
v -3.180590e-01 1.839369e-01 3.193970e-01
v -3.090830e-01 1.844933e-01 3.242367e-01
v -3.004821e-01 1.843221e-01 3.261725e-01
v -4.510854e-01 1.577061e-01 2.153697e-01
v -4.404853e-01 1.586869e-01 2.221322e-01
v -4.294039e-01 1.604073e-01 2.317931e-01
v -4.193921e-01 1.609163e-01 2.366236e-01
v -3.887853e-01 1.639526e-01 2.569113e-01
v -3.786204e-01 1.652268e-01 2.646400e-01
v -3.681138e-01 1.672515e-01 2.752671e-01
v -3.571842e-01 1.702795e-01 2.897583e-01
v -3.266376e-01 1.774664e-01 3.255034e-01
v -3.175358e-01 1.783059e-01 3.312999e-01
v -3.087361e-01 1.786509e-01 3.351643e-01
v -5.416132e-01 1.489805e-01 1.927459e-01
v -5.322315e-01 1.482433e-01 1.927459e-01
v -5.040861e-01 1.460317e-01 1.927459e-01
v -4.935273e-01 1.465314e-01 1.975671e-01
v -4.739478e-01 1.460565e-01 2.014241e-01
v -4.607683e-01 1.498069e-01 2.187802e-01
v -4.503301e-01 1.505820e-01 2.245655e-01
v -4.391735e-01 1.523642e-01 2.342078e-01
v -4.281566e-01 1.541574e-01 2.438502e-01
v -4.180255e-01 1.549566e-01 2.496354e-01
v -3.974968e-01 1.573319e-01 2.640989e-01
v -3.869755e-01 1.591640e-01 2.737412e-01
v -3.765938e-01 1.610071e-01 2.833836e-01
v -3.655934e-01 1.641311e-01 2.978470e-01
v -3.546579e-01 1.675259e-01 3.132746e-01
v -3.348946e-01 1.715566e-01 3.335234e-01
v -3.257896e-01 1.724366e-01 3.393089e-01
v -3.168852e-01 1.730663e-01 3.441300e-01
v -3.083798e-01 1.729297e-01 3.460584e-01
v -5.505945e-01 1.416748e-01 1.990900e-01
v -5.412407e-01 1.409398e-01 1.990900e-01
v -5.313591e-01 1.407087e-01 2.010148e-01
v -5.220192e-01 1.399748e-01 2.010148e-01
v -5.121795e-01 1.397469e-01 2.029394e-01
v -5.018819e-01 1.400284e-01 2.067890e-01
v -4.925838e-01 1.392978e-01 2.067890e-01
v -4.825990e-01 1.393312e-01 2.096760e-01
v -4.711021e-01 1.411544e-01 2.192999e-01
v -4.595298e-01 1.432443e-01 2.298858e-01
v -4.489432e-01 1.443211e-01 2.366225e-01
v -4.380522e-01 1.459192e-01 2.452839e-01
v -4.270929e-01 1.477847e-01 2.549075e-01
v -4.166472e-01 1.491452e-01 2.626067e-01
v -3.955717e-01 1.526696e-01 2.808916e-01
v -3.849836e-01 1.548369e-01 2.914777e-01
v -3.745492e-01 1.570163e-01 3.020640e-01
v -3.636596e-01 1.602505e-01 3.164996e-01
v -3.335596e-01 1.674284e-01 3.501825e-01
v -3.243077e-01 1.688827e-01 3.578815e-01
v -3.154020e-01 1.698189e-01 3.636558e-01
v -3.074624e-01 1.686497e-01 3.617311e-01
v -5.606570e-01 1.333906e-01 2.015771e-01
v -5.510249e-01 1.329131e-01 2.025375e-01
v -5.408639e-01 1.329530e-01 2.054190e-01
v -5.307447e-01 1.329961e-01 2.083006e-01
v -5.211824e-01 1.325242e-01 2.092612e-01
v -5.106321e-01 1.330924e-01 2.140638e-01
v -4.996649e-01 1.341866e-01 2.207874e-01
v -4.897412e-01 1.342452e-01 2.236690e-01
v -4.796301e-01 1.345683e-01 2.275109e-01
v -4.689071e-01 1.356818e-01 2.342346e-01
v -4.578507e-01 1.373279e-01 2.428793e-01
v -4.471287e-01 1.387209e-01 2.505635e-01
v -4.367198e-01 1.398590e-01 2.572870e-01
v -4.262142e-01 1.412690e-01 2.649712e-01
v -4.156326e-01 1.429523e-01 2.736158e-01
v -3.938044e-01 1.479435e-01 2.966683e-01
v -3.834749e-01 1.499262e-01 3.062733e-01
v -3.728060e-01 1.527205e-01 3.187602e-01
v -3.410558e-01 1.628000e-01 3.619833e-01
v -3.312865e-01 1.653856e-01 3.735097e-01
v -3.219344e-01 1.674451e-01 3.831148e-01
v -5.619374e-01 1.238438e-01 2.021468e-01
v -5.517330e-01 1.239006e-01 2.050227e-01
v -5.404828e-01 1.250200e-01 2.117334e-01
v -5.295953e-01 1.258817e-01 2.174853e-01
v -5.200812e-01 1.254204e-01 2.184441e-01
v -5.093263e-01 1.262925e-01 2.241960e-01
v -4.981672e-01 1.277053e-01 2.318652e-01
v -4.875938e-01 1.285917e-01 2.376172e-01
v -4.773342e-01 1.292165e-01 2.424105e-01
v -4.669213e-01 1.301156e-01 2.481626e-01
v -4.563761e-01 1.312904e-01 2.548732e-01
v -4.457196e-01 1.327427e-01 2.625425e-01
v -4.349727e-01 1.344740e-01 2.711703e-01
v -4.249368e-01 1.354027e-01 2.769224e-01
v -4.036669e-01 1.394554e-01 2.960955e-01
v -3.927190e-01 1.423158e-01 3.085581e-01
v -3.821196e-01 1.449174e-01 3.200620e-01
v -3.592783e-01 1.539983e-01 3.564912e-01
v -3.485480e-01 1.580207e-01 3.727885e-01
v -3.388907e-01 1.604101e-01 3.833338e-01
v -3.297839e-01 1.619841e-01 3.910030e-01
v -5.617880e-01 1.156225e-01 2.075079e-01
v -5.507647e-01 1.165141e-01 2.132487e-01
v -5.392802e-01 1.179556e-01 2.209033e-01
v -5.279076e-01 1.194057e-01 2.285577e-01
v -5.174219e-01 1.200467e-01 2.333418e-01
v -5.067545e-01 1.209663e-01 2.390825e-01
v -4.961710e-01 1.218926e-01 2.448233e-01
v -4.856712e-01 1.228254e-01 2.505643e-01
v -4.752551e-01 1.237648e-01 2.563050e-01
v -4.653700e-01 1.241600e-01 2.601323e-01
v -4.551075e-01 1.251114e-01 2.658730e-01
v -4.443000e-01 1.268990e-01 2.744844e-01
v -4.334155e-01 1.289734e-01 2.840523e-01
v -4.234532e-01 1.299485e-01 2.897933e-01
v -4.028714e-01 1.333119e-01 3.060590e-01
v -3.916230e-01 1.368226e-01 3.204109e-01
v -3.789067e-01 1.431478e-01 3.443311e-01
v -3.662179e-01 1.500612e-01 3.701649e-01
v -3.563663e-01 1.525098e-01 3.806896e-01
v -3.465215e-01 1.552519e-01 3.921714e-01
v -3.376831e-01 1.563153e-01 3.979121e-01
v -5.604877e-01 1.085504e-01 2.166779e-01
v -5.489503e-01 1.100418e-01 2.243174e-01
v -5.375244e-01 1.115419e-01 2.319570e-01
v -5.259443e-01 1.133298e-01 2.405516e-01
v -5.150078e-01 1.145686e-01 2.472361e-01
v -5.046730e-01 1.152553e-01 2.520109e-01
v -4.941631e-01 1.162280e-01 2.577407e-01
v -4.839749e-01 1.169262e-01 2.625154e-01
v -4.738567e-01 1.176299e-01 2.672902e-01
v -4.638081e-01 1.183390e-01 2.720649e-01
v -4.538293e-01 1.190537e-01 2.768397e-01
v -4.432901e-01 1.206235e-01 2.844793e-01
v -4.322529e-01 1.230535e-01 2.949837e-01
v -4.221541e-01 1.243582e-01 3.016684e-01
v -4.011563e-01 1.287032e-01 3.207673e-01
v -3.891145e-01 1.337520e-01 3.398662e-01
v -3.751646e-01 1.425475e-01 3.713795e-01
v -3.637720e-01 1.476473e-01 3.904785e-01
v -3.548187e-01 1.487423e-01 3.962083e-01
v -3.456544e-01 1.504202e-01 4.038479e-01
v -5.583177e-01 1.024243e-01 2.286810e-01
v -5.462849e-01 1.045440e-01 2.382120e-01
v -5.352121e-01 1.058196e-01 2.448835e-01
v -5.242370e-01 1.071028e-01 2.515551e-01
v -5.138786e-01 1.078215e-01 2.563206e-01
v -5.035901e-01 1.085457e-01 2.610861e-01
v -4.931258e-01 1.095626e-01 2.668046e-01
v -4.832225e-01 1.100105e-01 2.706170e-01
v -4.729118e-01 1.110394e-01 2.763356e-01
v -4.622356e-01 1.126527e-01 2.839604e-01
v -4.518887e-01 1.139853e-01 2.906320e-01
v -4.416396e-01 1.153256e-01 2.973037e-01
v -4.310808e-01 1.172547e-01 3.058816e-01
v -4.101506e-01 1.214339e-01 3.239903e-01
v -3.981482e-01 1.263147e-01 3.420990e-01
v -3.720702e-01 1.411242e-01 3.945192e-01
v -3.629240e-01 1.425512e-01 4.011909e-01
v -3.540303e-01 1.436915e-01 4.069093e-01
v -3.452204e-01 1.448383e-01 4.126279e-01
v -6.249346e-01 1.059116e-01 2.530131e-01
v -6.158669e-01 1.051991e-01 2.530131e-01
v -6.084486e-01 1.030497e-01 2.482570e-01
v -5.977316e-01 1.037741e-01 2.530131e-01
v -5.632309e-01 9.918332e-02 2.473056e-01
v -5.538332e-01 9.875821e-02 2.482570e-01
v -5.433258e-01 9.949903e-02 2.530131e-01
v -5.328880e-01 1.002453e-01 2.577693e-01
v -5.222531e-01 1.012894e-01 2.634766e-01
v -5.122220e-01 1.017544e-01 2.672817e-01
v -5.019936e-01 1.025171e-01 2.720379e-01
v -4.915890e-01 1.035793e-01 2.777453e-01
v -4.815072e-01 1.043536e-01 2.825015e-01
v -4.714953e-01 1.051334e-01 2.872577e-01
v -4.611029e-01 1.065098e-01 2.939163e-01
v -4.505899e-01 1.081901e-01 3.015262e-01
v -4.401888e-01 1.098792e-01 3.091361e-01
v -4.296951e-01 1.118742e-01 3.176971e-01
v -3.697990e-01 1.384971e-01 4.128210e-01
v -3.614172e-01 1.387784e-01 4.156747e-01
v -3.529217e-01 1.393640e-01 4.194795e-01
v -6.273433e-01 9.570326e-02 2.506772e-01
v -6.175661e-01 9.557514e-02 2.525760e-01
v -6.078167e-01 9.544916e-02 2.544746e-01
v -5.977718e-01 9.562009e-02 2.573229e-01
v -5.880854e-01 9.549905e-02 2.592215e-01
v -5.774983e-01 9.626748e-02 2.639684e-01
v -5.669812e-01 9.704141e-02 2.687153e-01
v -5.586022e-01 9.574293e-02 2.668167e-01
v -5.496183e-01 9.503700e-02 2.668167e-01
v -5.400714e-01 9.492692e-02 2.687153e-01
v -5.300032e-01 9.541609e-02 2.725130e-01
v -5.194559e-01 9.650768e-02 2.782091e-01
v -5.095134e-01 9.700673e-02 2.820068e-01
v -4.996268e-01 9.751009e-02 2.858042e-01
v -4.900427e-01 9.771724e-02 2.886524e-01
v -4.802607e-01 9.822883e-02 2.924498e-01
v -4.700693e-01 9.934842e-02 2.981461e-01
v -4.597360e-01 1.007769e-01 3.047918e-01
v -4.495004e-01 1.022131e-01 3.114376e-01
v -4.389392e-01 1.042638e-01 3.199819e-01
v -4.272750e-01 1.081483e-01 3.342226e-01
v -3.675099e-01 1.360988e-01 4.310595e-01
v -6.245842e-01 8.992371e-02 2.625727e-01
v -6.145378e-01 9.011482e-02 2.654153e-01
v -6.038713e-01 9.091087e-02 2.701529e-01
v -5.932748e-01 9.171241e-02 2.748905e-01
v -5.827480e-01 9.251944e-02 2.796281e-01
v -5.729109e-01 9.272699e-02 2.824707e-01
v -5.640248e-01 9.202875e-02 2.824707e-01
v -5.551386e-01 9.133049e-02 2.824707e-01
v -5.462524e-01 9.063225e-02 2.824707e-01
v -5.365202e-01 9.084800e-02 2.853132e-01
v -5.271047e-01 9.076188e-02 2.872083e-01
v -5.169130e-01 9.159524e-02 2.919460e-01
v -5.075745e-01 9.151510e-02 2.938410e-01
v -4.980096e-01 9.174405e-02 2.966836e-01
v -4.884868e-01 9.197626e-02 2.995261e-01
v -4.785254e-01 9.282774e-02 3.042638e-01
v -4.684007e-01 9.399317e-02 3.099488e-01
v -4.583596e-01 9.516524e-02 3.156341e-01
v -4.479638e-01 9.696308e-02 3.232143e-01
v -4.359819e-01 1.012509e-01 3.383746e-01
v -6.214691e-01 8.458522e-02 2.753766e-01
v -6.104826e-01 8.572360e-02 2.810506e-01
v -5.989169e-01 8.748372e-02 2.886161e-01
v -5.881118e-01 8.863635e-02 2.942901e-01
v -5.783430e-01 8.886954e-02 2.971270e-01
v -5.692371e-01 8.848763e-02 2.980727e-01
v -5.595381e-01 8.872638e-02 3.009098e-01
v -5.507706e-01 8.803746e-02 3.009098e-01
v -5.428718e-01 8.641593e-02 2.980727e-01
v -5.343660e-01 8.541396e-02 2.971270e-01
v -5.250193e-01 8.534678e-02 2.990185e-01
v -5.148948e-01 8.621929e-02 3.037468e-01
v -5.053633e-01 8.647116e-02 3.065838e-01
v -4.961283e-01 8.641272e-02 3.084752e-01
v -4.861783e-01 8.729895e-02 3.132035e-01
v -4.762980e-01 8.819062e-02 3.179318e-01
v -4.664876e-01 8.908780e-02 3.226602e-01
v -4.569737e-01 8.967463e-02 3.264428e-01
v -4.459773e-01 9.248032e-02 3.368452e-01
v -4.050999e-01 1.279671e-01 4.465428e-01
v -3.926358e-01 1.349943e-01 4.692388e-01
v -3.833843e-01 1.372699e-01 4.777499e-01
v -6.272216e-01 8.009252e-02 2.881398e-01
v -6.169586e-01 8.064766e-02 2.919152e-01
v -6.060736e-01 8.183461e-02 2.975780e-01
v -5.939444e-01 8.428536e-02 3.070161e-01
v -5.835798e-01 8.517286e-02 3.117352e-01
v -5.748752e-01 8.448888e-02 3.117352e-01
v -5.652374e-01 8.475272e-02 3.145666e-01
v -5.556416e-01 8.501989e-02 3.173982e-01
v -5.466816e-01 8.465623e-02 3.183420e-01
v -5.380258e-01 8.397608e-02 3.183420e-01
v -5.302194e-01 8.234154e-02 3.155105e-01
v -5.215426e-01 8.165975e-02 3.155105e-01
v -5.123276e-01 8.161641e-02 3.173982e-01
v -5.028783e-01 8.189506e-02 3.202296e-01
v -4.929605e-01 8.281767e-02 3.249487e-01
v -4.841054e-01 8.246221e-02 3.258924e-01
v -4.742992e-01 8.339358e-02 3.306114e-01
v -4.283057e-01 1.230082e-01 4.504758e-01
v -4.175431e-01 1.269278e-01 4.636891e-01
v -4.007309e-01 1.283298e-01 4.712396e-01
v -3.914118e-01 1.306610e-01 4.797340e-01
v -3.827954e-01 1.320263e-01 4.853968e-01
v -6.240063e-01 7.504414e-02 3.008624e-01
v -6.131251e-01 7.627203e-02 3.065140e-01
v -5.999513e-01 7.974987e-02 3.187594e-01
v -5.876239e-01 8.259995e-02 3.291209e-01
v -5.783799e-01 8.256789e-02 3.310049e-01
v -5.707566e-01 8.092741e-02 3.281790e-01
v -5.621565e-01 8.025164e-02 3.281790e-01
v -5.529475e-01 8.022238e-02 3.300630e-01
v -5.440638e-01 7.987143e-02 3.310049e-01
v -5.354848e-01 7.919732e-02 3.310049e-01
v -5.271894e-01 7.819839e-02 3.300630e-01
v -5.186034e-01 7.752372e-02 3.300630e-01
v -5.097478e-01 7.717499e-02 3.310049e-01
v -5.011688e-01 7.650088e-02 3.310049e-01
v -4.915668e-01 7.713505e-02 3.347728e-01
v -4.358617e-01 1.171938e-01 4.553433e-01
v -4.268373e-01 1.185675e-01 4.609949e-01
v -4.174550e-01 1.206075e-01 4.685306e-01
v -4.083983e-01 1.223260e-01 4.751243e-01
v -3.994393e-01 1.240521e-01 4.817181e-01
v -3.909778e-01 1.251230e-01 4.864279e-01
v -3.833576e-01 1.248714e-01 4.873697e-01
v -6.037259e-01 7.729808e-02 3.361062e-01
v -5.921077e-01 7.957055e-02 3.445672e-01
v -5.826133e-01 7.988624e-02 3.473874e-01
v -5.738129e-01 7.954870e-02 3.483276e-01
v -5.647076e-01 7.954105e-02 3.502077e-01
v -5.559420e-01 7.920625e-02 3.511479e-01
v -5.481059e-01 7.788265e-02 3.492677e-01
v -5.393474e-01 7.754833e-02 3.502077e-01
v -5.306028e-01 7.721517e-02 3.511479e-01
v -5.230090e-01 7.555669e-02 3.483276e-01
v -5.150961e-01 7.422706e-02 3.464474e-01
v -5.068851e-01 7.322789e-02 3.455072e-01
v -4.465224e-01 1.180346e-01 4.771214e-01
v -4.392537e-01 1.171096e-01 4.761814e-01
v -4.324416e-01 1.155125e-01 4.733611e-01
v -4.239894e-01 1.162640e-01 4.771214e-01
v -4.151503e-01 1.176931e-01 4.827621e-01
v -4.070381e-01 1.181174e-01 4.855824e-01
v -3.989677e-01 1.185451e-01 4.884027e-01
v -3.907389e-01 1.193142e-01 4.921630e-01
v -3.825658e-01 1.200877e-01 4.959235e-01
v -6.054878e-01 7.670836e-02 3.580849e-01
v -5.949911e-01 7.804777e-02 3.637144e-01
v -5.862811e-01 7.772403e-02 3.646525e-01
v -5.779184e-01 7.706692e-02 3.646525e-01
v -5.689026e-01 7.707987e-02 3.665290e-01
v -5.602343e-01 7.675949e-02 3.674674e-01
v -5.490791e-01 7.912919e-02 3.759115e-01
v -5.404946e-01 7.881536e-02 3.768497e-01
v -5.316253e-01 7.883984e-02 3.787262e-01
v -5.173872e-01 7.483545e-02 3.712203e-01
v -5.087957e-01 7.452109e-02 3.721586e-01
v -4.494669e-01 1.181930e-01 4.978834e-01
v -4.428449e-01 1.165906e-01 4.950687e-01
v -4.361810e-01 1.149848e-01 4.922540e-01
v -4.287678e-01 1.144023e-01 4.922540e-01
v -4.213544e-01 1.138198e-01 4.922540e-01
v -4.139412e-01 1.132373e-01 4.922540e-01
v -4.063130e-01 1.129986e-01 4.931921e-01
v -3.986988e-01 1.127610e-01 4.941303e-01
v -3.912995e-01 1.121795e-01 4.941303e-01
v -5.997345e-01 7.471012e-02 3.771764e-01
v -5.869239e-01 7.848063e-02 3.893495e-01
v -5.780467e-01 7.851804e-02 3.912223e-01
v -5.725383e-01 7.514539e-02 3.837311e-01
v -4.560753e-01 1.133980e-01 5.045253e-01
v -4.479669e-01 1.138633e-01 5.073344e-01
v -4.401507e-01 1.139841e-01 5.092073e-01
v -4.330925e-01 1.130620e-01 5.082709e-01
v -4.262567e-01 1.117899e-01 5.063981e-01
v -4.196223e-01 1.101662e-01 5.035890e-01
v -4.127236e-01 1.088892e-01 5.017162e-01
v -4.055816e-01 1.079605e-01 5.007797e-01
v -5.080110e-01 1.013794e-01 4.840472e-01
v -4.999075e-01 1.014911e-01 4.859162e-01
v -4.529237e-01 1.112721e-01 5.195595e-01
v -4.456849e-01 1.107033e-01 5.195595e-01
v -4.376936e-01 1.111981e-01 5.223631e-01
v -4.117205e-01 1.042920e-01 5.102142e-01
v -4.044120e-01 1.037177e-01 5.102142e-01
v -5.307633e-01 9.626794e-02 4.869751e-01
v -5.226239e-01 9.639042e-02 4.888405e-01
v -5.052000e-01 9.806941e-02 4.963019e-01
v -4.974725e-01 9.784319e-02 4.972344e-01
v -5.287018e-01 9.193471e-02 4.964149e-01
v -5.196521e-01 9.316258e-02 5.010690e-01
v -5.023774e-01 9.490750e-02 5.085156e-01
v -4.923199e-01 9.760735e-02 5.168931e-01
v -5.253148e-01 8.918399e-02 5.095412e-01
v -5.169907e-01 8.971360e-02 5.123281e-01
v -5.087083e-01 9.024645e-02 5.151148e-01
v -5.004680e-01 9.078263e-02 5.179017e-01
v -4.907629e-01 9.317657e-02 5.253336e-01
v -5.322195e-01 8.379249e-02 5.142787e-01
v -5.238937e-01 8.434226e-02 5.170599e-01
v -5.156099e-01 8.489533e-02 5.198413e-01
v -5.076836e-01 8.507517e-02 5.216955e-01
v -5.297399e-01 8.015291e-02 5.245567e-01
v -5.231269e-01 7.881705e-02 5.227062e-01
v -5.126062e-01 8.207144e-02 5.319587e-01
v -5.053884e-01 8.150428e-02 5.319587e-01
v -3.283316e-01 2.052052e-01 2.959377e-01
v -3.249120e-01 2.039380e-01 3.025544e-01
v -3.214924e-01 2.026707e-01 3.091711e-01
v -3.363248e-01 1.995314e-01 2.814808e-01
v -3.343327e-01 1.991974e-01 2.891538e-01
v -3.316300e-01 1.983980e-01 2.962927e-01
v -3.289337e-01 1.976009e-01 3.034191e-01
v -3.255140e-01 1.963336e-01 3.100358e-01
v -3.191632e-01 1.931717e-01 3.146869e-01
v -3.157310e-01 1.918998e-01 3.213281e-01
v -3.152552e-01 1.925319e-01 3.298860e-01
v -3.084159e-01 1.899974e-01 3.431193e-01
v -3.072420e-01 1.901687e-01 3.511183e-01
v -3.352734e-01 1.887731e-01 2.693787e-01
v -3.367954e-01 1.908026e-01 2.797425e-01
v -3.376455e-01 1.923738e-01 2.895052e-01
v -3.363749e-01 1.925310e-01 2.976672e-01
v -3.329553e-01 1.912638e-01 3.042839e-01
v -3.309875e-01 1.909532e-01 3.118941e-01
v -3.275741e-01 1.896883e-01 3.184985e-01
v -3.234285e-01 1.879427e-01 3.246184e-01
v -3.200121e-01 1.866766e-01 3.312291e-01
v -3.158572e-01 1.849275e-01 3.373674e-01
v -3.116958e-01 1.831761e-01 3.435180e-01
v -3.090179e-01 1.823930e-01 3.506007e-01
v -3.385957e-01 1.796780e-01 2.508992e-01
v -3.400125e-01 1.817193e-01 2.614105e-01
v -3.407673e-01 1.832987e-01 2.713095e-01
v -3.415601e-01 1.848922e-01 2.811349e-01
v -3.416783e-01 1.860190e-01 2.903723e-01
v -3.403966e-01 1.861939e-01 2.985320e-01
v -3.384150e-01 1.858927e-01 3.061528e-01
v -3.371680e-01 1.860805e-01 3.142451e-01
v -3.344894e-01 1.853044e-01 3.213209e-01
v -3.310889e-01 1.840443e-01 3.279007e-01
v -3.269567e-01 1.822964e-01 3.340032e-01
v -3.228181e-01 1.805461e-01 3.401178e-01
v -3.179352e-01 1.783033e-01 3.457794e-01
v -3.066425e-01 1.728188e-01 3.562702e-01
v -3.032102e-01 1.715469e-01 3.629114e-01
v -3.050326e-01 1.737385e-01 3.726378e-01
v -3.091609e-01 1.774344e-01 3.835822e-01
v -3.080534e-01 1.776739e-01 3.914047e-01
v -3.559375e-01 1.800960e-01 2.431740e-01
v -3.489956e-01 1.764042e-01 2.471801e-01
v -3.468955e-01 1.760737e-01 2.550140e-01
v -3.469063e-01 1.771970e-01 2.644190e-01
v -3.476514e-01 1.788162e-01 2.742886e-01
v -3.477287e-01 1.799642e-01 2.835650e-01
v -3.471289e-01 1.806374e-01 2.922666e-01
v -3.458424e-01 1.808322e-01 3.004115e-01
v -3.452900e-01 1.815230e-01 3.090210e-01
v -3.440447e-01 1.817331e-01 3.170864e-01
v -3.406536e-01 1.804765e-01 3.236479e-01
v -3.372625e-01 1.792198e-01 3.302094e-01
v -3.345993e-01 1.784567e-01 3.372476e-01
v -3.297491e-01 1.762116e-01 3.428617e-01
v -3.248863e-01 1.739618e-01 3.485004e-01
v -3.207484e-01 1.722045e-01 3.546221e-01
v -3.173446e-01 1.709431e-01 3.612081e-01
v -3.161720e-01 1.711802e-01 3.691323e-01
v -3.157656e-01 1.719250e-01 3.774597e-01
v -3.153843e-01 1.726792e-01 3.857380e-01
v -3.150286e-01 1.734429e-01 3.939674e-01
v -3.131853e-01 1.732075e-01 4.013045e-01
v -3.113545e-01 1.729767e-01 4.086172e-01
v -3.072483e-01 1.712312e-01 4.146774e-01
v -3.914863e-01 1.901651e-01 2.226017e-01
v -3.867292e-01 1.879400e-01 2.280518e-01
v -3.819595e-01 1.857102e-01 2.335267e-01
v -3.758173e-01 1.825096e-01 2.379022e-01
v -3.689669e-01 1.788153e-01 2.417713e-01
v -3.648294e-01 1.770510e-01 2.478999e-01
v -3.606855e-01 1.752842e-01 2.540405e-01
v -3.572278e-01 1.740029e-01 2.607309e-01
v -3.558574e-01 1.741883e-01 2.690145e-01
v -3.545057e-01 1.743808e-01 2.772614e-01
v -3.538750e-01 1.750716e-01 2.859903e-01
v -3.525646e-01 1.752793e-01 2.941575e-01
v -3.526899e-01 1.764813e-01 3.033010e-01
v -3.521355e-01 1.772003e-01 3.118828e-01
v -3.501768e-01 1.769367e-01 3.194269e-01
v -3.467953e-01 1.756836e-01 3.259700e-01
v -3.434137e-01 1.744305e-01 3.325131e-01
v -3.407562e-01 1.736767e-01 3.395321e-01
v -3.366504e-01 1.719242e-01 3.455993e-01
v -3.325383e-01 1.701691e-01 3.516787e-01
v -3.298873e-01 1.694179e-01 3.586856e-01
v -3.272425e-01 1.686688e-01 3.656800e-01
v -3.260842e-01 1.689330e-01 3.735529e-01
v -3.249449e-01 1.692041e-01 3.813888e-01
v -3.238247e-01 1.694824e-01 3.891881e-01
v -3.219738e-01 1.692587e-01 3.965236e-01
v -3.201358e-01 1.690397e-01 4.038346e-01
v -3.183103e-01 1.688256e-01 4.111212e-01
v -4.056183e-01 1.887883e-01 2.132257e-01
v -4.002338e-01 1.860778e-01 2.180368e-01
v -3.961634e-01 1.843310e-01 2.240435e-01
v -3.920866e-01 1.825819e-01 2.300623e-01
v -3.873306e-01 1.803427e-01 2.355264e-01
v -3.812099e-01 1.771210e-01 2.398931e-01
v -3.764221e-01 1.748700e-01 2.454183e-01
v -3.736690e-01 1.740881e-01 2.526145e-01
v -3.709224e-01 1.733087e-01 2.597983e-01
v -3.681820e-01 1.725315e-01 2.669698e-01
v -3.647560e-01 1.712619e-01 2.735987e-01
v -3.627204e-01 1.709843e-01 2.812761e-01
v -3.613955e-01 1.712084e-01 2.894471e-01
v -3.607913e-01 1.719380e-01 2.980931e-01
v -3.595077e-01 1.721774e-01 3.061842e-01
v -3.582431e-01 1.724239e-01 3.142385e-01
v -3.555757e-01 1.716738e-01 3.212691e-01
v -3.522005e-01 1.704230e-01 3.278000e-01
v -3.502597e-01 1.701805e-01 3.352933e-01
v -3.483318e-01 1.699428e-01 3.427622e-01
v -3.449692e-01 1.686967e-01 3.492685e-01
v -3.408798e-01 1.669430e-01 3.553120e-01
v -3.382440e-01 1.662045e-01 3.622811e-01
v -3.363478e-01 1.659786e-01 3.696887e-01
v -3.344641e-01 1.657573e-01 3.770717e-01
v -3.325931e-01 1.655406e-01 3.844301e-01
v -3.299923e-01 1.648152e-01 3.913319e-01
v -3.288894e-01 1.651216e-01 3.990735e-01
v -3.278054e-01 1.654350e-01 4.067782e-01
v -3.252362e-01 1.647213e-01 4.136188e-01
v -3.219181e-01 1.634917e-01 4.200392e-01
v -3.185998e-01 1.622620e-01 4.264597e-01
v -3.175666e-01 1.625942e-01 4.340664e-01
v -4.281020e-01 1.937722e-01 2.118047e-01
v -4.208447e-01 1.896090e-01 2.146802e-01
v -4.135493e-01 1.854317e-01 2.176291e-01
v -4.081949e-01 1.827106e-01 2.224058e-01
v -4.028215e-01 1.799824e-01 2.272193e-01
v -3.994273e-01 1.787246e-01 2.337869e-01
v -3.946946e-01 1.764795e-01 2.392219e-01
v -3.879321e-01 1.727454e-01 2.430009e-01
v -3.845156e-01 1.714793e-01 2.496115e-01
v -3.810992e-01 1.702132e-01 2.562221e-01
v -3.790465e-01 1.699438e-01 2.639162e-01
v -3.770065e-01 1.696791e-01 2.715859e-01
v -3.736028e-01 1.684177e-01 2.781719e-01
v -3.701990e-01 1.671564e-01 2.847579e-01
v -3.695734e-01 1.679070e-01 2.934130e-01
v -3.682755e-01 1.681629e-01 3.015078e-01
v -3.662957e-01 1.679205e-01 3.090610e-01
v -3.643285e-01 1.676827e-01 3.165895e-01
v -3.616668e-01 1.669421e-01 3.236009e-01
v -3.597218e-01 1.667125e-01 3.310864e-01
v -3.585032e-01 1.669978e-01 3.390281e-01
v -3.565868e-01 1.667788e-01 3.464585e-01
v -3.525234e-01 1.650274e-01 3.524599e-01
v -3.491766e-01 1.637872e-01 3.589355e-01
v -3.465560e-01 1.630616e-01 3.658670e-01
v -3.439420e-01 1.623386e-01 3.727864e-01
v -3.427994e-01 1.626520e-01 3.805808e-01
v -3.402041e-01 1.619359e-01 3.874633e-01
v -3.376154e-01 1.612222e-01 3.943336e-01
v -3.365172e-01 1.615521e-01 4.020422e-01
v -3.339473e-01 1.608454e-01 4.088756e-01
v -3.306355e-01 1.596180e-01 4.152838e-01
v -3.265721e-01 1.578666e-01 4.212852e-01
v -3.225022e-01 1.561128e-01 4.272988e-01
v -3.214578e-01 1.564627e-01 4.349031e-01
v -4.360073e-01 1.893158e-01 2.067999e-01
v -4.320268e-01 1.875878e-01 2.126486e-01
v -4.267407e-01 1.848702e-01 2.173174e-01
v -4.207827e-01 1.816508e-01 2.214328e-01
v -4.154554e-01 1.789179e-01 2.261814e-01
v -4.114274e-01 1.771724e-01 2.321222e-01
v -4.073930e-01 1.754245e-01 2.380752e-01
v -4.026867e-01 1.731747e-01 2.434751e-01
v -3.966306e-01 1.699188e-01 2.477805e-01
v -3.932363e-01 1.686610e-01 2.543482e-01
v -3.898420e-01 1.674031e-01 2.609159e-01
v -3.871260e-01 1.666495e-01 2.680245e-01
v -3.844162e-01 1.658982e-01 2.751209e-01
v -3.817126e-01 1.651492e-01 2.822048e-01
v -3.790156e-01 1.644026e-01 2.892768e-01
v -3.763248e-01 1.636583e-01 2.963363e-01
v -3.743344e-01 1.634265e-01 3.038940e-01
v -3.730538e-01 1.637105e-01 3.119313e-01
v -3.710919e-01 1.634893e-01 3.194337e-01
v -3.684391e-01 1.627591e-01 3.264196e-01
v -3.664994e-01 1.625461e-01 3.338793e-01
v -3.645725e-01 1.623377e-01 3.413142e-01
v -3.626580e-01 1.621340e-01 3.487247e-01
v -3.600402e-01 1.614168e-01 3.556432e-01
v -3.567093e-01 1.601824e-01 3.620882e-01
v -3.541009e-01 1.594687e-01 3.689883e-01
v -3.514989e-01 1.587573e-01 3.758762e-01
v -3.496321e-01 1.585713e-01 3.831947e-01
v -3.477779e-01 1.583899e-01 3.904886e-01
v -3.459364e-01 1.582132e-01 3.977580e-01
v -3.441077e-01 1.580413e-01 4.050029e-01
v -3.400670e-01 1.562911e-01 4.109682e-01
v -3.360198e-01 1.545383e-01 4.169458e-01
v -3.312185e-01 1.522533e-01 4.225296e-01
v -3.264046e-01 1.499637e-01 4.281379e-01
v -3.230864e-01 1.487340e-01 4.345584e-01
v -4.438988e-01 1.848688e-01 2.018057e-01
v -4.405679e-01 1.836344e-01 2.082507e-01
v -4.365943e-01 1.819017e-01 2.140941e-01
v -4.319684e-01 1.796672e-01 2.193545e-01
v -4.266808e-01 1.769273e-01 2.240502e-01
v -4.220265e-01 1.746822e-01 2.293658e-01
v -4.180147e-01 1.729354e-01 2.352828e-01
v -4.139967e-01 1.711863e-01 2.412121e-01
v -4.093106e-01 1.689294e-01 2.465890e-01
v -4.039470e-01 1.661614e-01 2.514318e-01
v -4.005685e-01 1.649094e-01 2.579688e-01
v -3.965189e-01 1.631486e-01 2.639595e-01
v -3.938117e-01 1.624054e-01 2.710427e-01
v -3.911109e-01 1.616648e-01 2.781138e-01
v -3.890971e-01 1.614387e-01 2.857004e-01
v -3.864122e-01 1.607039e-01 2.927409e-01
v -3.830464e-01 1.594566e-01 2.992534e-01
v -3.810611e-01 1.592412e-01 3.067847e-01
v -3.790886e-01 1.590305e-01 3.142917e-01
v -3.771289e-01 1.588245e-01 3.217742e-01
v -3.744818e-01 1.581037e-01 3.287410e-01
v -3.718413e-01 1.573853e-01 3.356956e-01
v -3.699131e-01 1.571910e-01 3.431166e-01
v -3.687069e-01 1.575245e-01 3.509860e-01
v -3.668073e-01 1.573408e-01 3.583519e-01
v -3.634891e-01 1.561111e-01 3.647724e-01
v -3.608897e-01 1.554079e-01 3.716471e-01
v -3.590185e-01 1.552348e-01 3.789579e-01
v -3.571601e-01 1.550664e-01 3.862441e-01
v -3.553143e-01 1.549026e-01 3.935058e-01
v -3.542127e-01 1.552748e-01 4.011728e-01
v -3.516609e-01 1.545893e-01 4.079555e-01
v -3.469018e-01 1.523054e-01 4.134734e-01
v -3.421302e-01 1.500168e-01 4.190159e-01
v -3.373459e-01 1.477237e-01 4.245829e-01
v -3.318015e-01 1.448886e-01 4.297753e-01
v -4.505174e-01 1.794298e-01 1.955839e-01
v -4.478161e-01 1.786961e-01 2.026480e-01
v -4.451209e-01 1.779647e-01 2.096998e-01
v -4.405153e-01 1.757232e-01 2.149372e-01
v -4.365390e-01 1.739822e-01 2.207938e-01
v -4.325565e-01 1.722390e-01 2.266626e-01
v -4.285675e-01 1.704934e-01 2.325437e-01
v -4.245723e-01 1.687455e-01 2.384371e-01
v -4.205707e-01 1.669952e-01 2.443427e-01
v -4.165627e-01 1.652425e-01 2.502605e-01
v -4.112261e-01 1.624627e-01 2.550750e-01
v -4.065347e-01 1.601894e-01 2.604781e-01
v -4.031658e-01 1.589409e-01 2.669967e-01
v -3.997969e-01 1.576925e-01 2.735153e-01
v -3.971020e-01 1.569612e-01 2.805671e-01
v -3.950902e-01 1.567504e-01 2.881337e-01
v -3.930912e-01 1.565444e-01 2.956759e-01
v -3.904215e-01 1.558225e-01 3.026788e-01
v -3.877582e-01 1.551030e-01 3.096692e-01
v -3.851011e-01 1.543856e-01 3.166475e-01
v -3.817576e-01 1.531466e-01 3.231170e-01
v -3.798061e-01 1.529582e-01 3.305672e-01
v -3.764688e-01 1.517215e-01 3.370244e-01
v -3.745366e-01 1.515402e-01 3.444378e-01
v -3.740279e-01 1.524213e-01 3.527706e-01
v -3.721271e-01 1.522516e-01 3.601226e-01
v -3.688151e-01 1.510243e-01 3.665308e-01
v -3.676486e-01 1.513942e-01 3.742996e-01
v -3.665009e-01 1.517711e-01 3.820316e-01
v -3.646509e-01 1.516203e-01 3.892856e-01
v -3.628135e-01 1.514741e-01 3.965150e-01
v -3.602611e-01 1.507956e-01 4.032909e-01
v -3.577150e-01 1.501195e-01 4.100545e-01
v -3.537070e-01 1.483668e-01 4.159723e-01
v -3.496927e-01 1.466118e-01 4.219025e-01
v -3.441913e-01 1.437709e-01 4.270359e-01
v -3.379273e-01 1.403801e-01 4.318078e-01
v -3.331314e-01 1.380680e-01 4.374132e-01
v -3.298227e-01 1.368419e-01 4.438152e-01
v -4.509238e-01 1.689277e-01 1.831071e-01
v -4.544385e-01 1.732512e-01 1.964270e-01
v -4.517333e-01 1.725234e-01 2.034904e-01
v -4.490344e-01 1.717979e-01 2.105413e-01
v -4.450716e-01 1.700547e-01 2.163803e-01
v -4.417407e-01 1.688204e-01 2.228253e-01
v -4.384098e-01 1.675860e-01 2.292703e-01
v -4.344341e-01 1.658380e-01 2.351338e-01
v -4.304520e-01 1.640877e-01 2.410095e-01
v -4.271148e-01 1.628510e-01 2.474668e-01
v -4.231234e-01 1.610972e-01 2.533609e-01
v -4.178106e-01 1.583045e-01 2.581533e-01
v -4.137999e-01 1.565435e-01 2.640842e-01
v -4.104469e-01 1.553010e-01 2.705722e-01
v -4.064270e-01 1.535366e-01 2.765216e-01
v -4.037407e-01 1.528158e-01 2.835480e-01
v -4.010610e-01 1.520975e-01 2.905623e-01
v -3.990640e-01 1.519066e-01 2.980844e-01
v -3.964002e-01 1.511942e-01 3.050680e-01
v -3.937425e-01 1.504839e-01 3.120393e-01
v -3.904053e-01 1.492472e-01 3.184965e-01
v -3.870681e-01 1.480105e-01 3.249538e-01
v -3.851156e-01 1.478363e-01 3.323902e-01
v -3.824801e-01 1.471342e-01 3.393185e-01
v -3.805497e-01 1.469681e-01 3.467119e-01
v -3.793338e-01 1.473415e-01 3.545519e-01
v -3.767270e-01 1.466501e-01 3.614251e-01
v -3.748347e-01 1.464981e-01 3.687449e-01
v -3.743776e-01 1.474273e-01 3.769456e-01
v -3.732314e-01 1.478265e-01 3.846507e-01
v -3.713867e-01 1.476922e-01 3.918786e-01
v -3.688336e-01 1.470207e-01 3.986474e-01
v -3.670110e-01 1.468946e-01 4.058323e-01
v -3.644739e-01 1.462290e-01 4.125707e-01
v -3.597521e-01 1.439300e-01 4.180489e-01
v -3.557509e-01 1.421725e-01 4.239613e-01
v -3.517436e-01 1.404129e-01 4.298862e-01
v -3.469900e-01 1.381020e-01 4.354257e-01
v -3.422238e-01 1.357865e-01 4.409898e-01
v -3.411759e-01 1.362221e-01 4.485048e-01
v -3.378989e-01 1.350077e-01 4.548455e-01
v -4.561236e-01 1.637070e-01 1.852063e-01
v -4.577374e-01 1.665602e-01 1.966525e-01
v -4.556507e-01 1.663508e-01 2.043327e-01
v -4.529481e-01 1.656311e-01 2.113829e-01
v -4.496204e-01 1.643979e-01 2.178217e-01
v -4.462926e-01 1.631647e-01 2.242606e-01
v -4.429649e-01 1.619315e-01 2.306994e-01
v -4.396372e-01 1.606984e-01 2.371383e-01
v -4.363094e-01 1.594652e-01 2.435771e-01
v -4.323345e-01 1.577102e-01 2.494476e-01
v -4.283530e-01 1.559529e-01 2.553303e-01
v -4.237115e-01 1.536690e-01 2.606690e-01
v -4.197140e-01 1.519057e-01 2.665823e-01
v -4.163704e-01 1.506667e-01 2.730519e-01
v -4.123638e-01 1.489000e-01 2.789836e-01
v -4.090170e-01 1.476598e-01 2.854593e-01
v -4.063398e-01 1.469495e-01 2.924604e-01
v -4.043417e-01 1.467729e-01 2.999687e-01
v -4.010045e-01 1.455361e-01 3.064260e-01
v -3.976673e-01 1.442995e-01 3.128832e-01
v -3.950124e-01 1.435975e-01 3.198415e-01
v -3.930491e-01 1.434338e-01 3.272823e-01
v -3.910986e-01 1.432747e-01 3.346986e-01
v -3.891608e-01 1.431204e-01 3.420904e-01
v -3.865407e-01 1.424313e-01 3.489812e-01
v -3.846250e-01 1.422852e-01 3.563301e-01
v -3.827221e-01 1.421439e-01 3.636544e-01
v -3.808317e-01 1.420072e-01 3.709542e-01
v -3.803693e-01 1.429634e-01 3.791333e-01
v -3.785108e-01 1.428384e-01 3.863719e-01
v -3.766648e-01 1.427182e-01 3.935858e-01
v -3.762657e-01 1.436978e-01 4.016422e-01
v -3.744515e-01 1.435893e-01 4.087948e-01
v -3.712030e-01 1.423855e-01 4.150804e-01
v -3.679545e-01 1.411816e-01 4.213659e-01
v -3.632464e-01 1.388732e-01 4.268335e-01
v -3.592587e-01 1.371135e-01 4.327285e-01
v -3.552646e-01 1.353515e-01 4.386357e-01
v -3.527427e-01 1.346988e-01 4.453364e-01
v -3.502271e-01 1.340485e-01 4.520247e-01
v -3.469723e-01 1.328423e-01 4.583225e-01
v -3.452151e-01 1.327549e-01 4.653648e-01
v -4.619236e-01 1.590269e-01 1.879251e-01
v -4.616621e-01 1.603758e-01 1.974965e-01
v -4.595679e-01 1.601781e-01 2.051750e-01
v -4.568616e-01 1.594643e-01 2.122244e-01
v -4.535339e-01 1.582311e-01 2.186632e-01
v -4.502062e-01 1.569979e-01 2.251021e-01
v -4.468784e-01 1.557647e-01 2.315409e-01
v -4.441881e-01 1.550570e-01 2.385598e-01
v -4.408635e-01 1.538249e-01 2.449925e-01
v -4.375391e-01 1.525929e-01 2.514252e-01
v -4.335676e-01 1.508320e-01 2.572963e-01
v -4.289400e-01 1.485388e-01 2.626245e-01
v -4.249526e-01 1.467720e-01 2.685264e-01
v -4.216154e-01 1.455353e-01 2.749836e-01
v -4.182782e-01 1.442986e-01 2.814409e-01
v -4.142784e-01 1.425272e-01 2.873673e-01
v -4.116037e-01 1.418252e-01 2.943554e-01
v -4.089356e-01 1.411256e-01 3.013313e-01
v -4.062737e-01 1.404283e-01 3.082948e-01
v -4.029428e-01 1.391940e-01 3.147398e-01
v -3.996119e-01 1.379596e-01 3.211848e-01
v -3.976444e-01 1.378088e-01 3.286179e-01
v -3.963746e-01 1.382056e-01 3.365144e-01
v -3.944355e-01 1.380654e-01 3.438924e-01
v -3.925093e-01 1.379299e-01 3.512457e-01
v -3.899013e-01 1.372526e-01 3.581051e-01
v -3.879972e-01 1.371253e-01 3.654156e-01
v -3.868065e-01 1.375515e-01 3.731587e-01
v -3.856348e-01 1.379847e-01 3.808651e-01
v -3.844820e-01 1.384250e-01 3.885347e-01
v -3.833483e-01 1.388723e-01 3.961675e-01
v -3.822338e-01 1.393267e-01 4.037635e-01
v -3.811382e-01 1.397882e-01 4.113227e-01
v -3.786220e-01 1.391449e-01 4.180042e-01
v -3.753894e-01 1.379469e-01 4.242591e-01
v -3.721567e-01 1.367490e-01 4.305140e-01
v -3.689241e-01 1.355510e-01 4.367689e-01
v -3.656915e-01 1.343531e-01 4.430238e-01
v -3.639301e-01 1.342787e-01 4.500583e-01
v -3.614425e-01 1.336460e-01 4.566846e-01
v -3.604451e-01 1.341438e-01 4.640537e-01
v -3.624471e-01 1.369098e-01 4.728717e-01
v -4.686119e-01 1.535340e-01 1.816570e-01
v -4.670899e-01 1.538592e-01 1.900172e-01
v -4.662015e-01 1.547156e-01 1.989564e-01
v -4.641029e-01 1.545307e-01 2.066270e-01
v -4.607751e-01 1.532975e-01 2.130659e-01
v -4.586957e-01 1.531197e-01 2.206997e-01
v -4.553742e-01 1.518888e-01 2.271263e-01
v -4.520529e-01 1.506580e-01 2.335529e-01
v -4.493652e-01 1.499585e-01 2.405587e-01
v -4.466837e-01 1.492612e-01 2.475521e-01
v -4.433687e-01 1.480327e-01 2.539664e-01
v -4.400537e-01 1.468042e-01 2.603808e-01
v -4.347998e-01 1.439680e-01 2.651314e-01
v -4.301763e-01 1.416618e-01 2.704672e-01
v -4.274979e-01 1.409657e-01 2.774545e-01
v -4.241703e-01 1.397325e-01 2.838933e-01
v -4.201837e-01 1.379587e-01 2.898022e-01
v -4.168528e-01 1.367244e-01 2.962472e-01
v -4.135219e-01 1.354901e-01 3.026922e-01
v -4.115279e-01 1.353439e-01 3.101605e-01
v -4.082033e-01 1.341119e-01 3.165932e-01
v -4.055535e-01 1.334263e-01 3.235252e-01
v -4.029102e-01 1.327432e-01 3.304452e-01
v -4.009542e-01 1.326111e-01 3.378398e-01
v -3.996953e-01 1.330339e-01 3.456911e-01
v -3.977679e-01 1.329123e-01 3.530305e-01
v -3.951626e-01 1.322433e-01 3.598768e-01
v -3.939512e-01 1.326836e-01 3.676360e-01
v -3.920618e-01 1.325763e-01 3.749019e-01
v -3.915854e-01 1.335853e-01 3.830439e-01
v -3.911344e-01 1.346038e-01 3.911370e-01
v -3.900023e-01 1.350735e-01 3.987428e-01
v -3.888890e-01 1.355502e-01 4.063119e-01
v -3.877950e-01 1.360340e-01 4.138442e-01
v -3.860038e-01 1.359630e-01 4.209200e-01
v -3.835062e-01 1.353339e-01 4.275578e-01
v -3.810150e-01 1.347071e-01 4.341833e-01
v -3.778046e-01 1.335174e-01 4.403952e-01
v -3.753228e-01 1.328940e-01 4.470023e-01
v -3.743110e-01 1.334084e-01 4.543752e-01
v -3.740533e-01 1.344985e-01 4.620942e-01
v -3.752973e-01 1.367379e-01 4.705175e-01
v -3.810275e-01 1.424183e-01 4.810909e-01
v -3.734324e-01 1.378253e-01 4.849566e-01
v -4.743725e-01 1.488974e-01 1.843878e-01
v -4.722412e-01 1.487149e-01 1.921059e-01
v -4.707334e-01 1.490671e-01 2.004146e-01
v -4.680164e-01 1.483639e-01 2.074685e-01
v -4.653060e-01 1.476632e-01 2.145103e-01
v -4.638425e-01 1.480318e-01 2.227331e-01
v -4.611509e-01 1.473380e-01 2.297380e-01
v -4.584659e-01 1.466467e-01 2.367306e-01
v -4.564169e-01 1.464947e-01 2.442893e-01
v -4.531146e-01 1.452709e-01 2.506791e-01
v -4.498122e-01 1.440471e-01 2.570689e-01
v -4.458704e-01 1.422827e-01 2.628987e-01
v -4.412798e-01 1.399741e-01 2.681871e-01
v -4.366765e-01 1.376610e-01 2.735001e-01
v -4.333583e-01 1.364313e-01 2.799206e-01
v -4.300401e-01 1.352016e-01 2.863410e-01
v -4.267219e-01 1.339720e-01 2.927615e-01
v -4.220868e-01 1.316470e-01 2.981357e-01
v -4.187622e-01 1.304150e-01 3.045685e-01
v -4.161024e-01 1.297329e-01 3.115120e-01
v -4.134490e-01 1.290533e-01 3.184434e-01
v -4.114729e-01 1.289283e-01 3.258609e-01
v -4.088353e-01 1.282546e-01 3.327616e-01
v -4.062040e-01 1.275831e-01 3.396500e-01
v -4.042597e-01 1.274699e-01 3.470064e-01
v -4.036955e-01 1.284755e-01 3.552862e-01
v -4.024698e-01 1.289323e-01 3.630491e-01
v -4.005729e-01 1.288366e-01 3.703134e-01
v -3.979955e-01 1.281852e-01 3.770976e-01
v -3.975137e-01 1.292212e-01 3.852179e-01
v -3.977569e-01 1.308297e-01 3.937328e-01
v -3.966262e-01 1.313217e-01 4.013118e-01
v -3.962205e-01 1.323859e-01 4.092850e-01
v -3.951311e-01 1.328932e-01 4.167842e-01
v -3.933484e-01 1.328399e-01 4.238278e-01
v -3.915784e-01 1.327913e-01 4.308469e-01
v -3.898209e-01 1.327473e-01 4.378414e-01
v -3.880762e-01 1.327081e-01 4.448113e-01
v -3.863442e-01 1.326735e-01 4.517568e-01
v -3.860811e-01 1.337908e-01 4.594542e-01
v -3.865747e-01 1.354920e-01 4.674845e-01
v -3.878344e-01 1.377807e-01 4.758294e-01
v -3.883944e-01 1.395066e-01 4.837310e-01
v -3.860231e-01 1.389315e-01 4.901165e-01
v -4.822527e-01 1.444679e-01 1.793912e-01
v -4.801108e-01 1.442960e-01 1.871138e-01
v -4.779815e-01 1.441288e-01 1.948119e-01
v -4.758649e-01 1.439663e-01 2.024855e-01
v -4.731506e-01 1.432713e-01 2.095263e-01
v -4.704428e-01 1.425787e-01 2.165551e-01
v -4.695911e-01 1.435068e-01 2.253591e-01
v -4.669054e-01 1.428225e-01 2.323448e-01
v -4.642261e-01 1.421405e-01 2.393183e-01
v -4.615529e-01 1.414607e-01 2.462793e-01
v -4.588863e-01 1.407835e-01 2.532284e-01
v -4.549608e-01 1.390179e-01 2.590344e-01
v -4.510292e-01 1.372500e-01 2.648529e-01
v -4.464524e-01 1.349320e-01 2.701306e-01
v -4.425048e-01 1.331583e-01 2.759797e-01
v -4.385509e-01 1.313821e-01 2.818411e-01
v -4.358874e-01 1.307060e-01 2.887838e-01
v -4.319272e-01 1.289275e-01 2.946574e-01
v -4.279607e-01 1.271467e-01 3.005433e-01
v -4.239878e-01 1.253635e-01 3.064415e-01
v -4.213306e-01 1.246897e-01 3.133721e-01
v -4.186797e-01 1.240182e-01 3.202902e-01
v -4.167025e-01 1.239073e-01 3.276940e-01
v -4.147381e-01 1.238013e-01 3.350733e-01
v -4.121125e-01 1.231391e-01 3.419424e-01
v -4.094934e-01 1.224795e-01 3.487994e-01
v -4.089206e-01 1.235109e-01 3.570638e-01
v -4.083733e-01 1.245517e-01 3.652792e-01
v -4.064785e-01 1.244714e-01 3.725235e-01
v -4.039069e-01 1.238293e-01 3.792885e-01
v -4.041124e-01 1.254601e-01 3.878360e-01
v -4.036537e-01 1.265337e-01 3.958797e-01
v -4.032204e-01 1.276168e-01 4.038742e-01
v -4.028124e-01 1.287093e-01 4.118198e-01
v -4.010191e-01 1.286666e-01 4.188679e-01
v -3.999470e-01 1.292020e-01 4.263095e-01
v -3.996056e-01 1.303191e-01 4.341263e-01
v -3.985747e-01 1.308699e-01 4.414883e-01
v -3.975627e-01 1.314276e-01 4.488133e-01
v -3.965699e-01 1.319925e-01 4.561017e-01
v -3.970448e-01 1.337230e-01 4.641280e-01
v -3.960963e-01 1.343042e-01 4.713304e-01
v -3.958975e-01 1.354742e-01 4.788713e-01
v -3.949902e-01 1.360707e-01 4.859940e-01
v -3.911535e-01 1.343380e-01 4.916285e-01
v -4.954358e-01 1.448817e-01 1.801474e-01
v -4.903422e-01 1.420396e-01 1.846599e-01
v -4.876180e-01 1.413483e-01 1.917123e-01
v -4.842998e-01 1.401186e-01 1.981328e-01
v -4.833951e-01 1.410560e-01 2.070071e-01
v -4.813028e-01 1.409170e-01 2.146179e-01
v -4.780036e-01 1.396943e-01 2.210016e-01
v -4.759302e-01 1.395624e-01 2.285754e-01
v -4.732534e-01 1.388885e-01 2.355357e-01
v -4.699637e-01 1.376694e-01 2.419010e-01
v -4.666741e-01 1.364503e-01 2.482663e-01
v -4.633843e-01 1.352313e-01 2.546316e-01
v -4.600947e-01 1.340121e-01 2.609968e-01
v -4.555411e-01 1.316883e-01 2.662455e-01
v -4.509750e-01 1.293599e-01 2.715187e-01
v -4.470342e-01 1.275814e-01 2.773625e-01
v -4.437287e-01 1.263564e-01 2.837584e-01
v -4.404232e-01 1.251315e-01 2.901543e-01
v -4.371176e-01 1.239065e-01 2.965502e-01
v -4.331612e-01 1.221222e-01 3.024247e-01
v -4.298525e-01 1.208960e-01 3.088267e-01
v -4.272010e-01 1.202316e-01 3.157381e-01
v -4.238955e-01 1.190066e-01 3.221340e-01
v -4.219173e-01 1.189099e-01 3.295240e-01
v -4.206184e-01 1.193831e-01 3.373800e-01
v -4.173287e-01 1.181640e-01 3.437454e-01
v -4.153854e-01 1.180802e-01 3.510679e-01
v -4.141309e-01 1.185698e-01 3.588382e-01
v -4.142544e-01 1.202064e-01 3.675044e-01
v -4.130443e-01 1.207124e-01 3.751889e-01
v -4.111675e-01 1.206533e-01 3.823826e-01
v -4.099922e-01 1.211723e-01 3.899996e-01
v -4.102203e-01 1.228476e-01 3.984634e-01
v -4.104801e-01 1.245348e-01 4.068661e-01
v -4.086762e-01 1.245027e-01 4.139187e-01
v -4.075865e-01 1.250534e-01 4.213702e-01
v -4.079256e-01 1.267698e-01 4.296194e-01
v -4.068802e-01 1.273370e-01 4.369850e-01
v -4.058540e-01 1.279112e-01 4.443139e-01
v -4.055611e-01 1.290753e-01 4.520048e-01
v -4.045760e-01 1.296647e-01 4.592539e-01
v -4.036100e-01 1.302613e-01 4.664662e-01
v -4.026630e-01 1.308648e-01 4.736417e-01
v -4.010079e-01 1.308878e-01 4.804062e-01
v -3.993655e-01 1.309156e-01 4.871460e-01
v -3.955358e-01 1.291782e-01 4.927752e-01
v -3.909633e-01 1.268474e-01 4.980606e-01
v -3.878574e-01 1.256964e-01 5.040702e-01
v -5.189900e-01 1.551415e-01 1.925906e-01
v -5.069617e-01 1.458027e-01 1.892688e-01
v -5.013305e-01 1.424142e-01 1.930730e-01
v -4.974538e-01 1.406521e-01 1.988009e-01
v -4.935707e-01 1.388877e-01 2.045413e-01
v -4.914804e-01 1.387639e-01 2.121319e-01
v -4.894027e-01 1.386449e-01 2.196981e-01
v -4.861257e-01 1.374305e-01 2.260388e-01
v -4.834580e-01 1.367673e-01 2.329739e-01
v -4.801840e-01 1.355540e-01 2.393085e-01
v -4.762947e-01 1.337873e-01 2.450610e-01
v -4.730177e-01 1.325729e-01 2.514018e-01
v -4.697407e-01 1.313585e-01 2.577426e-01
v -4.664637e-01 1.301441e-01 2.640833e-01
v -4.619303e-01 1.278133e-01 2.693091e-01
v -4.567528e-01 1.249183e-01 2.740079e-01
v -4.521909e-01 1.225769e-01 2.792889e-01
v -4.488916e-01 1.213543e-01 2.856726e-01
v -4.455925e-01 1.201317e-01 2.920562e-01
v -4.422933e-01 1.189091e-01 2.984399e-01
v -4.383468e-01 1.171212e-01 3.043028e-01
v -4.350445e-01 1.158974e-01 3.106926e-01
v -4.323957e-01 1.152412e-01 3.175909e-01
v -4.297531e-01 1.145873e-01 3.244768e-01
v -4.277769e-01 1.145058e-01 3.318467e-01
v -4.251504e-01 1.138580e-01 3.387021e-01
v -4.225301e-01 1.132123e-01 3.455451e-01
v -4.212549e-01 1.137161e-01 3.533316e-01
v -4.199988e-01 1.142268e-01 3.610810e-01
v -4.194374e-01 1.153205e-01 3.692594e-01
v -4.189014e-01 1.164236e-01 3.773885e-01
v -4.170265e-01 1.163796e-01 3.845622e-01
v -4.165350e-01 1.174992e-01 3.926056e-01
v -4.167571e-01 1.192086e-01 4.010409e-01
v -4.163193e-01 1.203481e-01 4.089801e-01
v -4.152122e-01 1.209140e-01 4.164414e-01
v -4.148220e-01 1.220711e-01 4.242886e-01
v -4.151582e-01 1.238229e-01 4.325031e-01
v -4.141175e-01 1.244135e-01 4.398357e-01
v -4.138034e-01 1.255988e-01 4.475357e-01
v -4.128040e-01 1.262047e-01 4.547885e-01
v -4.118236e-01 1.268177e-01 4.620046e-01
v -4.094284e-01 1.262554e-01 4.684122e-01
v -4.077595e-01 1.262879e-01 4.751873e-01
v -4.053801e-01 1.257315e-01 4.815644e-01
v -4.030070e-01 1.251775e-01 4.879290e-01
v -3.999107e-01 1.240301e-01 4.939202e-01
v -3.960815e-01 1.222857e-01 4.995564e-01
v -3.922460e-01 1.205389e-01 5.052046e-01
v -5.245208e-01 1.508115e-01 1.953333e-01
v -5.183908e-01 1.468764e-01 1.983693e-01
v -5.122292e-01 1.429296e-01 2.014667e-01
v -5.083942e-01 1.411757e-01 2.071218e-01
v -5.039601e-01 1.388672e-01 2.121714e-01
v -5.007053e-01 1.376611e-01 2.184692e-01
v -4.974505e-01 1.364549e-01 2.247670e-01
v -4.935934e-01 1.346929e-01 2.304653e-01
v -4.903354e-01 1.334856e-01 2.367692e-01
v -4.864688e-01 1.317200e-01 2.424858e-01
v -4.832076e-01 1.305115e-01 2.487959e-01
v -4.793314e-01 1.287423e-01 2.545308e-01
v -4.760671e-01 1.275326e-01 2.608471e-01
v -4.728028e-01 1.263229e-01 2.671632e-01
v -4.682894e-01 1.239850e-01 2.723661e-01
v -4.631359e-01 1.210772e-01 2.770429e-01
v -4.585941e-01 1.187288e-01 2.823009e-01
v -4.540396e-01 1.163756e-01 2.875835e-01
v -4.507468e-01 1.151553e-01 2.939549e-01
v -4.474539e-01 1.139351e-01 3.003263e-01
v -4.435175e-01 1.121436e-01 3.061777e-01
v -4.408682e-01 1.114946e-01 3.130691e-01
v -4.375753e-01 1.102743e-01 3.194405e-01
v -4.355885e-01 1.102034e-01 3.268149e-01
v -4.329581e-01 1.095613e-01 3.336694e-01
v -4.303341e-01 1.089215e-01 3.405116e-01
v -4.283789e-01 1.088624e-01 3.478248e-01
v -4.271021e-01 1.093872e-01 3.555903e-01
v -4.265132e-01 1.104997e-01 3.637899e-01
v -4.259496e-01 1.116215e-01 3.719405e-01
v -4.240609e-01 1.115870e-01 3.791248e-01
v -4.221851e-01 1.115572e-01 3.862846e-01
v -4.223664e-01 1.132878e-01 3.947588e-01
v -4.218946e-01 1.144437e-01 4.027316e-01
v -4.221362e-01 1.161966e-01 4.110893e-01
v -4.224094e-01 1.179612e-01 4.193857e-01
v -4.220201e-01 1.191477e-01 4.271990e-01
v -4.223536e-01 1.209346e-01 4.353789e-01
v -4.220182e-01 1.221411e-01 4.430879e-01
v -4.210044e-01 1.227634e-01 4.503444e-01
v -4.200096e-01 1.233928e-01 4.575643e-01
v -4.183239e-01 1.234335e-01 4.643561e-01
v -4.152243e-01 1.222848e-01 4.703535e-01
v -4.128412e-01 1.217344e-01 4.767296e-01
v -4.104644e-01 1.211863e-01 4.830936e-01
v -4.073712e-01 1.200400e-01 4.890787e-01
v -4.035521e-01 1.182920e-01 4.947033e-01
v -3.997267e-01 1.165417e-01 5.003402e-01
v -3.966271e-01 1.153931e-01 5.063375e-01
v -3.935276e-01 1.142445e-01 5.123349e-01
v -5.317586e-01 1.481773e-01 1.999965e-01
v -5.274048e-01 1.458840e-01 2.049067e-01
v -5.224558e-01 1.430302e-01 2.092117e-01
v -5.174876e-01 1.401693e-01 2.135536e-01
v -5.130895e-01 1.378596e-01 2.185496e-01
v -5.092710e-01 1.361045e-01 2.241811e-01
v -5.048507e-01 1.337866e-01 2.292199e-01
v -5.016149e-01 1.325875e-01 2.354809e-01
v -4.977774e-01 1.308254e-01 2.411492e-01
v -4.933286e-01 1.284970e-01 2.462433e-01
v -4.888672e-01 1.261638e-01 2.513619e-01
v -4.850042e-01 1.243923e-01 2.570792e-01
v -4.817493e-01 1.231861e-01 2.633770e-01
v -4.784945e-01 1.219799e-01 2.696748e-01
v -4.733774e-01 1.190639e-01 2.743050e-01
v -4.688653e-01 1.167119e-01 2.795216e-01
v -4.649676e-01 1.149276e-01 2.853066e-01
v -4.610635e-01 1.131409e-01 2.911037e-01
v -4.571530e-01 1.113517e-01 2.969130e-01
v -4.532363e-01 1.095604e-01 3.027347e-01
v -4.499530e-01 1.083436e-01 3.090876e-01
v -4.466696e-01 1.071269e-01 3.154407e-01
v -4.433862e-01 1.059101e-01 3.217937e-01
v -4.407521e-01 1.052739e-01 3.286474e-01
v -4.381244e-01 1.046401e-01 3.354888e-01
v -4.361586e-01 1.045914e-01 3.428064e-01
v -4.335468e-01 1.039635e-01 3.496173e-01
v -4.322651e-01 1.045084e-01 3.573682e-01
v -4.329978e-01 1.068195e-01 3.664924e-01
v -4.317636e-01 1.073819e-01 3.741513e-01
v -4.298771e-01 1.073627e-01 3.813157e-01
v -4.286779e-01 1.079380e-01 3.889071e-01
v -4.288532e-01 1.097027e-01 3.973528e-01
v -4.290603e-01 1.114791e-01 4.057371e-01
v -4.292990e-01 1.132672e-01 4.140603e-01
v -4.295695e-01 1.150671e-01 4.223220e-01
v -4.291811e-01 1.162829e-01 4.301014e-01
v -4.288181e-01 1.175081e-01 4.378317e-01
v -4.277837e-01 1.181446e-01 4.451042e-01
v -4.274682e-01 1.193874e-01 4.527426e-01
v -4.257718e-01 1.194386e-01 4.595390e-01
v -4.240881e-01 1.194946e-01 4.663110e-01
v -4.209981e-01 1.183495e-01 4.722899e-01
v -4.179080e-01 1.172044e-01 4.782688e-01
v -4.155338e-01 1.166645e-01 4.846197e-01
v -4.124470e-01 1.155206e-01 4.905925e-01
v -4.079158e-01 1.131615e-01 4.958460e-01
v -4.033719e-01 1.107978e-01 5.011240e-01
v -4.002724e-01 1.096491e-01 5.071213e-01
v -3.971728e-01 1.085005e-01 5.131187e-01
v -3.948082e-01 1.079642e-01 5.194511e-01
v -5.395241e-01 1.461729e-01 2.052910e-01
v -5.352001e-01 1.438762e-01 2.101598e-01
v -5.308633e-01 1.415747e-01 2.150531e-01
v -5.253496e-01 1.381426e-01 2.187257e-01
v -5.203958e-01 1.352653e-01 2.230639e-01
v -5.166001e-01 1.335115e-01 2.286594e-01
v -5.127978e-01 1.317553e-01 2.342673e-01
v -5.089894e-01 1.299967e-01 2.398873e-01
v -5.045767e-01 1.276671e-01 2.449278e-01
v -5.007523e-01 1.259027e-01 2.505786e-01
v -4.963173e-01 1.235648e-01 2.556619e-01
v -4.918696e-01 1.212222e-01 2.607698e-01
v -4.867985e-01 1.183014e-01 2.653348e-01
v -4.835501e-01 1.170976e-01 2.716204e-01
v -4.784506e-01 1.141663e-01 2.762407e-01
v -4.739522e-01 1.118048e-01 2.814466e-01
v -4.706878e-01 1.105951e-01 2.877629e-01
v -4.674235e-01 1.093855e-01 2.940791e-01
v -4.635295e-01 1.075953e-01 2.998648e-01
v -4.602620e-01 1.063844e-01 3.061872e-01
v -4.563584e-01 1.045906e-01 3.119911e-01
v -4.524486e-01 1.027945e-01 3.178075e-01
v -4.491747e-01 1.015813e-01 3.241421e-01
v -4.465464e-01 1.009544e-01 3.309766e-01
v -4.439245e-01 1.003301e-01 3.377989e-01
v -4.413088e-01 9.970788e-02 3.446088e-01
v -4.386996e-01 9.908816e-02 3.514066e-01
v -4.380712e-01 1.002440e-01 3.596181e-01
v -4.381298e-01 1.020016e-01 3.682499e-01
v -4.368908e-01 1.025841e-01 3.758943e-01
v -4.356708e-01 1.031736e-01 3.835016e-01
v -4.344699e-01 1.037701e-01 3.910723e-01
v -4.353103e-01 1.061647e-01 3.999403e-01
v -4.355114e-01 1.079751e-01 4.082962e-01
v -4.364245e-01 1.103967e-01 4.170232e-01
v -4.366922e-01 1.122318e-01 4.252502e-01
v -4.363048e-01 1.134769e-01 4.329957e-01
v -4.352528e-01 1.141287e-01 4.402782e-01
v -4.342198e-01 1.147874e-01 4.475238e-01
v -4.339021e-01 1.160585e-01 4.551345e-01
v -4.315115e-01 1.155197e-01 4.615091e-01
v -4.291273e-01 1.149833e-01 4.678714e-01
v -4.267493e-01 1.144493e-01 4.742215e-01
v -4.243777e-01 1.139177e-01 4.805592e-01
v -4.220125e-01 1.133884e-01 4.868848e-01
v -4.182230e-01 1.116369e-01 4.924681e-01
v -4.129904e-01 1.086562e-01 4.973459e-01
v -4.084603e-01 1.062830e-01 5.026133e-01
v -4.046424e-01 1.045210e-01 5.082517e-01
v -4.008180e-01 1.027566e-01 5.139025e-01
v -3.984496e-01 1.022261e-01 5.202341e-01
v -5.503878e-01 1.454183e-01 2.044790e-01
v -5.455308e-01 1.425550e-01 2.086539e-01
v -5.406547e-01 1.396848e-01 2.128657e-01
v -5.369101e-01 1.379426e-01 2.183701e-01
v -5.325809e-01 1.356294e-01 2.232649e-01
v -5.276573e-01 1.327415e-01 2.275687e-01
v -5.232996e-01 1.304178e-01 2.325188e-01
v -5.195170e-01 1.286616e-01 2.380967e-01
v -5.151369e-01 1.263295e-01 2.430897e-01
v -5.101500e-01 1.234181e-01 2.475161e-01
v -5.063389e-01 1.216513e-01 2.531492e-01
v -5.025215e-01 1.198823e-01 2.587946e-01
v -4.986978e-01 1.181108e-01 2.644523e-01
v -4.936537e-01 1.151783e-01 2.689892e-01
v -4.898110e-01 1.133998e-01 2.746836e-01
v -4.847353e-01 1.104556e-01 2.792818e-01
v -4.796405e-01 1.075042e-01 2.839166e-01
v -4.770054e-01 1.068821e-01 2.907566e-01
v -4.731309e-01 1.050918e-01 2.965123e-01
v -4.686242e-01 1.027129e-01 3.017506e-01
v -4.653630e-01 1.015044e-01 3.080608e-01
v -4.614695e-01 9.970705e-02 3.138532e-01
v -4.582051e-01 9.849732e-02 3.201694e-01
v -4.543022e-01 9.669662e-02 3.259805e-01
v -4.516765e-01 9.607796e-02 3.328019e-01
v -4.490572e-01 9.546176e-02 3.396112e-01
v -4.470922e-01 9.544248e-02 3.468948e-01
v -4.444888e-01 9.483215e-02 3.536735e-01
v -4.438551e-01 9.601505e-02 3.618634e-01
v -4.432469e-01 9.720742e-02 3.700044e-01
v -4.433247e-01 9.900850e-02 3.785586e-01
v -4.427702e-01 1.002208e-01 3.865952e-01
v -4.415739e-01 1.008408e-01 3.941328e-01
v -4.417374e-01 1.026736e-01 4.025214e-01
v -4.419325e-01 1.045181e-01 4.108487e-01
v -4.421593e-01 1.063744e-01 4.191147e-01
v -4.430977e-01 1.088488e-01 4.277449e-01
v -4.433911e-01 1.107297e-01 4.358821e-01
v -4.423438e-01 1.114049e-01 4.431314e-01
v -4.413155e-01 1.120872e-01 4.503440e-01
v -4.409988e-01 1.133876e-01 4.579208e-01
v -4.393160e-01 1.134728e-01 4.646588e-01
v -4.362481e-01 1.123359e-01 4.705948e-01
v -4.338824e-01 1.118136e-01 4.769134e-01
v -4.322281e-01 1.119095e-01 4.835962e-01
v -4.291697e-01 1.107762e-01 4.895139e-01
v -4.246883e-01 1.084065e-01 4.947031e-01
v -4.194795e-01 1.054130e-01 4.995588e-01
v -4.156874e-01 1.036533e-01 5.051551e-01
v -4.118891e-01 1.018912e-01 5.107637e-01
v -4.073601e-01 9.950395e-02 5.160450e-01
v -4.035459e-01 9.773607e-02 5.216842e-01
v -5.552166e-01 1.407203e-01 2.065664e-01
v -5.509424e-01 1.384130e-01 2.113710e-01
v -5.455187e-01 1.349563e-01 2.149336e-01
v -5.412127e-01 1.326372e-01 2.197995e-01
v -5.374686e-01 1.308880e-01 2.253107e-01
v -5.337183e-01 1.291365e-01 2.308342e-01
v -5.299617e-01 1.273827e-01 2.363700e-01
v -5.256146e-01 1.250484e-01 2.413156e-01
v -5.218420e-01 1.232886e-01 2.468821e-01
v -5.168821e-01 1.203655e-01 2.512803e-01
v -5.124968e-01 1.180170e-01 2.562994e-01
v -5.080990e-01 1.156639e-01 2.613430e-01
v -5.042885e-01 1.138901e-01 2.669831e-01
v -5.004716e-01 1.121139e-01 2.726354e-01
v -4.966484e-01 1.103354e-01 2.783000e-01
v -4.909902e-01 1.067918e-01 2.823164e-01
v -4.865321e-01 1.044163e-01 2.874766e-01
v -4.832931e-01 1.032160e-01 2.937437e-01
v -4.781968e-01 1.002423e-01 2.984056e-01
v -4.737039e-01 9.785398e-02 3.036332e-01
v -4.704490e-01 9.664777e-02 3.099310e-01
v -4.671942e-01 9.544161e-02 3.162288e-01
v -4.633077e-01 9.363972e-02 3.220161e-01
v -4.594148e-01 9.183534e-02 3.278157e-01
v -4.561536e-01 9.062683e-02 3.341257e-01
v -4.541749e-01 9.061692e-02 3.414201e-01
v -4.528535e-01 9.121235e-02 3.491761e-01
v -4.515509e-01 9.181473e-02 3.568952e-01
v -4.496166e-01 9.182129e-02 3.641038e-01
v -4.490029e-01 9.304061e-02 3.722231e-01
v -4.497287e-01 9.547984e-02 3.812165e-01
v -4.504926e-01 9.793310e-02 3.901362e-01
v -4.493042e-01 9.857781e-02 3.976346e-01
v -4.488014e-01 9.983822e-02 4.055392e-01
v -4.483239e-01 1.011080e-01 4.133949e-01
v -4.492177e-01 1.036095e-01 4.220632e-01
v -4.501497e-01 1.061250e-01 4.306579e-01
v -4.504403e-01 1.080412e-01 4.387604e-01
v -4.493976e-01 1.087398e-01 4.459767e-01
v -4.483739e-01 1.094456e-01 4.531562e-01
v -4.480581e-01 1.107754e-01 4.606992e-01
v -4.470757e-01 1.114964e-01 4.677990e-01
v -4.440269e-01 1.103666e-01 4.736982e-01
v -4.409780e-01 1.092367e-01 4.795974e-01
v -4.393322e-01 1.093502e-01 4.862479e-01
v -4.369943e-01 1.088455e-01 4.925044e-01
v -4.332472e-01 1.070952e-01 4.980219e-01
v -4.287828e-01 1.047174e-01 5.031943e-01
v -4.250198e-01 1.029612e-01 5.087424e-01
v -4.205331e-01 1.005752e-01 5.139577e-01
v -4.167543e-01 9.881314e-02 5.195365e-01
v -4.165875e-01 1.001981e-01 5.267912e-01
v -5.583557e-01 1.343184e-01 2.067168e-01
v -5.552087e-01 1.331521e-01 2.128061e-01
v -5.509323e-01 1.308295e-01 2.176306e-01
v -5.466432e-01 1.285021e-01 2.224797e-01
v -5.423416e-01 1.261701e-01 2.273532e-01
v -5.386014e-01 1.244151e-01 2.328654e-01
v -5.348547e-01 1.226577e-01 2.383897e-01
v -5.305213e-01 1.203140e-01 2.433245e-01
v -5.267589e-01 1.185507e-01 2.488796e-01
v -5.235770e-01 1.173716e-01 2.550363e-01
v -5.192151e-01 1.150173e-01 2.600264e-01
v -5.148406e-01 1.126583e-01 2.650410e-01
v -5.098568e-01 1.097045e-01 2.695091e-01
v -5.054538e-01 1.073349e-01 2.745789e-01
v -5.016406e-01 1.055529e-01 2.802320e-01
v -4.966095e-01 1.025816e-01 2.847920e-01
v -4.921683e-01 1.001979e-01 2.899353e-01
v -4.883266e-01 9.840529e-02 2.956437e-01
v -4.838633e-01 9.601338e-02 3.008300e-01
v -4.787687e-01 9.301857e-02 3.055126e-01
v -4.761420e-01 9.241416e-02 3.123203e-01
v -4.728967e-01 9.121151e-02 3.185996e-01
v -4.696514e-01 9.000885e-02 3.248791e-01
v -4.657748e-01 8.820326e-02 3.306549e-01
v -4.625263e-01 8.699945e-02 3.369404e-01
v -4.611904e-01 8.761129e-02 3.447001e-01
v -4.592328e-01 8.762371e-02 3.519377e-01
v -4.572880e-01 8.764093e-02 3.591508e-01
v -4.560028e-01 8.827147e-02 3.668123e-01
v -4.560371e-01 9.012898e-02 3.753708e-01
v -4.561031e-01 9.199819e-02 3.838680e-01
v -4.562007e-01 9.387911e-02 3.923038e-01
v -4.550105e-01 9.454493e-02 3.997813e-01
v -4.545024e-01 9.583240e-02 4.076645e-01
v -4.546855e-01 9.774504e-02 4.159347e-01
v -4.562389e-01 1.009033e-01 4.250037e-01
v -4.571643e-01 1.034600e-01 4.335629e-01
v -4.567765e-01 1.047920e-01 4.412130e-01
v -4.557353e-01 1.055131e-01 4.484023e-01
v -4.560770e-01 1.074845e-01 4.563660e-01
v -4.564504e-01 1.094675e-01 4.642683e-01
v -4.547908e-01 1.095905e-01 4.709295e-01
v -4.538352e-01 1.103431e-01 4.779533e-01
v -4.515095e-01 1.098503e-01 4.841783e-01
v -4.484923e-01 1.087322e-01 4.900162e-01
v -4.461761e-01 1.082428e-01 4.962228e-01
v -4.438662e-01 1.077557e-01 5.024172e-01
v -4.394409e-01 1.053779e-01 5.075299e-01
v -4.350029e-01 1.029954e-01 5.126671e-01
v -4.319794e-01 1.018749e-01 5.185173e-01
v -4.303895e-01 1.020237e-01 5.250436e-01
v -4.302521e-01 1.034485e-01 5.322092e-01
v -4.308632e-01 1.055198e-01 5.396516e-01
v -5.620569e-01 1.284863e-01 2.075127e-01
v -5.589098e-01 1.273201e-01 2.136020e-01
v -5.552018e-01 1.255698e-01 2.190597e-01
v -5.509233e-01 1.232318e-01 2.239042e-01
v -5.466323e-01 1.208893e-01 2.287732e-01
v -5.428989e-01 1.191295e-01 2.342800e-01
v -5.391593e-01 1.173675e-01 2.397990e-01
v -5.354132e-01 1.156031e-01 2.453303e-01
v -5.316608e-01 1.138363e-01 2.508738e-01
v -5.284853e-01 1.126595e-01 2.570184e-01
v -5.247234e-01 1.108893e-01 2.625804e-01
v -5.209553e-01 1.091166e-01 2.681545e-01
v -5.165881e-01 1.067458e-01 2.731707e-01
v -5.116125e-01 1.037734e-01 2.776473e-01
v -5.072168e-01 1.013920e-01 2.827187e-01
v -5.028085e-01 9.900601e-02 2.878146e-01
v -4.977822e-01 9.601471e-02 2.923893e-01
v -4.939537e-01 9.421977e-02 2.980801e-01
v -4.895073e-01 9.181961e-02 3.032495e-01
v -4.856630e-01 9.001878e-02 3.089709e-01
v -4.824304e-01 8.882083e-02 3.152258e-01
v -4.798190e-01 8.822929e-02 3.219958e-01
v -4.759651e-01 8.642494e-02 3.277356e-01
v -4.727325e-01 8.522697e-02 3.339905e-01
v -4.701305e-01 8.463895e-02 3.407421e-01
v -4.675349e-01 8.405331e-02 3.474815e-01
v -4.649455e-01 8.346992e-02 3.542085e-01
v -4.630027e-01 8.350230e-02 3.614015e-01
v -4.630025e-01 8.538334e-02 3.699868e-01
v -4.630339e-01 8.727602e-02 3.785105e-01
v -4.630971e-01 8.918045e-02 3.869730e-01
v -4.618863e-01 8.986033e-02 3.944665e-01
v -4.600386e-01 8.992797e-02 4.014757e-01
v -4.601810e-01 9.186176e-02 4.097848e-01
v -4.616797e-01 9.505063e-02 4.189034e-01
v -4.632228e-01 9.825592e-02 4.279362e-01
v -4.628043e-01 9.960561e-02 4.356137e-01
v -4.624111e-01 1.009648e-01 4.432421e-01
v -4.620433e-01 1.023333e-01 4.508216e-01
v -4.630572e-01 1.049662e-01 4.591614e-01
v -4.627464e-01 1.063559e-01 4.666304e-01
v -4.624610e-01 1.077549e-01 4.740504e-01
v -4.622009e-01 1.091634e-01 4.814213e-01
v -4.612754e-01 1.099491e-01 4.883630e-01
v -4.582868e-01 1.088415e-01 4.941457e-01
v -4.552982e-01 1.077340e-01 4.999284e-01
v -4.530099e-01 1.072622e-01 5.060729e-01
v -4.500245e-01 1.061559e-01 5.118495e-01
v -4.463324e-01 1.044115e-01 5.172765e-01
v -4.447635e-01 1.045824e-01 5.237460e-01
v -4.432073e-01 1.047582e-01 5.301910e-01
v -4.416637e-01 1.049385e-01 5.366115e-01
v -4.394135e-01 1.044809e-01 5.426823e-01
v -4.386148e-01 1.053135e-01 5.493788e-01
v -5.657579e-01 1.226543e-01 2.083085e-01
v -5.620568e-01 1.208993e-01 2.137609e-01
v -5.583494e-01 1.191419e-01 2.192256e-01
v -5.551960e-01 1.179733e-01 2.253272e-01
v -5.520426e-01 1.168048e-01 2.314287e-01
v -5.477558e-01 1.144492e-01 2.363055e-01
v -5.440262e-01 1.126837e-01 2.418130e-01
v -5.408633e-01 1.115116e-01 2.479330e-01
v -5.377004e-01 1.103394e-01 2.540530e-01
v -5.339580e-01 1.085691e-01 2.595851e-01
v -5.296269e-01 1.061972e-01 2.645477e-01
v -5.264545e-01 1.050215e-01 2.706860e-01
v -5.226931e-01 1.032442e-01 2.762549e-01
v -5.183334e-01 1.008617e-01 2.812728e-01
v -5.139610e-01 9.847448e-02 2.863151e-01
v -5.101744e-01 9.668774e-02 2.919331e-01
v -5.063815e-01 9.489874e-02 2.975633e-01
v -5.019774e-01 9.249975e-02 3.026669e-01
v -4.969527e-01 8.948732e-02 3.072624e-01
v -4.937423e-01 8.829761e-02 3.134743e-01
v -4.905319e-01 8.710789e-02 3.196863e-01
v -4.867040e-01 8.530585e-02 3.253840e-01
v -4.822492e-01 8.288807e-02 3.305857e-01
v -4.784055e-01 8.108023e-02 3.363141e-01
v -4.758093e-01 8.050157e-02 3.430465e-01
v -4.732193e-01 7.992524e-02 3.497666e-01
v -4.706359e-01 7.935134e-02 3.564744e-01
v -4.693314e-01 8.001835e-02 3.641251e-01
v -4.699649e-01 8.255387e-02 3.731531e-01
v -4.706363e-01 8.510341e-02 3.821074e-01
v -4.700539e-01 8.642139e-02 3.900699e-01
v -4.681987e-01 8.650084e-02 3.970775e-01
v -4.663561e-01 8.658493e-02 4.040604e-01
v -4.671480e-01 8.917915e-02 4.127817e-01
v -4.686365e-01 9.241495e-02 4.218641e-01
v -4.688458e-01 9.440985e-02 4.300037e-01
v -4.690868e-01 9.641646e-02 4.380820e-01
v -4.700277e-01 9.906587e-02 4.465151e-01
v -4.696640e-01 1.004649e-01 4.540545e-01
v -4.700001e-01 1.025068e-01 4.619487e-01
v -4.696903e-01 1.039258e-01 4.693839e-01
v -4.694057e-01 1.053542e-01 4.767700e-01
v -4.691466e-01 1.067920e-01 4.841071e-01
v -4.675387e-01 1.069630e-01 4.906363e-01
v -4.666336e-01 1.077780e-01 4.975142e-01
v -4.643606e-01 1.073191e-01 5.036212e-01
v -4.620940e-01 1.068627e-01 5.097158e-01
v -4.591339e-01 1.057657e-01 5.154433e-01
v -4.568768e-01 1.053127e-01 5.215196e-01
v -4.553322e-01 1.055073e-01 5.279262e-01
v -4.538002e-01 1.057065e-01 5.343082e-01
v -4.515684e-01 1.052628e-01 5.403354e-01
v -4.493430e-01 1.048216e-01 5.463503e-01
v -4.492804e-01 1.063322e-01 5.533072e-01
v -5.689120e-01 1.162288e-01 2.084621e-01
v -5.652114e-01 1.144667e-01 2.139213e-01
v -5.620580e-01 1.132981e-01 2.200230e-01
v -5.594612e-01 1.127265e-01 2.267485e-01
v -5.568708e-01 1.121573e-01 2.334616e-01
v -5.531607e-01 1.103917e-01 2.389394e-01
v -5.494443e-01 1.086237e-01 2.444293e-01
v -5.462910e-01 1.074551e-01 2.505309e-01
v -5.431375e-01 1.062866e-01 2.566325e-01
v -5.394084e-01 1.045139e-01 2.621469e-01
v -5.356731e-01 1.027390e-01 2.676737e-01
v -5.319313e-01 1.009617e-01 2.732128e-01
v -5.281833e-01 9.918200e-02 2.787641e-01
v -5.244289e-01 9.739998e-02 2.843277e-01
v -5.212597e-01 9.622554e-02 2.904599e-01
v -5.180904e-01 9.505106e-02 2.965922e-01
v -5.137254e-01 9.265203e-02 3.016360e-01
v -5.087469e-01 8.963500e-02 3.061665e-01
v -5.049575e-01 8.784001e-02 3.117975e-01
v -5.011620e-01 8.604273e-02 3.174408e-01
v -4.979705e-01 8.486003e-02 3.236159e-01
v -4.947791e-01 8.367736e-02 3.297911e-01
v -4.897372e-01 8.063682e-02 3.344442e-01
v -4.852961e-01 7.820958e-02 3.396353e-01
v -4.814657e-01 7.639944e-02 3.453460e-01
v -4.795079e-01 7.645530e-02 3.525360e-01
v -4.781924e-01 7.714000e-02 3.601842e-01
v -4.775285e-01 7.845679e-02 3.682723e-01
v -4.775259e-01 8.040937e-02 3.767820e-01
v -4.775549e-01 8.237375e-02 3.852303e-01
v -4.769735e-01 8.372108e-02 3.931589e-01
v -4.751266e-01 8.381814e-02 4.001342e-01
v -4.739410e-01 8.455090e-02 4.075310e-01
v -4.747295e-01 8.718741e-02 4.162107e-01
v -4.762110e-01 9.047136e-02 4.252506e-01
v -4.764207e-01 9.250263e-02 4.333493e-01
v -4.766621e-01 9.454568e-02 4.413868e-01
v -4.775996e-01 9.723738e-02 4.497783e-01
v -4.779075e-01 9.930508e-02 4.576870e-01
v -4.782472e-01 1.013845e-01 4.655343e-01
v -4.779446e-01 1.028352e-01 4.729234e-01
v -4.776675e-01 1.042954e-01 4.802634e-01
v -4.767353e-01 1.051221e-01 4.871696e-01
v -4.744555e-01 1.046680e-01 4.932818e-01
v -4.728685e-01 1.048613e-01 4.997542e-01
v -4.712943e-01 1.050593e-01 5.062021e-01
v -4.697326e-01 1.052620e-01 5.126255e-01
v -4.674876e-01 1.048208e-01 5.186703e-01
v -4.652490e-01 1.043819e-01 5.247028e-01
v -4.637192e-01 1.045964e-01 5.310649e-01
v -4.622019e-01 1.048156e-01 5.374023e-01
v -4.606974e-01 1.050395e-01 5.437154e-01
v -4.584936e-01 1.046135e-01 5.496805e-01
v -5.720733e-01 1.097915e-01 2.086172e-01
v -5.689200e-01 1.086229e-01 2.147188e-01
v -5.663163e-01 1.080560e-01 2.214497e-01
v -5.631660e-01 1.068886e-01 2.275451e-01
v -5.605719e-01 1.063253e-01 2.342574e-01
v -5.574248e-01 1.051590e-01 2.403468e-01
v -5.542778e-01 1.039928e-01 2.464361e-01
v -5.516962e-01 1.034341e-01 2.531240e-01
v -5.485523e-01 1.022690e-01 2.592072e-01
v -5.454084e-01 1.011039e-01 2.652903e-01
v -5.422645e-01 9.993885e-02 2.713736e-01
v -5.379641e-01 9.754933e-02 2.763087e-01
v -5.342324e-01 9.576845e-02 2.818363e-01
v -5.310790e-01 9.459984e-02 2.879379e-01
v -5.273378e-01 9.281549e-02 2.934838e-01
v -5.247722e-01 9.226265e-02 3.001410e-01
v -5.204306e-01 8.985786e-02 3.051558e-01
v -5.160763e-01 8.744832e-02 3.101953e-01
v -5.123098e-01 8.565455e-02 3.157904e-01
v -5.091406e-01 8.448009e-02 3.219226e-01
v -5.047577e-01 8.205989e-02 3.270172e-01
v -5.015821e-01 8.088308e-02 3.331616e-01
v -4.977934e-01 7.908117e-02 3.387996e-01
v -4.939983e-01 7.727681e-02 3.444499e-01
v -4.901970e-01 7.547017e-02 3.501123e-01
v -4.876345e-01 7.491849e-02 3.567634e-01
v -4.869558e-01 7.625887e-02 3.648483e-01
v -4.856733e-01 7.697750e-02 3.724082e-01
v -4.844100e-01 7.770325e-02 3.799314e-01
v -4.844363e-01 7.970285e-02 3.883451e-01
v -4.844943e-01 8.171418e-02 3.966974e-01
v -4.833006e-01 8.246570e-02 4.040856e-01
v -4.821260e-01 8.322430e-02 4.114370e-01
v -4.829143e-01 8.590429e-02 4.200691e-01
v -4.837407e-01 8.859833e-02 4.286275e-01
v -4.832965e-01 9.002560e-02 4.362586e-01
v -4.841926e-01 9.274547e-02 4.446821e-01
v -4.851267e-01 9.547943e-02 4.530320e-01
v -4.854351e-01 9.758354e-02 4.608998e-01
v -4.857751e-01 9.969936e-02 4.687064e-01
v -4.854766e-01 1.011807e-01 4.760554e-01
v -4.852035e-01 1.026713e-01 4.833554e-01
v -4.836028e-01 1.028741e-01 4.898385e-01
v -4.820147e-01 1.030815e-01 4.962970e-01
v -4.797565e-01 1.026426e-01 5.023594e-01
v -4.775046e-01 1.022060e-01 5.084096e-01
v -4.759483e-01 1.024253e-01 5.148068e-01
v -4.737121e-01 1.019946e-01 5.208263e-01
v -4.721780e-01 1.022220e-01 5.271806e-01
v -4.706565e-01 1.024541e-01 5.335103e-01
v -4.705514e-01 1.040070e-01 5.404853e-01
v -4.697666e-01 1.049101e-01 5.470825e-01
v -4.661680e-01 1.031785e-01 5.523525e-01
v -5.757819e-01 1.039478e-01 2.094147e-01
v -5.731714e-01 1.033856e-01 2.161508e-01
v -5.705671e-01 1.028257e-01 2.228747e-01
v -5.674200e-01 1.016595e-01 2.289640e-01
v -5.642730e-01 1.004933e-01 2.350533e-01
v -5.616814e-01 9.993806e-02 2.417527e-01
v -5.596549e-01 9.999749e-02 2.490435e-01
v -5.565173e-01 9.883480e-02 2.551145e-01
v -5.539447e-01 9.828669e-02 2.617770e-01
v -5.519467e-01 9.835669e-02 2.690127e-01
v -5.482473e-01 9.658058e-02 2.744859e-01
v -5.445416e-01 9.480208e-02 2.799714e-01
v -5.414072e-01 9.364052e-02 2.860362e-01
v -5.376919e-01 9.185847e-02 2.915401e-01
v -5.345543e-01 9.069578e-02 2.976109e-01
v -5.308295e-01 8.891022e-02 3.031332e-01
v -5.270984e-01 8.712233e-02 3.086676e-01
v -5.233610e-01 8.533211e-02 3.142145e-01
v -5.196172e-01 8.353953e-02 3.197736e-01
v -5.158671e-01 8.174456e-02 3.253448e-01
v -5.121106e-01 7.994726e-02 3.309283e-01
v -5.083479e-01 7.814764e-02 3.365242e-01
v -5.051881e-01 7.697668e-02 3.426380e-01
v -5.020283e-01 7.580576e-02 3.487519e-01
v -4.988686e-01 7.463482e-02 3.548657e-01
v -4.957088e-01 7.346390e-02 3.609796e-01
v -4.944153e-01 7.420022e-02 3.685371e-01
v -4.937660e-01 7.558046e-02 3.765330e-01
v -4.925136e-01 7.633201e-02 3.840108e-01
v -4.919119e-01 7.772990e-02 3.919146e-01
v -4.919702e-01 7.977764e-02 4.002262e-01
v -4.914223e-01 8.119553e-02 4.080259e-01
v -4.908999e-01 8.262279e-02 4.157764e-01
v -4.910469e-01 8.470338e-02 4.239162e-01
v -4.912256e-01 8.679574e-02 4.319947e-01
v -4.907856e-01 8.825352e-02 4.395858e-01
v -4.916783e-01 9.101568e-02 4.479677e-01
v -4.926091e-01 9.379194e-02 4.562760e-01
v -4.922577e-01 9.528263e-02 4.636954e-01
v -4.925950e-01 9.743371e-02 4.714673e-01
v -4.929639e-01 9.959656e-02 4.791778e-01
v -4.920253e-01 1.004644e-01 4.860486e-01
v -4.897602e-01 1.000302e-01 4.921163e-01
v -4.881773e-01 1.002541e-01 4.985488e-01
v -4.866072e-01 1.004827e-01 5.049566e-01
v -4.843674e-01 1.000579e-01 5.109753e-01
v -4.821340e-01 9.963544e-02 5.169817e-01
v -4.799069e-01 9.921536e-02 5.229758e-01
v -4.783779e-01 9.945914e-02 5.293039e-01
v -4.782515e-01 1.010332e-01 5.362879e-01
v -4.774524e-01 1.019528e-01 5.428889e-01
v -4.675554e-01 9.423291e-02 5.451900e-01
v -4.737977e-01 1.018141e-01 5.550150e-01
v -5.774153e-01 9.815997e-02 2.175811e-01
v -5.742682e-01 9.699372e-02 2.236705e-01
v -5.716665e-01 9.644202e-02 2.303813e-01
v -5.690713e-01 9.589277e-02 2.370797e-01
v -5.664823e-01 9.534581e-02 2.437661e-01
v -5.644546e-01 9.541940e-02 2.510431e-01
v -5.624397e-01 9.549761e-02 2.582957e-01
v -5.598761e-01 9.496007e-02 2.649329e-01
v -5.578833e-01 9.504652e-02 2.721425e-01
v -5.553356e-01 9.451488e-02 2.787491e-01
v -5.510818e-01 9.211357e-02 2.836260e-01
v -5.479632e-01 9.095791e-02 2.896602e-01
v -5.448447e-01 8.980224e-02 2.956944e-01
v -5.423064e-01 8.927405e-02 3.022825e-01
v -5.380241e-01 8.686218e-02 3.072147e-01
v -5.331424e-01 8.381570e-02 3.116297e-01
v -5.300112e-01 8.265535e-02 3.176884e-01
v -5.262870e-01 8.086274e-02 3.232176e-01
v -5.219602e-01 7.843441e-02 3.282356e-01
v -5.182202e-01 7.663590e-02 3.337955e-01
v -5.150763e-01 7.547085e-02 3.398786e-01
v -5.119324e-01 7.430577e-02 3.459619e-01
v -5.081797e-01 7.250265e-02 3.515463e-01
v -5.056446e-01 7.197564e-02 3.581282e-01
v -5.037311e-01 7.209149e-02 3.651845e-01
v -5.024485e-01 7.285364e-02 3.726967e-01
v -5.018065e-01 7.426560e-02 3.806465e-01
v -5.005651e-01 7.504306e-02 3.880790e-01
v -4.999707e-01 7.647263e-02 3.959368e-01
v -5.000325e-01 7.855795e-02 4.042013e-01
v -4.994920e-01 8.000751e-02 4.119548e-01
v -4.983393e-01 8.081785e-02 4.192156e-01
v -4.984868e-01 8.293489e-02 4.273146e-01
v -4.986660e-01 8.506361e-02 4.353523e-01
v -4.988768e-01 8.720414e-02 4.433287e-01
v -4.991194e-01 8.935641e-02 4.512437e-01
v -4.993936e-01 9.152043e-02 4.590975e-01
v -4.996995e-01 9.369621e-02 4.668899e-01
v -5.000372e-01 9.588373e-02 4.746209e-01
v -4.997437e-01 9.742484e-02 4.818961e-01
v -4.981439e-01 9.765694e-02 4.883454e-01
v -4.965568e-01 9.789376e-02 4.947700e-01
v -4.943101e-01 9.747369e-02 5.007940e-01
v -4.927451e-01 9.771868e-02 5.071757e-01
v -4.911929e-01 9.796841e-02 5.135330e-01
v -4.889716e-01 9.755778e-02 5.195080e-01
v -4.860717e-01 9.648310e-02 5.251189e-01
v -4.845479e-01 9.674336e-02 5.314209e-01
v -4.844194e-01 9.834560e-02 5.383772e-01
v -4.836217e-01 9.928746e-02 5.449513e-01
v -4.702868e-01 8.815865e-02 5.456002e-01
v -5.805810e-01 9.170984e-02 2.177441e-01
v -5.779694e-01 9.116168e-02 2.244663e-01
v -5.759056e-01 9.123636e-02 2.317969e-01
v -5.738547e-01 9.131584e-02 2.391031e-01
v -5.718164e-01 9.139991e-02 2.463847e-01
v -5.703421e-01 9.211275e-02 2.542440e-01
v -5.688867e-01 9.283264e-02 2.620666e-01
v -5.663352e-01 9.230682e-02 2.686724e-01
v -5.637900e-01 9.178336e-02 2.752658e-01
v -5.606874e-01 9.063356e-02 2.812693e-01
v -5.587188e-01 9.074353e-02 2.884159e-01
v -5.561927e-01 9.022712e-02 2.949727e-01
v -5.525261e-01 8.844861e-02 3.003984e-01
v -5.494297e-01 8.730119e-02 3.063896e-01
v -5.457536e-01 8.551914e-02 3.118338e-01
v -5.409054e-01 8.246328e-02 3.162082e-01
v -5.372102e-01 8.067422e-02 3.216891e-01
v -5.340980e-01 7.952091e-02 3.277110e-01
v -5.292085e-01 7.644974e-02 3.321652e-01
v -5.260868e-01 7.529290e-02 3.382054e-01
v -5.229651e-01 7.413607e-02 3.442457e-01
v -5.192414e-01 7.233640e-02 3.497819e-01
v -5.167216e-01 7.182238e-02 3.563263e-01
v -5.148164e-01 7.195580e-02 3.633503e-01
v -5.129240e-01 7.209396e-02 3.703498e-01
v -5.116588e-01 7.288427e-02 3.778045e-01
v -5.104126e-01 7.368172e-02 3.852223e-01
v -5.091854e-01 7.448610e-02 3.926034e-01
v -5.086014e-01 7.594860e-02 4.004088e-01
v -5.086700e-01 7.807267e-02 4.086203e-01
v -5.075094e-01 7.890177e-02 4.158726e-01
v -5.063678e-01 7.973795e-02 4.230881e-01
v -5.065188e-01 8.189255e-02 4.311402e-01
v -5.067015e-01 8.405892e-02 4.391309e-01
v -5.069158e-01 8.623701e-02 4.470603e-01
v -5.071619e-01 8.842685e-02 4.549285e-01
v -5.074397e-01 9.062845e-02 4.627352e-01
v -5.077492e-01 9.284179e-02 4.704807e-01
v -5.074345e-01 9.440410e-02 4.777649e-01
v -5.064863e-01 9.531193e-02 4.846064e-01
v -5.048949e-01 9.556159e-02 4.910233e-01
v -5.026508e-01 9.514974e-02 4.970342e-01
v -5.010816e-01 9.540772e-02 5.034083e-01
v -4.988533e-01 9.500167e-02 5.093885e-01
v -4.966315e-01 9.459802e-02 5.153564e-01
v -4.937380e-01 9.352574e-02 5.209552e-01
v -4.915256e-01 9.312562e-02 5.269048e-01
v -4.900040e-01 9.340120e-02 5.331868e-01
v -4.884949e-01 9.368142e-02 5.394444e-01
v -4.876892e-01 9.464204e-02 5.460098e-01
v -5.822052e-01 8.595481e-02 2.258882e-01
v -5.801373e-01 8.604247e-02 2.332111e-01
v -5.791644e-01 8.738983e-02 2.417370e-01
v -5.782168e-01 8.874667e-02 2.502138e-01
v -5.772946e-01 9.011285e-02 2.586415e-01
v -5.758471e-01 9.085741e-02 2.664249e-01
v -5.733109e-01 9.034450e-02 2.729930e-01
v -5.707811e-01 8.983398e-02 2.795489e-01
v -5.682575e-01 8.932581e-02 2.860926e-01
v -5.668671e-01 9.009149e-02 2.937655e-01
v -5.643626e-01 8.959035e-02 3.002724e-01
v -5.607250e-01 8.781537e-02 3.056498e-01
v -5.570812e-01 8.603808e-02 3.110396e-01
v -5.534310e-01 8.425836e-02 3.164415e-01
v -5.480369e-01 8.055151e-02 3.202354e-01
v -5.443645e-01 7.876357e-02 3.256803e-01
v -5.424423e-01 7.890522e-02 3.327211e-01
v -5.387668e-01 7.711621e-02 3.381722e-01
v -5.344930e-01 7.467845e-02 3.431198e-01
v -5.308016e-01 7.288349e-02 3.486016e-01
v -5.271038e-01 7.108619e-02 3.540956e-01
v -5.252039e-01 7.123611e-02 3.610935e-01
v -5.239212e-01 7.204168e-02 3.685580e-01
v -5.220498e-01 7.220217e-02 3.755007e-01
v -5.201911e-01 7.236737e-02 3.824189e-01
v -5.189590e-01 7.319169e-02 3.897852e-01
v -5.177460e-01 7.402315e-02 3.971149e-01
v -5.165521e-01 7.486167e-02 4.044077e-01
v -5.166242e-01 7.702336e-02 4.125722e-01
v -5.154746e-01 7.787825e-02 4.197791e-01
v -5.143440e-01 7.874019e-02 4.269493e-01
v -5.144985e-01 8.093243e-02 4.349544e-01
v -5.146848e-01 8.313637e-02 4.428982e-01
v -5.142633e-01 8.468812e-02 4.503571e-01
v -5.145098e-01 8.691439e-02 4.581845e-01
v -5.147879e-01 8.915239e-02 4.659504e-01
v -5.150978e-01 9.140214e-02 4.736551e-01
v -5.141352e-01 9.232638e-02 4.805002e-01
v -5.131916e-01 9.325771e-02 4.873085e-01
v -5.109501e-01 9.285399e-02 4.933064e-01
v -5.093766e-01 9.312485e-02 4.996727e-01
v -5.064863e-01 9.205375e-02 5.052653e-01
v -5.042639e-01 9.165711e-02 5.112263e-01
v -5.013766e-01 9.058720e-02 5.168128e-01
v -4.984894e-01 8.951726e-02 5.223993e-01
v -4.962797e-01 8.912541e-02 5.283358e-01
v -4.947568e-01 8.941503e-02 5.346040e-01
v -4.925630e-01 8.902899e-02 5.405098e-01
v -4.903754e-01 8.864535e-02 5.464035e-01
v -5.906824e-01 8.580814e-02 2.323099e-01
v -5.886356e-01 8.591810e-02 2.395761e-01
v -5.876764e-01 8.729959e-02 2.480435e-01
v -5.878235e-01 8.995959e-02 2.576756e-01
v -5.863775e-01 9.072647e-02 2.654320e-01
v -5.849505e-01 9.150035e-02 2.731517e-01
v -5.824423e-01 9.100510e-02 2.796577e-01
v -5.799404e-01 9.051218e-02 2.861514e-01
v -5.774449e-01 9.002159e-02 2.926330e-01
v -5.749557e-01 8.953343e-02 2.991022e-01
v -5.719100e-01 8.840478e-02 3.049953e-01
v -5.688644e-01 8.727612e-02 3.108884e-01
v -5.646804e-01 8.485715e-02 3.156782e-01
v -5.610562e-01 8.307980e-02 3.210381e-01
v -5.568501e-01 8.065269e-02 3.258709e-01
v -5.526313e-01 7.822076e-02 3.307282e-01
v -5.495635e-01 7.708390e-02 3.366643e-01
v -5.459106e-01 7.529598e-02 3.420793e-01
v -5.422515e-01 7.350576e-02 3.475066e-01
v -5.391773e-01 7.236657e-02 3.534549e-01
v -5.355087e-01 7.057272e-02 3.589006e-01
v -5.330289e-01 7.008808e-02 3.653515e-01
v -5.311564e-01 7.026263e-02 3.722803e-01
v -5.299005e-01 7.109993e-02 3.796688e-01
v -5.286637e-01 7.194428e-02 3.870205e-01
v -5.274458e-01 7.279571e-02 3.943354e-01
v -5.262471e-01 7.365416e-02 4.016136e-01
v -5.250672e-01 7.451968e-02 4.088548e-01
v -5.245263e-01 7.605614e-02 4.165129e-01
v -5.233876e-01 7.693693e-02 4.236745e-01
v -5.235204e-01 7.915734e-02 4.316818e-01
v -5.236848e-01 8.138948e-02 4.396277e-01
v -5.232484e-01 8.296474e-02 4.470833e-01
v -5.222017e-01 8.387960e-02 4.540671e-01
v -5.230906e-01 8.681439e-02 4.622642e-01
v -5.233755e-01 8.909115e-02 4.699771e-01
v -5.224017e-01 9.003307e-02 4.768198e-01
v -5.220953e-01 9.165637e-02 4.840240e-01
v -5.198596e-01 9.126215e-02 4.900028e-01
v -5.182849e-01 9.154709e-02 4.963552e-01
v -5.160652e-01 9.115875e-02 5.023031e-01
v -5.131906e-01 9.009348e-02 5.078651e-01
v -5.096519e-01 8.834786e-02 5.130594e-01
v -5.061068e-01 8.659991e-02 5.182659e-01
v -5.032260e-01 8.553232e-02 5.238401e-01
v -5.003451e-01 8.446473e-02 5.294144e-01
v -4.981412e-01 8.408222e-02 5.353317e-01
v -4.959435e-01 8.370206e-02 5.412368e-01
v -4.930690e-01 8.263682e-02 5.467987e-01
v -6.038389e-01 9.149952e-02 2.443369e-01
v -6.007805e-01 9.036619e-02 2.502546e-01
v -5.993234e-01 9.115067e-02 2.580086e-01
v -5.978852e-01 9.194219e-02 2.657259e-01
v -5.953859e-01 9.145750e-02 2.722066e-01
v -5.928930e-01 9.097520e-02 2.786751e-01
v -5.904064e-01 9.049518e-02 2.851312e-01
v -5.884757e-01 9.066264e-02 2.921565e-01
v -5.848995e-01 8.889591e-02 2.974314e-01
v -5.813170e-01 8.712682e-02 3.027184e-01
v -5.782872e-01 8.600404e-02 3.085809e-01
v -5.752574e-01 8.488127e-02 3.144433e-01
v -5.710967e-01 8.245643e-02 3.192041e-01
v -5.674920e-01 8.067910e-02 3.245341e-01
v -5.644527e-01 7.955280e-02 3.304149e-01
v -5.614133e-01 7.842646e-02 3.362957e-01
v -5.572179e-01 7.598877e-02 3.411241e-01
v -5.530097e-01 7.354626e-02 3.459768e-01
v -5.499577e-01 7.241526e-02 3.518822e-01
v -5.474933e-01 7.194351e-02 3.582954e-01
v -5.444446e-01 7.081368e-02 3.641946e-01
v -5.413957e-01 6.968385e-02 3.700939e-01
v -5.395411e-01 6.987954e-02 3.769721e-01
v -5.376991e-01 7.007995e-02 3.838257e-01
v -5.364733e-01 7.095012e-02 3.911320e-01
v -5.352664e-01 7.182741e-02 3.984017e-01
v -5.346883e-01 7.337915e-02 4.060994e-01
v -5.341356e-01 7.494031e-02 4.137480e-01
v -5.336083e-01 7.651085e-02 4.213477e-01
v -5.331063e-01 7.809080e-02 4.288983e-01
v -5.320073e-01 7.900802e-02 4.359594e-01
v -5.315528e-01 8.060562e-02 4.434179e-01
v -5.304949e-01 8.153803e-02 4.503993e-01
v -5.300880e-01 8.315321e-02 4.577659e-01
v -5.309767e-01 8.613151e-02 4.659153e-01
v -5.299885e-01 8.708979e-02 4.727617e-01
v -5.290194e-01 8.805513e-02 4.795713e-01
v -5.287139e-01 8.970794e-02 4.867417e-01
v -5.264903e-01 8.932537e-02 4.926889e-01
v -5.242731e-01 8.894522e-02 4.986238e-01
v -5.220622e-01 8.856743e-02 5.045465e-01
v -5.192004e-01 8.750687e-02 5.100839e-01
v -5.156781e-01 8.576009e-02 5.152545e-01
v -5.121494e-01 8.401091e-02 5.204373e-01
v -5.092812e-01 8.294804e-02 5.259870e-01
v -5.057431e-01 8.119542e-02 5.311882e-01
v -5.021986e-01 7.944039e-02 5.364017e-01
v -4.993241e-01 7.837515e-02 5.419637e-01
v -4.964496e-01 7.730988e-02 5.475256e-01
v -6.112259e-01 9.307027e-02 2.590551e-01
v -6.103287e-01 9.453273e-02 2.673382e-01
v -6.073242e-01 9.341936e-02 2.731516e-01
v -6.048561e-01 9.295348e-02 2.795641e-01
v -6.013153e-01 9.119257e-02 2.847783e-01
v -5.983109e-01 9.007915e-02 2.905917e-01
v -5.958523e-01 8.961686e-02 2.969858e-01
v -5.917529e-01 8.720019e-02 3.016440e-01
v -5.881932e-01 8.543227e-02 3.068950e-01
v -5.846270e-01 8.366202e-02 3.121584e-01
v -5.816131e-01 8.254510e-02 3.179902e-01
v -5.785991e-01 8.142818e-02 3.238220e-01
v -5.744554e-01 7.899512e-02 3.285660e-01
v -5.714352e-01 7.787586e-02 3.344100e-01
v -5.689861e-01 7.741705e-02 3.407856e-01
v -5.653946e-01 7.563732e-02 3.460981e-01
v -5.612192e-01 7.319254e-02 3.509033e-01
v -5.581926e-01 7.207094e-02 3.567597e-01
v -5.551660e-01 7.094931e-02 3.626159e-01
v -5.521393e-01 6.982769e-02 3.684722e-01
v -5.502931e-01 7.004101e-02 3.753182e-01
v -5.484594e-01 7.025904e-02 3.821396e-01
v -5.466386e-01 7.048171e-02 3.889365e-01
v -5.448304e-01 7.070918e-02 3.957089e-01
v -5.442406e-01 7.228560e-02 4.033973e-01
v -5.442822e-01 7.454476e-02 4.115008e-01
v -5.431371e-01 7.546662e-02 4.186269e-01
v -5.420109e-01 7.639556e-02 4.257162e-01
v -5.409039e-01 7.733159e-02 4.327688e-01
v -5.398158e-01 7.827456e-02 4.397845e-01
v -5.393686e-01 7.990383e-02 4.471969e-01
v -5.389468e-01 8.154253e-02 4.545603e-01
v -5.385503e-01 8.319059e-02 4.618747e-01
v -5.381792e-01 8.484807e-02 4.691400e-01
v -5.371989e-01 8.583102e-02 4.759472e-01
v -5.355998e-01 8.613592e-02 4.823148e-01
v -5.340135e-01 8.644557e-02 4.886579e-01
v -5.324398e-01 8.675991e-02 4.949765e-01
v -5.308787e-01 8.707887e-02 5.012705e-01
v -5.280296e-01 8.602302e-02 5.067834e-01
v -5.251804e-01 8.496720e-02 5.122963e-01
v -5.210178e-01 8.252716e-02 5.170772e-01
v -5.175024e-01 8.077560e-02 5.222424e-01
v -5.146437e-01 7.971628e-02 5.277737e-01
v -5.111187e-01 7.796125e-02 5.329573e-01
v -5.069180e-01 7.550704e-02 5.378117e-01
v -5.027047e-01 7.304819e-02 5.426906e-01
v -6.226204e-01 9.722669e-02 2.690680e-01
v -6.201771e-01 9.677730e-02 2.754244e-01
v -6.166812e-01 9.502578e-02 2.805598e-01
v -6.126465e-01 9.261858e-02 2.851091e-01
v -6.096706e-01 9.151575e-02 2.908674e-01
v -6.061557e-01 8.975721e-02 2.960396e-01
v -6.020923e-01 8.733943e-02 3.006441e-01
v -5.985617e-01 8.557506e-02 3.058470e-01
v -5.950247e-01 8.380828e-02 3.110620e-01
v -5.909296e-01 8.137871e-02 3.157279e-01
v -5.879315e-01 8.026766e-02 3.215291e-01
v -5.854913e-01 7.981944e-02 3.278794e-01
v -5.824964e-01 7.870954e-02 3.336743e-01
v -5.789372e-01 7.693456e-02 3.389323e-01
v -5.765065e-01 7.648983e-02 3.452643e-01
v -5.735116e-01 7.537995e-02 3.510593e-01
v -5.693691e-01 7.293284e-02 3.558172e-01
v -5.663677e-01 7.182061e-02 3.616244e-01
v -5.633665e-01 7.070842e-02 3.674316e-01
v -5.615317e-01 7.094051e-02 3.742392e-01
v -5.597097e-01 7.117730e-02 3.810222e-01
v -5.584901e-01 7.209329e-02 3.882685e-01
v -5.566966e-01 7.234075e-02 3.949964e-01
v -5.549158e-01 7.259278e-02 4.016996e-01
v -5.537468e-01 7.352755e-02 4.088479e-01
v -5.531991e-01 7.514864e-02 4.164228e-01
v -5.520713e-01 7.609870e-02 4.234912e-01
v -5.509625e-01 7.705580e-02 4.305230e-01
v -5.492610e-01 7.733726e-02 4.370730e-01
v -5.475721e-01 7.762342e-02 4.435985e-01
v -5.471322e-01 7.928445e-02 4.509648e-01
v -5.467177e-01 8.095477e-02 4.582820e-01
v -5.469529e-01 8.332202e-02 4.659707e-01
v -5.459646e-01 8.432372e-02 4.727694e-01
v -5.449953e-01 8.533254e-02 4.795313e-01
v -5.434110e-01 8.565744e-02 4.858544e-01
v -5.412022e-01 8.529493e-02 4.917571e-01
v -5.396400e-01 8.562802e-02 4.980372e-01
v -5.374471e-01 8.527129e-02 5.039093e-01
v -5.346137e-01 8.422134e-02 5.093915e-01
v -5.311306e-01 8.247459e-02 5.145023e-01
v -5.269881e-01 8.002748e-02 5.192602e-01
v -5.234890e-01 7.827479e-02 5.244018e-01
v -5.206431e-01 7.722008e-02 5.299085e-01
v -5.164719e-01 7.476239e-02 5.347215e-01
v -5.116226e-01 7.159726e-02 5.392184e-01
v -5.060853e-01 6.772125e-02 5.434175e-01
v -6.276709e-01 9.369078e-02 2.716666e-01
v -6.262784e-01 9.456449e-02 2.792232e-01
v -6.228021e-01 9.281298e-02 2.843287e-01
v -6.187906e-01 9.039995e-02 2.888491e-01
v -6.152985e-01 8.864256e-02 2.939853e-01
v -6.118000e-01 8.688282e-02 2.991337e-01
v -6.077569e-01 8.445804e-02 3.037154e-01
v -6.042426e-01 8.269243e-02 3.088945e-01
v -6.012667e-01 8.158961e-02 3.146526e-01
v -5.977429e-01 7.982049e-02 3.198501e-01
v -5.947637e-01 7.871646e-02 3.256145e-01
v -5.928931e-01 7.894982e-02 3.324756e-01
v -5.893629e-01 7.717832e-02 3.376854e-01
v -5.863870e-01 7.607549e-02 3.434435e-01
v -5.839748e-01 7.564488e-02 3.497318e-01
v -5.804351e-01 7.386988e-02 3.549599e-01
v -5.774592e-01 7.276705e-02 3.607181e-01
v -5.756297e-01 7.301559e-02 3.674995e-01
v -5.726601e-01 7.191511e-02 3.732454e-01
v -5.708497e-01 7.217073e-02 3.799900e-01
v -5.690519e-01 7.243103e-02 3.867102e-01
v -5.678527e-01 7.337642e-02 3.938928e-01
v -5.660835e-01 7.364725e-02 4.005576e-01
v -5.637347e-01 7.324010e-02 4.067232e-01
v -5.619876e-01 7.351918e-02 4.133452e-01
v -5.614504e-01 7.517315e-02 4.208678e-01
v -5.603368e-01 7.615023e-02 4.278848e-01
v -5.592422e-01 7.713441e-02 4.348651e-01
v -5.575585e-01 7.743697e-02 4.413644e-01
v -5.558875e-01 7.774419e-02 4.478392e-01
v -5.554581e-01 7.943811e-02 4.551532e-01
v -5.550539e-01 8.114139e-02 4.624182e-01
v -5.546752e-01 8.285403e-02 4.696342e-01
v -5.536979e-01 8.388165e-02 4.763876e-01
v -5.521125e-01 8.422061e-02 4.826968e-01
v -5.499094e-01 8.386751e-02 4.885803e-01
v -5.477127e-01 8.351674e-02 4.944515e-01
v -5.467956e-01 8.456661e-02 5.010883e-01
v -5.446179e-01 8.422284e-02 5.069228e-01
v -5.411607e-01 8.247842e-02 5.119915e-01
v -5.370509e-01 8.002892e-02 5.167019e-01
v -5.329285e-01 7.757472e-02 5.214368e-01
v -5.287935e-01 7.511581e-02 5.261963e-01
v -5.259569e-01 7.406467e-02 5.316847e-01
v -5.211441e-01 7.089138e-02 5.361349e-01
v -5.096925e-01 6.062526e-02 5.372228e-01
v -5.114612e-01 6.452354e-02 5.451457e-01
v -6.307860e-01 9.042219e-02 2.811872e-01
v -6.283637e-01 8.999502e-02 2.874869e-01
v -6.243724e-01 8.757490e-02 2.919842e-01
v -6.208966e-01 8.581634e-02 2.970967e-01
v -6.168832e-01 8.338799e-02 3.016371e-01
v -6.128569e-01 8.095493e-02 3.062019e-01
v -6.093558e-01 7.918698e-02 3.113634e-01
v -6.063894e-01 7.808770e-02 3.171032e-01
v -6.034230e-01 7.698839e-02 3.228430e-01
v -6.015512e-01 7.723581e-02 3.296903e-01
v -5.996921e-01 7.748785e-02 3.365130e-01
v -5.967384e-01 7.639327e-02 3.422282e-01
v -5.932278e-01 7.462183e-02 3.474082e-01
v -5.908308e-01 7.420406e-02 3.536587e-01
v -5.884403e-01 7.378866e-02 3.598971e-01
v -5.854897e-01 7.269526e-02 3.656062e-01
v -5.831086e-01 7.228340e-02 3.718262e-01
v -5.807339e-01 7.187392e-02 3.780338e-01
v -5.783655e-01 7.146669e-02 3.842292e-01
v -5.771615e-01 7.243203e-02 3.913972e-01
v -5.759765e-01 7.340445e-02 3.985284e-01
v -5.736398e-01 7.300901e-02 4.046625e-01
v -5.718980e-01 7.330457e-02 4.112583e-01
v -5.707605e-01 7.429460e-02 4.182975e-01
v -5.696420e-01 7.529163e-02 4.252999e-01
v -5.685426e-01 7.629576e-02 4.322655e-01
v -5.674621e-01 7.730686e-02 4.391943e-01
v -5.651920e-01 7.693618e-02 4.451996e-01
v -5.635357e-01 7.726339e-02 4.516299e-01
v -5.637243e-01 7.968579e-02 4.593289e-01
v -5.627167e-01 8.072398e-02 4.661167e-01
v -5.617282e-01 8.176917e-02 4.728677e-01
v -5.601385e-01 8.212108e-02 4.791691e-01
v -5.579381e-01 8.177614e-02 4.850395e-01
v -5.563705e-01 8.213628e-02 4.912981e-01
v -5.554454e-01 8.320498e-02 4.979264e-01
v -5.539064e-01 8.357571e-02 5.041299e-01
v -5.511079e-01 8.253866e-02 5.095446e-01
v -5.476703e-01 8.079420e-02 5.145835e-01
v -5.429415e-01 7.763026e-02 5.188951e-01
v -5.388392e-01 7.516901e-02 5.236070e-01
v -5.360217e-01 7.412491e-02 5.290586e-01
v -5.319004e-01 7.165660e-02 5.338075e-01
v -5.264563e-01 6.775709e-02 5.378903e-01
v -5.223033e-01 6.527711e-02 5.427005e-01
v -6.323408e-01 8.521457e-02 2.888327e-01
v -6.294029e-01 8.412584e-02 2.945172e-01
v -6.259404e-01 8.236494e-02 2.996121e-01
v -6.219439e-01 7.992837e-02 3.041356e-01
v -6.179346e-01 7.748709e-02 3.086836e-01
v -6.149808e-01 7.639249e-02 3.143989e-01
v -6.125644e-01 7.597476e-02 3.206794e-01
v -6.096138e-01 7.488133e-02 3.263885e-01
v -6.072068e-01 7.446711e-02 3.326506e-01
v -6.053529e-01 7.473564e-02 3.394471e-01
v -6.024118e-01 7.364573e-02 3.451379e-01
v -6.000239e-01 7.323858e-02 3.513632e-01
v -5.981986e-01 7.351767e-02 3.581046e-01
v -5.958264e-01 7.311639e-02 3.642992e-01
v -5.934606e-01 7.271746e-02 3.704815e-01
v -5.905354e-01 7.163343e-02 3.761416e-01
v -5.887481e-01 7.192660e-02 3.828094e-01
v -5.869735e-01 7.222449e-02 3.894527e-01
v -5.852114e-01 7.252704e-02 3.960714e-01
v -5.834622e-01 7.283438e-02 4.026657e-01
v -5.817255e-01 7.314629e-02 4.092354e-01
v -5.800016e-01 7.346297e-02 4.157805e-01
v -5.782903e-01 7.378434e-02 4.223012e-01
v -5.765917e-01 7.411042e-02 4.287973e-01
v -5.749058e-01 7.444116e-02 4.352689e-01
v -5.744276e-01 7.617505e-02 4.426134e-01
v -5.727733e-01 7.651752e-02 4.490236e-01
v -5.711318e-01 7.686479e-02 4.554094e-01
v -5.707169e-01 7.862206e-02 4.626311e-01
v -5.697172e-01 7.968489e-02 4.693797e-01
v -5.681232e-01 8.004970e-02 4.756735e-01
v -5.665419e-01 8.041922e-02 4.819427e-01
v -5.649732e-01 8.079348e-02 4.881874e-01
v -5.634173e-01 8.117242e-02 4.944076e-01
v -5.625000e-01 8.226572e-02 5.009967e-01
v -5.603433e-01 8.194433e-02 5.067744e-01
v -5.575608e-01 8.091315e-02 5.121585e-01
v -5.547781e-01 7.988198e-02 5.175426e-01
v -5.507181e-01 7.742186e-02 5.221887e-01
v -5.466456e-01 7.495716e-02 5.268594e-01
v -5.432052e-01 7.320448e-02 5.319114e-01
v -5.313322e-01 6.211593e-02 5.324182e-01
v -5.317463e-01 6.465812e-02 5.396409e-01
v -6.368250e-01 8.112155e-02 2.907780e-01
v -6.333757e-01 7.935830e-02 2.958552e-01
v -6.304409e-01 7.827074e-02 3.015337e-01
v -6.264581e-01 7.582475e-02 3.060465e-01
v -6.235171e-01 7.473489e-02 3.117372e-01
v -6.205760e-01 7.364496e-02 3.174280e-01
v -6.181685e-01 7.323783e-02 3.236831e-01
v -6.157673e-01 7.283300e-02 3.299260e-01
v -6.128326e-01 7.174542e-02 3.356045e-01
v -6.104409e-01 7.134415e-02 3.418289e-01
v -6.086017e-01 7.163265e-02 3.485810e-01
v -6.062259e-01 7.123725e-02 3.547747e-01
v -6.044089e-01 7.153397e-02 3.614840e-01
v -6.026046e-01 7.183534e-02 3.681686e-01
v -6.008130e-01 7.214147e-02 3.748286e-01
v -5.984720e-01 7.175900e-02 3.809550e-01
v -5.967026e-01 7.207330e-02 3.875721e-01
v -5.949459e-01 7.239232e-02 3.941647e-01
v -5.932017e-01 7.271603e-02 4.007329e-01
v -5.914704e-01 7.304445e-02 4.072764e-01
v -5.897517e-01 7.337753e-02 4.137955e-01
v -5.874645e-01 7.301503e-02 4.198176e-01
v -5.851838e-01 7.265480e-02 4.258274e-01
v -5.840841e-01 7.370240e-02 4.327453e-01
v -5.824130e-01 7.405314e-02 4.391724e-01
v -5.813482e-01 7.511362e-02 4.460228e-01
v -5.797056e-01 7.547494e-02 4.523946e-01
v -5.774755e-01 7.513358e-02 4.583064e-01
v -5.770615e-01 7.692019e-02 4.654943e-01
v -5.766729e-01 7.871627e-02 4.726332e-01
v -5.757001e-01 7.981082e-02 4.793058e-01
v -5.741335e-01 8.020030e-02 4.855305e-01
v -5.725795e-01 8.059448e-02 4.917306e-01
v -5.710383e-01 8.099341e-02 4.979063e-01
v -5.695098e-01 8.139702e-02 5.040574e-01
v -5.673684e-01 8.108846e-02 5.097974e-01
v -5.646048e-01 8.006434e-02 5.151447e-01
v -5.618413e-01 7.904020e-02 5.204920e-01
v -5.584427e-01 7.729583e-02 5.254712e-01
v -5.550379e-01 7.554900e-02 5.304626e-01
v -5.490615e-01 7.090912e-02 5.340426e-01
v -5.436979e-01 6.698146e-02 5.380338e-01
v -6.407834e-01 7.637048e-02 2.921198e-01
v -6.373411e-01 7.460253e-02 2.971916e-01
v -6.344095e-01 7.351614e-02 3.028639e-01
v -6.314779e-01 7.242976e-02 3.085363e-01
v -6.285464e-01 7.134339e-02 3.142086e-01
v -6.261414e-01 7.094447e-02 3.204507e-01
v -6.237428e-01 7.054786e-02 3.266804e-01
v -6.208176e-01 6.946383e-02 3.323406e-01
v -6.184285e-01 6.907076e-02 3.385519e-01
v -6.160458e-01 6.868004e-02 3.447510e-01
v -6.142119e-01 6.898499e-02 3.514770e-01
v -6.118450e-01 6.860013e-02 3.576454e-01
v -6.105820e-01 6.960898e-02 3.648553e-01
v -6.087861e-01 6.992797e-02 3.715076e-01
v -6.070029e-01 7.025167e-02 3.781354e-01
v -6.046740e-01 6.988090e-02 3.842303e-01
v -6.029130e-01 7.021286e-02 3.908152e-01
v -6.011646e-01 7.054954e-02 3.973756e-01
v -5.999968e-01 7.159354e-02 4.044014e-01
v -5.982770e-01 7.194081e-02 4.109067e-01
v -5.965698e-01 7.229265e-02 4.173873e-01
v -5.942980e-01 7.194306e-02 4.233718e-01
v -5.920325e-01 7.159584e-02 4.293440e-01
v -5.903570e-01 7.195946e-02 4.357633e-01
v -5.886942e-01 7.232784e-02 4.421581e-01
v -5.864542e-01 7.198997e-02 4.480814e-01
v -5.848135e-01 7.236652e-02 4.544332e-01
v -5.837819e-01 7.346111e-02 4.611954e-01
v -5.839685e-01 7.599159e-02 4.687781e-01
v -5.835839e-01 7.781819e-02 4.758770e-01
v -5.832248e-01 7.965419e-02 4.829269e-01
v -5.816729e-01 8.006364e-02 4.891070e-01
v -5.795216e-01 7.975863e-02 4.948585e-01
v -5.779919e-01 8.017634e-02 5.009957e-01
v -5.758564e-01 7.987722e-02 5.067166e-01
v -5.731054e-01 7.885782e-02 5.120394e-01
v -5.709794e-01 7.856217e-02 5.177417e-01
v -5.688596e-01 7.826894e-02 5.234319e-01
v -5.610653e-01 7.144238e-02 5.258035e-01
v -6.412989e-01 6.985849e-02 2.985264e-01
v -6.383706e-01 6.877326e-02 3.041927e-01
v -6.359587e-01 6.837898e-02 3.104400e-01
v -6.330334e-01 6.729497e-02 3.161001e-01
v -6.306311e-01 6.690426e-02 3.223291e-01
v -6.282352e-01 6.651590e-02 3.285458e-01
v -6.258455e-01 6.612990e-02 3.347503e-01
v -6.239946e-01 6.644301e-02 3.414930e-01
v -6.216209e-01 6.606286e-02 3.476667e-01
v -6.192534e-01 6.568506e-02 3.538283e-01
v -6.174342e-01 6.600995e-02 3.605097e-01
v -6.161728e-01 6.704110e-02 3.676926e-01
v -6.143821e-01 6.737657e-02 3.743188e-01
v -6.126041e-01 6.771673e-02 3.809205e-01
v -6.108388e-01 6.806158e-02 3.874977e-01
v -6.090862e-01 6.841114e-02 3.940503e-01
v -6.079071e-01 6.947282e-02 4.010738e-01
v -6.056189e-01 6.912435e-02 4.070820e-01
v -6.039043e-01 6.948806e-02 4.135611e-01
v -6.022023e-01 6.985638e-02 4.200155e-01
v -6.005131e-01 7.022946e-02 4.264455e-01
v -5.976830e-01 6.918069e-02 4.319217e-01
v -5.954327e-01 6.884633e-02 4.378564e-01
v -5.937720e-01 6.922994e-02 4.442311e-01
v -5.915376e-01 6.890145e-02 4.501351e-01
v -5.904886e-01 7.001127e-02 4.569071e-01
v -5.900512e-01 7.184732e-02 4.640764e-01
v -5.908306e-01 7.513331e-02 4.720523e-01
v -5.910492e-01 7.771199e-02 4.795329e-01
v -5.906973e-01 7.957968e-02 4.865366e-01
v -5.885549e-01 7.928527e-02 4.922628e-01
v -5.864188e-01 7.899319e-02 4.979767e-01
v -5.842890e-01 7.870352e-02 5.036783e-01
v -5.821656e-01 7.841613e-02 5.093676e-01
v -5.794305e-01 7.740257e-02 5.146598e-01
v -5.766954e-01 7.638900e-02 5.199519e-01
v -6.437299e-01 6.304272e-02 2.980816e-01
v -6.418144e-01 6.334648e-02 3.049332e-01
v -6.393988e-01 6.295807e-02 3.111798e-01
v -6.369897e-01 6.257210e-02 3.174140e-01
v -6.345868e-01 6.218841e-02 3.236362e-01
v -6.321903e-01 6.180714e-02 3.298459e-01
v -6.303256e-01 6.212966e-02 3.365993e-01
v -6.284736e-01 6.245691e-02 3.433282e-01
v -6.266342e-01 6.278882e-02 3.500325e-01
v -6.248076e-01 6.312547e-02 3.567123e-01
v -6.229937e-01 6.346683e-02 3.633676e-01
v -6.211923e-01 6.381287e-02 3.699983e-01
v -6.199482e-01 6.487215e-02 3.771236e-01
v -6.181755e-01 6.522877e-02 3.836992e-01
v -6.164154e-01 6.559015e-02 3.902503e-01
v -6.152220e-01 6.666823e-02 3.972773e-01
v -6.140476e-01 6.775338e-02 4.042678e-01
v -6.123319e-01 6.813114e-02 4.107330e-01
v -6.100653e-01 6.779801e-02 4.166913e-01
v -6.083718e-01 6.818397e-02 4.231136e-01
v -6.055511e-01 6.713869e-02 4.285713e-01
v -6.027305e-01 6.609341e-02 4.340289e-01
v -6.004860e-01 6.576843e-02 4.399444e-01
v -5.982480e-01 6.544584e-02 4.458476e-01
v -5.965988e-01 6.584823e-02 4.521840e-01
v -5.967195e-01 6.842690e-02 4.598140e-01
v -5.974608e-01 7.174230e-02 4.678158e-01
v -5.982402e-01 7.507183e-02 4.757440e-01
v -5.984623e-01 7.768808e-02 4.831777e-01
v -5.981177e-01 7.958752e-02 4.901353e-01
v -5.953921e-01 7.857747e-02 4.954090e-01
v -5.932713e-01 7.829834e-02 5.010853e-01
v -5.838618e-01 6.923672e-02 5.019922e-01
v -5.890487e-01 7.774705e-02 5.124010e-01
v -5.851042e-01 7.527174e-02 5.168881e-01
v -6.447525e-01 5.721814e-02 3.050879e-01
v -6.428391e-01 5.753720e-02 3.119195e-01
v -6.409385e-01 5.786095e-02 3.187265e-01
v -6.390505e-01 5.818938e-02 3.255089e-01
v -6.366565e-01 5.781628e-02 3.317056e-01
v -6.347907e-01 5.815292e-02 3.384451e-01
v -6.334625e-01 5.920281e-02 3.457090e-01
v -6.321535e-01 6.025983e-02 3.529362e-01
v -6.298006e-01 5.990196e-02 3.590532e-01
v -6.285233e-01 6.097071e-02 3.662190e-01
v -6.272648e-01 6.204645e-02 3.733480e-01
v -6.254846e-01 6.241480e-02 3.799221e-01
v -6.231730e-01 6.207225e-02 3.859593e-01
v -6.214150e-01 6.244883e-02 3.924903e-01
v -6.202199e-01 6.354808e-02 3.994967e-01
v -6.195974e-01 6.537349e-02 4.069600e-01
v -6.184435e-01 6.648801e-02 4.138867e-01
v -6.167488e-01 6.688813e-02 4.202951e-01
v -6.145039e-01 6.657022e-02 4.262036e-01
v -6.116991e-01 6.553080e-02 4.316306e-01
v -6.088943e-01 6.449140e-02 4.370576e-01
v -6.060895e-01 6.345201e-02 4.424847e-01
v -6.032847e-01 6.241259e-02 4.479117e-01
v -6.022165e-01 6.355885e-02 4.546728e-01
v -6.029132e-01 6.690127e-02 4.627128e-01
v -6.036480e-01 7.025781e-02 4.706791e-01
v -6.044208e-01 7.362841e-02 4.785719e-01
v -6.046402e-01 7.627992e-02 4.859709e-01
v -6.031071e-01 7.673984e-02 4.920665e-01
v -6.009889e-01 7.646888e-02 4.977298e-01
v -5.982761e-01 7.546354e-02 5.029790e-01
v -5.961674e-01 7.519619e-02 5.086238e-01
v -6.462793e-01 5.211632e-02 3.126593e-01
v -6.443712e-01 5.245177e-02 3.194646e-01
v -6.429875e-01 5.350285e-02 3.268119e-01
v -6.411079e-01 5.384891e-02 3.335621e-01
v -6.397590e-01 5.491297e-02 3.408420e-01
v -6.389504e-01 5.669846e-02 3.486333e-01
v -6.376428e-01 5.777779e-02 3.558335e-01
v -6.358265e-01 5.814727e-02 3.624611e-01
v -6.340231e-01 5.852149e-02 3.690640e-01
v -6.327661e-01 5.961957e-02 3.761661e-01
v -6.309911e-01 6.000444e-02 3.827140e-01
v -6.286885e-01 5.967243e-02 3.887259e-01
v -6.263923e-01 5.934273e-02 3.947256e-01
v -6.257421e-01 6.118700e-02 4.022102e-01
v -6.251173e-01 6.304067e-02 4.096459e-01
v -6.239650e-01 6.417746e-02 4.165456e-01
v -6.222756e-01 6.459404e-02 4.229279e-01
v -6.200395e-01 6.428666e-02 4.288110e-01
v -6.172474e-01 6.325196e-02 4.342135e-01
v -6.144553e-01 6.221724e-02 4.396161e-01
v -6.116631e-01 6.118252e-02 4.450186e-01
v -6.088711e-01 6.014782e-02 4.504211e-01
v -6.078043e-01 6.131643e-02 4.571553e-01
v -6.079131e-01 6.396318e-02 4.647281e-01
v -6.080536e-01 6.662174e-02 4.722396e-01
v -6.088103e-01 7.002988e-02 4.801153e-01
v -6.084296e-01 7.197397e-02 4.870787e-01
v -6.460555e-01 5.062308e-02 3.359750e-01
v -6.452193e-01 5.242735e-02 3.437876e-01
v -6.444084e-01 5.424107e-02 3.515511e-01
v -6.436230e-01 5.606419e-02 3.592656e-01
v -6.423390e-01 5.717402e-02 3.663960e-01
v -6.405471e-01 5.756703e-02 3.729605e-01
v -6.382375e-01 5.723976e-02 3.789778e-01
v -6.359344e-01 5.691478e-02 3.849829e-01
v -6.336376e-01 5.659220e-02 3.909756e-01
v -6.318868e-01 5.700048e-02 3.974605e-01
v -6.306916e-01 5.814316e-02 4.044191e-01
v -6.306075e-01 6.075476e-02 4.123253e-01
v -6.300058e-01 6.264594e-02 4.196841e-01
v -6.283247e-01 6.308008e-02 4.260341e-01
v -6.261008e-01 6.278447e-02 4.318858e-01
v -6.227659e-01 6.102008e-02 4.367900e-01
v -6.194246e-01 5.925335e-02 4.417066e-01
v -6.166420e-01 5.822218e-02 4.470907e-01
v -6.144275e-01 5.793006e-02 4.529239e-01
v -6.127909e-01 5.838067e-02 4.591881e-01
v -6.128906e-01 6.106028e-02 4.667386e-01
v -6.124442e-01 6.300907e-02 4.737969e-01
v -6.120232e-01 6.496722e-02 4.808061e-01
v -6.509807e-01 4.743245e-02 3.383831e-01
v -6.511604e-01 5.071382e-02 3.472794e-01
v -6.508642e-01 5.328304e-02 3.555556e-01
v -6.500828e-01 5.513671e-02 3.632300e-01
v -6.482866e-01 5.554265e-02 3.697869e-01
v -6.459798e-01 5.522361e-02 3.757911e-01
v -6.436792e-01 5.490684e-02 3.817831e-01
v -6.408554e-01 5.386039e-02 3.872470e-01
v -6.385644e-01 5.354722e-02 3.932205e-01
v -6.368157e-01 5.397076e-02 3.996854e-01
v -6.361579e-01 5.587024e-02 4.071207e-01
v -6.366101e-01 5.925260e-02 4.154897e-01
v -6.360093e-01 6.117322e-02 4.228146e-01
v -6.343367e-01 6.162493e-02 4.291323e-01
v -6.315731e-01 6.060082e-02 4.344796e-01
v -6.288095e-01 5.957669e-02 4.398269e-01
v -6.254878e-01 5.780992e-02 4.447136e-01
v -6.221597e-01 5.604083e-02 4.496126e-01
v -6.193898e-01 5.501436e-02 4.549721e-01
v -6.177551e-01 5.548016e-02 4.612162e-01
v -6.172749e-01 5.744540e-02 4.683082e-01
v -6.162459e-01 5.867147e-02 4.749210e-01
v -6.567652e-01 5.166346e-02 3.590048e-01
v -6.559848e-01 5.354648e-02 3.666453e-01
v -6.547133e-01 5.470451e-02 3.737034e-01
v -6.519022e-01 5.366277e-02 3.791427e-01
v -6.485684e-01 5.188418e-02 3.840608e-01
v -6.457540e-01 5.084126e-02 3.895063e-01
v -6.434688e-01 5.053751e-02 3.954606e-01
v -6.417221e-01 5.097629e-02 4.019055e-01
v -6.415943e-01 5.364424e-02 4.098158e-01
v -6.420368e-01 5.706659e-02 4.181555e-01
v -6.419756e-01 5.975915e-02 4.259371e-01
v -6.403114e-01 6.022851e-02 4.322225e-01
v -6.381117e-01 5.995642e-02 4.380113e-01
v -6.348158e-01 5.819199e-02 4.428558e-01
v -6.304049e-01 5.492818e-02 4.467928e-01
v -6.265324e-01 5.240703e-02 4.512205e-01
v -6.237688e-01 5.138290e-02 4.565677e-01
v -6.221331e-01 5.186281e-02 4.627980e-01
v -6.205101e-01 5.234750e-02 4.690038e-01
v -6.572715e-01 5.141917e-02 3.819597e-01
v -6.506302e-01 4.785739e-02 3.917607e-01
v -6.488762e-01 4.830800e-02 3.982040e-01
v -6.471347e-01 4.876325e-02 4.046228e-01
v -6.464693e-01 5.071791e-02 4.120087e-01
v -6.468990e-01 5.417895e-02 4.203251e-01
v -6.473666e-01 5.765412e-02 4.285680e-01
v -6.419193e-01 5.288393e-02 4.314850e-01
v -6.440612e-01 5.863047e-02 4.410620e-01
v -6.402374e-01 5.611283e-02 4.454115e-01
v -6.358503e-01 5.283610e-02 4.493264e-01
v -6.270189e-01 4.626158e-02 4.572666e-01
v -6.253758e-01 4.675322e-02 4.634953e-01
